Node ID,Lat,Lon,Is Intersection,Type
152376398,30.2646036,-97.7355179,True,0
152381257,30.2658861,-97.7350382,False,1
152393479,30.2677774,-97.7491475,False,3
152393481,30.2687130,-97.7487976,False,1
152393482,30.2696465,-97.7484483,True,1
152393483,30.2705879,-97.7480961,True,3
152393485,30.2715035,-97.7477607,False,3
152398214,30.2699140,-97.7421173,True,1
152398217,30.2702821,-97.7434367,True,1
152398219,30.2705892,-97.7445371,True,1
152398222,30.2708838,-97.7455930,True,1
152398227,30.2711995,-97.7466696,True,3
152401898,30.2680720,-97.7428064,True,1
152401899,30.2676977,-97.7414650,True,1
152401901,30.2674008,-97.7404009,True,1
152401905,30.2670970,-97.7393190,True,1
152401909,30.2667989,-97.7382670,True,1
152401912,30.2664902,-97.7371915,True,1
152401915,30.2662064,-97.7361517,True,0
152401919,30.2661206,-97.7358740,True,0
152401921,30.2660559,-97.7356436,True,0
152414760,30.2630222,-97.7432140,False,1
152442412,30.2643198,-97.7442101,True,1
152442414,30.2646880,-97.7455295,True,1
152442420,30.2649951,-97.7466298,True,1
152442422,30.2652884,-97.7476808,True,1
152442425,30.2655926,-97.7487710,False,1
152447350,30.2662030,-97.7435056,True,1
152447353,30.2658287,-97.7421642,True,3
152447356,30.2655317,-97.7411001,True,3
152447359,30.2652296,-97.7400176,True,3
152447361,30.2649356,-97.7389640,True,0
152447363,30.2646347,-97.7378855,True,1
152447370,30.2642668,-97.7365673,False,0
152447373,30.2640409,-97.7357284,False,0
152451541,30.2665712,-97.7448250,True,1
152451543,30.2668783,-97.7459253,True,1
152451606,30.2658711,-97.7386140,True,1
152451608,30.2677290,-97.7379190,True,0
152451610,30.2686466,-97.7375757,True,0
152451612,30.2695976,-97.7372199,True,0
152451615,30.2705291,-97.7368715,True,0
152456591,30.2640308,-97.7477607,False,0
152456593,30.2643508,-97.7479690,True,1
152456605,30.2690419,-97.7462820,True,1
152456607,30.2699663,-97.7459362,True,1
152456610,30.2718358,-97.7452368,False,1
152460221,30.2708659,-97.7417612,True,1
152460223,30.2704916,-97.7404197,True,1
152460225,30.2701947,-97.7393557,True,1
152460228,30.2698917,-97.7382735,True,1
152460230,30.2692967,-97.7361415,True,1
152480207,30.2718012,-97.7414310,False,1
152495618,30.2717546,-97.7375766,False,1
152495620,30.2711596,-97.7354446,False,1
152496937,30.2652535,-97.7438608,True,1
152496940,30.2648791,-97.7425194,True,3
152496946,30.2645822,-97.7414553,True,3
152496953,30.2642801,-97.7403728,True,0
152500708,30.2656216,-97.7451802,True,1
152500717,30.2659285,-97.7462806,True,1
152500722,30.2665263,-97.7484217,True,3
152509949,30.2637648,-97.7458749,False,1
152509952,30.2640733,-97.7469746,False,1
152512835,30.2689964,-97.7424606,True,1
152512839,30.2693646,-97.7437800,True,1
152512841,30.2696716,-97.7448803,True,1
152512844,30.2702215,-97.7470394,True,0
152512846,30.2708833,-97.7491545,False,3
152512848,30.2711896,-97.7502522,False,0
152516193,30.2678138,-97.7455753,True,1
152516195,30.2687473,-97.7452261,True,1
152516197,30.2715412,-97.7441809,False,1
152516638,30.2671385,-97.7431556,True,1
152516640,30.2667642,-97.7418142,True,1
152516642,30.2664672,-97.7407501,True,1
152516644,30.2661652,-97.7396676,True,1
152516646,30.2655702,-97.7375356,True,1
152516648,30.2652717,-97.7364658,True,0
152516650,30.2651895,-97.7361715,True,0
152516651,30.2651025,-97.7358596,True,0
152516653,30.2649690,-97.7353812,True,0
152539640,30.2680231,-97.7389726,True,1
152539643,30.2689406,-97.7386293,True,1
152539646,30.2708231,-97.7379251,True,1
152566314,30.2674281,-97.7368405,True,1
152566316,30.2683457,-97.7364973,True,1
152566317,30.2702281,-97.7357930,True,1
152580969,30.2677445,-97.7343429,False,1
152580971,30.2680650,-97.7354915,False,0
152580976,30.2681684,-97.7358619,True,0
152580980,30.2682462,-97.7361410,True,0
152580983,30.2692427,-97.7397118,True,1
152580985,30.2695396,-97.7407759,True,1
152583391,30.2693448,-97.7473673,True,0
152604216,30.2644682,-97.7367664,False,0
152604219,30.2671296,-97.7357708,True,0
152608872,30.2714221,-97.7400717,True,1
152608874,30.2711251,-97.7390076,True,1
152608876,30.2700972,-97.7353237,False,0
152620558,30.2639455,-97.7428686,False,1
152620569,30.2686221,-97.7411192,True,1
152620992,30.2684402,-97.7441258,True,1
152629396,30.2668269,-97.7346862,False,1
152631180,30.2683251,-97.7400551,True,1
152679466,30.2712341,-97.7430806,True,1
152681946,30.2670633,-97.7355333,True,0
152723403,30.2675067,-97.7444750,True,1
280908622,30.2671729,-97.7469812,True,1
280908705,30.2674706,-97.7480696,True,3
332232126,30.2651690,-97.7400403,True,0
359629947,30.2640051,-97.7357418,False,0
429402142,30.2639421,-97.7477236,False,0
442761548,30.2671789,-97.7359474,True,0
442761551,30.2690144,-97.7351297,False,0
443182322,30.2713408,-97.7454220,True,0
443182323,30.2685576,-97.7464632,True,0
443182324,30.2676322,-97.7468094,True,0
443182325,30.2664060,-97.7461020,True,0
443182326,30.2673376,-97.7457535,True,0
443182327,30.2682629,-97.7454073,True,0
443182328,30.2692086,-97.7450535,True,0
443182329,30.2701363,-97.7447065,True,0
443182330,30.2710687,-97.7443576,True,0
443182334,30.2707596,-97.7432581,True,0
443182335,30.2698519,-97.7435977,True,0
443182336,30.2689062,-97.7439515,True,0
443182337,30.2670305,-97.7446532,True,0
443182338,30.2661000,-97.7450013,True,0
443182340,30.2701233,-97.7482699,False,0
443182341,30.2710442,-97.7479254,False,0
443185126,30.2669427,-97.7424540,True,0
443185127,30.2673288,-97.7438374,True,0
443185128,30.2722570,-97.7412625,False,0
443185129,30.2654435,-97.7445418,True,0
443185130,30.2650555,-97.7431512,True,0
443185131,30.2663920,-97.7441828,True,0
443185134,30.2678766,-97.7421061,True,0
443185135,30.2682650,-97.7434977,True,0
443185136,30.2688011,-97.7417608,True,0
443185137,30.2691844,-97.7431343,True,0
443185138,30.2697251,-97.7414406,True,0
443185139,30.2701093,-97.7428174,True,0
443185140,30.2710577,-97.7424483,True,0
443185142,30.2706757,-97.7410794,True,0
443185144,30.2712940,-97.7377489,False,0
443186939,30.2634847,-97.7430410,False,0
443186942,30.2644424,-97.7426828,True,0
443186944,30.2653634,-97.7423381,True,0
443186954,30.2662908,-97.7419913,True,0
443186957,30.2672168,-97.7416449,True,0
443186960,30.2681471,-97.7412968,True,0
443186963,30.2700053,-97.7406017,True,0
443186966,30.2709262,-97.7402572,True,0
443186983,30.2656934,-97.7398441,True,0
443186986,30.2666162,-97.7394989,True,0
443186988,30.2675579,-97.7391465,True,0
443186990,30.2684814,-97.7388011,True,0
443186993,30.2694153,-97.7384517,True,0
443187002,30.2706387,-97.7391895,True,0
443187004,30.2697152,-97.7395350,True,0
443187007,30.2687783,-97.7398855,True,0
443187010,30.2678550,-97.7402309,True,0
443187012,30.2669294,-97.7405772,True,0
443187015,30.2659999,-97.7409249,True,0
443187017,30.2650742,-97.7412714,True,0
443187020,30.2641366,-97.7416219,True,0
443187047,30.2647798,-97.7401858,True,0
443187073,30.2663227,-97.7384451,True,0
443187075,30.2672688,-97.7380912,True,0
443187078,30.2681924,-97.7377456,True,0
443187080,30.2691212,-97.7373981,True,0
443187099,30.2660317,-97.7373629,True,0
443187100,30.2669728,-97.7370109,True,0
443187101,30.2678966,-97.7366653,True,0
443187102,30.2688203,-97.7363197,True,0
443187120,30.2666908,-97.7359715,True,0
443187148,30.2669721,-97.7352064,True,0
443187159,30.2660324,-97.7355599,True,0
1190061488,30.2670489,-97.7358010,True,0
1408899493,30.2645662,-97.7379112,True,1
1425730821,30.2643361,-97.7368158,True,0
1481456658,30.2661584,-97.7360090,False,0
1626547026,30.2703997,-97.7474615,False,0
1626547029,30.2700519,-97.7460721,False,0
1626547031,30.2699593,-97.7460726,True,2
1626547034,30.2703392,-97.7469295,True,0
1658567963,30.2644176,-97.7479919,False,0
1658567966,30.2641281,-97.7478167,False,0
1658567968,30.2644987,-97.7479889,False,0
1658567971,30.2638294,-97.7477026,False,0
1759328742,30.2657671,-97.7350827,False,0
1851192517,30.2703021,-97.7468844,False,0
1851192520,30.2704385,-97.7469381,False,0
2128323811,30.2645980,-97.7378993,False,0
2161101836,30.2644496,-97.7481399,False,2
2161101846,30.2641047,-97.7478032,False,2
2177702622,30.2683853,-97.7402707,True,0
2177702623,30.2684738,-97.7405879,True,0
2177790237,30.2674654,-97.7415519,True,0
2328939747,30.2662208,-97.7473283,True,1
2481930676,30.2645094,-97.7448894,True,0
2481930687,30.2653097,-97.7440624,True,0
2481930688,30.2654224,-97.7444661,True,0
2481930693,30.2660056,-97.7427983,True,0
2641443828,30.2681084,-97.7466313,True,1
2641443833,30.2684113,-97.7477166,True,0
2641443842,30.2674421,-97.7479568,True,2
3128713799,30.2710223,-97.7443750,False,0
3128713802,30.2709970,-97.7455506,False,0
3147351520,30.2692206,-97.7474138,False,3
3147351521,30.2694529,-97.7473269,False,3
3147351522,30.2701832,-97.7470537,False,3
3147436570,30.2667362,-97.7459785,False,0
3157995099,30.2685330,-97.7476710,False,3
3159259127,30.2717247,-97.7485291,False,0
3166660183,30.2643054,-97.7404633,False,3
3173018541,30.2673018,-97.7469330,False,0
3173020261,30.2714892,-97.7453665,False,0
3181005277,30.2711664,-97.7501691,False,3
3218108772,30.2705099,-97.7442531,False,0
3225934839,30.2675470,-97.7446194,False,0
3225934841,30.2678520,-97.7457123,False,0
3225934844,30.2681571,-97.7468055,False,0
3225955877,30.2663608,-97.7372398,False,0
3225955879,30.2665091,-97.7409000,False,0
3225955882,30.2668030,-97.7419531,False,0
3225955886,30.2669904,-97.7352722,False,0
3229761202,30.2651789,-97.7398359,False,0
3229761214,30.2661480,-97.7433083,False,0
3229761217,30.2670755,-97.7466323,False,0
3286375609,30.2673547,-97.7476328,False,0
3338959448,30.2644530,-97.7409922,True,0
3348989154,30.2677717,-97.7344404,False,0
3348989166,30.2691863,-97.7357459,True,0
3348989174,30.2704560,-97.7457530,True,0
3348989175,30.2707527,-97.7468219,True,0
4028543152,30.2716714,-97.7483439,False,0
4065321155,30.2659209,-97.7351624,False,2
4065321161,30.2668536,-97.7347818,False,0
4162042278,30.2697496,-97.7484097,False,0
4162042280,30.2696175,-97.7483443,False,0
4162042285,30.2694369,-97.7473329,True,0
4162042288,30.2690742,-97.7463978,True,2
4162042290,30.2691266,-97.7462534,True,2
4162042292,30.2690152,-97.7461850,True,2
4162042294,30.2689503,-97.7463163,True,2
4162042296,30.2687719,-97.7453144,True,2
4162042298,30.2688323,-97.7451943,True,2
4162042300,30.2687143,-97.7451062,True,2
4162042302,30.2686485,-97.7452630,False,0
4162042304,30.2684089,-97.7440284,False,0
4162042307,30.2683418,-97.7441674,False,0
4162042310,30.2684787,-97.7442587,True,2
4162042313,30.2685244,-97.7440943,True,2
4162042315,30.2693966,-97.7438973,False,0
4162042317,30.2694518,-97.7437477,False,0
4162042319,30.2693380,-97.7436849,False,0
4162042321,30.2692643,-97.7438162,True,2
4162042322,30.2688949,-97.7424986,True,2
4162042323,30.2689528,-97.7423042,True,2
4162042324,30.2690843,-97.7424277,True,2
4162042325,30.2690440,-97.7426317,True,2
4162042326,30.2699624,-97.7422910,True,2
4162042327,30.2699961,-97.7420837,True,2
4162042328,30.2698732,-97.7419711,True,2
4162042329,30.2698348,-97.7421502,True,2
4162042331,30.2703875,-97.7433973,True,2
4162042333,30.2702554,-97.7433410,True,2
4162042335,30.2701950,-97.7434700,True,2
4162042337,30.2703181,-97.7435619,True,2
4162042338,30.2706191,-97.7446442,True,2
4162042340,30.2706941,-97.7444978,False,0
4162042342,30.2705529,-97.7444212,False,0
4162042344,30.2705091,-97.7445670,False,0
4162042346,30.2696326,-97.7407411,True,2
4162042347,30.2695752,-97.7409035,True,2
4162042348,30.2695157,-97.7406903,True,2
4162042349,30.2694532,-97.7408082,True,2
4162042350,30.2692747,-97.7398293,True,2
4162042351,30.2693415,-97.7396757,True,2
4162042352,30.2692159,-97.7396157,True,2
4162042353,30.2691653,-97.7397412,True,2
4162042354,30.2689777,-97.7387623,False,0
4162042355,30.2690393,-97.7385924,False,0
4162042356,30.2689186,-97.7385504,False,0
4162042357,30.2688598,-97.7386595,False,0
4162042358,30.2680576,-97.7390980,True,2
4162042359,30.2680003,-97.7388909,False,0
4162042360,30.2681099,-97.7389401,False,0
4162042361,30.2679282,-97.7390081,True,2
4258978807,30.2702247,-97.7394657,True,2
4258978808,30.2703822,-97.7404607,True,2
4258978809,30.2704659,-97.7403243,True,2
4258978810,30.2705292,-97.7405544,True,2
4258978811,30.2705726,-97.7403900,True,2
4258978812,30.2707667,-97.7418003,True,2
4258978813,30.2708232,-97.7416083,True,2
4258978814,30.2709164,-97.7419419,True,2
4258978815,30.2709393,-97.7417353,True,2
4258978817,30.2713107,-97.7401129,False,2
4258978818,30.2713963,-97.7399797,False,2
4344936525,30.2642708,-97.7380217,False,0
4344936526,30.2669878,-97.7370053,True,4
4344936527,30.2706169,-97.7356476,True,4
4344944026,30.2691032,-97.7392119,True,4
4344944027,30.2697812,-97.7416415,True,4
4344951157,30.2657085,-97.7380313,True,4
4344951158,30.2659958,-97.7390608,True,4
4344952152,30.2679745,-97.7461512,True,4
4344959437,30.2643470,-97.7481774,False,0
4344959438,30.2645698,-97.7486065,False,0
4344965293,30.2648902,-97.7478362,True,4
4344990749,30.2644476,-97.7355763,True,4
4344990751,30.2649756,-97.7377580,True,4
4345030729,30.2641070,-97.7416330,False,0
4345030730,30.2659555,-97.7409415,True,4
4345030731,30.2678167,-97.7402452,True,4
4345030732,30.2696351,-97.7395650,True,4
4345047998,30.2638595,-97.7443823,False,0
4345054664,30.2703798,-97.7457815,True,4
4346167509,30.2642860,-97.7477367,False,0
4346167510,30.2644394,-97.7484694,False,0
4346167512,30.2684230,-97.7465136,True,4
4798805474,30.2697978,-97.7471979,True,0
4798805479,30.2696261,-97.7460635,True,0
5023332789,30.2674537,-97.7430377,False,0
5085168958,30.2678027,-97.7479496,True,0
5085168960,30.2675470,-97.7480467,False,0
5085168962,30.2681379,-97.7467388,True,2
5085168979,30.2683002,-97.7477592,True,0
5085168981,30.2680094,-97.7466690,True,2
5116329613,30.2672038,-97.7470932,True,2
5116329614,30.2672621,-97.7469474,True,2
5530219422,30.2700313,-97.7483043,True,0
5530219426,30.2697197,-97.7472271,True,0
5725066524,30.2696299,-97.7373356,True,2
5725066525,30.2694971,-97.7372575,True,2
5725066598,30.2645213,-97.7379274,True,0
5725066599,30.2647351,-97.7378457,True,0
5725066600,30.2645993,-97.7377586,True,0
5725067671,30.2646691,-97.7380087,True,0
5725069802,30.2685904,-97.7410131,True,2
5725069803,30.2685202,-97.7411573,True,2
5725069804,30.2686573,-97.7412455,True,2
5725069805,30.2687158,-97.7410850,True,2
5725069806,30.2700783,-97.7393989,True,2
5725069807,30.2702904,-97.7393190,True,2
5725071371,30.2646832,-97.7378674,True,0
5725071373,30.2681515,-97.7427767,True,2
5725071374,30.2679680,-97.7428453,True,2
5725071375,30.2680287,-97.7426483,True,2
5725071376,30.2687505,-97.7452377,True,0
5725071377,30.2681207,-97.7429824,True,2
5725072081,30.2670367,-97.7431938,True,2
5725072082,30.2672150,-97.7431271,True,2
5725072083,30.2670913,-97.7429881,True,2
5725072084,30.2677915,-97.7454954,True,0
5725072085,30.2671836,-97.7433173,True,2
5725072272,30.2661622,-97.7433591,False,0
5725072273,30.2662863,-97.7434744,True,2
5725072274,30.2660997,-97.7435442,False,0
5725072275,30.2668563,-97.7458464,True,0
5725072276,30.2662502,-97.7436748,False,0
5725074058,30.2643647,-97.7443711,True,0
5725074059,30.2642382,-97.7442406,False,0
5763550671,30.2701184,-97.7358346,True,2
5763550672,30.2684452,-97.7364601,True,2
5763550673,30.2682605,-97.7365292,True,0
5763550674,30.2683176,-97.7363929,True,2
5763550675,30.2683756,-97.7366047,True,2
5763550676,30.2675157,-97.7368077,True,0
5763550677,30.2673313,-97.7368767,True,0
5763550678,30.2673989,-97.7367360,True,0
5763550679,30.2674552,-97.7369376,True,0
5763550699,30.2692671,-97.7360356,True,0
5763550700,30.2693258,-97.7362459,True,0
5763550701,30.2693743,-97.7361125,True,0
5763550702,30.2692051,-97.7361758,True,0
5763550703,30.2703182,-97.7357593,True,2
5763550704,30.2702628,-97.7359182,True,2
5763550705,30.2702007,-97.7357000,True,2
5789411845,30.2716615,-97.7376114,False,2
5789411896,30.2670405,-97.7358041,True,0
5789411897,30.2667078,-97.7359286,True,0
5789414231,30.2710560,-97.7354833,False,2
5789415057,30.2707149,-97.7379656,False,0
5789415058,30.2709078,-97.7378929,True,2
5789415059,30.2708604,-97.7380588,False,0
5835830498,30.2649163,-97.7426526,True,0
5835830499,30.2647981,-97.7425497,True,0
5835830500,30.2649820,-97.7424809,True,0
5835830501,30.2648504,-97.7424164,True,0
5835830511,30.2645538,-97.7413538,True,2
5835830512,30.2646126,-97.7415641,False,0
5843248465,30.2653343,-97.7452877,True,0
5864411527,30.2642173,-97.7478777,False,0
6127659564,30.2662279,-97.7473525,False,0
6141520945,30.2683180,-97.7436933,True,0
6146656862,30.2686631,-97.7464237,True,0
6146656865,30.2658457,-97.7463116,True,0
6146656867,30.2672148,-97.7471313,True,0
6150353087,30.2654566,-97.7375781,True,0
6150353092,30.2656021,-97.7376413,True,0
6150353096,30.2653684,-97.7364954,False,0
6159092918,30.2631388,-97.7431716,False,2
6159092922,30.2638678,-97.7428978,False,2
6159092923,30.2640481,-97.7428302,False,2
6159092925,30.2646949,-97.7414134,False,0
6159092926,30.2645010,-97.7414862,False,0
6159615893,30.2655385,-97.7374220,True,0
6159615894,30.2656574,-97.7375032,True,0
6159615895,30.2657635,-97.7386543,True,2
6159615896,30.2658394,-97.7384993,True,2
6159615897,30.2659580,-97.7385815,True,2
6159615898,30.2658988,-97.7387133,True,2
6159615899,30.2661399,-97.7395780,True,2
6159615900,30.2662535,-97.7396346,True,2
6159615901,30.2662019,-97.7397990,True,2
6159615902,30.2660621,-97.7397057,True,0
6159615903,30.2663658,-97.7407869,True,2
6159615904,30.2664391,-97.7406540,True,2
6159615905,30.2665434,-97.7407217,True,2
6159615906,30.2664996,-97.7408651,True,2
6159615907,30.2666562,-97.7418533,True,2
6159615908,30.2667377,-97.7417197,True,2
6159615909,30.2668530,-97.7417818,True,2
6159615910,30.2667991,-97.7419416,True,2
6159615911,30.2659090,-97.7421350,False,0
6159615912,30.2657994,-97.7420577,False,0
6159615913,30.2657119,-97.7422078,False,0
6159615914,30.2658633,-97.7422924,False,0
6159615916,30.2654433,-97.7411329,True,2
6159615917,30.2655045,-97.7410025,False,0
6159615918,30.2656160,-97.7410700,True,2
6159615919,30.2655644,-97.7412100,False,0
6161015719,30.2676973,-97.7378137,True,2
6161015722,30.2678160,-97.7378860,True,2
6167289503,30.2716942,-97.7414688,False,2
6206683037,30.2687455,-97.7375377,True,2
6206683040,30.2685704,-97.7376038,True,2
6214836376,30.2673744,-97.7481056,True,2
6214841222,30.2675085,-97.7482012,False,2
6214864508,30.2666383,-97.7483815,False,2
6214873065,30.2662567,-97.7474600,True,2
6219676233,30.2670818,-97.7470149,True,2
6219676234,30.2671433,-97.7468751,True,2
6219680871,30.2681941,-97.7465992,True,2
6219680872,30.2680788,-97.7465252,True,2
6219685357,30.2675425,-97.7446041,True,2
6219685358,30.2675972,-97.7444417,True,2
6219685359,30.2674802,-97.7443801,True,2
6219685360,30.2674047,-97.7445132,True,2
6219686761,30.2678424,-97.7456784,True,2
6219686762,30.2678964,-97.7455444,True,2
6219686763,30.2677792,-97.7454545,True,2
6219686764,30.2677193,-97.7456107,True,2
6219755545,30.2652148,-97.7399649,True,2
6219755546,30.2652657,-97.7401476,True,2
6219755547,30.2651248,-97.7400568,True,2
6219755548,30.2653233,-97.7399826,True,2
6219755549,30.2677342,-97.7415959,True,2
6219755550,30.2675895,-97.7415054,True,2
6219755551,30.2676715,-97.7413717,True,2
6219755552,30.2677786,-97.7414348,True,2
6219755553,30.2674310,-97.7405144,False,0
6219755554,30.2674890,-97.7403681,True,2
6219755555,30.2673629,-97.7402648,False,0
6219755556,30.2672910,-97.7404410,True,2
6219755557,30.2671320,-97.7394442,True,2
6219755558,30.2671858,-97.7392858,True,2
6219755559,30.2670717,-97.7392298,True,2
6219755560,30.2670019,-97.7393543,True,2
6219755562,30.2668290,-97.7383731,True,2
6219755563,30.2668963,-97.7382309,True,2
6219755564,30.2667669,-97.7381557,False,0
6219755565,30.2667047,-97.7383027,True,2
6219755567,30.2665245,-97.7373109,True,0
6219755568,30.2665864,-97.7371555,True,0
6219755569,30.2664614,-97.7370858,True,0
6219755570,30.2664007,-97.7372249,True,0
6223990382,30.2666548,-97.7447962,True,2
6223990383,30.2664693,-97.7448645,True,2
6223990384,30.2665471,-97.7447279,True,2
6223991682,30.2667718,-97.7459652,True,2
6228099237,30.2685020,-97.7476826,True,2
6228099239,30.2684414,-97.7478267,True,2
6231014572,30.2708075,-97.7456215,True,2
6231014573,30.2708617,-97.7455137,True,2
6231014574,30.2709899,-97.7455532,False,2
6231014575,30.2709140,-97.7456958,True,2
6231087480,30.2686547,-97.7452607,True,2
6242379572,30.2697639,-97.7448458,True,2
6298761188,30.2711023,-97.7389189,False,2
6298761189,30.2710199,-97.7390469,False,2
6298761190,30.2711604,-97.7391284,False,2
6300282578,30.2674335,-97.7405233,True,2
6300282579,30.2673700,-97.7402937,True,2
6300307201,30.2711109,-97.7466998,False,2
6300307204,30.2692524,-97.7474019,True,2
6300307212,30.2664960,-97.7483130,False,2
6300307216,30.2653238,-97.7478058,True,2
6300311385,30.2644763,-97.7479897,True,2
6300337558,30.2683625,-97.7401890,True,2
6300337560,30.2684236,-97.7400173,True,2
6300337562,30.2682995,-97.7399634,True,2
6300337563,30.2682341,-97.7400891,True,2
6300429217,30.2708593,-97.7380550,True,2
6300429219,30.2707234,-97.7379624,True,2
6300429221,30.2708004,-97.7378436,True,2
6300430443,30.2699813,-97.7382400,True,2
6300430444,30.2698692,-97.7381930,True,2
6300430445,30.2697839,-97.7383138,True,2
6300432786,30.2690372,-97.7385932,True,2
6300432787,30.2689156,-97.7385396,True,2
6300432788,30.2688574,-97.7386604,True,2
6300432789,30.2689757,-97.7387550,True,2
6300435167,30.2679993,-97.7388873,True,2
6300435169,30.2681051,-97.7389419,True,2
6300451490,30.2667681,-97.7381599,True,2
6300454333,30.2677563,-97.7380150,True,2
6300454334,30.2676384,-97.7379529,True,2
6300460220,30.2695710,-97.7371248,True,2
6300460221,30.2696814,-97.7371886,True,2
6300500704,30.2658043,-97.7420756,True,2
6300500707,30.2659228,-97.7421298,True,2
6300500710,30.2658661,-97.7423025,True,2
6300500712,30.2657194,-97.7422050,True,2
6301702277,30.2662454,-97.7436575,True,2
6301702278,30.2660874,-97.7435488,True,2
6301702279,30.2661555,-97.7433350,True,2
6304337115,30.2655662,-97.7412166,True,2
6304337116,30.2655025,-97.7409953,True,2
6304979300,30.2712085,-97.7429887,False,2
6304979304,30.2711310,-97.7431192,False,2
6304979321,30.2714561,-97.7442127,False,2
6305016877,30.2718835,-97.7414006,False,2
6306840937,30.2647211,-97.7456481,True,2
6309773798,30.2666066,-97.7449518,True,2
6309790844,30.2684064,-97.7440235,True,2
6309790845,30.2683380,-97.7441688,True,2
6309807044,30.2693366,-97.7436797,True,2
6309807045,30.2694662,-97.7437423,True,2
6309807046,30.2693992,-97.7439065,True,2
6322095147,30.2660426,-97.7462379,True,2
6322095150,30.2659565,-97.7463808,True,2
6322095155,30.2658358,-97.7463153,True,2
6322095158,30.2658940,-97.7461569,True,2
6322095160,30.2668429,-97.7457985,True,2
6322095163,30.2669584,-97.7458953,True,2
6322095166,30.2669033,-97.7460150,True,2
6322095176,30.2652975,-97.7440185,True,2
6322095177,30.2653571,-97.7438220,True,2
6322095178,30.2652090,-97.7437051,True,2
6322095179,30.2656548,-97.7452995,True,2
6322095181,30.2655908,-97.7450699,True,2
6322095183,30.2657322,-97.7451389,True,2
6322132122,30.2695788,-97.7449152,True,0
6322132125,30.2696394,-97.7447651,True,2
6322132128,30.2697003,-97.7449833,True,2
6322210485,30.2707027,-97.7444946,True,2
6322210486,30.2705509,-97.7444133,True,2
6352252704,30.2677471,-97.7490410,False,2
6352252985,30.2683824,-97.7476131,True,2
6352252986,30.2683116,-97.7477548,True,0
6352252987,30.2686794,-97.7486976,False,2
6352266923,30.2655575,-97.7486449,False,2
6352266924,30.2646556,-97.7454134,True,2
6352266925,30.2652578,-97.7475714,True,2
6352266926,30.2653721,-97.7476507,True,2
6352266927,30.2652088,-97.7477154,True,2
6352266928,30.2647683,-97.7454995,True,2
6352266929,30.2645989,-97.7455628,True,2
6352266930,30.2655430,-97.7452096,True,2
6352266931,30.2638828,-97.7458308,False,2
6352271811,30.2661343,-97.7473608,True,2
6352271812,30.2661924,-97.7472249,True,2
6352271813,30.2663365,-97.7472860,True,2
6352371148,30.2675750,-97.7480361,True,0
6352396828,30.2644258,-97.7441704,True,2
6352396829,30.2651686,-97.7438926,True,2
6409952871,30.2700593,-97.7459017,True,2
6409952872,30.2699408,-97.7458407,True,2
6409952873,30.2698757,-97.7459697,True,2
6409952874,30.2700374,-97.7460471,True,2
6409957050,30.2717407,-97.7452733,False,2
6427191489,30.2708601,-97.7490715,False,2
6433475912,30.2643168,-97.7405040,True,2
6433475913,30.2643911,-97.7403313,True,2
6433510508,30.2646172,-97.7415807,True,2
6433510511,30.2646992,-97.7414118,True,2
6433510513,30.2645063,-97.7414842,True,2
6435121105,30.2711580,-97.7501389,False,2
6439984492,30.2709117,-97.7492562,False,2
