Node ID,Lat,Lon,Is Intersection,Type
64810350,42.6490442,-71.3240160,False,0
64810386,42.6405513,-71.3267366,False,0
64810424,42.6384592,-71.3072204,False,0
64810522,42.6422243,-71.3201054,True,0
64810579,42.6400870,-71.3016040,False,0
64810647,42.6423185,-71.3054746,True,0
64810691,42.6404180,-71.2995120,False,0
64810801,42.6488650,-71.3146189,False,0
64810868,42.6401406,-71.3142339,False,0
64810902,42.6544320,-71.3126950,False,0
64810938,42.6401073,-71.3284631,False,0
64810966,42.6498320,-71.2997220,False,0
64810981,42.6433580,-71.3076050,False,0
64810984,42.6469294,-71.3178271,True,0
64811066,42.6409962,-71.3168030,True,1
64811093,42.6504880,-71.3035940,False,0
64811141,42.6491280,-71.3019970,False,0
64811264,42.6389004,-71.3151774,False,0
64811348,42.6440785,-71.3194166,False,0
64811413,42.6472250,-71.2961700,False,0
64811434,42.6535550,-71.3110590,False,0
64811541,42.6379440,-71.2993200,False,0
64811725,42.6489362,-71.3223266,True,0
64811736,42.6433580,-71.3074740,False,0
64811788,42.6410959,-71.3112539,True,0
64811816,42.6396240,-71.3087320,False,0
64812014,42.6482413,-71.2991238,False,0
64812041,42.6455510,-71.3082098,False,0
64812082,42.6429830,-71.3022610,True,0
64812088,42.6492299,-71.3127691,False,0
64812275,42.6460769,-71.3014595,False,0
64812447,42.6367327,-71.3036570,False,0
64812467,42.6496507,-71.3255563,True,1
64812675,42.6468493,-71.3178689,True,2
64812687,42.6514692,-71.3088984,False,0
64812710,42.6465495,-71.3172714,True,2
64812738,42.6494560,-71.3241260,False,0
64812842,42.6496270,-71.3063909,False,0
64812888,42.6427744,-71.3062693,False,0
64812895,42.6439883,-71.3204120,True,1
64812920,42.6491171,-71.3134887,False,0
64812972,42.6418087,-71.3060821,False,0
64813003,42.6485988,-71.3159942,True,4
64813056,42.6412080,-71.3087380,False,0
64813245,42.6434480,-71.3238914,True,2
64813306,42.6406479,-71.3166186,True,0
64813314,42.6544410,-71.3125270,False,0
64813357,42.6475789,-71.3095110,True,0
64813372,42.6446240,-71.3034970,True,0
64813590,42.6459150,-71.2999140,False,0
64813738,42.6479390,-71.3192760,False,0
64813788,42.6411559,-71.3167808,False,0
64813792,42.6520004,-71.3094717,False,0
64813798,42.6487295,-71.3162477,True,0
64813860,42.6439043,-71.3155402,True,0
64813870,42.6473786,-71.3171126,True,0
64814135,42.6491370,-71.2999040,False,0
64814200,42.6486950,-71.2906690,False,0
64814344,42.6415350,-71.3063950,False,0
64814408,42.6490812,-71.3226015,True,0
64814525,42.6467352,-71.3063733,True,0
64814715,42.6429972,-71.3270964,False,0
64814804,42.6392465,-71.3088349,True,0
64814952,42.6556050,-71.3139070,False,0
64815042,42.6445558,-71.3020137,False,0
64815088,42.6482380,-71.3152462,False,0
64815121,42.6466152,-71.3103607,True,0
64815212,42.6512540,-71.3088440,False,0
64815277,42.6446180,-71.3026200,False,0
64815402,42.6476690,-71.3196830,False,0
64815459,42.6458870,-71.2939620,False,0
64815515,42.6381750,-71.2984230,False,0
64815578,42.6499048,-71.3251057,False,0
64815593,42.6398642,-71.3147613,False,0
64815642,42.6491430,-71.3002670,False,0
64815884,42.6422401,-71.3050139,False,0
64816103,42.6446190,-71.3034090,False,0
64816146,42.6546490,-71.3129130,False,0
64816163,42.6421610,-71.2976020,False,1
64816178,42.6397508,-71.3128883,True,0
64816188,42.6460860,-71.3108273,False,0
64816201,42.6406300,-71.3018290,True,0
64816331,42.6497213,-71.3238941,True,0
64816337,42.6384240,-71.3058920,False,0
64816368,42.6385660,-71.3003940,False,0
64816427,42.6459340,-71.3025520,True,0
64816596,42.6363519,-71.2985139,False,0
64816663,42.6491520,-71.3002020,False,0
64816796,42.6443719,-71.3223840,True,0
64816828,42.6409742,-71.3140243,True,0
64816908,42.6485333,-71.3205511,True,0
64816943,42.6432820,-71.3023750,False,0
64817025,42.6478155,-71.2979429,False,0
64817046,42.6464444,-71.3151741,True,0
64817060,42.6477353,-71.3098410,False,0
64817122,42.6499680,-71.3070679,False,0
64817232,42.6417180,-71.3033660,True,0
64817259,42.6459236,-71.3128009,True,1
64817378,42.6410144,-71.3088683,False,0
64817391,42.6395666,-71.3163489,False,0
64817399,42.6413552,-71.3080117,True,2
64817442,42.6380130,-71.3040700,False,0
64817574,42.6460671,-71.3143547,False,0
64817580,42.6449192,-71.3188717,True,0
64817863,42.6488342,-71.3026295,True,0
64817878,42.6429552,-71.3202739,False,0
64817903,42.6398470,-71.3078880,True,0
64818182,42.6383564,-71.3071713,False,0
64818205,42.6420890,-71.2985490,False,0
64818444,42.6405860,-71.3197871,True,0
64818450,42.6406070,-71.3078590,False,0
64818494,42.6404550,-71.3079260,False,0
64818508,42.6438570,-71.3025720,False,0
64818550,42.6473095,-71.3234586,True,0
64818554,42.6494462,-71.3128961,False,0
64818675,42.6388260,-71.3041820,False,0
64818738,42.6415670,-71.3063480,False,0
64818825,42.6457467,-71.3106008,True,1
64818884,42.6421051,-71.3084642,False,0
64818971,42.6485853,-71.3014154,False,0
64819125,42.6517840,-71.3016980,False,0
64819138,42.6523550,-71.3099350,False,0
64819199,42.6501807,-71.3193782,True,1
64819297,42.6446689,-71.3205184,True,4
64819332,42.6400350,-71.3072050,True,0
64819450,42.6429800,-71.3215010,False,0
64819529,42.6425410,-71.3200685,True,0
64819780,42.6527600,-71.3108940,False,0
64819873,42.6486694,-71.3014535,False,0
64820055,42.6482056,-71.2989393,False,0
64820069,42.6405200,-71.3264049,False,0
64820100,42.6481761,-71.3148992,False,0
64820147,42.6443953,-71.3172357,True,0
64820184,42.6393209,-71.3157309,False,0
64820385,42.6404628,-71.3132895,True,0
64820501,42.6489190,-71.3122430,True,0
64820642,42.6430102,-71.3203159,False,0
64820710,42.6527290,-71.3104220,False,0
64820752,42.6394960,-71.3087820,False,0
64820791,42.6399885,-71.3162383,False,0
64820874,42.6497443,-71.3066636,False,0
64820931,42.6456369,-71.3092580,True,0
64820995,42.6468020,-71.3178720,False,0
64821068,42.6430150,-71.3213080,False,0
64821093,42.6487930,-71.2983180,False,0
64821097,42.6444099,-71.3171335,True,0
64821156,42.6454537,-71.3170129,True,0
64821366,42.6418540,-71.3011660,False,0
64821410,42.6469949,-71.3147109,True,0
64821537,42.6459981,-71.3136593,True,0
64821656,42.6400545,-71.3212299,False,0
64821666,42.6405510,-71.3103010,False,0
64821736,42.6401054,-71.3167031,False,0
64821821,42.6498450,-71.2999020,False,0
64821847,42.6519300,-71.3089380,False,0
64821974,42.6397420,-71.3014530,False,0
64822023,42.6479760,-71.3106490,True,0
64822028,42.6413510,-71.2999290,False,0
64822049,42.6489140,-71.3013960,False,0
64822092,42.6434494,-71.3178356,True,0
64822195,42.6491140,-71.3004280,False,0
64822379,42.6490902,-71.3159118,True,2
64822595,42.6396900,-71.3084460,False,0
64822630,42.6411800,-71.3192030,False,0
64822705,42.6417770,-71.3023960,False,0
64822713,42.6499318,-71.3068213,False,0
64822773,42.6456682,-71.3180769,False,0
64822943,42.6402020,-71.3073380,False,0
64823034,42.6417422,-71.3083604,False,0
64823177,42.6414898,-71.3185041,False,0
64823224,42.6453401,-71.3009436,True,0
64823247,42.6380960,-71.2983830,False,0
64823327,42.6445106,-71.3107728,True,1
64823421,42.6493185,-71.3135101,False,0
64823479,42.6494491,-71.3133947,False,0
64823858,42.6461850,-71.2921620,False,0
64823881,42.6498515,-71.3251821,False,0
64823934,42.6407459,-71.3218571,False,0
64823969,42.6405094,-71.3243778,False,0
64823995,42.6433504,-71.3184992,True,0
64824045,42.6479811,-71.2983802,False,0
64824092,42.6460410,-71.3141173,False,0
64824100,42.6461470,-71.3050830,True,0
64824377,42.6414104,-71.3074440,False,0
64824408,42.6490594,-71.3134381,False,0
64824685,42.6481722,-71.3242279,True,0
64824700,42.6451560,-71.3252960,False,0
64824717,42.6483825,-71.3157320,False,0
64824773,42.6442940,-71.3163523,True,0
64824961,42.6406546,-71.3167718,False,0
64825221,42.6436780,-71.3084800,True,0
64825239,42.6460960,-71.2947560,False,0
64825282,42.6409502,-71.3166518,True,1
64825350,42.6481465,-71.3144828,False,0
64825360,42.6497919,-71.3252773,False,0
64825379,42.6429906,-71.3216817,True,0
64825395,42.6393180,-71.3012980,False,0
64825421,42.6401142,-71.3163517,False,0
64825536,42.6494226,-71.3056030,False,0
64825562,42.6472301,-71.3204976,False,0
64825601,42.6461094,-71.3223686,False,0
64825608,42.6471646,-71.3258701,True,0
64826095,42.6416654,-71.3056912,False,0
64826112,42.6486320,-71.2979510,False,0
64826215,42.6361538,-71.3034204,False,0
64826246,42.6452732,-71.3124049,True,0
64826349,42.6484570,-71.2976480,False,0
64826397,42.6446861,-71.3047235,False,0
64826553,42.6452581,-71.3005880,True,0
64826689,42.6496560,-71.3019220,False,0
64826746,42.6379950,-71.3055930,False,0
64826834,42.6487520,-71.3046420,True,0
64827139,42.6400884,-71.3290867,False,0
64827226,42.6443432,-71.3005526,True,0
64827678,42.6415030,-71.3000090,False,0
64827749,42.6452169,-71.3066236,True,0
64827794,42.6431970,-71.2999230,False,0
64828023,42.6421612,-71.3039658,False,0
64828103,42.6499790,-71.3018780,True,0
64828221,42.6501722,-71.3046433,True,0
64828593,42.6426260,-71.3020920,False,0
64828629,42.6493844,-71.3128254,False,0
64828654,42.6390910,-71.3153711,False,0
64828836,42.6513080,-71.3032230,False,0
64828898,42.6454130,-71.3131560,False,0
64829011,42.6391910,-71.3075830,False,0
64829056,42.6411830,-71.3190600,False,0
64829096,42.6423320,-71.3182546,False,0
64829109,42.6476786,-71.3193260,True,2
64829118,42.6502438,-71.3072955,False,0
64829122,42.6472790,-71.2970117,False,0
64829388,42.6405998,-71.3128509,True,0
64829483,42.6499248,-71.3049213,False,0
64829527,42.6397432,-71.3161410,False,0
64829669,42.6396490,-71.3085430,False,0
64829844,42.6450420,-71.3256110,False,0
64829966,42.6426893,-71.3061973,True,4
64829982,42.6417570,-71.3027300,False,0
64830012,42.6438358,-71.3216025,True,0
64830042,42.6389129,-71.3247738,False,0
64830260,42.6446480,-71.3210490,False,0
64830510,42.6470329,-71.3261685,False,0
64830673,42.6485830,-71.2978560,False,0
64830734,42.6445200,-71.3017720,True,0
64830876,42.6456681,-71.3139765,False,0
64831002,42.6481697,-71.3123471,False,0
64831044,42.6400713,-71.3146263,True,0
64831548,42.6499780,-71.3143710,False,0
64831648,42.6417893,-71.3089778,True,4
64831714,42.6481394,-71.3207395,True,2
64831820,42.6402215,-71.3087945,True,0
64831940,42.6449910,-71.3257980,False,0
64831956,42.6434712,-71.3237511,True,0
64832052,42.6487340,-71.3024973,False,0
64832270,42.6499010,-71.3007300,False,0
64832476,42.6451053,-71.3061364,False,0
64832625,42.6422070,-71.3006170,False,0
64832640,42.6492941,-71.3238010,False,0
64832677,42.6479438,-71.3202576,False,0
64832692,42.6400800,-71.3164640,False,0
64832761,42.6398842,-71.3254470,False,0
64833115,42.6410190,-71.3019660,False,0
64833154,42.6400781,-71.3143585,False,0
64833169,42.6460400,-71.3252260,False,0
64833201,42.6503457,-71.3216284,True,0
64833280,42.6486830,-71.2980620,False,0
64833350,42.6378841,-71.3142940,False,0
64833523,42.6396007,-71.3248892,False,0
64834068,42.6418434,-71.3088020,False,0
64834251,42.6418560,-71.3011380,True,0
64834372,42.6412868,-71.3082055,True,2
64834394,42.6406209,-71.3253684,False,0
64834666,42.6488281,-71.3038608,False,0
64834831,42.6506480,-71.3069480,False,0
64834842,42.6494357,-71.3232799,True,0
64834995,42.6522680,-71.3098230,False,0
64835141,42.6486845,-71.3020509,False,0
64835170,42.6450206,-71.3035877,True,0
64835386,42.6434847,-71.3236685,True,2
64835500,42.6513350,-71.3080400,False,0
64836419,42.6504330,-71.3018400,False,0
64836917,42.6429890,-71.3213700,False,0
64837053,42.6497963,-71.3186187,True,0
64837166,42.6433900,-71.3007710,False,0
64837193,42.6445563,-71.3113534,True,0
64837359,42.6501425,-71.3071596,False,0
64837465,42.6401194,-71.3082788,True,0
64837794,42.6420500,-71.2990350,False,0
64837835,42.6479978,-71.2982017,False,0
64837853,42.6487500,-71.3019420,False,0
64837881,42.6459060,-71.3026730,False,0
64837960,42.6460660,-71.3015654,False,0
64838127,42.6492790,-71.3019830,False,0
64838213,42.6479865,-71.3167620,True,0
64838304,42.6456310,-71.3129610,False,0
64838325,42.6477677,-71.2976687,False,0
64838334,42.6403116,-71.3162320,False,0
64838364,42.6404219,-71.3163169,False,0
64838445,42.6459050,-71.2936310,False,0
64838706,42.6381130,-71.3040890,False,0
64838728,42.6459800,-71.2944660,False,0
64838846,42.6410664,-71.3174706,False,0
64838873,42.6489854,-71.3204397,True,4
64839009,42.6404601,-71.3243667,True,0
64839279,42.6459220,-71.2934710,False,0
64839371,42.6397992,-71.3165558,False,0
64839382,42.6455440,-71.3037810,True,0
64839520,42.6444113,-71.3165957,False,0
64839714,42.6486850,-71.3225740,False,0
64839804,42.6552750,-71.3133590,False,0
64840015,42.6448455,-71.3053747,True,0
64840096,42.6519155,-71.3093745,False,0
64840302,42.6447916,-71.3052211,False,0
64840475,42.6407321,-71.3164811,True,0
64840621,42.6432040,-71.2993550,False,0
64840632,42.6470375,-71.3070318,True,0
64840817,42.6418130,-71.3017050,True,0
64840944,42.6444170,-71.3256260,False,0
64841089,42.6564290,-71.3127550,False,0
64841117,42.6431850,-71.3007820,True,0
64841560,42.6422233,-71.3048094,True,0
64841836,42.6531320,-71.3113300,False,0
64841846,42.6407300,-71.3124230,True,0
64842126,42.6419250,-71.3003330,True,1
64842155,42.6408634,-71.3166480,False,0
64842299,42.6486279,-71.3162470,True,4
64842608,42.6492507,-71.3135259,False,0
64842643,42.6406089,-71.3192512,True,0
64842774,42.6393744,-71.3248447,False,0
64842870,42.6497613,-71.3253350,False,0
64843043,42.6389040,-71.3041920,False,0
64843053,42.6506960,-71.3035010,False,0
64843265,42.6510133,-71.3165415,False,3
64843333,42.6432210,-71.2969110,False,0
64843358,42.6446380,-71.3148900,False,0
64843658,42.6397070,-71.3008110,False,0
64843721,42.6433420,-71.3169666,False,0
64843776,42.6402280,-71.3086870,False,0
64843784,42.6384750,-71.3147323,False,0
64844225,42.6378840,-71.3040350,False,0
64844540,42.6417130,-71.3034410,False,0
64844568,42.6460800,-71.3240490,False,0
64844899,42.6484732,-71.3177645,False,0
64844930,42.6489290,-71.2987390,False,0
64845004,42.6432976,-71.3071630,False,0
64845142,42.6478057,-71.3196659,True,0
64845298,42.6474822,-71.3196393,False,0
64845371,42.6434806,-71.3146651,True,4
64845574,42.6469321,-71.3061665,True,0
64845600,42.6445710,-71.3249870,False,0
64845630,42.6488199,-71.3184799,True,0
64845785,42.6487710,-71.3020900,False,0
64845904,42.6500227,-71.3249481,False,0
64846184,42.6415821,-71.3052278,True,0
64846319,42.6405782,-71.3268912,False,0
64846641,42.6490595,-71.3250460,False,0
64846981,42.6505786,-71.3018247,False,0
64847076,42.6500490,-71.3071929,False,0
64847121,42.6559018,-71.3139720,False,1
64847511,42.6431048,-71.3258524,False,1
64847577,42.6416556,-71.3175301,True,0
64848033,42.6474632,-71.3218409,True,0
64848104,42.6470050,-71.2959340,False,0
64848117,42.6502453,-71.3149046,False,0
64848578,42.6421742,-71.3040358,False,0
64848599,42.6429380,-71.3025340,False,0
64848616,42.6436610,-71.3084810,False,0
64848713,42.6444488,-71.3167647,True,0
64848851,42.6382590,-71.3057630,False,0
64848884,42.6428080,-71.3073130,False,0
64848967,42.6486787,-71.3218384,True,0
64849062,42.6440419,-71.3158361,True,2
64849346,42.6409190,-71.3178380,False,0
64849423,42.6496900,-71.3065459,False,0
64849505,42.6482820,-71.3210590,True,0
64849528,42.6418589,-71.3076886,False,0
64849628,42.6442910,-71.3180458,True,0
64849793,42.6453320,-71.3020000,True,0
64850090,42.6399397,-71.3158493,False,0
64850280,42.6413790,-71.2999400,False,0
64850345,42.6409836,-71.3078988,False,0
64850356,42.6394190,-71.3042590,False,0
64850508,42.6412851,-71.3228197,False,0
64850525,42.6484809,-71.3157354,False,0
64850547,42.6416880,-71.3037880,True,0
64850653,42.6401321,-71.3285727,False,0
64850685,42.6539100,-71.3119870,False,0
64850739,42.6468755,-71.3265373,False,0
64850901,42.6497173,-71.3254176,False,0
64851081,42.6482368,-71.3145807,False,0
64851307,42.6412980,-71.3186680,False,0
64851339,42.6476247,-71.3055642,True,0
64851384,42.6536580,-71.3118940,False,0
64851507,42.6481036,-71.3131130,True,1
64851881,42.6421414,-71.3062558,True,0
64852142,42.6495237,-71.3051884,True,4
64852177,42.6426230,-71.3009640,False,0
64852194,42.6542450,-71.3117440,False,0
64852326,42.6489240,-71.3019070,False,0
64852599,42.6445240,-71.3139260,False,0
64852750,42.6418683,-71.3084481,True,1
64852804,42.6389932,-71.3154087,False,0
64852855,42.6442066,-71.3187019,True,0
64852891,42.6387870,-71.3010880,False,0
64853096,42.6480809,-71.3206109,False,0
64853401,42.6466594,-71.3131893,True,4
64853448,42.6528820,-71.3110400,False,0
64853669,42.6418336,-71.3061817,False,0
64853705,42.6411690,-71.3166195,False,0
64853814,42.6533880,-71.3113380,False,0
64853976,42.6384812,-71.3148879,False,0
64854123,42.6412846,-71.3223316,False,0
64854128,42.6494955,-71.3132921,False,0
64854133,42.6446493,-71.3215273,False,0
64854302,42.6431260,-71.3192470,False,0
64854346,42.6489640,-71.2988550,False,0
64854460,42.6472553,-71.3184840,True,0
64854488,42.6458380,-71.3091400,False,0
64854545,42.6421853,-71.3042548,False,0
64854636,42.6428619,-71.3285256,False,0
64854686,42.6385020,-71.3041430,False,0
64854699,42.6474963,-71.2972026,False,0
64854789,42.6416279,-71.3055520,False,0
64854837,42.6496118,-71.3178107,True,0
64855170,42.6455660,-71.3083720,True,1
64855234,42.6481249,-71.2985898,False,0
64855493,42.6403840,-71.3011000,False,0
64855778,42.6422470,-71.3084698,True,0
64856011,42.6400042,-71.3144947,False,0
64856103,42.6488649,-71.3041321,False,0
64856203,42.6399422,-71.3163332,False,0
64856305,42.6500990,-71.3037700,True,0
64856460,42.6513720,-71.3087858,False,0
64856523,42.6464381,-71.3086013,True,0
64856569,42.6407402,-71.3078309,True,4
64857152,42.6461370,-71.2948370,False,0
64857345,42.6417788,-71.3164457,False,0
64857540,42.6445180,-71.3251850,False,0
64857706,42.6425826,-71.3061980,False,0
64857791,42.6498673,-71.3066983,False,0
64858015,42.6451250,-71.3214830,True,0
64858166,42.6440980,-71.3025980,False,0
64858335,42.6396878,-71.3155832,False,0
64858572,42.6418406,-71.3062781,True,4
64858908,42.6402280,-71.3016650,False,0
64859016,42.6493102,-71.3127819,False,0
64859183,42.6490580,-71.2993540,False,0
64859362,42.6499980,-71.3021610,False,0
64859516,42.6419977,-71.3239550,False,0
64859700,42.6398519,-71.3110315,True,0
64859760,42.6508550,-71.3083000,False,0
64859940,42.6447453,-71.3132899,True,0
64859945,42.6489000,-71.3018560,False,0
64860265,42.6426470,-71.3085242,True,0
64860295,42.6477390,-71.3244293,True,0
64860777,42.6464469,-71.3192933,False,0
64861011,42.6497445,-71.3064361,False,0
64861350,42.6414440,-71.3069290,False,0
64861519,42.6536650,-71.3111680,False,0
64861700,42.6446004,-71.3210028,True,4
64861843,42.6459079,-71.3125767,False,0
64862007,42.6498273,-71.3231770,False,0
64862350,42.6397688,-71.3267076,False,0
64862642,42.6433520,-71.3206303,True,0
64862682,42.6487350,-71.2981770,False,0
64862783,42.6417340,-71.3031090,False,0
64863004,42.6476620,-71.2909980,False,0
64863049,42.6469690,-71.3231560,True,0
64863063,42.6463880,-71.3172710,False,0
64863154,42.6498160,-71.3152650,False,0
64863611,42.6406249,-71.3252701,False,0
64863637,42.6424323,-71.3093241,True,0
64863706,42.6498800,-71.3069209,False,0
64864135,42.6480075,-71.3204406,False,0
64864375,42.6435364,-71.3147869,True,1
64864450,42.6440070,-71.3050820,False,0
64864475,42.6466650,-71.3255750,False,0
64864571,42.6377450,-71.3000900,False,0
64864664,42.6412950,-71.3208840,False,0
64865277,42.6442162,-71.2997777,False,0
64865811,42.6511860,-71.3017620,False,0
64865855,42.6498050,-71.3067879,False,0
64866085,42.6482970,-71.3235607,True,0
64866147,42.6415890,-71.3000640,False,0
64866232,42.6491605,-71.3191827,True,0
64866283,42.6500064,-71.3247771,False,3
64866503,42.6423006,-71.3062356,True,0
64866574,42.6557830,-71.3138600,False,0
64866678,42.6463815,-71.3132178,False,0
64866687,42.6400550,-71.3102720,True,0
64866813,42.6532290,-71.3114390,False,0
64867051,42.6479710,-71.3203427,False,0
64867187,42.6417710,-71.3025050,True,0
64867242,42.6459054,-71.3125341,True,0
64867483,42.6490850,-71.3005710,False,0
64867544,42.6412087,-71.3108665,True,0
64867696,42.6398201,-71.3301124,False,0
64868310,42.6406248,-71.3250923,False,0
64868496,42.6481352,-71.3141978,True,0
64868702,42.6422628,-71.3086099,False,0
64868740,42.6480469,-71.3205285,False,0
64869391,42.6385690,-71.3060060,False,0
64869750,42.6491822,-71.3135186,False,0
64869823,42.6482013,-71.3150581,True,0
64870112,42.6488900,-71.3017940,False,0
64870285,42.6420190,-71.3180840,False,0
64870514,42.6384628,-71.3247040,False,1
64870653,42.6422608,-71.3052211,False,0
64870871,42.6402374,-71.3113508,False,0
64871074,42.6481180,-71.2972140,False,0
64871083,42.6401999,-71.3161256,False,0
64871116,42.6410508,-71.3166449,True,0
64871227,42.6432630,-71.3169806,False,0
64871506,42.6387680,-71.2997220,False,0
64871764,42.6422380,-71.3019180,True,0
64872279,42.6416472,-71.3045083,True,1
64872322,42.6489076,-71.3172920,False,0
64872363,42.6444286,-71.3170141,False,0
64872617,42.6488691,-71.3222032,False,0
64872631,42.6434820,-71.3014880,False,0
64873270,42.6412240,-71.3187800,False,0
64873295,42.6489976,-71.3129565,False,0
64873309,42.6414070,-71.3171150,False,0
64873331,42.6417069,-71.3062665,False,0
64873367,42.6417870,-71.3022110,True,0
64873564,42.6488680,-71.2905770,False,0
64873587,42.6478827,-71.2981080,False,0
64873731,42.6487229,-71.3017748,False,0
64873996,42.6428362,-71.3202569,False,0
64874264,42.6474690,-71.3077140,True,0
64874346,42.6457510,-71.3250620,False,0
64874357,42.6495323,-71.3178733,True,1
64874403,42.6416215,-71.3254027,False,0
64874430,42.6404025,-71.3243715,True,0
64874592,42.6482338,-71.3141964,True,0
64874820,42.6521606,-71.3096528,False,0
64874956,42.6546180,-71.3126980,False,0
64875005,42.6430580,-71.3212120,False,0
64875105,42.6501200,-71.3111870,True,0
64875117,42.6387030,-71.3061170,False,0
64875285,42.6493090,-71.2901760,False,0
64875503,42.6455300,-71.3218550,True,0
64875740,42.6481220,-71.3113540,False,0
64875915,42.6402832,-71.3167393,False,0
64876006,42.6504327,-71.3050375,False,0
64876110,42.6376437,-71.3139182,False,0
64876551,42.6465022,-71.2958966,True,0
64876617,42.6469886,-71.3082850,True,2
64876662,42.6401584,-71.3084923,False,0
64876938,42.6481134,-71.3255183,False,0
64877354,42.6421372,-71.3039138,False,0
64877553,42.6471481,-71.3059735,True,0
64877769,42.6474390,-71.2964220,False,0
64878109,42.6405411,-71.3251013,True,0
64878866,42.6450310,-71.3007710,False,0
64878946,42.6455253,-71.3149195,True,0
64878972,42.6457810,-71.3128540,False,0
64879204,42.6433556,-71.3144175,True,0
64879419,42.6460237,-71.3139517,False,0
64879428,42.6398320,-71.2992320,False,0
64879521,42.6488069,-71.3248124,True,0
64879581,42.6453843,-71.3175010,True,0
64879605,42.6534100,-71.3116310,False,0
64879965,42.6453160,-71.3008045,False,0
64880078,42.6410639,-71.3087531,True,1
64880098,42.6433410,-71.3014430,False,0
64880294,42.6416061,-71.3165781,False,0
64880374,42.6492780,-71.3051655,False,0
64880415,42.6417830,-71.3023000,False,0
64880526,42.6566130,-71.3128370,False,0
64880724,42.6500699,-71.3070523,False,0
64880729,42.6524010,-71.3016220,False,0
64880840,42.6464067,-71.3056660,False,0
64880919,42.6415983,-71.3050166,False,0
64881051,42.6487960,-71.2906150,False,0
64881183,42.6419905,-71.3062772,False,0
64881475,42.6507260,-71.3224130,False,0
64881546,42.6463030,-71.3133619,False,0
64881817,42.6460783,-71.3013530,True,0
64882163,42.6501003,-71.3146355,True,0
64882280,42.6432100,-71.2983780,False,0
64882299,42.6474911,-71.3250594,True,0
64882408,42.6463680,-71.3055706,False,0
64882820,42.6460987,-71.3191666,False,0
64882865,42.6446799,-71.3129137,True,0
64883054,42.6538840,-71.3121260,False,0
64883114,42.6481579,-71.3147322,False,0
64883211,42.6451430,-71.3214980,False,0
64883216,42.6403760,-71.3079910,False,0
64883331,42.6405696,-71.3167556,True,0
64883416,42.6418566,-71.3086659,True,1
64883474,42.6425140,-71.3008730,True,0
64883806,42.6493460,-71.3019720,True,0
64883824,42.6558092,-71.3140990,False,1
64883899,42.6498609,-71.3242229,False,0
64883931,42.6403045,-71.3043500,True,0
64884024,42.6440820,-71.3241160,True,0
64884034,42.6459598,-71.3090284,True,0
64884075,42.6515100,-71.3031310,False,0
64884647,42.6407220,-71.3012430,True,0
64884669,42.6451482,-71.3062786,False,0
64884683,42.6379820,-71.3007960,False,0
64884883,42.6404537,-71.3165613,False,0
64884968,42.6462720,-71.3067974,True,0
64885137,42.6362631,-71.2993930,False,0
64885195,42.6465801,-71.3074383,True,0
64885514,42.6528950,-71.3103930,False,0
64885623,42.6463010,-71.2951020,False,0
64885674,42.6444650,-71.3254030,False,0
64885689,42.6501475,-71.3247778,False,0
64885723,42.6418420,-71.3065230,False,0
64885788,42.6490520,-71.3269480,False,0
64886071,42.6414804,-71.3064891,True,0
64886110,42.6373390,-71.3005360,False,0
64886123,42.6491850,-71.3218910,False,0
64886182,42.6398898,-71.3124578,True,0
64886223,42.6478516,-71.2978439,False,0
64886433,42.6469172,-71.2963968,False,0
64886769,42.6388251,-71.3152432,False,0
64886816,42.6427852,-71.3154644,True,0
64886903,42.6444464,-71.3168310,True,0
64887000,42.6483838,-71.3154524,False,0
64887159,42.6400981,-71.3249981,True,0
64887171,42.6479066,-71.3102448,True,0
64887192,42.6391575,-71.3248114,False,0
64887230,42.6398991,-71.3166144,False,0
64887257,42.6412480,-71.3167549,False,0
64887382,42.6491330,-71.3003380,False,0
64887545,42.6487130,-71.3022856,True,0
64887662,42.6413620,-71.3127690,True,0
64887954,42.6394956,-71.3108296,False,0
64887989,42.6436960,-71.3025240,False,0
64888219,42.6464710,-71.3254670,False,0
64888242,42.6411920,-71.3188810,False,0
64888355,42.6453180,-71.3248200,True,0
64888511,42.6500666,-71.3248857,True,0
64888595,42.6446170,-71.3033650,False,0
64888706,42.6445840,-71.3026210,True,0
64888831,42.6466309,-71.3271495,False,0
64888982,42.6485071,-71.3233213,False,0
64889058,42.6409461,-71.3168031,True,0
64889107,42.6490627,-71.3128534,False,0
64889468,42.6446530,-71.3244460,False,0
64889709,42.6488910,-71.3015430,False,0
64889788,42.6507310,-71.3034850,False,0
64889953,42.6478979,-71.3200712,False,0
64889990,42.6490753,-71.3159293,True,0
64890122,42.6378590,-71.2992770,False,0
64890140,42.6459160,-71.2999180,False,0
64890277,42.6456630,-71.3034410,False,0
64890474,42.6460833,-71.3129648,False,0
64890736,42.6413813,-71.3078164,True,0
64890757,42.6458900,-71.2937730,False,0
64890786,42.6537380,-71.3117880,False,0
64890790,42.6432356,-71.3192696,True,0
64890820,42.6457867,-71.3072268,True,0
64890847,42.6435734,-71.3033641,True,0
64890916,42.6460573,-71.3142487,False,0
64890927,42.6468647,-71.2964486,False,0
64890992,42.6495341,-71.3199535,True,0
64891020,42.6422240,-71.3181786,False,0
64891160,42.6393640,-71.3086440,False,0
64891349,42.6478422,-71.3198281,False,0
64891472,42.6443849,-71.3173168,False,0
64891518,42.6409430,-71.2997630,True,0
64891540,42.6370990,-71.2997770,False,0
64891581,42.6406810,-71.3006300,False,0
64891660,42.6481845,-71.3128218,False,0
64891666,42.6464250,-71.3243120,False,0
64891688,42.6449250,-71.3261180,False,0
64891699,42.6462070,-71.2949630,False,0
64892064,42.6536090,-71.3116270,False,0
64892072,42.6532760,-71.3111890,False,0
64892137,42.6432221,-71.3070329,False,0
64892183,42.6417790,-71.3114320,True,0
64892229,42.6416189,-71.3082889,True,0
64892486,42.6397330,-71.3043040,False,0
64892513,42.6481645,-71.2987443,False,0
64892521,42.6429770,-71.3027210,True,0
64892536,42.6431219,-71.3257183,False,2
64892607,42.6430135,-71.3195419,False,0
64892611,42.6413930,-71.3020800,False,0
64892687,42.6446270,-71.3247850,False,0
64892695,42.6484250,-71.3238910,False,0
64892906,42.6459360,-71.2943320,False,0
64892910,42.6405512,-71.3165943,False,0
64892994,42.6460180,-71.3229510,False,0
64893023,42.6465220,-71.2953780,False,0
64893127,42.6486261,-71.3016400,False,0
64893172,42.6518843,-71.3088671,False,0
64893886,42.6435718,-71.3170146,True,0
64893997,42.6412390,-71.3037300,False,0
64894016,42.6476620,-71.2966700,False,0
64894029,42.6458860,-71.2940450,False,0
64894043,42.6486593,-71.3018478,False,0
64894092,42.6470951,-71.3099369,True,0
64894294,42.6465288,-71.3059606,True,0
64894323,42.6457100,-71.3128900,False,0
64894505,42.6481440,-71.3115450,False,0
64894526,42.6471700,-71.3237320,False,0
64894587,42.6406273,-71.3251823,False,0
64894598,42.6417050,-71.3035580,False,0
64894624,42.6487461,-71.3026556,False,0
64894658,42.6466920,-71.3229040,False,0
64894777,42.6364856,-71.3035607,False,0
64895016,42.6483520,-71.3239890,False,0
64895079,42.6529200,-71.3106900,False,0
64895168,42.6426252,-71.3217157,True,0
64895366,42.6419977,-71.3255126,False,0
64895486,42.6516400,-71.3093690,False,0
64895677,42.6461300,-71.3079630,False,0
64895727,42.6378230,-71.3040160,False,0
64895761,42.6429208,-71.3278918,False,0
64895832,42.6474546,-71.3172716,True,0
64895838,42.6406290,-71.3274562,False,0
64895887,42.6405296,-71.3262652,False,0
64896001,42.6483510,-71.2975000,False,0
64896077,42.6477687,-71.3195334,True,2
64896198,42.6478709,-71.3199459,True,0
64896351,42.6400032,-71.3166658,False,0
64896413,42.6452980,-71.3226060,False,0
64896481,42.6416200,-71.3037730,False,0
64896728,42.6446370,-71.3138280,False,0
64896879,42.6422925,-71.3217467,True,0
64896986,42.6382490,-71.3041090,False,0
64897169,42.6548680,-71.3129460,False,0
64897241,42.6525390,-71.3105920,False,0
64897499,42.6411080,-71.3166336,False,0
64897523,42.6491050,-71.3019980,True,0
64897647,42.6442859,-71.3002074,False,0
64897685,42.6445860,-71.3187931,False,0
64897722,42.6491170,-71.3217270,False,0
64897877,42.6397910,-71.3088420,False,0
64898435,42.6424502,-71.3190331,True,0
64898524,42.6413302,-71.3167286,True,0
64898567,42.6443798,-71.3165266,False,0
64898575,42.6518730,-71.3029820,False,1
64898610,42.6549910,-71.3132730,False,0
64898777,42.6420620,-71.2988840,False,0
64898936,42.6417990,-71.3089410,False,0
64898943,42.6489719,-71.3042484,False,2
64898955,42.6408030,-71.3006820,True,0
64899033,42.6515120,-71.3068530,False,0
64899132,42.6417468,-71.3059041,False,0
64899165,42.6459099,-71.3109762,False,0
64899220,42.6458857,-71.3122666,True,0
64899252,42.6459620,-71.2932130,False,0
64899375,42.6495906,-71.3139806,False,0
64899408,42.6390310,-71.3063870,False,0
64899437,42.6447260,-71.3244880,True,0
64899451,42.6489793,-71.3132879,False,0
64899467,42.6490226,-71.3044264,True,1
64899562,42.6420942,-71.3038718,False,0
64899589,42.6490980,-71.2995780,False,0
64899647,42.6504220,-71.3077060,False,0
64899657,42.6522460,-71.3097950,False,0
64899697,42.6411067,-71.3175738,True,0
64899731,42.6446940,-71.3224900,False,0
64899792,42.6413160,-71.3178502,True,0
64899958,42.6415721,-71.3164620,False,0
64899967,42.6391460,-71.3064830,False,0
64899980,42.6400569,-71.3282807,False,0
64900014,42.6413496,-71.3165666,False,0
64900119,42.6473019,-71.2969189,False,0
64900169,42.6401257,-71.3288493,False,0
64900202,42.6451307,-71.3106791,True,0
64900214,42.6541720,-71.3124230,False,0
64900342,42.6467520,-71.2956360,False,0
64900346,42.6457560,-71.3091960,False,0
64900387,42.6485290,-71.2977550,False,0
64900543,42.6543970,-71.3118550,False,0
64900671,42.6405668,-71.3267997,False,0
64900692,42.6447210,-71.3008830,False,0
64900695,42.6481766,-71.3208259,True,0
64900711,42.6431930,-71.3170166,False,0
64900714,42.6449580,-71.3259530,False,0
64900732,42.6394851,-71.3158946,False,0
64900768,42.6395039,-71.3136841,False,0
64900791,42.6448870,-71.3263971,False,0
64900879,42.6460340,-71.2927010,False,0
64901003,42.6402483,-71.3126578,True,0
64901124,42.6496956,-71.3138025,True,0
64901157,42.6492115,-71.3243346,True,0
64901247,42.6494906,-71.3129880,True,0
64901314,42.6395334,-71.3088657,False,0
64901344,42.6480001,-71.3107883,False,0
64901376,42.6457440,-71.3032320,False,0
64901433,42.6398079,-71.3157118,False,0
64901445,42.6408956,-71.3078505,True,4
64901474,42.6416790,-71.3039090,False,0
64901579,42.6489458,-71.3041161,False,0
64901601,42.6417210,-71.3116230,True,0
64901878,42.6501590,-71.3073550,False,0
64901899,42.6362012,-71.2999808,False,0
64902428,42.6529890,-71.3111590,False,0
64902492,42.6493143,-71.3263616,False,0
64902510,42.6390000,-71.2988250,False,0
64902597,42.6489080,-71.2986710,False,0
64902612,42.6403455,-71.3136637,True,0
64902621,42.6567860,-71.3129080,False,0
64902659,42.6481288,-71.3140268,False,0
64902762,42.6465460,-71.3047010,True,0
64903017,42.6491673,-71.3048651,False,0
64903688,42.6429410,-71.3026440,False,0
64903829,42.6497902,-71.3221184,True,0
64903907,42.6499425,-71.3038423,False,0
64903983,42.6477480,-71.3223690,True,0
64904019,42.6488400,-71.2984510,False,0
64904040,42.6381645,-71.3040933,False,0
64904277,42.6419160,-71.3062846,True,2
64904382,42.6494944,-71.3040870,True,0
64904455,42.6453420,-71.3014434,False,0
64904604,42.6502546,-71.3193143,False,1
64904613,42.6377643,-71.3054757,False,0
64904664,42.6490125,-71.3133697,False,0
64904806,42.6443923,-71.3009110,True,0
64904859,42.6486104,-71.3196702,True,0
64904944,42.6408462,-71.3144816,False,0
64904950,42.6457807,-71.3110110,True,0
64904977,42.6405703,-71.3244419,False,0
64905016,42.6396225,-71.3164088,False,0
64905147,42.6444404,-71.3166929,False,0
64905216,42.6403740,-71.3167466,False,0
64905220,42.6488840,-71.2985940,False,0
64905268,42.6504375,-71.3121150,False,0
64905401,42.6481590,-71.3118760,False,0
64905450,42.6479239,-71.3166309,True,0
64905596,42.6401550,-71.3197735,True,0
64905774,42.6476799,-71.2975061,False,0
64905818,42.6419742,-71.3217763,True,3
64905841,42.6490605,-71.3203748,False,3
64905893,42.6482761,-71.3189701,True,1
64905906,42.6489000,-71.3014890,False,0
64905930,42.6489993,-71.3169906,False,0
64905951,42.6493066,-71.3230294,True,0
64905996,42.6433385,-71.3072623,True,0
64906057,42.6490395,-71.3232348,False,0
64906223,42.6473949,-71.2970508,False,0
64906240,42.6429810,-71.3214320,False,0
64906277,42.6409527,-71.3044332,True,0
64906428,42.6396901,-71.3164687,False,0
64906451,42.6395566,-71.3154716,True,1
64906608,42.6437614,-71.3260530,False,0
64907046,42.6411820,-71.3193870,False,0
64907072,42.6490010,-71.3019810,False,0
64907175,42.6382892,-71.3146835,False,0
64907187,42.6466367,-71.3172229,True,0
64907466,42.6498340,-71.2997480,False,0
64907480,42.6501201,-71.3146756,True,0
64907508,42.6425527,-71.3202970,True,0
64907657,42.6415349,-71.3166259,False,0
64907733,42.6429262,-71.3085068,True,0
64907837,42.6510451,-71.3083814,False,0
64907846,42.6516635,-71.3091069,False,0
64907940,42.6478830,-71.2969260,False,0
64907949,42.6488330,-71.3161510,True,0
64908075,42.6397160,-71.3086810,False,0
64908178,42.6490250,-71.2991440,False,0
64908280,42.6439950,-71.3025960,False,0
64908347,42.6417685,-71.3062719,False,0
64908415,42.6398516,-71.3249441,True,0
64908546,42.6419640,-71.2999270,False,0
64908715,42.6395130,-71.3085890,False,0
64908803,42.6439969,-71.3084566,True,0
64908867,42.6457419,-71.3175969,True,0
64909028,42.6401875,-71.3167222,False,0
64909154,42.6402240,-71.3102550,False,0
64909233,42.6376600,-71.3000490,False,0
64909348,42.6494541,-71.3179323,True,1
64909454,42.6467460,-71.3178660,True,0
64909468,42.6413193,-71.3081133,True,1
64909483,42.6417014,-71.3057867,False,0
64909520,42.6453390,-71.3025960,True,0
64909632,42.6434270,-71.3169786,False,0
64909643,42.6531240,-71.3106340,False,0
64909659,42.6475919,-71.2973561,False,0
64909685,42.6446160,-71.3017990,False,0
64909794,42.6484444,-71.3158849,False,0
64909838,42.6483364,-71.3156002,False,0
64909886,42.6484801,-71.3177787,True,0
64910119,42.6428287,-71.3289423,True,0
64910241,42.6449998,-71.3182184,True,0
64910508,42.6517804,-71.3092337,False,0
64910569,42.6481022,-71.2988072,False,0
64910678,42.6416460,-71.3218010,False,0
64910689,42.6454262,-71.3074343,True,1
64910720,42.6452507,-71.3143402,True,0
64910724,42.6412130,-71.3198030,True,0
64910736,42.6468720,-71.3177086,True,0
64910939,42.6477451,-71.2977814,False,0
64911064,42.6448193,-71.3134440,True,0
64911151,42.6501605,-71.3228909,True,0
64911211,42.6446536,-71.3126085,True,2
64911221,42.6466350,-71.2955040,False,0
64911233,42.6392110,-71.2999360,False,0
64911378,42.6446150,-71.3008910,False,0
64911456,42.6526470,-71.3107430,False,0
64911500,42.6515521,-71.3089889,False,0
64911513,42.6488514,-71.3174443,False,0
64911561,42.6486310,-71.3207580,False,0
64911604,42.6497860,-71.3065255,False,0
64911643,42.6405340,-71.3266778,False,0
64911658,42.6475290,-71.3219700,False,0
64912303,42.6375130,-71.3006060,False,0
64912376,42.6543220,-71.3124100,False,0
64912456,42.6486958,-71.3016090,False,0
64912573,42.6460895,-71.3144355,True,0
64912778,42.6374390,-71.2999410,False,0
64913066,42.6453295,-71.3008858,False,0
64913171,42.6506830,-71.3070040,False,0
64913197,42.6495151,-71.3131092,False,0
64913215,42.6453488,-71.3011495,False,0
64913261,42.6497740,-71.2987950,False,0
64913273,42.6422839,-71.3053434,True,2
64913301,42.6470950,-71.3238930,True,4
64913421,42.6408535,-71.3167990,False,0
64913524,42.6410896,-71.3165486,True,0
64913558,42.6493173,-71.3052883,True,1
64913712,42.6413700,-71.3218280,True,0
64913902,42.6429072,-71.3202599,False,0
64913917,42.6479411,-71.3103867,True,2
64914040,42.6448905,-71.3008537,False,0
64914253,42.6429590,-71.3012460,False,0
64914276,42.6390970,-71.2998820,False,0
64914617,42.6459850,-71.3001270,False,0
64914739,42.6491500,-71.3001260,False,0
64914764,42.6406319,-71.3164370,False,0
64914785,42.6452760,-71.3069040,True,4
64915002,42.6418030,-71.3018340,False,0
64915509,42.6497559,-71.3039404,True,0
64915564,42.6453459,-71.3010065,False,0
64915629,42.6430830,-71.3013230,False,0
64915731,42.6414053,-71.3166964,False,0
64916161,42.6485590,-71.3266520,False,0
64916374,42.6540580,-71.3121380,False,0
64916484,42.6534930,-71.3114840,False,0
64916861,42.6422023,-71.3195503,False,0
64916889,42.6395810,-71.3085820,False,0
64916988,42.6395662,-71.3158351,False,0
64917015,42.6401801,-71.3165501,False,0
64917484,42.6489620,-71.3131975,True,0
64917671,42.6405233,-71.3266074,False,0
64917704,42.6444395,-71.3169202,False,0
64917770,42.6431340,-71.3013490,True,0
64917877,42.6422742,-71.3182266,False,0
64918003,42.6489590,-71.3019530,False,0
64918013,42.6562810,-71.3126900,False,0
64918101,42.6424043,-71.3056838,False,0
64918201,42.6464020,-71.2952320,False,0
64918244,42.6480631,-71.2983933,False,0
64918261,42.6530700,-71.3112520,False,0
64918312,42.6473813,-71.2971552,False,0
64918428,42.6396933,-71.3151145,False,0
64918481,42.6410784,-71.3167953,False,0
64918763,42.6405500,-71.3244064,False,0
64918864,42.6435280,-71.3024730,False,0
64918916,42.6460170,-71.3002730,False,0
64919102,42.6495709,-71.3235627,True,0
64919154,42.6503536,-71.3074480,False,0
64919240,42.6407820,-71.3218733,False,0
64919296,42.6468810,-71.3237140,False,0
64919511,42.6510690,-71.3061180,False,0
64919544,42.6498294,-71.3066203,False,0
64919628,42.6480296,-71.3109389,True,0
64919710,42.6416506,-71.3062853,False,0
64919750,42.6412792,-71.3218367,True,0
64919807,42.6499418,-71.3245330,False,0
64920018,42.6482906,-71.3150219,True,4
64920052,42.6396235,-71.3152797,False,0
64920345,42.6393170,-71.3087020,False,0
64920359,42.6379460,-71.3055680,False,0
64920402,42.6417791,-71.3059919,False,0
64920495,42.6406169,-71.3114641,True,0
64920559,42.6402681,-71.3166169,False,0
64920621,42.6460636,-71.3011169,False,0
64920678,42.6405320,-71.3078860,False,0
64920718,42.6491470,-71.3000370,False,0
64920810,42.6496218,-71.3128901,False,0
64920849,42.6381030,-71.3056490,False,0
64920968,42.6496020,-71.3116400,False,0
64921134,42.6488870,-71.3015910,False,0
64921161,42.6498126,-71.3240978,False,0
64921294,42.6475814,-71.3196723,False,0
64921414,42.6461769,-71.3146370,True,0
64921840,42.6449510,-71.3237860,False,0
64921983,42.6488870,-71.3017230,False,0
64922067,42.6467764,-71.3175113,True,0
64922094,42.6393852,-71.3156543,False,0
64922245,42.6436080,-71.3007370,False,0
64922395,42.6419952,-71.3229258,True,0
64922421,42.6460490,-71.2946330,False,0
64922683,42.6456990,-71.3237780,True,0
64922786,42.6511496,-71.3085195,False,0
64922803,42.6408119,-71.3181668,False,0
64923087,42.6404658,-71.3167234,False,0
64923171,42.6382280,-71.3057380,False,0
64923255,42.6395380,-71.3068050,False,0
64923279,42.6397880,-71.3086240,False,0
64923373,42.6507492,-71.3118817,False,0
64923401,42.6398850,-71.3085350,False,0
64923510,42.6491503,-71.3127882,True,0
64923520,42.6462560,-71.2920340,False,0
64923557,42.6421185,-71.3179865,True,0
64923666,42.6489353,-71.3044951,True,1
64923698,42.6416230,-71.3047584,False,0
64923770,42.6445144,-71.3215398,True,0
64923880,42.6479406,-71.3240241,True,0
64924033,42.6490620,-71.3020000,False,0
64924100,42.6405940,-71.3201100,False,0
64924120,42.6494175,-71.3134372,False,0
64924184,42.6402431,-71.3139977,True,0
64924285,42.6496939,-71.3230581,True,4
64924395,42.6458556,-71.3119054,True,0
64924420,42.6449450,-71.3084091,True,0
64924504,42.6440240,-71.3033910,True,0
64924563,42.6397040,-71.3069420,False,0
64924733,42.6464500,-71.3172820,False,0
64924836,42.6401936,-71.3141205,False,0
64924997,42.6473525,-71.3170570,True,0
64925041,42.6488865,-71.3202474,True,0
64925294,42.6405802,-71.3244986,False,0
64925366,42.6480627,-71.2986563,False,0
64925408,42.6446991,-71.3048736,True,2
64925604,42.6453640,-71.3036810,False,0
64925697,42.6409210,-71.2997530,False,0
64925840,42.6449620,-71.3008110,True,4
64925860,42.6447191,-71.3049790,True,0
64925871,42.6401406,-71.3287205,False,0
64925895,42.6554970,-71.3123410,False,0
64925995,42.6541710,-71.3122570,False,0
64926089,42.6417824,-71.3184122,True,3
64926113,42.6525740,-71.3099320,False,0
64926200,42.6474925,-71.3173499,True,0
64926434,42.6402231,-71.3233888,False,0
64926524,42.6449019,-71.3136044,True,1
64926627,42.6419449,-71.3185695,False,0
64926762,42.6420190,-71.2993610,False,0
64926779,42.6402647,-71.3164672,False,0
64926961,42.6491420,-71.2999420,False,0
64927149,42.6416954,-71.3165148,False,0
64927226,42.6392100,-71.3042320,False,0
64927238,42.6486634,-71.3163107,True,0
64927242,42.6489293,-71.3039541,True,0
64927323,42.6526000,-71.3099720,False,0
64927402,42.6432430,-71.3014070,False,0
64927498,42.6477388,-71.3194475,True,0
64927529,42.6402646,-71.3112636,True,0
64927612,42.6547520,-71.3120130,False,0
64927642,42.6416650,-71.3001160,False,0
64927719,42.6531040,-71.3109410,False,0
64927856,42.6478742,-71.3101416,False,0
64927872,42.6454810,-71.3037320,False,0
64928096,42.6449853,-71.3057949,True,0
64928146,42.6446540,-71.3247050,False,0
64928152,42.6371810,-71.2979260,False,0
64928156,42.6487630,-71.3234680,False,0
64928563,42.6405182,-71.3265346,False,0
64928749,42.6443170,-71.3262229,False,0
64928793,42.6433272,-71.3084921,True,0
64928826,42.6405100,-71.3104320,True,0
64928836,42.6500018,-71.3069433,False,0
64928851,42.6443620,-71.3084435,True,1
64928927,42.6421060,-71.2983420,False,0
64929111,42.6489910,-71.2989930,False,0
64929159,42.6450980,-71.3007200,False,0
64929206,42.6444780,-71.3015070,False,0
64929242,42.6480227,-71.2985208,False,0
64929247,42.6411963,-71.3084239,False,0
64929417,42.6493036,-71.3211035,False,0
64929476,42.6499684,-71.3246410,False,0
64929491,42.6507610,-71.3079992,False,0
64929596,42.6447038,-71.3131665,False,0
64929891,42.6416563,-71.3164020,False,0
64929907,42.6482837,-71.3154239,False,0
64929922,42.6409668,-71.3116630,True,0
64929931,42.6493717,-71.3041620,True,0
64930010,42.6397715,-71.3149489,False,0
64930071,42.6447364,-71.3050548,False,0
64930176,42.6459460,-71.3000280,True,0
64930459,42.6479371,-71.2982541,False,0
64930476,42.6469312,-71.3081736,True,1
64930493,42.6431735,-71.3196859,True,0
64930589,42.6488890,-71.3016440,False,0
64930591,42.6461440,-71.2922360,False,0
64930599,42.6381744,-71.3145677,False,0
64930602,42.6409180,-71.2999300,False,0
64930630,42.6470840,-71.2912920,False,0
64930643,42.6456294,-71.3151414,True,0
64930674,42.6458390,-71.2997210,False,0
64930709,42.6459030,-71.2941990,False,0
64930886,42.6456026,-71.3088179,False,0
64931150,42.6382537,-71.3071224,False,0
64931262,42.6472450,-71.3259150,False,0
64931419,42.6423585,-71.3055819,False,0
64931433,42.6420282,-71.3038488,False,0
64931506,42.6364382,-71.2975847,False,0
64931720,42.6436236,-71.3200921,True,0
64931789,42.6458390,-71.3029380,True,0
64931835,42.6394340,-71.3086000,False,0
64932001,42.6451192,-71.3174300,True,0
64932023,42.6512818,-71.3086805,False,0
64932044,42.6481322,-71.2989419,False,0
64932105,42.6489635,-71.3130842,True,0
64932219,42.6416102,-71.3063114,False,0
64932269,42.6393960,-71.3088090,False,0
64932582,42.6402610,-71.3080940,True,0
64932623,42.6498895,-71.3243285,True,0
64932630,42.6508320,-71.3056930,False,0
64932692,42.6479243,-71.2980174,False,0
64932763,42.6434568,-71.3146132,True,0
327267731,42.6454031,-71.2941214,False,0
327275900,42.6478821,-71.3028426,False,0
327278945,42.6453856,-71.2940545,False,0
327284080,42.6463892,-71.2965637,False,0
327286462,42.6481581,-71.3007363,True,0
327291051,42.6452208,-71.2940848,False,0
327296666,42.6466700,-71.2971599,False,0
327298940,42.6476524,-71.2989775,False,0
327638631,42.6452560,-71.2942414,False,0
327645344,42.6477312,-71.2987043,False,0
327647262,42.6477354,-71.2983283,False,0
327648903,42.6456124,-71.2950850,False,0
327655731,42.6476470,-71.2980208,False,0
327658091,42.6456554,-71.2952089,False,0
327660167,42.6467468,-71.2973533,False,0
327667855,42.6472792,-71.2974301,False,0
327669243,42.6458288,-71.2955495,False,0
327670361,42.6471395,-71.2986544,False,0
327675620,42.6459642,-71.2950904,False,0
327676115,42.6460466,-71.2959133,False,0
327679676,42.6472097,-71.2991807,False,0
328280547,42.6463069,-71.3059471,True,0
328282225,42.6463784,-71.3059256,True,0
328291626,42.6465768,-71.3063726,False,0
328294527,42.6458319,-71.3063593,True,0
328307652,42.6460622,-71.3068199,False,0
328320257,42.6462341,-71.3059871,True,0
328321553,42.6447518,-71.3100012,False,0
328584887,42.6464452,-71.3059294,True,0
328584913,42.6447335,-71.3097685,False,0
328597992,42.6423466,-71.3018361,False,0
328601622,42.6426702,-71.3019823,False,0
328602253,42.6449856,-71.3097318,False,0
328603319,42.6450039,-71.3099645,False,0
328642841,42.6449396,-71.3182694,False,0
328648681,42.6449041,-71.3185309,False,0
328655161,42.6445904,-71.3184464,False,0
328661386,42.6446239,-71.3181882,False,0
328714349,42.6446876,-71.3209502,False,0
328732010,42.6480045,-71.3013044,True,0
328735090,42.6448567,-71.3197949,False,0
328745936,42.6469308,-71.3229948,True,0
328752894,42.6476622,-71.3223406,True,0
328757515,42.6470999,-71.3212237,False,0
328764495,42.6481919,-71.3012038,True,0
328767855,42.6424048,-71.3015780,False,0
328768798,42.6427506,-71.3016933,False,0
328803723,42.6502757,-71.3213576,False,0
328807006,42.6433499,-71.3181374,False,0
328815375,42.6433263,-71.3183255,False,0
328823830,42.6500782,-71.3209459,False,0
328832116,42.6430538,-71.3180536,False,0
329026550,42.6430275,-71.3183358,False,0
329027887,42.6503879,-71.3206709,False,0
329035698,42.6505882,-71.3210742,False,0
358278846,42.6421158,-71.2990782,False,0
390664105,42.6506170,-71.3135219,False,0
390664108,42.6501618,-71.3139376,False,0
390664112,42.6501036,-71.3138162,False,0
390664116,42.6500079,-71.3137693,False,0
390664119,42.6499275,-71.3136801,False,0
390664122,42.6498830,-71.3136131,False,0
390664125,42.6498308,-71.3134843,False,0
390664132,42.6497070,-71.3135306,False,0
390664186,42.6507392,-71.3127333,False,0
390664192,42.6508121,-71.3128889,False,0
390664194,42.6508319,-71.3129882,False,0
390664197,42.6508379,-71.3131678,False,0
390664199,42.6508937,-71.3132845,False,0
1070524730,42.6463534,-71.3133200,True,2
1070524733,42.6482007,-71.3131120,True,1
1133148034,42.6485801,-71.3159540,False,0
1133148069,42.6485219,-71.3106947,False,0
1133148207,42.6475671,-71.3080999,False,0
1133148231,42.6499068,-71.3175391,True,2
1133148237,42.6483902,-71.3071116,True,0
1133148239,42.6480721,-71.3063631,False,0
1133148240,42.6472762,-71.3078772,True,0
1133148245,42.6491575,-71.3120324,True,0
1133148251,42.6478913,-71.3165633,True,2
1133148274,42.6476065,-71.3054243,False,0
1133148291,42.6474490,-71.3050702,True,0
1133148304,42.6483461,-71.3105635,True,0
1133148321,42.6467385,-71.3028108,False,0
1133148342,42.6472277,-71.3043756,True,0
1133148404,42.6479912,-71.3073180,False,0
1133148434,42.6499856,-71.3104936,False,0
1133148437,42.6496716,-71.3153969,True,0
1133148458,42.6501277,-71.3104989,False,0
1133148465,42.6504351,-71.3109516,False,0
1133148469,42.6452067,-71.3065748,True,2
1133148496,42.6439354,-71.3084625,False,0
1133148503,42.6467676,-71.3063342,False,0
1133148505,42.6478630,-71.3074199,False,0
1133148516,42.6473490,-71.3087980,False,0
1133148529,42.6490071,-71.3084987,True,0
1133148540,42.6477370,-71.3084489,False,0
1133148556,42.6485058,-71.3160237,False,0
1133148559,42.6474321,-71.3078225,False,0
1133148566,42.6480043,-71.3108147,True,0
1133148579,42.6484351,-71.3105848,False,0
1133148606,42.6476143,-71.3075797,True,0
1133148640,42.6471553,-71.3079796,True,0
1133148641,42.6477920,-71.3074120,True,0
1133148669,42.6492458,-71.3090695,False,0
1133148699,42.6494753,-71.3133460,False,0
1133148733,42.6505361,-71.3120306,False,0
1133148748,42.6470441,-71.3081715,False,0
1133148750,42.6474487,-71.3077311,True,0
1133148877,42.6489657,-71.3084070,True,0
1133148886,42.6444490,-71.3100040,True,0
1133148888,42.6476313,-71.3082317,False,0
1134195696,42.6464317,-71.3057490,True,0
1134195729,42.6571464,-71.3163248,False,0
1134195739,42.6482496,-71.3036863,False,0
1134195773,42.6556384,-71.3146484,False,0
1134195774,42.6481608,-71.3032920,False,0
1134195777,42.6458407,-71.2915841,False,0
1134195812,42.6453613,-71.2939525,False,0
1134195827,42.6456494,-71.2918658,False,0
1134195854,42.6585686,-71.3175130,False,0
1134195857,42.6513725,-71.3094986,False,0
1134195863,42.6522445,-71.3106117,False,0
1134195872,42.6471705,-71.2981609,False,0
1134195892,42.6455882,-71.2923137,False,0
1134195894,42.6528422,-71.3113735,False,0
1134195898,42.6579965,-71.3174379,False,0
1134195902,42.6468390,-71.2972650,False,0
1134195916,42.6480859,-71.3028548,False,0
1134195939,42.6482871,-71.3037989,False,0
1134195948,42.6464977,-71.2963853,False,0
1134195952,42.6577480,-71.3171349,False,0
1134195956,42.6459157,-71.2914607,False,0
1134195961,42.6457599,-71.2917236,False,0
1134195970,42.6550496,-71.3139597,False,0
1134196006,42.6496720,-71.3071114,False,0
1134196016,42.6454698,-71.2930379,False,0
1134196023,42.6484114,-71.3040054,False,0
1134196062,42.6516152,-71.3098285,False,0
1134196065,42.6453495,-71.2938130,False,0
1134196075,42.6454540,-71.2944621,False,0
1134196100,42.6457066,-71.2917907,False,0
1134196104,42.6459690,-71.2914232,False,0
1134196107,42.6458013,-71.2952319,False,0
1134196110,42.6490841,-71.3055665,False,0
1134196113,42.6565941,-71.3155738,False,0
1134196117,42.6562686,-71.3151554,False,0
1134196122,42.6565438,-71.3155136,False,0
1134196153,42.6472435,-71.2985740,False,0
1134196157,42.6453495,-71.2938747,False,0
1134196164,42.6473244,-71.2990192,False,0
1134196167,42.6482200,-71.3035200,False,0
1134702127,42.6465832,-71.3060752,False,0
1134702130,42.6481493,-71.3107047,False,0
1134702183,42.6452129,-71.3066063,False,0
1134702198,42.6448490,-71.3135006,False,0
1134702242,42.6479948,-71.3107510,False,0
1134702249,42.6467611,-71.3063454,False,0
1134702302,42.6482905,-71.3130752,False,0
1134702448,42.6480865,-71.3127251,True,0
1134702536,42.6483721,-71.3149801,False,0
1134702552,42.6480379,-71.3107919,False,0
1136463395,42.6510186,-71.3135974,True,0
1136463560,42.6502371,-71.3142228,True,0
1136506961,42.6412858,-71.3142003,True,0
1136523739,42.6455705,-71.3067252,True,0
1136523751,42.6466563,-71.3062158,False,0
1136523765,42.6451924,-71.3064999,True,0
1136523771,42.6463325,-71.3067408,True,2
1136523791,42.6452915,-71.3069666,True,0
1136706102,42.6423956,-71.3061331,False,0
1136706104,42.6424428,-71.3057642,True,0
1136706105,42.6424538,-71.3060176,False,0
1141489345,42.6409857,-71.3148777,False,0
1141489350,42.6503939,-71.3141443,True,0
1141489360,42.6410089,-71.3150400,False,0
1141489361,42.6409956,-71.3145652,False,0
1141489364,42.6410040,-71.3144732,False,0
1141489411,42.6501769,-71.3145895,True,0
1141489526,42.6410149,-71.3158996,True,0
1141489595,42.6508871,-71.3137473,True,0
1141489617,42.6516091,-71.3131465,False,0
1141489792,42.6509421,-71.3136598,True,0
1141489815,42.6511632,-71.3135757,False,0
1141489819,42.6504254,-71.3141550,True,0
1141489820,42.6508200,-71.3135917,True,0
1141489822,42.6508792,-71.3135435,True,0
1141489844,42.6410528,-71.3152774,False,0
1141489856,42.6410714,-71.3154812,False,0
1141489895,42.6501887,-71.3142677,True,0
1141489899,42.6412911,-71.3139834,True,0
1141489901,42.6503584,-71.3140906,True,0
1141489937,42.6412792,-71.3152654,True,0
1141489984,42.6508831,-71.3138010,True,0
1141489999,42.6411347,-71.3145485,True,0
1141490012,42.6413103,-71.3154209,True,0
1141490057,42.6420053,-71.3116767,True,0
1141490059,42.6510843,-71.3135435,False,0
1141490075,42.6505004,-71.3141228,True,0
1141490096,42.6504531,-71.3141550,True,0
1141490137,42.6412230,-71.3151084,True,0
1141490179,42.6413198,-71.3155568,True,0
1141490183,42.6413222,-71.3157015,True,0
1141490186,42.6411593,-71.3150013,True,0
1141490188,42.6411648,-71.3143750,True,0
1141490191,42.6418657,-71.3117000,True,0
1141490215,42.6410602,-71.3157005,False,0
1141490255,42.6413068,-71.3158916,True,0
1141490264,42.6410937,-71.3141228,False,0
1156916605,42.6447408,-71.3132793,True,2
1236794922,42.6459618,-71.3076024,False,0
1236794932,42.6455062,-71.3078277,False,0
1236887926,42.6499896,-71.3176364,True,0
1237892998,42.6483231,-71.3130777,True,2
1237893002,42.6454427,-71.3170903,True,2
1237893011,42.6423608,-71.3159138,True,0
1237893015,42.6468067,-71.3062783,True,0
1237893042,42.6486979,-71.3161846,True,0
1237893051,42.6445001,-71.3161504,False,0
1237893052,42.6414142,-71.3165417,True,0
1237893055,42.6454003,-71.3173884,True,2
1237893058,42.6414748,-71.3166606,True,0
1237893061,42.6463800,-71.3166936,False,0
1237893065,42.6412769,-71.3165904,True,0
1237893077,42.6485391,-71.3160747,True,0
1237893078,42.6462842,-71.3192390,True,0
1237893083,42.6471241,-71.3207105,True,0
1237893091,42.6423178,-71.3158128,False,0
1237893118,42.6469138,-71.3194494,False,0
1244392504,42.6482795,-71.3068446,False,0
1413783988,42.6460736,-71.3143855,True,2
1413784008,42.6451527,-71.3150232,False,0
1413784012,42.6448831,-71.3147704,False,0
1413784021,42.6447908,-71.3153324,False,0
1413784049,42.6446307,-71.3149860,False,0
1413784054,42.6460099,-71.3137965,True,2
1413784113,42.6449632,-71.3149438,False,0
1413784171,42.6450728,-71.3148502,False,0
1468848431,42.6494334,-71.3051997,False,0
1468848438,42.6492135,-71.3053561,True,1
1468848456,42.6492557,-71.3042445,False,0
1468848464,42.6487969,-71.3022788,False,0
1468854868,42.6474648,-71.2972829,False,0
1468854869,42.6476810,-71.2976544,False,0
1468854870,42.6475455,-71.2974123,False,0
1468854872,42.6476155,-71.2975341,False,0
1481574953,42.6374375,-71.3137371,False,0
1481594536,42.6403576,-71.3165216,False,0
1481594541,42.6378963,-71.3141673,False,0
1481594543,42.6407418,-71.3166350,False,0
1481594555,42.6382128,-71.3144667,False,0
1481596743,42.6414858,-71.3165117,False,0
1481657588,42.6401713,-71.3189332,False,0
1481657590,42.6411419,-71.3176267,False,0
1481657601,42.6410538,-71.3174057,False,0
1481657605,42.6409211,-71.3252029,False,0
1481657606,42.6411513,-71.3165545,False,0
1481657614,42.6410411,-71.3173136,False,0
1481657619,42.6400723,-71.3214819,True,0
1481657622,42.6410879,-71.3175375,False,0
1481657625,42.6405345,-71.3163863,False,0
1481674256,42.6407435,-71.3167868,False,0
1481683052,42.6380179,-71.3144166,False,0
1481683055,42.6403735,-71.3166820,False,0
1482813950,42.6399965,-71.3148626,False,0
1490509346,42.6436780,-71.3051456,False,0
1490509350,42.6429611,-71.3028831,False,0
1490509355,42.6443278,-71.3055452,True,0
1490509357,42.6431471,-71.3034029,False,0
1490509359,42.6435101,-71.3048841,False,0
1490509363,42.6435181,-71.3041451,False,0
1490509365,42.6438752,-71.3053172,False,0
1490509367,42.6429934,-71.3032198,False,0
1607236773,42.6472732,-71.3079654,False,0
1607236775,42.6472165,-71.3080164,False,0
1758033199,42.6499153,-71.3042095,True,0
1758033204,42.6500953,-71.3045134,True,0
1968674486,42.6398577,-71.3085639,True,0
1968674493,42.6399277,-71.3088092,True,2
1968674497,42.6400165,-71.3088028,True,0
1968674503,42.6401501,-71.3083823,False,0
1968674512,42.6405557,-71.3087767,True,0
1968674523,42.6408159,-71.3094746,True,0
2238896050,42.6427077,-71.3094129,True,0
2238902923,42.6426510,-71.3093356,True,0
2238902927,42.6418779,-71.3117073,True,0
2238902928,42.6421226,-71.3110056,True,0
2238902929,42.6421035,-71.3109944,True,0
2726077346,42.6484967,-71.3106505,True,0
2726077347,42.6491767,-71.3100311,False,0
2726077349,42.6492620,-71.3099533,True,0
2726077350,42.6494117,-71.3098170,True,0
2726077351,42.6487749,-71.3103971,False,0
2726077352,42.6486358,-71.3105238,False,0
2726077354,42.6485585,-71.3105942,False,0
2726077355,42.6485336,-71.3147799,False,0
2726077356,42.6487171,-71.3146028,True,0
2726077358,42.6491531,-71.3143561,False,0
2726077359,42.6493148,-71.3142005,False,0
2726077360,42.6495560,-71.3139256,True,0
2726077362,42.6508457,-71.3130525,False,0
2726077363,42.6507344,-71.3134253,False,0
2726077365,42.6503186,-71.3137847,False,0
2726077366,42.6503225,-71.3137934,False,0
2726399982,42.6463230,-71.3131883,False,0
2967382710,42.6447677,-71.3198800,True,4
2967382712,42.6440735,-71.3197318,True,0
3238219418,42.6368357,-71.2977674,False,2
3278641439,42.6448123,-71.3008760,False,0
3590034003,42.6511280,-71.3077110,False,0
3590210559,42.6397735,-71.3056718,False,0
3590210560,42.6397803,-71.3057387,False,0
3590210561,42.6397944,-71.3056105,False,0
3590210562,42.6398126,-71.3057900,False,0
3590210563,42.6398364,-71.3055743,False,0
3590210564,42.6398602,-71.3058095,False,0
3590210565,42.6398861,-71.3055747,False,0
3590210566,42.6399080,-71.3057908,False,0
3590210567,42.6399278,-71.3056116,False,0
3590210568,42.6399408,-71.3057400,True,0
3590210569,42.6399481,-71.3056732,False,0
3590210570,42.6401762,-71.3057917,True,0
3651307665,42.6450619,-71.3060063,True,0
4116913681,42.6427129,-71.3237682,False,0
4116913682,42.6427307,-71.3245648,False,0
4116913683,42.6427236,-71.3238333,False,0
4116913684,42.6427759,-71.3233621,True,0
4116913686,42.6428382,-71.3239629,False,0
4116913687,42.6428535,-71.3240384,True,0
4116913688,42.6427889,-71.3243837,False,0
4557444540,42.6474392,-71.3077392,False,0
4568998232,42.6429563,-71.3030400,False,0
4568998233,42.6433043,-71.3035670,False,0
4568998234,42.6434160,-71.3038258,False,0
4568998235,42.6441916,-71.3054766,True,0
4568998236,42.6442311,-71.3050800,True,0
4568998237,42.6443158,-71.3050672,True,0
4568998238,42.6443746,-71.3050570,False,0
4568998239,42.6446259,-71.3050083,True,0
4806713293,42.6483004,-71.3011636,False,0
4806713294,42.6482747,-71.3010455,True,0
4806713295,42.6481702,-71.3010831,True,0
4806713297,42.6483056,-71.3027029,False,0
4806713301,42.6477927,-71.3013779,True,0
5008363820,42.6420008,-71.3254337,False,2
5008364446,42.6430894,-71.3259743,False,2
5008373149,42.6437727,-71.3259785,False,2
5008373154,42.6443303,-71.3261497,False,2
5008373172,42.6448980,-71.3263194,False,2
5008376308,42.6466566,-71.3270812,False,2
5250728025,42.6421478,-71.3101885,True,0
5250728026,42.6415304,-71.3098424,True,0
5362535018,42.6481268,-71.3017673,False,0
5362544621,42.6472849,-71.2999016,False,0
5362544622,42.6478847,-71.3008319,True,0
5362544623,42.6481865,-71.3019932,False,0
5458718872,42.6422191,-71.3160433,True,0
5458718873,42.6438920,-71.3155161,True,0
5458718885,42.6438264,-71.3153800,True,0
5458718890,42.6458343,-71.3171181,True,0
5458718891,42.6454178,-71.3170031,True,0
5458718894,42.6450968,-71.3169145,True,0
5458718895,42.6491175,-71.3120677,True,0
5458718907,42.6498594,-71.3126756,True,0
5458718908,42.6496247,-71.3138323,False,0
5458718909,42.6495758,-71.3138739,False,0
5458718910,42.6496099,-71.3139229,False,0
5458718911,42.6496538,-71.3138759,False,0
5458718912,42.6496636,-71.3138397,True,0
5458718913,42.6494826,-71.3137961,False,0
5458718914,42.6487685,-71.3144553,False,0
5458718925,42.6483315,-71.3141884,True,0
5458718945,42.6503063,-71.3171697,False,0
5458718947,42.6475346,-71.3158455,True,0
5458718951,42.6471863,-71.3151132,True,0
5458718956,42.6469112,-71.3131763,True,0
5458718969,42.6470481,-71.3164186,True,0
5458718973,42.6469781,-71.3162805,True,0
5458718974,42.6475149,-71.3158041,True,0
5458718978,42.6468045,-71.3159211,True,0
5458718979,42.6471079,-71.3149484,True,0
5458738879,42.6416733,-71.3144370,True,0
5458738881,42.6410154,-71.3115128,True,0
5458738890,42.6401404,-71.3200290,True,0
5458738898,42.6401105,-71.3204121,True,0
5458790457,42.6499666,-71.3113211,True,0
5458790462,42.6503901,-71.3121673,False,0
5458790472,42.6421707,-71.3071364,True,0
5458790473,42.6418473,-71.3071503,True,0
5458790475,42.6421857,-71.3074162,True,0
5458790476,42.6421725,-71.3071706,True,0
5458790483,42.6440204,-71.3037415,True,0
5458790486,42.6440181,-71.3039775,True,0
5458790492,42.6445593,-71.3050162,True,0
5458790496,42.6423068,-71.3096885,True,0
5458790502,42.6452252,-71.3118235,True,0
5458790503,42.6451992,-71.3115086,True,0
5458790504,42.6454986,-71.3114643,True,0
5458790505,42.6451811,-71.3112890,True,0
5458790506,42.6454840,-71.3112454,True,0
5458790510,42.6454275,-71.3106405,True,0
5458790511,42.6455538,-71.3121643,True,0
5458790512,42.6443670,-71.3089468,True,0
5458790515,42.6450027,-71.3091287,True,0
5458790520,42.6488141,-71.3113097,True,0
5458791724,42.6490993,-71.3101016,True,0
5458791732,42.6468264,-71.3101746,True,0
5458791733,42.6462850,-71.3096641,True,0
5458791736,42.6467532,-71.3092298,True,0
5458791737,42.6465250,-71.3087565,True,0
5458791740,42.6467076,-71.3091356,True,0
5458811771,42.6368453,-71.2977718,False,0
5458811775,42.6370779,-71.2978786,False,0
5458811795,42.6419864,-71.2996964,False,0
5458811796,42.6417356,-71.3001749,True,0
5458811798,42.6419558,-71.3000131,True,0
5458829105,42.6417654,-71.3090548,True,0
5458829106,42.6413946,-71.3077133,True,0
5458846499,42.6458086,-71.3001399,True,0
5458846503,42.6454261,-71.3004512,True,0
5466133284,42.6482092,-71.3236888,True,0
5466133285,42.6490367,-71.3245363,True,0
5466133304,42.6484512,-71.3238582,True,0
5466133308,42.6484934,-71.3238054,True,0
5466133319,42.6490649,-71.3245110,True,4
5466133523,42.6491035,-71.3244634,True,0
5466133525,42.6493097,-71.3252623,True,0
5466133527,42.6491545,-71.3262494,False,0
5472226846,42.6564738,-71.3127750,False,0
5472226850,42.6555141,-71.3123486,False,0
5472226871,42.6501159,-71.3211542,True,0
5472226873,42.6498951,-71.3206986,True,0
5472227139,42.6502372,-71.3230511,False,0
5472255552,42.6510380,-71.3033456,False,0
5472255556,42.6517698,-71.3030244,False,0
5472255558,42.6515725,-71.3031054,False,0
5472255562,42.6504862,-71.3051180,False,0
5472255565,42.6506963,-71.3054767,False,0
5545190436,42.6413034,-71.3079000,False,0
5545190437,42.6412407,-71.3079321,False,0
5545190438,42.6411396,-71.3079422,False,0
5545190439,42.6410336,-71.3079296,True,4
5545190440,42.6408352,-71.3078385,True,0
5581638350,42.6423383,-71.3154292,False,0
5581638351,42.6423407,-71.3154015,False,0
5581638352,42.6423848,-71.3153639,False,0
5581638353,42.6423750,-71.3153477,False,0
5581638354,42.6424251,-71.3153040,False,0
5581638355,42.6424416,-71.3153314,False,0
5581638356,42.6428002,-71.3150158,False,0
5581638357,42.6422711,-71.3147694,False,0
5581638358,42.6422547,-71.3148771,False,0
5581638359,42.6422599,-71.3149635,False,0
5581638360,42.6423010,-71.3151444,False,0
5581638361,42.6422749,-71.3152897,False,0
5581638362,42.6422689,-71.3153416,False,0
5581638363,42.6422726,-71.3153751,False,0
5581638364,42.6422929,-71.3154171,False,0
5581638365,42.6422947,-71.3152171,False,0
5582894744,42.6448170,-71.3107291,False,0
5582894747,42.6449696,-71.3126652,False,0
5582894798,42.6414738,-71.3124122,False,0
5582894803,42.6412246,-71.3132076,False,0
5582894806,42.6417390,-71.3115637,False,0
5582894809,42.6418944,-71.3116551,True,0
5582894853,42.6427770,-71.3150363,False,0
5582894894,42.6481525,-71.3117310,True,2
5582894895,42.6480666,-71.3117413,True,2
5582894905,42.6483148,-71.3141913,False,0
5582942253,42.6483879,-71.3149605,False,0
5582963126,42.6434665,-71.3148515,True,2
5582963127,42.6435869,-71.3148969,True,2
5582963128,42.6435999,-71.3147287,True,2
5582963129,42.6448387,-71.3136631,True,2
5582963130,42.6449480,-71.3137017,True,2
5582963131,42.6449601,-71.3135622,True,2
5582963132,42.6458384,-71.3128232,True,2
5582963133,42.6459113,-71.3126337,True,2
5582963134,42.6459398,-71.3130213,True,2
5582963137,42.6464551,-71.3132394,False,0
5582963138,42.6462736,-71.3131517,False,0
5582963139,42.6460731,-71.3135695,True,2
5582963140,42.6459065,-71.3137740,True,2
5582963141,42.6479882,-71.3131186,True,2
5582963142,42.6481173,-71.3133100,True,2
5582963143,42.6482170,-71.3133075,True,2
5582963144,42.6481864,-71.3129205,True,2
5582963145,42.6480916,-71.3128985,True,2
5582963146,42.6475063,-71.3093602,True,2
5582963147,42.6474634,-71.3096129,True,2
5582963148,42.6471882,-71.3098555,True,2
5582963149,42.6470594,-71.3098631,True,2
5582963150,42.6470070,-71.3100153,True,2
5582963151,42.6468378,-71.3082578,True,2
5582963152,42.6468773,-71.3080692,True,2
5582963153,42.6470062,-71.3081057,True,2
5582963154,42.6463123,-71.3068860,True,2
5582963155,42.6462050,-71.3068602,True,2
5582963156,42.6458367,-71.3073306,True,2
5582963157,42.6455326,-71.3074347,True,2
5582963158,42.6454578,-71.3075718,True,2
5582963159,42.6453311,-71.3074340,True,2
5582963160,42.6453974,-71.3073125,True,2
5582963161,42.6456249,-71.3090972,True,2
5582963162,42.6457322,-71.3092078,True,2
5582963163,42.6457392,-71.3105164,True,2
5582963164,42.6456672,-71.3106109,True,2
5582963165,42.6458576,-71.3109892,True,2
5582963166,42.6457944,-71.3111563,True,2
5582963167,42.6458437,-71.3117934,True,2
5582963168,42.6457529,-71.3119935,True,2
5582963169,42.6451211,-71.3105608,True,2
5582963170,42.6451372,-71.3107560,True,2
5582963171,42.6449500,-71.3084907,True,2
5582963172,42.6450278,-71.3059127,True,2
5582963173,42.6446520,-71.3050001,False,2
5582963174,42.6446605,-71.3039202,False,0
5582963175,42.6445880,-71.3027118,False,2
5582963176,42.6446648,-71.3026184,False,2
5582963177,42.6445306,-71.3026185,False,2
5582963178,42.6445409,-71.3018632,False,2
5582963179,42.6445994,-71.3017943,False,2
5582963180,42.6444919,-71.3015945,False,2
5582963181,42.6444623,-71.3017562,False,2
5582963182,42.6442723,-71.3005704,False,2
5582963187,42.6441820,-71.2995941,False,0
5582993277,42.6488915,-71.3042954,False,2
5582993278,42.6488177,-71.3045881,False,2
5582993279,42.6489715,-71.3046438,True,2
5582993280,42.6490691,-71.3045724,True,2
5582993281,42.6491198,-71.3043492,False,2
5582993287,42.6493950,-71.3052262,False,2
5582993288,42.6493600,-71.3054214,False,2
5582993289,42.6492623,-71.3054807,False,2
5582993290,42.6527914,-71.3105096,False,0
5582993296,42.6526226,-71.3107089,False,0
5582993300,42.6521679,-71.3100685,False,0
5582993307,42.6523170,-71.3098861,False,0
5582993308,42.6557004,-71.3139981,False,2
5582993309,42.6558046,-71.3138799,False,2
5584601831,42.6411194,-71.3147805,True,0
5584601832,42.6411930,-71.3150649,True,0
5584601834,42.6410214,-71.3143840,False,0
5584601835,42.6416566,-71.3123377,False,0
5584601872,42.6501475,-71.3146343,False,0
5584693654,42.6412486,-71.3080731,True,2
5584693655,42.6413998,-71.3081561,True,2
5584693656,42.6417937,-71.3083954,True,2
5584693657,42.6417452,-71.3086825,True,2
5584693658,42.6418523,-71.3087462,True,2
5584693659,42.6418742,-71.3083370,True,2
5584693660,42.6419844,-71.3084595,True,2
5584693661,42.6419960,-71.3086458,True,2
5584693662,42.6428687,-71.3085091,True,2
5584693663,42.6433720,-71.3084886,True,2
5584693664,42.6442445,-71.3084521,True,2
5584693665,42.6443372,-71.3085623,True,2
5584693666,42.6444521,-71.3084373,True,2
5584693667,42.6443862,-71.3083279,True,2
5584693668,42.6454799,-71.3083790,True,2
5584693670,42.6444244,-71.3096870,True,2
5584693671,42.6445012,-71.3106780,True,2
5584693672,42.6445222,-71.3108895,True,2
5584693674,42.6445970,-71.3107707,True,2
5584693676,42.6446854,-71.3129780,True,2
5584693677,42.6452292,-71.3142949,True,2
5584693678,42.6451882,-71.3143993,True,2
5584693679,42.6452776,-71.3143970,True,2
5584693680,42.6453038,-71.3143018,True,2
5584693681,42.6454852,-71.3148349,True,2
5584693682,42.6455879,-71.3148689,True,2
5584693683,42.6455641,-71.3152015,True,2
5584693684,42.6456662,-71.3152199,True,2
5584693685,42.6456935,-71.3150818,True,2
5584693686,42.6465890,-71.3171244,True,2
5584693687,42.6468445,-71.3174642,True,2
5584693688,42.6469646,-71.3178997,True,2
5584693689,42.6477945,-71.3194004,True,2
5584693690,42.6477291,-71.3196761,True,2
5584693691,42.6479190,-71.3201612,True,2
5584693692,42.6482228,-71.3207873,True,2
5584693693,42.6482455,-71.3210928,True,2
5584693695,42.6492668,-71.3230584,True,2
5584693696,42.6495195,-71.3234450,True,0
5584693703,42.6493643,-71.3231375,True,0
5584693705,42.6495526,-71.3235204,True,2
5584693706,42.6495223,-71.3236073,True,2
5584693707,42.6496802,-71.3239278,True,2
5584693708,42.6498433,-71.3241719,True,2
5584693710,42.6499107,-71.3244157,True,0
5584693716,42.6500187,-71.3248059,True,2
5584744996,42.6489956,-71.3269140,False,2
5584744997,42.6492504,-71.3263167,False,2
5584744999,42.6495417,-71.3254627,False,2
5584745000,42.6497034,-71.3254466,True,2
5584745007,42.6501975,-71.3191923,True,2
5584745008,42.6501203,-71.3192588,True,2
5584745009,42.6500845,-71.3194638,True,2
5584745010,42.6495658,-71.3179391,True,2
5584745011,42.6494914,-71.3180081,True,2
5584745012,42.6495964,-71.3178248,True,2
5584745013,42.6494860,-71.3177738,True,2
5584745014,42.6494097,-71.3178379,True,2
5584745015,42.6493706,-71.3179954,True,2
5584745019,42.6482918,-71.3131813,False,0
5584745020,42.6483243,-71.3131820,True,2
5584746821,42.6488755,-71.3130794,True,2
5584746822,42.6488711,-71.3131918,True,2
5584746823,42.6491185,-71.3126829,True,2
5584746824,42.6496825,-71.3128376,True,2
5584746825,42.6498145,-71.3127165,True,2
5584746826,42.6495547,-71.3134754,True,2
5584746827,42.6429129,-71.3083847,True,2
5584746828,42.6426339,-71.3086585,True,2
5584746829,42.6411147,-71.3086348,True,2
5584746830,42.6411622,-71.3087425,True,2
5584746831,42.6410270,-71.3088390,True,2
5584746832,42.6409659,-71.3087593,True,2
5584746833,42.6409194,-71.3091518,True,0
5584746839,42.6407543,-71.3087710,True,0
5584746840,42.6405706,-71.3105163,True,2
5584746841,42.6403304,-71.3113031,True,2
5584746842,42.6402879,-71.3111863,True,2
5584746843,42.6401986,-71.3112241,True,2
5584746850,42.6395908,-71.3153677,False,2
5584746851,42.6396180,-71.3155144,False,2
5584810380,42.6410239,-71.3168924,True,2
5584810809,42.6395628,-71.3108656,False,2
5584810823,42.6398729,-71.3109591,True,2
5584918533,42.6404151,-71.3137025,True,2
5584918534,42.6407932,-71.3124577,True,2
5584918536,42.6411594,-71.3112875,True,2
5584918538,42.6418708,-71.3090004,True,2
5584918540,42.6403159,-71.3137616,True,2
5584918541,42.6404007,-71.3132601,True,2
5584918542,42.6405349,-71.3128158,True,2
5584918543,42.6409040,-71.3116256,True,2
5584918544,42.6409932,-71.3115860,True,2
5584918545,42.6411302,-71.3111342,False,2
5584918546,42.6411476,-71.3108345,True,2
5584918547,42.6400984,-71.3072555,False,2
5584918548,42.6400159,-71.3072745,False,2
5584918549,42.6400628,-71.3071167,False,2
5584918550,42.6399757,-71.3071579,False,2
5584918551,42.6389959,-71.3063581,False,2
5584918556,42.6399028,-71.3079158,False,2
5584918557,42.6412580,-71.3079235,True,2
5584918559,42.6426544,-71.3061170,False,2
5584918560,42.6426064,-71.3061981,False,2
5584918561,42.6427193,-71.3064727,True,2
5584918562,42.6428314,-71.3063655,True,2
5584918563,42.6427038,-71.3063265,True,0
5584918564,42.6429612,-71.3066431,True,4
5584918565,42.6427795,-71.3064327,True,2
5584918566,42.6463844,-71.3085087,True,2
5584918567,42.6463817,-71.3086503,True,2
5584918568,42.6465038,-71.3087145,True,2
5584918569,42.6465211,-71.3085294,True,2
5584918570,42.6460419,-71.3089551,True,2
5584918571,42.6460038,-71.3091044,True,2
5584918573,42.6465414,-71.3104258,True,2
5584918574,42.6465817,-71.3102880,True,2
5584918575,42.6466964,-71.3102890,True,2
5584918576,42.6445259,-71.3167812,True,2
5584918577,42.6444732,-71.3172568,True,2
5584918578,42.6443348,-71.3172193,True,2
5584918585,42.6385333,-71.3247155,False,2
5585000553,42.6409753,-71.3177501,True,0
5585000554,42.6406699,-71.3187564,True,0
5585000566,42.6410361,-71.3172032,False,0
5585019009,42.6408380,-71.3146037,False,0
5585019010,42.6408478,-71.3148223,False,0
5585019011,42.6408991,-71.3152165,False,0
5585019012,42.6409001,-71.3155465,False,0
5585019013,42.6408695,-71.3157557,False,0
5585019014,42.6407955,-71.3159568,False,0
5585019015,42.6406742,-71.3161567,False,0
5585019016,42.6409347,-71.3141687,True,2
5585019017,42.6410120,-71.3138860,False,2
5585019019,42.6409009,-71.3139800,True,2
5585019020,42.6416567,-71.3115764,False,2
5585023521,42.6417484,-71.3115327,False,2
5585023522,42.6433294,-71.3083827,True,2
5586930771,42.6410571,-71.3176382,True,2
5586930772,42.6413644,-71.3177868,True,2
5586930773,42.6417358,-71.3183598,True,2
5586930775,42.6417473,-71.3185048,True,2
5586930776,42.6418533,-71.3184896,True,2
5586930777,42.6418265,-71.3183079,True,2
5586930779,42.6431886,-71.3195846,True,2
5586930780,42.6432708,-71.3197755,True,2
5586930781,42.6435899,-71.3201597,True,2
5586930782,42.6440062,-71.3202711,False,2
5586930783,42.6440730,-71.3204884,True,2
5586930784,42.6439707,-71.3205504,True,2
5586930785,42.6438913,-71.3203262,True,2
5586930786,42.6445889,-71.3211265,True,2
5586930787,42.6446879,-71.3210855,True,2
5586930788,42.6446102,-71.3208974,True,2
5586930789,42.6478915,-71.3239778,True,2
5586930790,42.6479792,-71.3240605,True,2
5586930791,42.6479875,-71.3239671,True,2
5586930792,42.6488436,-71.3247529,True,2
5588724179,42.6460083,-71.3145060,True,2
5588724180,42.6461021,-71.3147048,True,2
5588724181,42.6462115,-71.3147149,True,2
5588724182,42.6464042,-71.3151004,True,2
5588724183,42.6465120,-71.3151176,True,2
5588724184,42.6482341,-71.3188810,True,2
5588724185,42.6482090,-71.3190281,True,2
5588724186,42.6483210,-71.3190653,True,2
5588724187,42.6483361,-71.3189183,True,2
5588724188,42.6488315,-71.3202945,True,2
5588724189,42.6490391,-71.3203938,True,2
5588724190,42.6498447,-71.3220715,True,2
5588724191,42.6498195,-71.3221797,True,2
5611565867,42.6413007,-71.3127364,False,0
5611565868,42.6410686,-71.3126111,False,0
5665118687,42.6464548,-71.3204866,False,0
5665118688,42.6463987,-71.3207054,False,0
5665118689,42.6463578,-71.3208417,False,0
5665118690,42.6462830,-71.3209976,False,0
5665118691,42.6462339,-71.3210778,False,0
5665118692,42.6461226,-71.3211948,False,0
5665118693,42.6459496,-71.3213715,False,0
5665118694,42.6460638,-71.3215423,False,0
5665118695,42.6461346,-71.3216085,False,0
5665118696,42.6461869,-71.3216179,False,0
5665118697,42.6462566,-71.3216106,False,0
5665118698,42.6469279,-71.3214867,False,0
5665118700,42.6471045,-71.3213297,True,0
5675046479,42.6462204,-71.3224662,True,0
5896322667,42.6497711,-71.3232252,False,0
5903401365,42.6495517,-71.3052151,False,0
5903401366,42.6494935,-71.3051809,False,0
5928726495,42.6442417,-71.3162544,True,0
6117866571,42.6428665,-71.3284631,False,0
6123671278,42.6369390,-71.3003408,False,0
6291830168,42.6430283,-71.3223664,False,0
6291830169,42.6431154,-71.3216701,True,0
6388651968,42.6404316,-71.3245267,True,0
6388655615,42.6400849,-71.3145931,True,2
6388655616,42.6398140,-71.3154019,False,0
6388655617,42.6398173,-71.3154380,False,0
6388655618,42.6398422,-71.3154763,False,0
6388655619,42.6399053,-71.3155282,False,0
6388655620,42.6401292,-71.3156793,False,0
6388656576,42.6398203,-71.3129307,True,2
6388656577,42.6399564,-71.3124950,True,2
6399163761,42.6399714,-71.3122131,True,0
6399163762,42.6396665,-71.3120450,False,0
6399361302,42.6506818,-71.3054519,False,0
6399361303,42.6509169,-71.3058453,False,0
6399813002,42.6502322,-71.3062907,True,0
6399813003,42.6499964,-71.3065488,False,0
6400481562,42.6484598,-71.3102700,False,0
6541116211,42.6422430,-71.3205365,True,0
6541116212,42.6425632,-71.3205018,True,0
6555068743,42.6454950,-71.3154501,True,0
6555068744,42.6454063,-71.3160672,True,0
6555068745,42.6456391,-71.3154887,True,0
6555068746,42.6455709,-71.3161113,True,0
6555130208,42.6476154,-71.3210433,True,0
6555130212,42.6478383,-71.3214705,True,0
6555130222,42.6471665,-71.3214593,True,0
6555130223,42.6480310,-71.3206333,True,0
6606578714,42.6406689,-71.3077082,True,2
6755479385,42.6425345,-71.3090028,True,0
6755479391,42.6425108,-71.3090760,True,0
6755518416,42.6448498,-71.3158353,True,0
6755612971,42.6462989,-71.3054182,True,0
6755612973,42.6463612,-71.3055557,True,0
6755612979,42.6462624,-71.3053376,True,0
6755612980,42.6466712,-71.3049670,True,0
6755612981,42.6463512,-71.3055336,True,0
6755612982,42.6467648,-71.3051659,True,0
6755612983,42.6468544,-71.3053564,True,0
6755635085,42.6469456,-71.3055501,True,0
6755635087,42.6470395,-71.3057495,True,0
6755635090,42.6460989,-71.3069510,True,0
6755976750,42.6394064,-71.3140065,False,0
6757010701,42.6431958,-71.3000057,True,0
6757010711,42.6432135,-71.2979151,False,0
6757010712,42.6432129,-71.2979918,False,0
6767435633,42.6514620,-71.3180522,False,0
6767435645,42.6505973,-71.3188695,True,0
6767435646,42.6506673,-71.3188098,False,0
6767435647,42.6508340,-71.3186583,False,0
6767435648,42.6508695,-71.3186529,False,0
6767435649,42.6509030,-71.3186570,False,0
6767435650,42.6511348,-71.3184504,False,0
6767435651,42.6514071,-71.3182090,False,0
6767435652,42.6514298,-71.3181742,False,0
6767435653,42.6514455,-71.3180897,False,0
6767435654,42.6514909,-71.3179864,False,0
6767435655,42.6515215,-71.3179435,False,0
6767435656,42.6514696,-71.3178322,True,0
6767435657,42.6505016,-71.3186905,True,0
6767435659,42.6509583,-71.3167968,True,0
6767435660,42.6509997,-71.3168049,True,0
6767435661,42.6514850,-71.3178188,True,0
6769096992,42.6481390,-71.3170751,True,0
6769096994,42.6484474,-71.3177112,True,0
6769097000,42.6480148,-71.3184282,True,0
6769097001,42.6480330,-71.3191893,True,0
6769097006,42.6478630,-71.3181147,True,0
6770748350,42.6499222,-71.3141494,True,0
6770748351,42.6496385,-71.3135601,False,0
6770748352,42.6507531,-71.3126937,False,0
6770748353,42.6507625,-71.3126448,False,0
6770748354,42.6507728,-71.3126072,False,0
6770748355,42.6507733,-71.3125878,False,0
6770748356,42.6517557,-71.3129385,False,0
6770748357,42.6517710,-71.3129190,False,0
6770748358,42.6507644,-71.3125408,False,0
6770748359,42.6518038,-71.3129745,False,0
6770748360,42.6507842,-71.3124436,False,0
6770748361,42.6506367,-71.3121425,False,0
6770748362,42.6510707,-71.3117409,False,0
6770748364,42.6508357,-71.3133357,False,0
6770748367,42.6507294,-71.3134199,False,0
6770748368,42.6504350,-71.3136841,False,0
6771560805,42.6416186,-71.3054749,True,0
6771560809,42.6416420,-71.3056107,True,0
6771569337,42.6403692,-71.3109188,True,0
6771569340,42.6399519,-71.3110911,True,0
6771569341,42.6399082,-71.3108258,True,0
6771569343,42.6399623,-71.3106218,True,0
6773882853,42.6546461,-71.3119659,False,0
6773918391,42.6482270,-71.3242868,True,0
6773918403,42.6486673,-71.3246896,True,0
6774390916,42.6505189,-71.3219856,False,0
6775473671,42.6494914,-71.3232320,True,2
6775477318,42.6502713,-71.3246027,False,0
6775477335,42.6491065,-71.3244597,True,2
6775477348,42.6482156,-71.3241723,True,2
6775477706,42.6499359,-71.3250627,True,0
6775477792,42.6497529,-71.3239610,True,0
6781080484,42.6484767,-71.3148834,False,0
6781080485,42.6484444,-71.3149250,False,0
6781080486,42.6484166,-71.3148868,False,0
6781080487,42.6484513,-71.3148415,False,0
6781080488,42.6484979,-71.3148241,True,0
6781080489,42.6484063,-71.3149376,True,0
6796926525,42.6450474,-71.3212842,True,0
6796926563,42.6459122,-71.3065199,True,0
6796926687,42.6503528,-71.3183841,True,0
6796926693,42.6476691,-71.3222820,True,0
6796926857,42.6455315,-71.3199511,True,0
6796926866,42.6425281,-71.3100028,True,0
6796927297,42.6424107,-71.3103850,True,0
6797222853,42.6426581,-71.3155070,False,0
6797222854,42.6426910,-71.3156132,False,0
6814124497,42.6480553,-71.3114606,False,0
6814124498,42.6480287,-71.3111521,False,0
6814124499,42.6480883,-71.3111246,False,0
6814124500,42.6482546,-71.3148361,False,0
6814124515,42.6446797,-71.3080314,False,0
6814613310,42.6416947,-71.3183182,True,0
6814911652,42.6490532,-71.3121245,True,2
6814911653,42.6498762,-71.3175724,True,0
6814924796,42.6502049,-71.3149364,False,2
6814924835,42.6483436,-71.3149947,True,2
6814924894,42.6480738,-71.3107638,True,2
6814924929,42.6497476,-71.3186619,True,2
6814925132,42.6509237,-71.3166189,False,2
6814925322,42.6493702,-71.3175412,False,0
6814925323,42.6483246,-71.3151922,False,0
6831860452,42.6476686,-71.3223309,True,0
6831860467,42.6469766,-71.3230122,True,0
6831860468,42.6470563,-71.3229766,True,0
6831860469,42.6464632,-71.3225649,False,0
6831860470,42.6447591,-71.3203944,False,0
6831860471,42.6460454,-71.3200832,False,0
6831860472,42.6460967,-71.3201167,False,0
6831860473,42.6461253,-71.3201744,False,0
6831860474,42.6462057,-71.3202133,False,0
6831860482,42.6464188,-71.3202931,False,0
6831870289,42.6476730,-71.3222937,True,0
6831870290,42.6476728,-71.3223192,True,0
6831870291,42.6476743,-71.3223065,True,0
6831870292,42.6474881,-71.3225254,False,0
6833162393,42.6460317,-71.3129226,True,2
6833162394,42.6459754,-71.3128775,False,0
6833162395,42.6459865,-71.3127826,False,0
6833162396,42.6465572,-71.3131570,False,0
6833162397,42.6464678,-71.3131441,False,0
6833162398,42.6463942,-71.3131225,False,0
6833162399,42.6463357,-71.3130930,False,0
6833162400,42.6462863,-71.3130564,False,0
6833162401,42.6460960,-71.3128695,False,0
6833162402,42.6460413,-71.3128159,True,2
6833162403,42.6460126,-71.3129085,False,0
6833162404,42.6465401,-71.3132375,True,0
6833162405,42.6464543,-71.3132738,False,0
6833173867,42.6459609,-71.3132520,True,4
6833196200,42.6481229,-71.3136385,True,4
6833196201,42.6475423,-71.3131459,True,4
6835712287,42.6478492,-71.3214597,True,0
6835712339,42.6473420,-71.3227792,True,0
6835990621,42.6503742,-71.3137366,False,0
6838171429,42.6501073,-71.3229365,True,2
6838171450,42.6499019,-71.3186059,True,4
6838171451,42.6495248,-71.3133904,False,0
6838171452,42.6495091,-71.3132346,True,0
6838171453,42.6493813,-71.3134723,True,0
6838171454,42.6495062,-71.3135104,True,2
6838171455,42.6495942,-71.3135783,True,0
6839014436,42.6485313,-71.3177416,True,2
6839014438,42.6488720,-71.3184340,True,2
6839014439,42.6492049,-71.3191434,True,2
6839014443,42.6502442,-71.3212998,True,0
6839264827,42.6495037,-71.3198908,True,2
6839264828,42.6495763,-71.3200406,True,2
6839264829,42.6486683,-71.3196208,True,2
6839264853,42.6455109,-71.3141149,True,0
6839264857,42.6458057,-71.3146809,True,0
6839284639,42.6472639,-71.3170929,True,2
6839284640,42.6473397,-71.3170308,True,0
6839284770,42.6486845,-71.3230980,True,0
6839284799,42.6476282,-71.3237371,False,0
6839284800,42.6478938,-71.3240813,True,2
6839284948,42.6470022,-71.3177884,True,2
6839284980,42.6478066,-71.3199794,True,2
6839285028,42.6477248,-71.3200329,False,0
6839285073,42.6474780,-71.3211695,True,0
6839285076,42.6476650,-71.3209941,True,0
6839285080,42.6477166,-71.3209427,True,0
6839285084,42.6478557,-71.3208044,True,0
6839285180,42.6490411,-71.3226489,True,2
6839285181,42.6473994,-71.3218292,True,0
6839285196,42.6474234,-71.3174118,True,2
6839285224,42.6477029,-71.3177842,True,0
6839285232,42.6475149,-71.3173960,True,0
6839285277,42.6491094,-71.3192282,True,2
6839285279,42.6494794,-71.3200021,True,2
6839285280,42.6502874,-71.3216801,False,2
6839285287,42.6487638,-71.3185299,True,2
6839285288,42.6487812,-71.3184000,True,2
6839285289,42.6488726,-71.3185887,True,2
6839285316,42.6495813,-71.3199115,True,2
6841814095,42.6445771,-71.3215340,True,2
6841814096,42.6442335,-71.3180316,True,2
6841814097,42.6457314,-71.3176653,True,2
6841814100,42.6442662,-71.3187174,True,2
6841814101,42.6442152,-71.3186349,True,2
6841814102,42.6441462,-71.3186861,True,2
6841814103,42.6443805,-71.3162670,True,2
6841816710,42.6443514,-71.3180608,True,2
6841816750,42.6435793,-71.3185520,True,0
6841816751,42.6432505,-71.3191692,True,0
6841816810,42.6431195,-71.3196360,False,0
6841816835,42.6433113,-71.3183562,False,0
6841816836,42.6432638,-71.3183897,False,0
6841816837,42.6432896,-71.3183784,False,0
6841816838,42.6432367,-71.3183887,False,0
6841816839,42.6431486,-71.3183693,False,0
6841816889,42.6440489,-71.3199338,True,0
6841816890,42.6442995,-71.3207104,True,0
6841816893,42.6472787,-71.3235191,True,2
6841816894,42.6458427,-71.3233629,False,0
6841816895,42.6462256,-71.3225626,True,0
6841816896,42.6462622,-71.3225031,True,0
6841816916,42.6471818,-71.3206344,False,0
6841816951,42.6447036,-71.3202940,True,4
6841816953,42.6447803,-71.3198148,True,2
6841816954,42.6448079,-71.3196876,False,0
6841816983,42.6440697,-71.3194915,True,2
6841816984,42.6441353,-71.3195045,True,2
6841816993,42.6441277,-71.3191532,False,0
6841816994,42.6441243,-71.3195823,False,0
6841816995,42.6441420,-71.3194371,False,0
6841816996,42.6440587,-71.3195857,False,0
6841816997,42.6441613,-71.3191649,False,0
6841816998,42.6440815,-71.3196643,True,4
6841816999,42.6441603,-71.3190376,True,4
6841817024,42.6450477,-71.3214902,True,2
6841817073,42.6449322,-71.3187367,False,3
6841817074,42.6451098,-71.3174942,True,2
6841817075,42.6451039,-71.3175284,False,0
6841817076,42.6449519,-71.3182081,True,2
6841817112,42.6459098,-71.3183740,False,0
6841817113,42.6457154,-71.3183016,False,0
6841817114,42.6456860,-71.3182549,False,0
6841817115,42.6456613,-71.3181377,False,0
6841817116,42.6457534,-71.3183351,False,0
6841817117,42.6456674,-71.3181987,False,0
6841817220,42.6464231,-71.3192854,True,0
6841817247,42.6468270,-71.3194204,True,0
6841817249,42.6448734,-71.3188626,True,2
6841817250,42.6449126,-71.3189467,True,2
6841817251,42.6449282,-71.3187690,True,2
6841817252,42.6450111,-71.3188925,True,2
6841817253,42.6461323,-71.3191797,True,2
6841817256,42.6440986,-71.3186737,False,0
6841817257,42.6442994,-71.3187260,False,0
6841817259,42.6449618,-71.3185041,False,0
6841817260,42.6447857,-71.3188436,False,0
6841817261,42.6450585,-71.3189027,False,0
6841817262,42.6454427,-71.3189949,False,0
6841817263,42.6458052,-71.3190814,False,0
6841817264,42.6472168,-71.3195474,False,0
6841817302,42.6449924,-71.3182828,True,0
6841817305,42.6450353,-71.3179730,True,0
6854196037,42.6417697,-71.3038156,True,2
6854196040,42.6421452,-71.3063703,True,2
6854196042,42.6418416,-71.3064495,True,2
6854200762,42.6424607,-71.3059473,False,0
6854200763,42.6424314,-71.3060816,False,0
6854200764,42.6415293,-71.3055409,False,0
6854200765,42.6415046,-71.3059346,False,0
6854200766,42.6414878,-71.3063107,False,0
6854200837,42.6429069,-71.3064945,False,0
6854200838,42.6428566,-71.3065407,False,0
6854200839,42.6422963,-71.3054062,False,0
6854200840,42.6417818,-71.3038196,False,0
6854200965,42.6450743,-71.3099952,False,0
6854200994,42.6426199,-71.3087395,False,0
6854200995,42.6424472,-71.3085900,False,0
6854200996,42.6424601,-71.3084907,False,0
6854201133,42.6444066,-71.3171566,True,2
6854201134,42.6485235,-71.3160509,True,2
6854201135,42.6485954,-71.3159868,True,2
6854201136,42.6473586,-71.3170701,True,2
6854246260,42.6413157,-71.3127444,True,2
6854246269,42.6405215,-71.3043786,False,0
6854246270,42.6400865,-71.3068579,False,0
6854246271,42.6406310,-71.3076793,False,0
6854246272,42.6405709,-71.3076398,False,0
6854269622,42.6415897,-71.3051283,True,0
6854269623,42.6415568,-71.3044985,True,2
6854269644,42.6416541,-71.3043780,True,2
6854269647,42.6416422,-71.3037779,True,0
6854269650,42.6415560,-71.3097565,True,2
6854269682,42.6402609,-71.3126145,True,2
6854326213,42.6399014,-71.3121745,True,0
6854326214,42.6418716,-71.3082366,False,0
6854326232,42.6393148,-71.3143441,False,0
6854326262,42.6399085,-71.3146769,True,4
6854335439,42.6408712,-71.3106820,True,0
6854335441,42.6408628,-71.3093283,True,0
6854335443,42.6414599,-71.3087120,True,0
6854343873,42.6402268,-71.3087071,True,2
6854343874,42.6401348,-71.3083307,True,2
6854368339,42.6404563,-71.3103988,True,2
6854368347,42.6393006,-71.3087384,False,2
6854368349,42.6402051,-71.3080662,True,2
6854368414,42.6405952,-71.3115343,True,2
6854405055,42.6418603,-71.3077471,True,0
6854457266,42.6466355,-71.3073938,True,2
6854457270,42.6454332,-71.3106988,True,2
6854457274,42.6447538,-71.3128503,True,2
6854479791,42.6467696,-71.3064482,True,2
6854479900,42.6459365,-71.3109591,True,0
6854479997,42.6450850,-71.3106864,True,2
6854479998,42.6451885,-71.3106716,True,2
6854480030,42.6452654,-71.3123108,True,2
6854480031,42.6455469,-71.3120770,True,2
6854480087,42.6455773,-71.3085103,True,2
6854480088,42.6455552,-71.3082556,True,2
6854480097,42.6457402,-71.3072679,True,0
6854480098,42.6455285,-71.3079824,False,0
6854480170,42.6423740,-71.3092905,True,2
6854480176,42.6423808,-71.3094722,True,0
6855790903,42.6496348,-71.3201612,True,0
6855790905,42.6497230,-71.3203434,True,0
6855790935,42.6454068,-71.3173429,True,0
6855790936,42.6454335,-71.3171549,True,0
6855790937,42.6445929,-71.3167754,False,0
6855795498,42.6450934,-71.3156179,True,0
6855795527,42.6459876,-71.3158789,True,0
6855795538,42.6454957,-71.3154503,False,0
6855795539,42.6456604,-71.3154944,False,0
6855795542,42.6439631,-71.3154881,True,2
6855795599,42.6439008,-71.3144673,True,4
6855795600,42.6438564,-71.3154422,True,4
6855795609,42.6496493,-71.3062102,False,0
6855795610,42.6491453,-71.3047994,True,4
6855795611,42.6491166,-71.3050944,True,0
6855795612,42.6490634,-71.3049515,False,0
6855795613,42.6491728,-71.3052450,False,0
6855857316,42.6494254,-71.3253598,False,0
6855857323,42.6470269,-71.3230975,True,2
6855857326,42.6488927,-71.3223695,True,2
6855857358,42.6487872,-71.3161938,True,2
6855857362,42.6482843,-71.3141932,True,2
6859169000,42.6465312,-71.3059657,True,2
6859169002,42.6467784,-71.3063188,True,2
6859169005,42.6471116,-71.3058982,True,2
6859169020,42.6465890,-71.3062484,False,0
6860871195,42.6457232,-71.3103195,False,0
6861925203,42.6469354,-71.3147610,True,2
6862134856,42.6410435,-71.3176557,False,0
6862134858,42.6435297,-71.3237844,True,2
6862134870,42.6427608,-71.3234501,True,2
6862134876,42.6424982,-71.3232070,True,0
6862135505,42.6427353,-71.3236189,True,0
6862135506,42.6428502,-71.3239990,False,0
6862135507,42.6428186,-71.3239335,False,0
6862135508,42.6427145,-71.3238019,False,0
6862135509,42.6427394,-71.3238594,False,0
6862135510,42.6427560,-71.3234809,False,0
6862135515,42.6431456,-71.3235687,True,0
6862135516,42.6433544,-71.3243820,True,0
6862135525,42.6434036,-71.3237129,True,2
6862135664,42.6419955,-71.3230645,False,0
6862135665,42.6420502,-71.3229566,False,0
6862135666,42.6419426,-71.3228861,True,2
6862135669,42.6424166,-71.3191031,True,2
6862135670,42.6425031,-71.3191774,True,2
6862135673,42.6424962,-71.3191907,False,0
6862135674,42.6425385,-71.3191096,True,0
6862135675,42.6419219,-71.3181902,False,0
6862135682,42.6421497,-71.3180433,True,2
6862135683,42.6422043,-71.3179025,True,2
6862135717,42.6435631,-71.3170727,True,2
6862135718,42.6434437,-71.3185202,True,2
6862135719,42.6433347,-71.3186049,True,2
6862135720,42.6432769,-71.3184829,True,2
6862135721,42.6433621,-71.3184210,True,2
6862135734,42.6431938,-71.3192610,True,2
6874256183,42.6472943,-71.3131609,True,0
6874256184,42.6473015,-71.3131606,True,0
6874258201,42.6439251,-71.3215947,False,3
6874258202,42.6437490,-71.3216111,False,3
6874258203,42.6438477,-71.3215157,True,2
6874258204,42.6437667,-71.3220567,False,0
6874258205,42.6438219,-71.3217046,False,0
6874258206,42.6435901,-71.3230699,False,0
6874258207,42.6441907,-71.3188096,False,0
6874258304,42.6416335,-71.3183738,True,2
6874258323,42.6453302,-71.3071188,False,0
6879999925,42.6457546,-71.3106962,False,0
6880266455,42.6495829,-71.3200542,False,3
6880266456,42.6494924,-71.3198676,False,3
6893120939,42.6420007,-71.3254000,False,3
6893120954,42.6433804,-71.3236999,False,3
6893120955,42.6435522,-71.3237979,False,3
6893120977,42.6426211,-71.3216350,True,2
6893120978,42.6429855,-71.3215938,True,2
6893120979,42.6431058,-71.3217470,True,2
6893120980,42.6437713,-71.3216090,True,2
6893120981,42.6419698,-71.3216974,True,2
6893120982,42.6419320,-71.3217795,True,2
6893120983,42.6419789,-71.3218606,True,2
6893120984,42.6420264,-71.3217714,True,2
6893145799,42.6438974,-71.3215973,True,2
6893145800,42.6444985,-71.3216239,True,2
6893145805,42.6446162,-71.3208587,False,3
6893145806,42.6445827,-71.3211602,False,3
6893145807,42.6449093,-71.3189751,False,3
6893145808,42.6448509,-71.3188577,False,3
6893145809,42.6477033,-71.3196791,False,3
6893145810,42.6478164,-71.3193818,False,3
6893145811,42.6488834,-71.3186109,False,3
6893145812,42.6487698,-71.3183764,False,3
6899379364,42.6465398,-71.3073529,True,4
6899379371,42.6410646,-71.3153666,False,0
6899379372,42.6410696,-71.3155939,False,0
6899379373,42.6412437,-71.3151426,True,0
6899379374,42.6409837,-71.3147751,False,0
6899379375,42.6417784,-71.2989025,False,0
6899379376,42.6442002,-71.2992015,False,0
6899379377,42.6444202,-71.2988770,False,0
6899379378,42.6443689,-71.2978175,False,0
6899379379,42.6442821,-71.2971282,False,0
6899379380,42.6441776,-71.2968734,False,0
6899379381,42.6439664,-71.2961438,False,0
6899379382,42.6436014,-71.2962914,False,0
6899379383,42.6422953,-71.2963021,False,0
6899379384,42.6408905,-71.2968573,False,0
6899446985,42.6407100,-71.2980053,False,0
6899446986,42.6408806,-71.2981340,False,0
6899446987,42.6411825,-71.2983459,False,0
6899446988,42.6417182,-71.2987483,False,0
6899446989,42.6417754,-71.2990326,False,0
6899446990,42.6420339,-71.3000223,False,0
6899446991,42.6426554,-71.3000585,False,0
6899446992,42.6430914,-71.3000679,False,0
6899446993,42.6432532,-71.3001873,False,0
6899446994,42.6442377,-71.3001698,False,0
6938603159,42.6496217,-71.3138348,False,0
6938603160,42.6496181,-71.3139141,False,0
6961273132,42.6428423,-71.3287193,False,0
6961273145,42.6419994,-71.3247824,True,0
6961284530,42.6419980,-71.3240810,True,0
6961284542,42.6407256,-71.3218133,True,0
6961284543,42.6407329,-71.3218376,False,0
6961284544,42.6407629,-71.3218695,False,0
6961284624,42.6412994,-71.3228801,False,0
6961284625,42.6413527,-71.3228962,False,0
6961284678,42.6401970,-71.3192866,False,0
6961284718,42.6398823,-71.3299370,False,0
6961284735,42.6398201,-71.3274010,False,0
6961284745,42.6398852,-71.3253229,False,0
6961284746,42.6398093,-71.3261390,False,0
6961284747,42.6398507,-71.3275351,False,0
6965908855,42.6400625,-71.3015933,True,0
7019340832,42.6393234,-71.3143126,False,0
7148024835,42.6505977,-71.3119876,False,0
7155680787,42.6468191,-71.3230196,True,0
