Node IDs
152376398,152376398
152376398,152376398
152393482,152393482
152393482,152393482
152393483,152393483
152393483,152393483
152393483,152393483
152393483,152393483
152398214,152398214
152398214,152398214
152398214,152398214
152398214,152398214
152398217,152398217
152398217,152398217
152398217,152398217
152398217,152398217
152398219,152398219
152398219,152398219
152398219,152398219
152398219,152398219
152398222,152398222
152398222,152398222
152398222,152398222
152398222,152398222
152398227,152398227
152398227,152398227
152398227,152398227
152401898,152401898
152401898,152401898
152401898,152401898
152401898,152401898
152401899,152401899
152401899,152401899
152401899,152401899
152401899,152401899
152401901,152401901
152401901,152401901
152401901,152401901
152401901,152401901
152401905,152401905
152401905,152401905
152401905,152401905
152401905,152401905
152401909,152401909
152401909,152401909
152401909,152401909
152401909,152401909
152401912,152401912
152401912,152401912
152401912,152401912
152401912,152401912
152401915,152401915
152401915,152401915
152401915,152401915
152401915,152401915
152401919,152401919
152401919,152401919
152401921,152401921
152401921,152401921
152442412,152442412
152442412,152442412
152442412,152442412
152442414,152442414
152442414,152442414
152442414,152442414
152442414,152442414
152442420,152442420
152442420,152442420
152442420,152442420
152442420,152442420
152442422,152442422
152442422,152442422
152442422,152442422
152442422,152442422
152447350,152447350
152447350,152447350
152447350,152447350
152447350,152447350
152447353,152447353
152447353,152447353
152447353,152447353
152447353,152447353
152447356,152447356
152447356,152447356
152447356,152447356
152447356,152447356
152447359,152447359
152447359,152447359
152447359,152447359
152447359,152447359
152447361,152447361
152447361,152447361
152447361,152447361
152447363,152447363
152447363,152447363
152447363,152447363
152447363,152447363
152451541,152451541
152451541,152451541
152451541,152451541
152451541,152451541
152451543,152451543
152451543,152451543
152451543,152451543
152451543,152451543
152451606,152451606
152451606,152451606
152451606,152451606
152451606,152451606
152451608,152451608
152451608,152451608
152451608,152451608
152451608,152451608
152451610,152451610
152451610,152451610
152451610,152451610
152451610,152451610
152451612,152451612
152451612,152451612
152451612,152451612
152451612,152451612
152451615,152451615
152451615,152451615
152451615,152451615
152456593,152456593
152456593,152456593
152456593,152456593
152456593,152456593
152456593,152456593
152456605,152456605
152456605,152456605
152456605,152456605
152456605,152456605
152456607,152456607
152456607,152456607
152456607,152456607
152456607,152456607
152456607,152456607
152460221,152460221
152460221,152460221
152460221,152460221
152460221,152460221
152460223,152460223
152460223,152460223
152460223,152460223
152460223,152460223
152460225,152460225
152460225,152460225
152460225,152460225
152460228,152460228
152460228,152460228
152460228,152460228
152460230,152460230
152460230,152460230
152460230,152460230
152460230,152460230
152496937,152496937
152496937,152496937
152496937,152496937
152496937,152496937
152496940,152496940
152496940,152496940
152496940,152496940
152496940,152496940
152496946,152496946
152496946,152496946
152496946,152496946
152496946,152496946
152496953,152496953
152496953,152496953
152500708,152500708
152500708,152500708
152500708,152500708
152500708,152500708
152500717,152500717
152500717,152500717
152500717,152500717
152500717,152500717
152500722,152500722
152500722,152500722
152512835,152512835
152512835,152512835
152512835,152512835
152512835,152512835
152512839,152512839
152512839,152512839
152512839,152512839
152512839,152512839
152512841,152512841
152512841,152512841
152512841,152512841
152512841,152512841
152512844,152512844
152512844,152512844
152512844,152512844
152516193,152516193
152516193,152516193
152516193,152516193
152516193,152516193
152516195,152516195
152516195,152516195
152516195,152516195
152516195,152516195
152516638,152516638
152516638,152516638
152516638,152516638
152516638,152516638
152516640,152516640
152516640,152516640
152516640,152516640
152516640,152516640
152516642,152516642
152516642,152516642
152516642,152516642
152516642,152516642
152516644,152516644
152516644,152516644
152516644,152516644
152516644,152516644
152516646,152516646
152516646,152516646
152516646,152516646
152516646,152516646
152516648,152516648
152516648,152516648
152516648,152516648
152516648,152516648
152516650,152516650
152516650,152516650
152516651,152516651
152516651,152516651
152516653,152516653
152516653,152516653
152516653,152516653
152539640,152539640
152539640,152539640
152539640,152539640
152539640,152539640
152539643,152539643
152539643,152539643
152539643,152539643
152539643,152539643
152539646,152539646
152539646,152539646
152539646,152539646
152539646,152539646
152566314,152566314
152566314,152566314
152566314,152566314
152566314,152566314
152566316,152566316
152566316,152566316
152566316,152566316
152566316,152566316
152566317,152566317
152566317,152566317
152566317,152566317
152566317,152566317
152580976,152580976
152580976,152580976
152580980,152580980
152580980,152580980
152580983,152580983
152580983,152580983
152580983,152580983
152580983,152580983
152580985,152580985
152580985,152580985
152580985,152580985
152580985,152580985
152583391,152583391
152583391,152583391
152583391,152583391
152583391,152583391
152604219,152604219
152604219,152604219
152604219,152604219
152608872,152608872
152608872,152608872
152608874,152608874
152608874,152608874
152608874,152608874
152620569,152620569
152620569,152620569
152620569,152620569
152620569,152620569
152620992,152620992
152620992,152620992
152620992,152620992
152620992,152620992
152631180,152631180
152631180,152631180
152631180,152631180
152631180,152631180
152679466,152679466
152679466,152679466
152681946,152681946
152681946,152681946
152723403,152723403
152723403,152723403
152723403,152723403
152723403,152723403
280908622,280908622
280908622,280908622
280908622,280908622
280908622,280908622
280908622,280908622
280908622,280908622
280908705,280908705
280908705,280908705
280908705,280908705
280908705,280908705
280908705,280908705
280908705,280908705
332232126,332232126
332232126,332232126
442761548,442761548
442761548,442761548
443182322,443182322
443182322,443182322
443182323,443182323
443182323,443182323
443182324,443182324
443182324,443182324
443182325,443182325
443182325,443182325
443182326,443182326
443182326,443182326
443182327,443182327
443182327,443182327
443182328,443182328
443182328,443182328
443182329,443182329
443182329,443182329
443182330,443182330
443182330,443182330
443182334,443182334
443182334,443182334
443182335,443182335
443182335,443182335
443182336,443182336
443182336,443182336
443182337,443182337
443182337,443182337
443182338,443182338
443182338,443182338
443185126,443185126
443185126,443185126
443185127,443185127
443185127,443185127
443185129,443185129
443185129,443185129
443185130,443185130
443185130,443185130
443185131,443185131
443185131,443185131
443185134,443185134
443185134,443185134
443185135,443185135
443185135,443185135
443185136,443185136
443185136,443185136
443185137,443185137
443185137,443185137
443185138,443185138
443185138,443185138
443185139,443185139
443185139,443185139
443185140,443185140
443185140,443185140
443185142,443185142
443185142,443185142
443186942,443186942
443186942,443186942
443186944,443186944
443186944,443186944
443186954,443186954
443186954,443186954
443186957,443186957
443186957,443186957
443186960,443186960
443186960,443186960
443186963,443186963
443186963,443186963
443186966,443186966
443186966,443186966
443186983,443186983
443186983,443186983
443186986,443186986
443186986,443186986
443186988,443186988
443186988,443186988
443186990,443186990
443186990,443186990
443186993,443186993
443186993,443186993
443187002,443187002
443187002,443187002
443187004,443187004
443187004,443187004
443187007,443187007
443187007,443187007
443187010,443187010
443187010,443187010
443187012,443187012
443187012,443187012
443187015,443187015
443187015,443187015
443187017,443187017
443187017,443187017
443187020,443187020
443187020,443187020
443187047,443187047
443187047,443187047
443187073,443187073
443187073,443187073
443187075,443187075
443187075,443187075
443187078,443187078
443187078,443187078
443187080,443187080
443187080,443187080
443187099,443187099
443187099,443187099
443187100,443187100
443187100,443187100
443187101,443187101
443187101,443187101
443187102,443187102
443187102,443187102
443187120,443187120
443187120,443187120
443187148,443187148
443187148,443187148
443187159,443187159
443187159,443187159
1190061488,1190061488
1190061488,1190061488
1408899493,1408899493
1408899493,1408899493
1425730821,1425730821
1425730821,1425730821
1425730821,1425730821
1626547031,1626547031
1626547031,1626547031
1626547034,1626547034
1626547034,1626547034
2177702622,2177702622
2177702622,2177702622
2177702623,2177702623
2177702623,2177702623
2177790237,2177790237
2177790237,2177790237
2328939747,2328939747
2328939747,2328939747
2328939747,2328939747
2328939747,2328939747
2481930676,2481930676
2481930676,2481930676
2481930687,2481930687
2481930687,2481930687
2481930688,2481930688
2481930688,2481930688
2481930693,2481930693
2481930693,2481930693
2641443828,2641443828
2641443828,2641443828
2641443828,2641443828
2641443828,2641443828
2641443828,2641443828
2641443828,2641443828
2641443833,2641443833
2641443833,2641443833
2641443833,2641443833
2641443833,2641443833
2641443833,2641443833
2641443833,2641443833
2641443842,2641443842
2641443842,2641443842
2641443842,2641443842
2641443842,2641443842
3338959448,3338959448
3338959448,3338959448
3348989166,3348989166
3348989166,3348989166
3348989174,3348989174
3348989174,3348989174
3348989175,3348989175
3348989175,3348989175
4162042285,4162042285
4162042285,4162042285
4162042288,4162042288
4162042288,4162042288
4162042290,4162042290
4162042290,4162042290
4162042292,4162042292
4162042292,4162042292
4162042294,4162042294
4162042294,4162042294
4162042296,4162042296
4162042296,4162042296
4162042298,4162042298
4162042298,4162042298
4162042300,4162042300
4162042300,4162042300
4162042310,4162042310
4162042310,4162042310
4162042313,4162042313
4162042313,4162042313
4162042321,4162042321
4162042321,4162042321
4162042322,4162042322
4162042322,4162042322
4162042323,4162042323
4162042323,4162042323
4162042324,4162042324
4162042324,4162042324
4162042325,4162042325
4162042325,4162042325
4162042326,4162042326
4162042326,4162042326
4162042327,4162042327
4162042327,4162042327
4162042328,4162042328
4162042328,4162042328
4162042329,4162042329
4162042329,4162042329
4162042331,4162042331
4162042331,4162042331
4162042333,4162042333
4162042333,4162042333
4162042335,4162042335
4162042335,4162042335
4162042337,4162042337
4162042337,4162042337
4162042338,4162042338
4162042338,4162042338
4162042346,4162042346
4162042346,4162042346
4162042347,4162042347
4162042347,4162042347
4162042348,4162042348
4162042348,4162042348
4162042349,4162042349
4162042349,4162042349
4162042350,4162042350
4162042350,4162042350
4162042351,4162042351
4162042351,4162042351
4162042352,4162042352
4162042352,4162042352
4162042353,4162042353
4162042353,4162042353
4162042358,4162042358
4162042358,4162042358
4162042361,4162042361
4162042361,4162042361
4258978807,4258978807
4258978807,4258978807
4258978808,4258978808
4258978808,4258978808
4258978809,4258978809
4258978809,4258978809
4258978810,4258978810
4258978810,4258978810
4258978811,4258978811
4258978811,4258978811
4258978812,4258978812
4258978812,4258978812
4258978813,4258978813
4258978813,4258978813
4258978814,4258978814
4258978814,4258978814
4258978815,4258978815
4258978815,4258978815
4344936526,4344936526
4344936526,4344936526
4344936527,4344936527
4344936527,4344936527
4344944026,4344944026
4344944026,4344944026
4344944027,4344944027
4344944027,4344944027
4344951157,4344951157
4344951157,4344951157
4344951158,4344951158
4344951158,4344951158
4344952152,4344952152
4344952152,4344952152
4344965293,4344965293
4344965293,4344965293
4344990749,4344990749
4344990749,4344990749
4344990751,4344990751
4344990751,4344990751
4345030730,4345030730
4345030730,4345030730
4345030731,4345030731
4345030731,4345030731
4345030732,4345030732
4345030732,4345030732
4345054664,4345054664
4345054664,4345054664
4346167512,4346167512
4346167512,4346167512
4798805474,4798805474
4798805474,4798805474
4798805479,4798805479
4798805479,4798805479
5085168958,5085168958
5085168958,5085168958
5085168958,5085168958
5085168958,5085168958
5085168962,5085168962
5085168962,5085168962
5085168979,5085168979
5085168979,5085168979
5085168979,5085168979
5085168979,5085168979
5085168981,5085168981
5085168981,5085168981
5116329613,5116329613
5116329613,5116329613
5116329613,5116329613
5116329613,5116329613
5116329614,5116329614
5116329614,5116329614
5530219422,5530219422
5530219422,5530219422
5530219426,5530219426
5530219426,5530219426
5725066524,5725066524
5725066524,5725066524
5725066525,5725066525
5725066525,5725066525
5725066598,5725066598
5725066598,5725066598
5725066599,5725066599
5725066599,5725066599
5725066600,5725066600
5725066600,5725066600
5725067671,5725067671
5725067671,5725067671
5725069802,5725069802
5725069802,5725069802
5725069803,5725069803
5725069803,5725069803
5725069804,5725069804
5725069804,5725069804
5725069805,5725069805
5725069805,5725069805
5725069806,5725069806
5725069806,5725069806
5725069807,5725069807
5725069807,5725069807
5725071371,5725071371
5725071371,5725071371
5725071373,5725071373
5725071373,5725071373
5725071374,5725071374
5725071374,5725071374
5725071375,5725071375
5725071375,5725071375
5725071376,5725071376
5725071376,5725071376
5725071377,5725071377
5725071377,5725071377
5725072081,5725072081
5725072081,5725072081
5725072082,5725072082
5725072082,5725072082
5725072083,5725072083
5725072083,5725072083
5725072084,5725072084
5725072084,5725072084
5725072085,5725072085
5725072085,5725072085
5725072273,5725072273
5725072273,5725072273
5725072275,5725072275
5725072275,5725072275
5725074058,5725074058
5725074058,5725074058
5763550671,5763550671
5763550671,5763550671
5763550672,5763550672
5763550672,5763550672
5763550673,5763550673
5763550673,5763550673
5763550674,5763550674
5763550674,5763550674
5763550675,5763550675
5763550675,5763550675
5763550676,5763550676
5763550676,5763550676
5763550677,5763550677
5763550677,5763550677
5763550678,5763550678
5763550678,5763550678
5763550679,5763550679
5763550679,5763550679
5763550699,5763550699
5763550699,5763550699
5763550700,5763550700
5763550700,5763550700
5763550701,5763550701
5763550701,5763550701
5763550702,5763550702
5763550702,5763550702
5763550703,5763550703
5763550703,5763550703
5763550704,5763550704
5763550704,5763550704
5763550705,5763550705
5763550705,5763550705
5789411896,5789411896
5789411896,5789411896
5789411897,5789411897
5789411897,5789411897
5789415058,5789415058
5789415058,5789415058
5835830498,5835830498
5835830498,5835830498
5835830499,5835830499
5835830499,5835830499
5835830500,5835830500
5835830500,5835830500
5835830501,5835830501
5835830501,5835830501
5835830511,5835830511
5835830511,5835830511
5843248465,5843248465
5843248465,5843248465
6141520945,6141520945
6141520945,6141520945
6146656862,6146656862
6146656862,6146656862
6146656865,6146656865
6146656865,6146656865
6146656867,6146656867
6146656867,6146656867
6150353087,6150353087
6150353087,6150353087
6150353092,6150353092
6150353092,6150353092
6159615893,6159615893
6159615893,6159615893
6159615894,6159615894
6159615894,6159615894
6159615895,6159615895
6159615895,6159615895
6159615896,6159615896
6159615896,6159615896
6159615897,6159615897
6159615897,6159615897
6159615898,6159615898
6159615898,6159615898
6159615899,6159615899
6159615899,6159615899
6159615900,6159615900
6159615900,6159615900
6159615901,6159615901
6159615901,6159615901
6159615902,6159615902
6159615902,6159615902
6159615903,6159615903
6159615903,6159615903
6159615904,6159615904
6159615904,6159615904
6159615905,6159615905
6159615905,6159615905
6159615906,6159615906
6159615906,6159615906
6159615907,6159615907
6159615907,6159615907
6159615908,6159615908
6159615908,6159615908
6159615909,6159615909
6159615909,6159615909
6159615910,6159615910
6159615910,6159615910
6159615916,6159615916
6159615916,6159615916
6159615918,6159615918
6159615918,6159615918
6161015719,6161015719
6161015719,6161015719
6161015722,6161015722
6161015722,6161015722
6206683037,6206683037
6206683037,6206683037
6206683040,6206683040
6206683040,6206683040
6214836376,6214836376
6214836376,6214836376
6214873065,6214873065
6214873065,6214873065
6219676233,6219676233
6219676233,6219676233
6219676234,6219676234
6219676234,6219676234
6219680871,6219680871
6219680871,6219680871
6219680872,6219680872
6219680872,6219680872
6219685357,6219685357
6219685357,6219685357
6219685358,6219685358
6219685358,6219685358
6219685359,6219685359
6219685359,6219685359
6219685360,6219685360
6219685360,6219685360
6219686761,6219686761
6219686761,6219686761
6219686762,6219686762
6219686762,6219686762
6219686763,6219686763
6219686763,6219686763
6219686764,6219686764
6219686764,6219686764
6219755545,6219755545
6219755545,6219755545
6219755546,6219755546
6219755546,6219755546
6219755547,6219755547
6219755547,6219755547
6219755548,6219755548
6219755548,6219755548
6219755549,6219755549
6219755549,6219755549
6219755550,6219755550
6219755550,6219755550
6219755551,6219755551
6219755551,6219755551
6219755552,6219755552
6219755552,6219755552
6219755554,6219755554
6219755554,6219755554
6219755556,6219755556
6219755556,6219755556
6219755557,6219755557
6219755557,6219755557
6219755558,6219755558
6219755558,6219755558
6219755559,6219755559
6219755559,6219755559
6219755560,6219755560
6219755560,6219755560
6219755562,6219755562
6219755562,6219755562
6219755563,6219755563
6219755563,6219755563
6219755565,6219755565
6219755565,6219755565
6219755567,6219755567
6219755567,6219755567
6219755568,6219755568
6219755568,6219755568
6219755569,6219755569
6219755569,6219755569
6219755570,6219755570
6219755570,6219755570
6223990382,6223990382
6223990382,6223990382
6223990383,6223990383
6223990383,6223990383
6223990384,6223990384
6223990384,6223990384
6223991682,6223991682
6223991682,6223991682
6228099237,6228099237
6228099237,6228099237
6228099239,6228099239
6228099239,6228099239
6231014572,6231014572
6231014572,6231014572
6231014573,6231014573
6231014573,6231014573
6231014575,6231014575
6231014575,6231014575
6231087480,6231087480
6231087480,6231087480
6242379572,6242379572
6242379572,6242379572
6300282578,6300282578
6300282578,6300282578
6300282579,6300282579
6300282579,6300282579
6300307204,6300307204
6300307204,6300307204
6300307216,6300307216
6300307216,6300307216
6300311385,6300311385
6300311385,6300311385
6300337558,6300337558
6300337558,6300337558
6300337560,6300337560
6300337560,6300337560
6300337562,6300337562
6300337562,6300337562
6300337563,6300337563
6300337563,6300337563
6300429217,6300429217
6300429217,6300429217
6300429219,6300429219
6300429219,6300429219
6300429221,6300429221
6300429221,6300429221
6300430443,6300430443
6300430443,6300430443
6300430444,6300430444
6300430444,6300430444
6300430445,6300430445
6300430445,6300430445
6300432786,6300432786
6300432786,6300432786
6300432787,6300432787
6300432787,6300432787
6300432788,6300432788
6300432788,6300432788
6300432789,6300432789
6300432789,6300432789
6300435167,6300435167
6300435167,6300435167
6300435169,6300435169
6300435169,6300435169
6300451490,6300451490
6300451490,6300451490
6300454333,6300454333
6300454333,6300454333
6300454334,6300454334
6300454334,6300454334
6300460220,6300460220
6300460220,6300460220
6300460221,6300460221
6300460221,6300460221
6300500704,6300500704
6300500704,6300500704
6300500707,6300500707
6300500707,6300500707
6300500710,6300500710
6300500710,6300500710
6300500712,6300500712
6300500712,6300500712
6301702277,6301702277
6301702277,6301702277
6301702278,6301702278
6301702278,6301702278
6301702279,6301702279
6301702279,6301702279
6304337115,6304337115
6304337115,6304337115
6304337116,6304337116
6304337116,6304337116
6306840937,6306840937
6306840937,6306840937
6309773798,6309773798
6309773798,6309773798
6309790844,6309790844
6309790844,6309790844
6309790845,6309790845
6309790845,6309790845
6309807044,6309807044
6309807044,6309807044
6309807045,6309807045
6309807045,6309807045
6309807046,6309807046
6309807046,6309807046
6322095147,6322095147
6322095147,6322095147
6322095150,6322095150
6322095150,6322095150
6322095155,6322095155
6322095155,6322095155
6322095158,6322095158
6322095158,6322095158
6322095160,6322095160
6322095160,6322095160
6322095163,6322095163
6322095163,6322095163
6322095166,6322095166
6322095166,6322095166
6322095176,6322095176
6322095176,6322095176
6322095177,6322095177
6322095177,6322095177
6322095178,6322095178
6322095178,6322095178
6322095179,6322095179
6322095179,6322095179
6322095181,6322095181
6322095181,6322095181
6322095183,6322095183
6322095183,6322095183
6322132122,6322132122
6322132122,6322132122
6322132125,6322132125
6322132125,6322132125
6322132128,6322132128
6322132128,6322132128
6322210485,6322210485
6322210485,6322210485
6322210486,6322210486
6322210486,6322210486
6352252985,6352252985
6352252985,6352252985
6352252986,6352252986
6352252986,6352252986
6352252986,6352252986
6352252986,6352252986
6352266924,6352266924
6352266924,6352266924
6352266925,6352266925
6352266925,6352266925
6352266926,6352266926
6352266926,6352266926
6352266927,6352266927
6352266927,6352266927
6352266928,6352266928
6352266928,6352266928
6352266929,6352266929
6352266929,6352266929
6352266930,6352266930
6352266930,6352266930
6352271811,6352271811
6352271811,6352271811
6352271812,6352271812
6352271812,6352271812
6352271813,6352271813
6352271813,6352271813
6352371148,6352371148
6352371148,6352371148
6352396828,6352396828
6352396828,6352396828
6352396829,6352396829
6352396829,6352396829
6409952871,6409952871
6409952871,6409952871
6409952872,6409952872
6409952872,6409952872
6409952873,6409952873
6409952873,6409952873
6409952874,6409952874
6409952874,6409952874
6433475912,6433475912
6433475912,6433475912
6433475913,6433475913
6433475913,6433475913
6433510508,6433510508
6433510508,6433510508
6433510511,6433510511
6433510511,6433510511
6433510513,6433510513
6433510513,6433510513
