Node Type,Segment IDs
1,144469638_1,655501844_3
1,15404286_1,201680484_9,204974728_6,655501844_1
1,201680484_4,201680484_5,655501852_5,655501852_6
1,37749560_3,37749560_4,204998669_3,204998669_4
1,15404286_4,204998669_1,204998678_1,328078178_4
0,144469638_2,144469638_3
0,15404286_2,15404286_3
0,201680484_7,201680484_8
0,37749560_5,37749560_6
0,328078178_2,328078178_3
2,655501852_6,655501852_7
2,655501844_1,655501844_2
2,15404286_1,15404286_2
2,204974728_5,204974728_6
2,201680484_8,201680484_9
2,204998669_4,204998669_5
2,37749560_4,37749560_5
2,37749560_2,37749560_3
2,204998669_2,204998669_3
2,204998678_1,204998678_2
2,328078178_3,328078178_4
2,15404286_3,15404286_4
2,204998669_1,204998669_2
2,655501844_2,655501844_3
2,144469638_1,144469638_2
0,144469638_3,655501794_1
2,201680484_6,201680484_7
2,655501852_3,655501852_4
