Node ID,Lat,Lon,Is Intersection,Type
64810380,42.6328860,-71.3194040,False,0
64810386,42.6405513,-71.3267366,False,0
64810418,42.6380937,-71.3209185,False,0
64810424,42.6384592,-71.3072204,True,0
64810465,42.6352060,-71.3260100,False,0
64810522,42.6422243,-71.3201054,True,0
64810552,42.6345240,-71.3189430,True,0
64810594,42.6385540,-71.3342700,False,0
64810623,42.6367330,-71.3176290,False,0
64810810,42.6385965,-71.3189936,False,0
64810863,42.6393444,-71.3169492,False,0
64810868,42.6401406,-71.3142339,False,0
64810938,42.6401073,-71.3284631,False,0
64810947,42.6362060,-71.3058010,False,0
64810981,42.6433580,-71.3076050,False,0
64811049,42.6416850,-71.3319080,False,0
64811066,42.6409962,-71.3168030,True,1
64811078,42.6346480,-71.3177880,True,0
64811264,42.6389004,-71.3151774,False,0
64811354,42.6371310,-71.3170290,False,0
64811394,42.6434840,-71.3287350,False,0
64811639,42.6373720,-71.3171010,False,0
64811644,42.6363440,-71.3238540,True,0
64811670,42.6353340,-71.3340710,False,0
64811736,42.6433580,-71.3074740,False,0
64811788,42.6410959,-71.3112539,True,0
64811816,42.6396240,-71.3087320,False,0
64811904,42.6320371,-71.3035415,False,0
64812880,42.6389940,-71.3096490,False,0
64812895,42.6439883,-71.3204120,True,1
64812925,42.6371620,-71.3189840,False,0
64813056,42.6412080,-71.3087380,False,0
64813070,42.6437568,-71.3330316,False,0
64813202,42.6397217,-71.3287423,False,0
64813245,42.6434480,-71.3238914,True,2
64813299,42.6386114,-71.3318354,True,0
64813306,42.6406479,-71.3166186,True,0
64813363,42.6359700,-71.3198870,False,0
64813581,42.6329180,-71.3415980,False,0
64813661,42.6395291,-71.3276638,False,0
64813674,42.6350610,-71.3362050,False,0
64813730,42.6346805,-71.3106209,False,0
64813788,42.6411559,-71.3167808,False,0
64813831,42.6342658,-71.3107504,True,4
64813860,42.6439043,-71.3155402,True,0
64813869,42.6366070,-71.3262440,False,0
64813887,42.6348280,-71.3285460,True,0
64814022,42.6333860,-71.3399920,False,0
64814035,42.6367840,-71.3201920,True,0
64814188,42.6439500,-71.3277620,True,0
64814455,42.6338930,-71.3359360,False,0
64814465,42.6365130,-71.3276180,False,0
64814540,42.6372720,-71.3256870,False,0
64814715,42.6429972,-71.3270964,True,0
64814799,42.6414610,-71.3308510,True,0
64814804,42.6392465,-71.3088349,True,0
64814859,42.6368850,-71.3097510,False,0
64815107,42.6348940,-71.3279800,True,0
64815282,42.6392778,-71.3294232,False,0
64815394,42.6343069,-71.3143864,False,0
64815424,42.6342993,-71.3073738,True,0
64815466,42.6438891,-71.3319364,True,0
64815593,42.6398642,-71.3147613,False,0
64815646,42.6336225,-71.3125340,False,0
64815670,42.6372510,-71.3285410,False,0
64815691,42.6351298,-71.3097893,False,0
64815825,42.6333700,-71.3401130,False,0
64815889,42.6332920,-71.3251450,False,0
64816178,42.6397508,-71.3128883,True,0
64816337,42.6384240,-71.3058920,False,0
64816381,42.6397147,-71.3285063,False,0
64816414,42.6379042,-71.3267778,False,0
64816436,42.6383320,-71.3406110,False,0
64816506,42.6327260,-71.3194990,False,0
64816515,42.6394827,-71.3268773,False,0
64816796,42.6443719,-71.3223840,False,0
64816798,42.6337430,-71.3371140,False,0
64816828,42.6409742,-71.3140243,True,0
64817285,42.6376947,-71.3283733,True,0
64817330,42.6370061,-71.3093236,False,0
64817378,42.6410144,-71.3088683,False,0
64817391,42.6395666,-71.3163489,True,0
64817399,42.6413552,-71.3080117,True,2
64817494,42.6349160,-71.3065360,False,0
64817648,42.6344899,-71.3137534,True,0
64817839,42.6346950,-71.3295980,False,0
64817878,42.6429552,-71.3202739,False,0
64817903,42.6398470,-71.3078880,True,0
64817926,42.6382270,-71.3168580,False,0
64817966,42.6382590,-71.3422910,False,0
64818151,42.6332130,-71.3296970,False,0
64818182,42.6383564,-71.3071713,False,0
64818298,42.6353520,-71.3253790,False,0
64818432,42.6326093,-71.3049240,False,0
64818444,42.6405860,-71.3197871,True,0
64818450,42.6406070,-71.3078590,False,0
64818494,42.6404550,-71.3079260,False,0
64818544,42.6373579,-71.3184070,False,0
64818582,42.6360570,-71.3199010,False,0
64818748,42.6380975,-71.3098653,False,0
64818793,42.6354080,-71.3251390,True,1
64818811,42.6353940,-71.3264430,False,0
64818853,42.6349077,-71.3114540,True,0
64818884,42.6421051,-71.3084642,False,0
64819069,42.6389415,-71.3164630,False,0
64819102,42.6388350,-71.3164640,False,0
64819270,42.6342910,-71.3327820,False,0
64819332,42.6400350,-71.3072050,True,0
64819450,42.6429800,-71.3215010,False,0
64819529,42.6425410,-71.3200685,True,0
64819734,42.6355860,-71.3172720,True,0
64819823,42.6439783,-71.3274097,True,4
64819968,42.6436110,-71.3287830,False,0
64820009,42.6360401,-71.3125419,True,1
64820069,42.6405200,-71.3264049,False,0
64820147,42.6443953,-71.3172357,False,0
64820184,42.6393209,-71.3157309,False,0
64820361,42.6367110,-71.3249120,False,0
64820385,42.6404628,-71.3132895,True,0
64820546,42.6358590,-71.3198800,False,0
64820593,42.6336466,-71.3103705,False,0
64820642,42.6430102,-71.3203159,False,0
64820694,42.6343120,-71.3208560,True,0
64820703,42.6340800,-71.3292930,False,0
64820752,42.6394960,-71.3087820,False,0
64820791,42.6399885,-71.3162383,False,0
64820870,42.6370430,-71.3170020,False,0
64821068,42.6430150,-71.3213080,False,0
64821133,42.6388005,-71.3179450,False,0
64821212,42.6383539,-71.3144278,True,0
64821323,42.6433640,-71.3280513,False,0
64821561,42.6331878,-71.3128285,False,0
64821656,42.6400545,-71.3212299,False,0
64821666,42.6405510,-71.3103010,False,0
64821736,42.6401054,-71.3167031,False,0
64822092,42.6434494,-71.3178356,True,0
64822116,42.6394042,-71.3158988,True,0
64822505,42.6320740,-71.3199150,False,0
64822565,42.6364950,-71.3211160,True,0
64822585,42.6383429,-71.3307603,True,0
64822595,42.6396900,-71.3084460,False,0
64822630,42.6411800,-71.3192030,False,0
64822647,42.6317690,-71.3295560,False,0
64822786,42.6389890,-71.3083440,True,0
64822803,42.6328859,-71.3094897,False,0
64822943,42.6402020,-71.3073380,False,0
64823034,42.6417422,-71.3083604,False,0
64823177,42.6414898,-71.3185041,False,0
64823184,42.6335900,-71.3383340,False,0
64823460,42.6385750,-71.3337240,False,0
64823652,42.6359510,-71.3229080,False,0
64823883,42.6370330,-71.3193950,True,0
64823934,42.6407459,-71.3218571,False,0
64823969,42.6405094,-71.3243778,False,0
64823995,42.6433504,-71.3184992,True,0
64824009,42.6387357,-71.3154911,True,1
64824081,42.6383020,-71.3412530,False,0
64824277,42.6353770,-71.3060930,False,0
64824377,42.6414104,-71.3074440,False,0
64824601,42.6340000,-71.3351010,False,0
64824667,42.6338131,-71.3109858,False,0
64824773,42.6442940,-71.3163523,False,0
64824961,42.6406546,-71.3167718,False,0
64825047,42.6337826,-71.3107006,False,0
64825221,42.6436780,-71.3084800,True,0
64825282,42.6409502,-71.3166518,True,1
64825308,42.6318990,-71.3199360,False,1
64825379,42.6429906,-71.3216817,True,0
64825421,42.6401142,-71.3163517,False,0
64825608,42.6471646,-71.3258701,False,0
64826331,42.6366442,-71.3081518,False,0
64826640,42.6383400,-71.3403610,False,0
64826746,42.6379950,-71.3055930,False,0
64827139,42.6400884,-71.3290867,True,0
64827278,42.6373070,-71.3198090,False,0
64827455,42.6379420,-71.3292771,True,3
64827552,42.6365320,-71.3278680,False,0
64827581,42.6386056,-71.3155975,False,0
64827811,42.6372720,-71.3170770,False,0
64828299,42.6384793,-71.3157155,True,4
64828654,42.6390910,-71.3153711,False,0
64828821,42.6319540,-71.3199600,False,0
64829011,42.6391910,-71.3075830,True,0
64829044,42.6378640,-71.3160516,True,1
64829056,42.6411830,-71.3190600,False,0
64829096,42.6423320,-71.3182546,False,0
64829104,42.6364250,-71.3191020,False,0
64829388,42.6405998,-71.3128509,True,0
64829396,42.6352780,-71.3264370,False,0
64829494,42.6362440,-71.3057860,False,0
64829527,42.6397432,-71.3161410,False,0
64829583,42.6333130,-71.3404440,False,0
64829669,42.6396490,-71.3085430,False,0
64829817,42.6335838,-71.3090582,False,0
64829879,42.6318020,-71.3445680,False,0
64829966,42.6426893,-71.3061973,False,0
64830012,42.6438358,-71.3216025,True,0
64830042,42.6389129,-71.3247738,True,0
64830352,42.6375223,-71.3178759,False,0
64830487,42.6360450,-71.3284020,False,0
64830635,42.6382607,-71.3081161,True,0
64831009,42.6345399,-71.3135674,False,0
64831044,42.6400713,-71.3146263,True,0
64831097,42.6322582,-71.3040346,False,0
64831148,42.6351006,-71.3089878,True,1
64831290,42.6366640,-71.3176530,False,0
64831373,42.6409523,-71.3306304,True,0
64831443,42.6335884,-71.3102902,False,0
64831648,42.6417893,-71.3089778,True,4
64831820,42.6402215,-71.3087945,True,0
64831956,42.6434712,-71.3237511,True,0
64831991,42.6387100,-71.3183193,True,0
64832125,42.6361660,-71.3177340,False,0
64832526,42.6358690,-71.3065060,False,0
64832692,42.6400800,-71.3164640,False,0
64832761,42.6398842,-71.3254470,False,0
64832878,42.6373855,-71.3138205,False,0
64833063,42.6397560,-71.3326490,False,0
64833154,42.6400781,-71.3143585,False,0
64833169,42.6460400,-71.3252260,False,0
64833350,42.6378841,-71.3142940,True,0
64833436,42.6352860,-71.3118400,True,0
64833523,42.6396007,-71.3248892,True,0
64833575,42.6340838,-71.3148722,True,0
64833619,42.6351790,-71.3352730,False,0
64833866,42.6405200,-71.3304260,False,0
64834055,42.6438127,-71.3319022,True,0
64834068,42.6418434,-71.3088020,False,0
64834101,42.6362910,-71.3177820,False,0
64834178,42.6357370,-71.3224920,False,0
64834243,42.6392355,-71.3164627,True,0
64834283,42.6390294,-71.3151663,True,0
64834372,42.6412868,-71.3082055,True,2
64834394,42.6406209,-71.3253684,False,0
64835242,42.6320130,-71.3199500,False,0
64835386,42.6434847,-71.3236685,True,2
64835597,42.6343220,-71.3179650,False,0
64835884,42.6334131,-71.3126468,False,0
64836078,42.6299410,-71.3291390,False,0
64836095,42.6343128,-71.3110226,True,0
64836306,42.6347777,-71.3104791,False,0
64836520,42.6351480,-71.3175160,False,0
64836588,42.6334794,-71.3160308,False,0
64836664,42.6338250,-71.3364670,False,0
64836714,42.6361600,-71.3209260,False,0
64836917,42.6429890,-71.3213700,False,0
64836969,42.6385595,-71.3288615,True,0
64836996,42.6380251,-71.3260076,False,0
64837047,42.6346484,-71.3111791,True,0
64837409,42.6377055,-71.3170669,False,0
64837465,42.6401194,-71.3082788,True,0
64838096,42.6387530,-71.3165360,False,0
64838289,42.6377467,-71.3177789,False,0
64838334,42.6403116,-71.3162320,False,0
64838364,42.6404219,-71.3163169,False,0
64838846,42.6410664,-71.3174706,False,0
64838863,42.6324613,-71.3229269,False,0
64839009,42.6404601,-71.3243667,True,0
64839018,42.6336930,-71.3115306,False,0
64839212,42.6385120,-71.3356070,False,0
64839310,42.6343260,-71.3287580,False,0
64839371,42.6397992,-71.3165558,False,0
64839389,42.6350970,-71.3116459,True,1
64839580,42.6433528,-71.3272105,False,0
64840394,42.6355739,-71.3085123,True,0
64840475,42.6407321,-71.3164811,True,0
64840701,42.6383519,-71.3181192,True,0
64841482,42.6321214,-71.3036578,False,0
64841846,42.6407300,-71.3124230,True,0
64842053,42.6332000,-71.3408240,False,0
64842155,42.6408634,-71.3166480,False,0
64842405,42.6339560,-71.3188580,False,0
64842490,42.6391823,-71.3298287,True,0
64842643,42.6406089,-71.3192512,True,0
64842774,42.6393744,-71.3248447,True,0
64842943,42.6363130,-71.3227660,False,0
64843032,42.6386019,-71.3174274,True,0
64843201,42.6350970,-71.3359170,False,0
64843358,42.6446380,-71.3148900,False,0
64843721,42.6433420,-71.3169666,False,0
64843776,42.6402280,-71.3086870,False,0
64843784,42.6384750,-71.3147323,False,0
64844024,42.6333460,-71.3402840,False,0
64844034,42.6362830,-71.3238600,False,0
64844212,42.6436478,-71.3338899,False,0
64844502,42.6432920,-71.3286600,False,0
64844742,42.6360970,-71.3223850,False,0
64845004,42.6432976,-71.3071630,False,0
64845175,42.6345009,-71.3137104,False,0
64845361,42.6364050,-71.3177490,False,0
64845371,42.6434806,-71.3146651,True,4
64845848,42.6377974,-71.3193527,True,0
64845946,42.6322280,-71.3434310,False,0
64846184,42.6415821,-71.3052278,False,0
64846319,42.6405782,-71.3268912,False,0
64846607,42.6385310,-71.3349230,False,0
64846618,42.6362750,-71.3249930,True,0
64846627,42.6344622,-71.3106916,True,0
64846653,42.6375418,-71.3275689,True,0
64846804,42.6374208,-71.3210923,False,0
64847486,42.6354610,-71.3330330,False,0
64847511,42.6431048,-71.3258524,True,1
64847577,42.6416556,-71.3175301,True,0
64847789,42.6355760,-71.3264130,True,0
64847846,42.6443948,-71.3283676,False,0
64847868,42.6345190,-71.3309890,True,0
64848023,42.6366000,-71.3191570,False,0
64848098,42.6354780,-71.3264290,False,0
64848170,42.6343699,-71.3141844,False,0
64848298,42.6377256,-71.3221069,True,0
64848351,42.6440998,-71.3261565,True,0
64848560,42.6371810,-71.3285400,False,0
64848571,42.6339510,-71.3354860,False,0
64848588,42.6393552,-71.3161483,True,1
64848616,42.6436610,-71.3084810,False,0
64848638,42.6347520,-71.3179610,False,0
64848851,42.6382590,-71.3057630,False,0
64848884,42.6428080,-71.3073130,False,0
64849003,42.6350250,-71.3231750,False,0
64849017,42.6391190,-71.3306560,False,0
64849062,42.6440419,-71.3158361,True,2
64849333,42.6360500,-71.3225530,True,0
64849346,42.6409190,-71.3178380,False,0
64849528,42.6418589,-71.3076886,False,0
64849592,42.6364670,-71.3064730,False,0
64849628,42.6442910,-71.3180458,False,0
64850070,42.6343020,-71.3082280,False,0
64850090,42.6399397,-71.3158493,False,0
64850345,42.6409836,-71.3078988,False,0
64850508,42.6412851,-71.3228197,False,0
64850627,42.6333950,-71.3262370,False,0
64850653,42.6401321,-71.3285727,False,0
64850767,42.6380885,-71.3093890,False,0
64850845,42.6393383,-71.3169912,False,0
64851139,42.6335272,-71.3127417,False,0
64851240,42.6337800,-71.3112646,False,0
64851284,42.6364780,-71.3291250,True,0
64851307,42.6412980,-71.3186680,False,0
64851560,42.6442630,-71.3315650,False,0
64851572,42.6385960,-71.3329720,False,0
64851881,42.6421414,-71.3062558,False,0
64852117,42.6367050,-71.3079149,False,0
64852370,42.6338550,-71.3298150,False,0
64852599,42.6445240,-71.3139260,False,0
64852750,42.6418683,-71.3084481,True,1
64852804,42.6389932,-71.3154087,False,0
64852855,42.6442066,-71.3187019,False,0
64852875,42.6325140,-71.3135540,False,0
64852916,42.6341539,-71.3147394,False,0
64853341,42.6397277,-71.3285893,False,0
64853584,42.6349510,-71.3274680,False,0
64853592,42.6353290,-71.3190020,False,0
64853705,42.6411690,-71.3166195,False,0
64853971,42.6352210,-71.3264310,False,0
64853976,42.6384812,-71.3148879,False,0
64854046,42.6423440,-71.3312450,True,0
64854123,42.6412846,-71.3223316,False,0
64854133,42.6446493,-71.3215273,False,0
64854241,42.6348970,-71.3176530,True,0
64854247,42.6334010,-71.3297030,False,0
64854302,42.6431260,-71.3192470,False,0
64854636,42.6428619,-71.3285256,True,0
64854676,42.6365220,-71.3277430,True,0
64854821,42.6369910,-71.3176270,False,0
64854846,42.6335982,-71.3237354,False,0
64855431,42.6386488,-71.3191996,False,0
64855596,42.6384160,-71.3380250,False,0
64855608,42.6402160,-71.3312290,False,0
64855754,42.6340160,-71.3349760,False,0
64855778,42.6422470,-71.3084698,True,0
64855900,42.6368500,-71.3253890,False,0
64856011,42.6400042,-71.3144947,False,0
64856203,42.6399422,-71.3163332,False,0
64856253,42.6338750,-71.3297690,True,0
64856478,42.6374271,-71.3181880,False,0
64856569,42.6407402,-71.3078309,True,4
64856585,42.6338980,-71.3066420,False,0
64856822,42.6333120,-71.3297060,False,0
64856875,42.6387501,-71.3181372,False,0
64857000,42.6385780,-71.3336290,False,0
64857134,42.6393417,-71.3169091,False,0
64857272,42.6375155,-71.3227849,True,0
64857292,42.6337867,-71.3103200,False,0
64857345,42.6417788,-71.3164457,False,0
64857445,42.6362950,-71.3217480,True,0
64857995,42.6356747,-71.3098748,False,0
64858015,42.6451250,-71.3214830,False,0
64858025,42.6385982,-71.3305460,True,0
64858227,42.6348940,-71.3251640,False,0
64858240,42.6426110,-71.3301329,False,0
64858326,42.6383935,-71.3237417,True,0
64858335,42.6396878,-71.3155832,False,0
64858572,42.6418406,-71.3062781,False,0
64859041,42.6369700,-71.3065290,False,0
64859147,42.6348164,-71.3276838,False,0
64859516,42.6419977,-71.3239550,False,0
64859700,42.6398519,-71.3110315,True,0
64859876,42.6337012,-71.3104677,False,0
64859896,42.6321621,-71.3037326,False,0
64859931,42.6383700,-71.3394590,False,0
64859953,42.6381053,-71.3077280,False,0
64860265,42.6426470,-71.3085242,True,0
64860323,42.6420378,-71.3326069,False,0
64860337,42.6337800,-71.3208710,True,0
64860399,42.6365260,-71.3280010,False,0
64860530,42.6379992,-71.3167973,True,0
64860694,42.6373417,-71.3256460,True,0
64860839,42.6362940,-71.3230190,False,0
64861165,42.6328830,-71.3056470,False,0
64861350,42.6414440,-71.3069290,False,0
64861581,42.6388863,-71.3241944,False,0
64861599,42.6336710,-71.3237507,False,0
64861700,42.6446004,-71.3210028,False,0
64862260,42.6377544,-71.3167330,True,0
64862306,42.6425120,-71.3305210,True,0
64862350,42.6397688,-71.3267076,True,0
64862605,42.6363050,-71.3199950,False,0
64862642,42.6433520,-71.3206303,True,0
64862941,42.6381073,-71.3080739,True,0
64863128,42.6380785,-71.3159464,True,0
64863198,42.6351660,-71.3182170,False,0
64863239,42.6363370,-71.3225990,True,0
64863265,42.6439960,-71.3313000,False,0
64863333,42.6445065,-71.3322127,False,0
64863411,42.6369060,-71.3165510,False,0
64863478,42.6382910,-71.3414960,False,0
64863537,42.6362360,-71.3219350,False,0
64863611,42.6406249,-71.3252701,False,0
64863637,42.6424323,-71.3093241,True,0
64863769,42.6346230,-71.3301670,True,0
64863913,42.6367240,-71.3192320,False,0
64864093,42.6384150,-71.3380570,False,0
64864337,42.6392650,-71.3288490,True,4
64864375,42.6435364,-71.3147869,True,1
64864475,42.6466650,-71.3255750,False,0
64864664,42.6412950,-71.3208840,False,0
64864762,42.6356940,-71.3290560,True,0
64865199,42.6379120,-71.3320620,False,0
64865303,42.6397287,-71.3286603,False,0
64865629,42.6380320,-71.3172860,False,0
64865740,42.6340560,-71.3346510,False,0
64865963,42.6433800,-71.3317086,True,0
64866130,42.6336240,-71.3296840,False,0
64866189,42.6355520,-71.3278930,True,0
64866564,42.6437260,-71.3325280,False,0
64866687,42.6400550,-71.3102720,True,0
64867086,42.6442440,-71.3314270,False,0
64867352,42.6387055,-71.3167341,False,0
64867412,42.6337860,-71.3367750,False,0
64867457,42.6356580,-71.3241190,False,0
64867544,42.6412087,-71.3108665,True,0
64867696,42.6398201,-71.3301124,True,0
64867829,42.6374969,-71.3208792,False,0
64867909,42.6350080,-71.3181340,False,0
64868207,42.6354900,-71.3328070,False,0
64868310,42.6406248,-71.3250923,False,0
64868625,42.6362980,-71.3232500,False,0
64868702,42.6422628,-71.3086099,False,0
64868791,42.6395467,-71.3267265,False,0
64869068,42.6327380,-71.3420750,False,0
64869135,42.6339919,-71.3105069,False,0
64869391,42.6385690,-71.3060060,False,0
64870123,42.6373090,-71.3285310,False,0
64870137,42.6356200,-71.3224880,True,0
64870285,42.6420190,-71.3180840,False,0
64870514,42.6384628,-71.3247040,True,1
64870871,42.6402374,-71.3113508,False,0
64871083,42.6401999,-71.3161256,False,0
64871116,42.6410508,-71.3166449,True,0
64871227,42.6432630,-71.3169806,False,0
64871279,42.6367540,-71.3202900,False,0
64871817,42.6359130,-71.3068810,False,0
64872470,42.6372010,-71.3170570,False,0
64872510,42.6389890,-71.3083230,False,0
64872604,42.6446673,-71.3322847,False,0
64872747,42.6354520,-71.3331070,False,0
64872786,42.6371674,-71.3219746,True,0
64872944,42.6391495,-71.3167559,True,0
64873270,42.6412240,-71.3187800,False,0
64873309,42.6414070,-71.3171150,False,0
64873719,42.6337040,-71.3374170,False,0
64873758,42.6337670,-71.3227210,False,0
64873996,42.6428362,-71.3202569,False,0
64874346,42.6457510,-71.3250620,False,0
64874403,42.6416215,-71.3254027,True,0
64874430,42.6404025,-71.3243715,True,0
64874808,42.6444970,-71.3274360,False,0
64875005,42.6430580,-71.3212120,False,0
64875117,42.6387030,-71.3061170,False,0
64875138,42.6343879,-71.3141204,True,0
64875474,42.6376600,-71.3173039,False,0
64875571,42.6393340,-71.3336840,False,0
64875599,42.6365524,-71.3167434,True,0
64875915,42.6402832,-71.3167393,False,0
64876110,42.6376437,-71.3139182,False,0
64876208,42.6321887,-71.3037978,False,0
64876487,42.6385099,-71.3259928,True,0
64876637,42.6426919,-71.3298078,True,0
64876662,42.6401584,-71.3084923,False,0
64876687,42.6384530,-71.3371010,False,0
64877022,42.6352510,-71.3225110,False,0
64877236,42.6351930,-71.3061950,False,0
64877281,42.6369580,-71.3196270,False,0
64877367,42.6384468,-71.3242172,True,0
64877390,42.6393267,-71.3170363,False,0
64877591,42.6338730,-71.3199070,True,0
64877680,42.6334090,-71.3053750,False,0
64878032,42.6363950,-71.3262790,True,0
64878109,42.6405411,-71.3251013,True,0
64878229,42.6365030,-71.3284490,True,0
64878372,42.6329663,-71.3171459,False,0
64878383,42.6345459,-71.3135454,True,0
64878617,42.6387548,-71.3132496,True,0
64878659,42.6365994,-71.3084245,False,0
64879204,42.6433556,-71.3144175,True,0
64879351,42.6335812,-71.3099544,False,0
64879589,42.6376560,-71.3177329,False,0
64879946,42.6366062,-71.3083062,False,0
64880078,42.6410639,-71.3087531,True,1
64880294,42.6416061,-71.3165781,False,0
64880960,42.6392640,-71.3285160,False,0
64881013,42.6353550,-71.3099058,False,0
64881020,42.6337473,-71.3113880,False,0
64881254,42.6353738,-71.3089794,True,0
64881631,42.6381001,-71.3097348,False,0
64881806,42.6354130,-71.3224910,False,0
64882532,42.6395440,-71.3325800,True,0
64882586,42.6383112,-71.3230947,True,0
64882713,42.6412840,-71.3307730,False,0
64883086,42.6355040,-71.3247330,False,0
64883095,42.6314100,-71.3295090,False,0
64883099,42.6351010,-71.3181950,False,0
64883216,42.6403760,-71.3079910,False,0
64883331,42.6405696,-71.3167556,True,0
64883416,42.6418566,-71.3086659,True,1
64883507,42.6372550,-71.3248200,True,0
64883578,42.6377653,-71.3200502,True,0
64883931,42.6403045,-71.3043500,False,0
64884024,42.6440820,-71.3241160,True,0
64884120,42.6349520,-71.3208820,False,0
64884676,42.6375977,-71.3199576,True,0
64884800,42.6437598,-71.3330993,False,0
64884883,42.6404537,-71.3165613,False,0
64885124,42.6392430,-71.3228700,True,0
64885130,42.6286620,-71.3287570,False,0
64885663,42.6419468,-71.3259707,True,0
64885710,42.6342799,-71.3144544,False,0
64885723,42.6418420,-71.3065230,False,0
64885788,42.6490520,-71.3269480,False,0
64886020,42.6355061,-71.3120620,False,0
64886071,42.6414804,-71.3064891,False,0
64886182,42.6398898,-71.3124578,True,0
64886447,42.6343610,-71.3262670,False,0
64886460,42.6368840,-71.3198700,False,0
64886504,42.6374724,-71.3180400,False,0
64886511,42.6355570,-71.3245220,True,0
64886756,42.6336580,-71.3251770,False,0
64886769,42.6388251,-71.3152432,False,0
64886816,42.6427852,-71.3154644,True,0
64887159,42.6400981,-71.3249981,True,0
64887192,42.6391575,-71.3248114,True,0
64887230,42.6398991,-71.3166144,False,0
64887257,42.6412480,-71.3167549,False,0
64887300,42.6338421,-71.3079549,True,0
64887346,42.6398420,-71.3338700,False,0
64887494,42.6390978,-71.3150687,True,1
64887662,42.6413620,-71.3127690,True,0
64887708,42.6335111,-71.3102015,False,0
64887954,42.6394956,-71.3108296,True,4
64888048,42.6362480,-71.3177790,False,0
64888219,42.6464710,-71.3254670,False,0
64888242,42.6411920,-71.3188810,False,0
64888333,42.6388070,-71.3104560,True,0
64888355,42.6453180,-71.3248200,False,0
64888415,42.6340017,-71.3077678,True,0
64888523,42.6352160,-71.3208900,False,0
64888557,42.6323700,-71.3296020,False,0
64888616,42.6334172,-71.3129752,False,0
64888718,42.6386294,-71.3187313,False,0
64888817,42.6361550,-71.3199300,False,0
64888939,42.6369820,-71.3094220,True,0
64889058,42.6409461,-71.3168031,True,0
64889377,42.6340170,-71.3271330,False,0
64889444,42.6307300,-71.3293880,False,0
64889468,42.6446530,-71.3244460,False,0
64890117,42.6404280,-71.3303850,True,0
64890446,42.6356830,-71.3250890,False,0
64890658,42.6376344,-71.3174319,False,0
64890736,42.6413813,-71.3078164,True,0
64890790,42.6432356,-71.3192696,True,0
64891015,42.6341640,-71.3338010,False,1
64891020,42.6422240,-71.3181786,False,0
64891026,42.6363810,-71.3315700,True,0
64891160,42.6393640,-71.3086440,False,0
64891238,42.6353330,-71.3264390,False,0
64891266,42.6336220,-71.3183530,False,0
64891346,42.6393148,-71.3168312,True,0
64891625,42.6344270,-71.3198950,True,0
64891677,42.6350570,-71.3266970,False,0
64891837,42.6392655,-71.3145095,False,0
64891844,42.6368520,-71.3176120,False,0
64891857,42.6340770,-71.3251820,False,0
64892137,42.6432221,-71.3070329,False,0
64892183,42.6417790,-71.3114320,True,0
64892229,42.6416189,-71.3082889,True,0
64892243,42.6382073,-71.3180486,True,0
64892256,42.6294250,-71.3289860,False,0
64892284,42.6363880,-71.3187730,False,0
64892385,42.6331200,-71.3410550,False,0
64892393,42.6385040,-71.3357730,False,0
64892493,42.6367790,-71.3249000,True,0
64892536,42.6431219,-71.3257183,True,2
64892549,42.6384646,-71.3197246,True,0
64892605,42.6364250,-71.3304610,True,0
64892607,42.6430135,-71.3195419,False,0
64892910,42.6405512,-71.3165943,False,0
64892962,42.6354350,-71.3264360,True,0
64893324,42.6309100,-71.3294320,False,0
64893690,42.6386158,-71.3325604,False,0
64893722,42.6386381,-71.3172364,False,0
64893886,42.6435718,-71.3170146,True,0
64893938,42.6379491,-71.3213874,True,0
64894037,42.6388901,-71.3153878,True,0
64894129,42.6327970,-71.3228610,False,0
64894388,42.6334670,-71.3393490,False,0
64894515,42.6357020,-71.3208920,False,0
64894587,42.6406273,-71.3251823,False,0
64894614,42.6364490,-71.3249670,True,0
64894699,42.6325750,-71.3296180,False,0
64894734,42.6384150,-71.3198857,False,0
64894796,42.6369928,-71.3089208,True,1
64894954,42.6310630,-71.3294640,False,0
64895116,42.6442828,-71.3321126,False,0
64895144,42.6337506,-71.3237808,False,0
64895168,42.6426252,-71.3217157,True,0
64895315,42.6358900,-71.3190480,False,0
64895366,42.6419977,-71.3255126,True,0
64895435,42.6334780,-71.3392540,False,0
64895452,42.6335634,-71.3084341,False,0
64895761,42.6429208,-71.3278918,True,0
64895838,42.6406290,-71.3274562,False,0
64895873,42.6323760,-71.3430420,False,0
64895887,42.6405296,-71.3262652,False,0
64896026,42.6380720,-71.3088784,True,0
64896031,42.6381171,-71.3299288,True,0
64896086,42.6380217,-71.3293125,False,2
64896351,42.6400032,-71.3166658,False,0
64896491,42.6369360,-71.3095860,False,0
64896694,42.6386782,-71.3184587,False,0
64896728,42.6446370,-71.3138280,False,0
64896879,42.6422925,-71.3217467,True,0
64897021,42.6362437,-71.3127307,False,0
64897244,42.6439528,-71.3275970,False,0
64897499,42.6411080,-71.3166336,False,0
64897755,42.6359170,-71.3208950,False,0
64897812,42.6385526,-71.3156422,False,0
64897877,42.6397910,-71.3088420,False,0
64898207,42.6373913,-71.3261050,True,0
64898385,42.6385247,-71.3267170,True,0
64898391,42.6367520,-71.3238330,True,0
64898435,42.6424502,-71.3190331,True,0
64898450,42.6330680,-71.3060980,False,0
64898524,42.6413302,-71.3167286,True,0
64898596,42.6437050,-71.3326720,False,0
64898869,42.6335220,-71.3306680,False,0
64898936,42.6417990,-71.3089410,False,0
64898990,42.6366670,-71.3056120,False,0
64899112,42.6329510,-71.3415100,False,0
64899212,42.6344010,-71.3319130,False,0
64899408,42.6390310,-71.3063870,False,0
64899419,42.6338040,-71.3366350,False,0
64899437,42.6447260,-71.3244880,False,0
64899483,42.6440610,-71.3313260,False,0
64899688,42.6325770,-71.3228970,False,0
64899697,42.6411067,-71.3175738,True,0
64899784,42.6343566,-71.3105973,True,0
64899792,42.6413160,-71.3178502,True,0
64899958,42.6415721,-71.3164620,False,0
64899967,42.6391460,-71.3064830,False,0
64899980,42.6400569,-71.3282807,False,0
64900014,42.6413496,-71.3165666,False,0
64900109,42.6365130,-71.3281690,False,0
64900169,42.6401257,-71.3288493,False,0
64900523,42.6440390,-71.3265670,False,0
64900616,42.6350140,-71.3269530,False,0
64900621,42.6332790,-71.3185480,False,1
64900671,42.6405668,-71.3267997,False,0
64900711,42.6431930,-71.3170166,False,0
64900732,42.6394851,-71.3158946,False,0
64900768,42.6395039,-71.3136841,True,0
64900791,42.6448870,-71.3263971,False,0
64900807,42.6346652,-71.3068812,False,0
64901003,42.6402483,-71.3126578,True,0
64901025,42.6338591,-71.3102399,False,0
64901266,42.6357560,-71.3173870,False,0
64901314,42.6395334,-71.3088657,True,0
64901405,42.6442670,-71.3314880,False,0
64901433,42.6398079,-71.3157118,False,0
64901445,42.6408956,-71.3078505,True,4
64901601,42.6417210,-71.3116230,True,0
64901981,42.6370390,-71.3193760,False,0
64902366,42.6343680,-71.3079430,True,0
64902612,42.6403455,-71.3136637,True,0
64902645,42.6332964,-71.3128966,False,0
64902957,42.6384590,-71.3369310,False,0
64903115,42.6333240,-71.3191460,False,0
64903351,42.6363240,-71.3209860,False,0
64903424,42.6400390,-71.3327390,False,0
64903456,42.6346170,-71.3281160,False,0
64903484,42.6370080,-71.3091615,False,0
64903692,42.6353383,-71.3099808,False,0
64903768,42.6412470,-71.3317010,True,0
64903803,42.6348009,-71.3126524,True,0
64903949,42.6336750,-71.3376450,False,0
64904613,42.6377643,-71.3054757,True,0
64904642,42.6345519,-71.3135244,False,0
64904711,42.6378880,-71.3299990,False,0
64904944,42.6408462,-71.3144816,False,0
64904963,42.6398670,-71.3326840,True,0
64904977,42.6405703,-71.3244419,False,0
64904989,42.6365150,-71.3191270,False,0
64905016,42.6396225,-71.3164088,False,0
64905216,42.6403740,-71.3167466,False,0
64905473,42.6304870,-71.3293070,False,0
64905596,42.6401550,-71.3197735,True,0
64905602,42.6427972,-71.3292633,True,0
64905612,42.6344680,-71.3284450,True,0
64905753,42.6375976,-71.3175888,False,0
64905818,42.6419742,-71.3217763,True,3
64905937,42.6373462,-71.3203978,True,0
64905996,42.6433385,-71.3072623,True,0
64906110,42.6439510,-71.3313240,False,0
64906131,42.6418830,-71.3310400,True,0
64906173,42.6357275,-71.3122687,False,0
64906240,42.6429810,-71.3214320,False,0
64906339,42.6335540,-71.3057450,False,0
64906403,42.6337250,-71.3214490,False,0
64906428,42.6396901,-71.3164687,False,0
64906451,42.6395566,-71.3154716,True,1
64906608,42.6437614,-71.3260530,True,0
64906835,42.6349140,-71.3235620,False,0
64906902,42.6437287,-71.3328485,False,0
64907046,42.6411820,-71.3193870,False,0
64907175,42.6382892,-71.3146835,False,0
64907508,42.6425527,-71.3202970,True,0
64907513,42.6395400,-71.3262420,False,0
64907657,42.6415349,-71.3166259,False,0
64907717,42.6336810,-71.3301370,True,0
64907733,42.6429262,-71.3085068,True,0
64907791,42.6380981,-71.3215562,True,0
64907920,42.6372180,-71.3299610,False,0
64907995,42.6352800,-71.3061440,False,0
64908075,42.6397160,-71.3086810,False,0
64908131,42.6384960,-71.3359290,False,0
64908258,42.6385693,-71.3295561,True,0
64908415,42.6398516,-71.3249441,True,0
64908578,42.6384932,-71.3254590,True,0
64908629,42.6362470,-71.3209520,False,0
64908692,42.6357740,-71.3236120,False,0
64908715,42.6395130,-71.3085890,False,0
64908803,42.6439969,-71.3084566,True,0
64908835,42.6382749,-71.3203319,True,0
64909028,42.6401875,-71.3167222,False,0
64909093,42.6380629,-71.3163848,False,0
64909141,42.6394844,-71.3156676,True,0
64909154,42.6402240,-71.3102550,False,0
64909468,42.6413193,-71.3081133,True,1
64909632,42.6434270,-71.3169786,False,0
64909646,42.6364060,-71.3184200,True,0
64909717,42.6370920,-71.3257340,False,0
64909810,42.6360690,-71.3250320,False,0
64909819,42.6408013,-71.3305604,True,0
64909916,42.6352460,-71.3182370,False,0
64910049,42.6338059,-71.3111305,False,0
64910119,42.6428287,-71.3289423,True,0
64910137,42.6339930,-71.3308110,False,0
64910241,42.6449998,-71.3182184,False,0
64910279,42.6349230,-71.3277250,False,0
64910304,42.6385683,-71.3294487,False,0
64910345,42.6355020,-71.3231110,False,0
64910363,42.6367272,-71.3075666,True,0
64910385,42.6373750,-71.3285130,False,0
64910678,42.6416460,-71.3218010,False,0
64910720,42.6452507,-71.3143402,False,0
64910724,42.6412130,-71.3198030,True,0
64911410,42.6340430,-71.3069660,False,0
64911495,42.6393321,-71.3168676,False,0
64911643,42.6405340,-71.3266778,False,0
64911708,42.6356328,-71.3089713,True,0
64911981,42.6335630,-71.3385520,False,0
64912137,42.6440403,-71.3267957,False,0
64912207,42.6389970,-71.3098260,False,0
64912940,42.6452715,-71.3265147,False,0
64913130,42.6389730,-71.3099620,False,0
64913246,42.6353330,-71.3065220,False,0
64913400,42.6384680,-71.3366970,False,0
64913421,42.6408535,-71.3167990,False,0
64913524,42.6410896,-71.3165486,True,0
64913612,42.6345960,-71.3303800,True,0
64913712,42.6413700,-71.3218280,True,0
64913902,42.6429072,-71.3202599,False,0
64914071,42.6357160,-71.3278710,True,0
64914141,42.6409290,-71.3330240,False,0
64914346,42.6383260,-71.3077300,False,0
64914412,42.6360720,-71.3209070,False,0
64914533,42.6350340,-71.3262880,False,0
64914560,42.6353680,-71.3198870,False,0
64914764,42.6406319,-71.3164370,False,0
64914832,42.6404236,-71.3328724,False,0
64914850,42.6341120,-71.3084930,False,0
64914974,42.6337730,-71.3080620,False,0
64915175,42.6376815,-71.3171940,True,0
64915265,42.6330000,-71.3306050,False,0
64915731,42.6414053,-71.3166964,False,0
64916161,42.6485590,-71.3266520,False,0
64916388,42.6336720,-71.3060450,False,0
64916567,42.6338076,-71.3108301,False,0
64916731,42.6363460,-71.3177730,False,0
64916861,42.6422023,-71.3195503,False,0
64916889,42.6395810,-71.3085820,False,0
64916988,42.6395662,-71.3158351,False,0
64917015,42.6401801,-71.3165501,False,0
64917151,42.6372792,-71.3238014,True,0
64917295,42.6351460,-71.3251580,False,0
64917424,42.6437040,-71.3327390,False,0
64917507,42.6329460,-71.3228370,False,0
64917671,42.6405233,-71.3266074,False,0
64917792,42.6366100,-71.3089331,True,0
64917873,42.6376530,-71.3300030,False,0
64917877,42.6422742,-71.3182266,False,0
64918049,42.6355752,-71.3110041,False,0
64918428,42.6396933,-71.3151145,False,0
64918481,42.6410784,-71.3167953,False,0
64918744,42.6446475,-71.3263239,False,0
64918753,42.6340390,-71.3104466,True,0
64918763,42.6405500,-71.3244064,False,0
64918837,42.6346670,-71.3251750,False,0
64919150,42.6389895,-71.3088453,True,4
64919167,42.6367970,-71.3176120,False,0
64919196,42.6364430,-71.3212820,False,0
64919240,42.6407820,-71.3218733,False,0
64919311,42.6374524,-71.3067327,False,0
64919487,42.6317150,-71.3295490,False,0
64919663,42.6357120,-71.3238850,True,0
64919734,42.6375860,-71.3140204,False,0
64919750,42.6412792,-71.3218367,True,0
64920052,42.6396235,-71.3152797,False,0
64920120,42.6444263,-71.3279547,False,0
64920345,42.6393170,-71.3087020,False,0
64920359,42.6379460,-71.3055680,False,0
64920495,42.6406169,-71.3114641,True,0
64920559,42.6402681,-71.3166169,False,0
64920678,42.6405320,-71.3078860,False,0
64920849,42.6381030,-71.3056490,False,0
64920876,42.6441730,-71.3313750,False,0
64921206,42.6374005,-71.3231839,False,0
64921333,42.6368340,-71.3250500,False,0
64921426,42.6391887,-71.3266204,False,0
64921501,42.6327120,-71.3176977,False,0
64921512,42.6389812,-71.3164840,False,0
64921604,42.6377293,-71.3169139,False,0
64921890,42.6351310,-71.3263770,True,0
64922072,42.6356050,-71.3214240,False,0
64922094,42.6393852,-71.3156543,False,0
64922316,42.6365995,-71.3083830,False,0
64922358,42.6365000,-71.3274360,False,0
64922395,42.6419952,-71.3229258,True,0
64922613,42.6332729,-71.3090738,False,0
64922803,42.6408119,-71.3181668,False,0
64922835,42.6366160,-71.3056350,False,0
64922958,42.6395159,-71.3299771,True,0
64922989,42.6380780,-71.3100190,True,0
64923037,42.6364650,-71.3294610,False,0
64923087,42.6404658,-71.3167234,False,0
64923161,42.6392400,-71.3324820,True,0
64923171,42.6382280,-71.3057380,False,0
64923255,42.6395380,-71.3068050,True,0
64923279,42.6397880,-71.3086240,False,0
64923401,42.6398850,-71.3085350,False,0
64923557,42.6421185,-71.3179865,True,0
64923634,42.6371759,-71.3135747,True,1
64923770,42.6445144,-71.3215398,True,0
64923907,42.6385870,-71.3333310,False,0
64924100,42.6405940,-71.3201100,False,0
64924184,42.6402431,-71.3139977,True,0
64924193,42.6382820,-71.3416970,False,0
64924563,42.6397040,-71.3069420,False,0
64924711,42.6437617,-71.3331898,False,0
64924794,42.6439220,-71.3313940,False,0
64924802,42.6362080,-71.3177650,False,0
64924825,42.6339120,-71.3213900,False,0
64924836,42.6401936,-71.3141205,False,0
64925115,42.6435281,-71.3309721,False,0
64925144,42.6356800,-71.3313480,True,0
64925222,42.6441350,-71.3320465,True,0
64925294,42.6405802,-71.3244986,False,0
64925666,42.6364590,-71.3177290,True,0
64925793,42.6375697,-71.3177022,True,0
64925871,42.6401406,-71.3287205,True,0
64926089,42.6417824,-71.3184122,True,3
64926242,42.6449009,-71.3323892,False,0
64926404,42.6358260,-71.3278560,False,0
64926434,42.6402231,-71.3233888,False,0
64926524,42.6449019,-71.3136044,False,1
64926627,42.6419449,-71.3185695,False,0
64926779,42.6402647,-71.3164672,False,0
64926845,42.6332740,-71.3406140,False,0
64926939,42.6365530,-71.3130060,False,0
64927149,42.6416954,-71.3165148,False,0
64927451,42.6386220,-71.3173296,False,0
64927529,42.6402646,-71.3112636,True,0
64927542,42.6388820,-71.3164530,False,0
64927729,42.6369250,-71.3169310,False,0
64927752,42.6437060,-71.3288440,False,0
64927989,42.6383740,-71.3393440,False,0
64928075,42.6336970,-71.3262460,False,0
64928219,42.6383827,-71.3309245,True,0
64928299,42.6342088,-71.3109133,True,0
64928356,42.6349740,-71.3272340,True,0
64928448,42.6355430,-71.3224850,False,0
64928489,42.6395693,-71.3105648,False,0
64928512,42.6371884,-71.3077894,True,0
64928533,42.6369180,-71.3176150,False,0
64928553,42.6387222,-71.3166270,False,0
64928563,42.6405182,-71.3265346,False,0
64928587,42.6334500,-71.3270830,False,0
64928749,42.6443170,-71.3262229,False,0
64928793,42.6433272,-71.3084921,True,0
64928826,42.6405100,-71.3104320,True,0
64928851,42.6443620,-71.3084435,False,1
64928936,42.6351080,-71.3062990,False,0
64929014,42.6349400,-71.3371150,False,0
64929147,42.6348460,-71.3284020,False,0
64929247,42.6411963,-71.3084239,False,0
64929336,42.6386114,-71.3322726,True,0
64929472,42.6337502,-71.3105796,False,0
64929701,42.6438520,-71.3290050,False,0
64929866,42.6437509,-71.3329685,False,0
64929891,42.6416563,-71.3164020,False,0
64929922,42.6409668,-71.3116630,True,0
64930010,42.6397715,-71.3149489,False,0
64930086,42.6358620,-71.3171180,False,0
64930132,42.6365230,-71.3074660,False,0
64930311,42.6385360,-71.3347980,False,0
64930409,42.6345450,-71.3307860,False,0
64930493,42.6431735,-71.3196859,True,0
64930582,42.6342339,-71.3145674,False,0
64930599,42.6381744,-71.3145677,False,0
64931002,42.6351500,-71.3355010,False,0
64931044,42.6358050,-71.3059430,True,0
64931100,42.6389930,-71.3099000,False,0
64931132,42.6336440,-71.3074803,False,0
64931150,42.6382537,-71.3071224,True,0
64931262,42.6472450,-71.3259150,False,0
64931323,42.6378590,-71.3178570,False,0
64931610,42.6387930,-71.3164920,False,0
64931720,42.6436236,-71.3200921,True,0
64931835,42.6394340,-71.3086000,False,0
64932269,42.6393960,-71.3088090,False,0
64932288,42.6373794,-71.3212301,False,0
64932349,42.6347730,-71.3289760,True,0
64932582,42.6402610,-71.3080940,True,0
64932616,42.6361913,-71.3089601,True,0
64932729,42.6461924,-71.3329672,False,0
64932763,42.6434568,-71.3146132,True,0
64932800,42.6362420,-71.3190820,False,0
64932864,42.6353637,-71.3098313,True,4
305057622,42.6359505,-71.3138697,True,0
305057623,42.6365264,-71.3141726,True,0
305057729,42.6363321,-71.3142122,False,0
305057731,42.6361784,-71.3141743,False,0
305057732,42.6358719,-71.3140169,True,0
305057733,42.6366711,-71.3142464,True,0
305058038,42.6357846,-71.3141746,True,0
327264075,42.6368409,-71.3304849,False,0
327265992,42.6394054,-71.3108970,True,0
327275549,42.6377473,-71.3137921,True,0
327278838,42.6389199,-71.3124728,True,0
327287071,42.6369615,-71.3131953,True,0
327288291,42.6368898,-71.3297714,False,0
327290017,42.6387473,-71.3130384,True,0
327298169,42.6364879,-71.3127856,True,0
327638194,42.6361678,-71.3124946,True,0
327641240,42.6386885,-71.3132161,True,0
327650538,42.6386098,-71.3134776,True,0
327667461,42.6366870,-71.3297461,False,0
327668568,42.6384033,-71.3141659,True,0
327670010,42.6383360,-71.3142443,True,0
327671694,42.6367815,-71.3104102,True,0
327673597,42.6366375,-71.3304462,False,0
327674770,42.6370503,-71.3095475,True,0
327680160,42.6382069,-71.3141728,True,0
328279990,42.6371398,-71.3188162,False,0
328327230,42.6369035,-71.3176724,False,0
328594225,42.6366591,-71.3185331,False,0
328608069,42.6374710,-71.3177766,False,0
328636955,42.6383870,-71.3208178,False,0
328644135,42.6383255,-71.3213012,False,0
328650585,42.6383757,-71.3229971,False,0
328653514,42.6391669,-71.3227895,False,0
328684484,42.6387895,-71.3211798,False,0
328713626,42.6439470,-71.3299170,True,0
328717479,42.6461731,-71.3320210,True,0
328723525,42.6454294,-71.3316469,True,0
328725442,42.6443948,-71.3304075,True,0
328730119,42.6440725,-71.3300746,True,0
328731863,42.6435917,-71.3295866,True,0
328739448,42.6465242,-71.3314997,True,0
328747498,42.6431449,-71.3295534,True,0
328747664,42.6428493,-71.3293810,True,0
328749732,42.6459155,-71.3311281,True,0
328751393,42.6428700,-71.3291739,True,0
328753553,42.6437663,-71.3297035,True,0
328758019,42.6429918,-71.3291793,True,0
328762337,42.6463498,-71.3320774,True,0
328766058,42.6466746,-71.3316980,True,0
328768874,42.6452651,-71.3310460,True,0
328771462,42.6434984,-71.3295367,True,0
328771598,42.6436787,-71.3296172,True,0
328772977,42.6438385,-71.3298001,True,0
328773836,42.6462867,-71.3312952,True,0
328775568,42.6451265,-71.3315021,True,0
328780824,42.6456965,-71.3310429,True,0
328783931,42.6458259,-71.3318078,True,0
328805694,42.6459118,-71.3306746,True,0
328807006,42.6433499,-71.3181374,False,0
328813639,42.6438376,-71.3291426,False,0
328815375,42.6433263,-71.3183255,False,0
328817807,42.6463507,-71.3308597,True,0
328824164,42.6451019,-71.3304520,True,0
328831905,42.6454809,-71.3305704,True,0
328832116,42.6430538,-71.3180536,False,0
328835006,42.6441939,-71.3292952,False,0
328837677,42.6473367,-71.3308950,False,0
328837931,42.6442544,-71.3297725,True,0
328842547,42.6468596,-71.3306292,False,0
328843041,42.6443150,-71.3286754,False,0
328845911,42.6476334,-71.3301359,False,0
328850794,42.6445266,-71.3301288,True,0
328851766,42.6447823,-71.3288633,False,0
329022619,42.6437455,-71.3292114,True,0
329026550,42.6430275,-71.3183358,False,0
329027013,42.6458099,-71.3295371,False,0
329027751,42.6465753,-71.3310043,True,0
329032921,42.6440859,-71.3296409,True,0
329038717,42.6466013,-71.3310556,True,0
1133148496,42.6439354,-71.3084625,False,0
1136506961,42.6412858,-71.3142003,True,0
1141489345,42.6409857,-71.3148777,False,0
1141489360,42.6410089,-71.3150400,False,0
1141489361,42.6409956,-71.3145652,False,0
1141489364,42.6410040,-71.3144732,False,0
1141489526,42.6410149,-71.3158996,True,0
1141489729,42.6433815,-71.3294465,True,0
1141489844,42.6410528,-71.3152774,False,0
1141489856,42.6410714,-71.3154812,False,0
1141489899,42.6412911,-71.3139834,True,0
1141489937,42.6412792,-71.3152654,True,0
1141489999,42.6411347,-71.3145485,True,0
1141490012,42.6413103,-71.3154209,True,0
1141490057,42.6420053,-71.3116767,True,0
1141490137,42.6412230,-71.3151084,True,0
1141490179,42.6413198,-71.3155568,True,0
1141490183,42.6413222,-71.3157015,True,0
1141490186,42.6411593,-71.3150013,True,0
1141490188,42.6411648,-71.3143750,True,0
1141490191,42.6418657,-71.3117000,True,0
1141490215,42.6410602,-71.3157005,False,0
1141490255,42.6413068,-71.3158916,True,0
1141490264,42.6410937,-71.3141228,False,0
1237893011,42.6423608,-71.3159138,True,0
1237893052,42.6414142,-71.3165417,True,0
1237893058,42.6414748,-71.3166606,True,0
1237893065,42.6412769,-71.3165904,True,0
1237893091,42.6423178,-71.3158128,False,0
1359733721,42.6375236,-71.3162101,True,0
1470996403,42.6348078,-71.3089969,True,0
1471007561,42.6337037,-71.3081741,False,0
1471007564,42.6339227,-71.3078594,False,0
1471033652,42.6322565,-71.3089579,False,0
1471170969,42.6332234,-71.3095740,False,0
1471170972,42.6346974,-71.3105481,False,0
1471170974,42.6326110,-71.3092170,False,0
1471170977,42.6347315,-71.3105073,False,0
1471170993,42.6333663,-71.3088050,False,0
1471170994,42.6327511,-71.3093511,False,0
1471171009,42.6334074,-71.3097804,False,0
1471171022,42.6324889,-71.3091105,False,0
1477425553,42.6318181,-71.3032863,False,0
1477425554,42.6322907,-71.3041253,False,0
1481574943,42.6393648,-71.3126777,False,0
1481574953,42.6374375,-71.3137371,True,0
1481574963,42.6391670,-71.3148508,False,0
1481587865,42.6378382,-71.3161282,False,0
1481587866,42.6378239,-71.3161960,True,2
1481594533,42.6384561,-71.3142173,True,0
1481594536,42.6403576,-71.3165216,False,0
1481594541,42.6378963,-71.3141673,False,0
1481594543,42.6407418,-71.3166350,False,0
1481594555,42.6382128,-71.3144667,False,0
1481596743,42.6414858,-71.3165117,False,0
1481657588,42.6401713,-71.3189332,False,0
1481657590,42.6411419,-71.3176267,False,0
1481657601,42.6410538,-71.3174057,False,0
1481657605,42.6409211,-71.3252029,False,0
1481657606,42.6411513,-71.3165545,False,0
1481657614,42.6410411,-71.3173136,False,0
1481657619,42.6400723,-71.3214819,True,0
1481657622,42.6410879,-71.3175375,False,0
1481657625,42.6405345,-71.3163863,False,0
1481674248,42.6391044,-71.3158928,True,0
1481674249,42.6385704,-71.3192308,False,0
1481674256,42.6407435,-71.3167868,False,0
1481674257,42.6393280,-71.3162359,False,0
1481674259,42.6385491,-71.3193675,False,0
1481674261,42.6386115,-71.3188560,False,0
1481674263,42.6386525,-71.3185950,False,0
1481674267,42.6385205,-71.3195066,False,0
1481674270,42.6393081,-71.3163099,False,0
1481674271,42.6393771,-71.3160774,False,0
1481674276,42.6385846,-71.3191085,False,0
1481683052,42.6380179,-71.3144166,False,0
1481683055,42.6403735,-71.3166820,False,0
1481699854,42.6385679,-71.3175498,False,0
1481699867,42.6387842,-71.3154464,False,0
1481699869,42.6385641,-71.3194504,False,0
1482813950,42.6399965,-71.3148626,False,0
1483803944,42.6333083,-71.3163887,False,0
1513687418,42.6377863,-71.3164633,False,0
1968674486,42.6398577,-71.3085639,True,0
1968674493,42.6399277,-71.3088092,True,2
1968674497,42.6400165,-71.3088028,True,0
1968674503,42.6401501,-71.3083823,False,0
1968674512,42.6405557,-71.3087767,True,0
1968674523,42.6408159,-71.3094746,True,0
2238896050,42.6427077,-71.3094129,True,0
2238902923,42.6426510,-71.3093356,True,0
2238902927,42.6418779,-71.3117073,True,0
2238902928,42.6421226,-71.3110056,True,0
2238902929,42.6421035,-71.3109944,True,0
3399767723,42.6351578,-71.3354394,False,0
3399767724,42.6352690,-71.3345752,False,0
3586751064,42.6388925,-71.3184219,True,0
3586751065,42.6393416,-71.3186552,True,0
3586751066,42.6395451,-71.3180575,False,0
3590210570,42.6401762,-71.3057917,False,0
3748379630,42.6421244,-71.3322503,True,0
3748392448,42.6419579,-71.3310733,True,0
3748392474,42.6427222,-71.3296654,True,0
3789007063,42.6329036,-71.3305961,False,0
4116913681,42.6427129,-71.3237682,False,0
4116913682,42.6427307,-71.3245648,False,0
4116913683,42.6427236,-71.3238333,False,0
4116913684,42.6427759,-71.3233621,True,0
4116913686,42.6428382,-71.3239629,False,0
4116913687,42.6428535,-71.3240384,True,0
4116913688,42.6427889,-71.3243837,False,0
4382822862,42.6366010,-71.3083488,False,0
4382822863,42.6366148,-71.3082617,False,0
4382822865,42.6367880,-71.3075957,True,0
4382822867,42.6369933,-71.3087663,False,0
4382822868,42.6369942,-71.3089778,False,2
4382822869,42.6369960,-71.3093734,False,0
4382822870,42.6369971,-71.3087264,False,0
4382822871,42.6370001,-71.3090649,False,0
4382822872,42.6370013,-71.3086894,False,0
4382822873,42.6370097,-71.3086341,True,0
4382822874,42.6370102,-71.3092272,False,0
4382822877,42.6370108,-71.3092755,False,0
4382822883,42.6370185,-71.3085828,False,0
4382822886,42.6370294,-71.3085310,False,0
4382836589,42.6370701,-71.3077322,True,0
4382836593,42.6370762,-71.3083142,True,0
4382836598,42.6370889,-71.3082553,False,0
4382836604,42.6371453,-71.3079911,True,0
4382836681,42.6380473,-71.3080551,True,0
4382836685,42.6381248,-71.3088773,True,0
5008363820,42.6420008,-71.3254337,True,2
5008364422,42.6420502,-71.3255296,True,2
5008364425,42.6417915,-71.3254559,True,2
5008364441,42.6430043,-71.3258127,True,2
5008364446,42.6430894,-71.3259743,True,2
5008364449,42.6432075,-71.3258837,True,2
5008373146,42.6440887,-71.3262297,False,2
5008373149,42.6437727,-71.3259785,True,2
5008373157,42.6443545,-71.3262344,False,2
5008373169,42.6452081,-71.3264953,False,2
5008373174,42.6448517,-71.3263864,False,2
5250728025,42.6421478,-71.3101885,True,0
5250728026,42.6415304,-71.3098424,True,0
5458718872,42.6422191,-71.3160433,True,0
5458718873,42.6438920,-71.3155161,True,0
5458718885,42.6438264,-71.3153800,True,0
5458738844,42.6363391,-71.3128156,True,0
5458738853,42.6348934,-71.3123379,True,0
5458738863,42.6347172,-71.3129457,True,0
5458738879,42.6416733,-71.3144370,True,0
5458738881,42.6410154,-71.3115128,True,0
5458738890,42.6401404,-71.3200290,True,0
5458738898,42.6401105,-71.3204121,True,0
5458742774,42.6333694,-71.3162610,True,0
5458790472,42.6421707,-71.3071364,False,0
5458790473,42.6418473,-71.3071503,False,0
5458790475,42.6421857,-71.3074162,True,0
5458790476,42.6421725,-71.3071706,False,0
5458790496,42.6423068,-71.3096885,True,0
5458829105,42.6417654,-71.3090548,True,0
5458829106,42.6413946,-71.3077133,True,0
5458830535,42.6367391,-71.3102330,True,0
5458830539,42.6368388,-71.3099036,True,0
5458830545,42.6366050,-71.3086912,True,0
5458830549,42.6376577,-71.3097901,True,0
5458830553,42.6376616,-71.3088898,True,0
5466133272,42.6437499,-71.3332924,False,0
5466133275,42.6436887,-71.3336445,False,0
5545190436,42.6413034,-71.3079000,False,0
5545190437,42.6412407,-71.3079321,False,0
5545190438,42.6411396,-71.3079422,False,0
5545190439,42.6410336,-71.3079296,True,4
5545190440,42.6408352,-71.3078385,True,0
5581638350,42.6423383,-71.3154292,False,0
5581638351,42.6423407,-71.3154015,False,0
5581638352,42.6423848,-71.3153639,False,0
5581638353,42.6423750,-71.3153477,False,0
5581638354,42.6424251,-71.3153040,False,0
5581638355,42.6424416,-71.3153314,False,0
5581638356,42.6428002,-71.3150158,False,0
5581638357,42.6422711,-71.3147694,False,0
5581638358,42.6422547,-71.3148771,False,0
5581638359,42.6422599,-71.3149635,False,0
5581638360,42.6423010,-71.3151444,False,0
5581638361,42.6422749,-71.3152897,False,0
5581638362,42.6422689,-71.3153416,False,0
5581638363,42.6422726,-71.3153751,False,0
5581638364,42.6422929,-71.3154171,False,0
5581638365,42.6422947,-71.3152171,False,0
5582894798,42.6414738,-71.3124122,False,0
5582894803,42.6412246,-71.3132076,False,0
5582894806,42.6417390,-71.3115637,False,0
5582894809,42.6418944,-71.3116551,True,0
5582894853,42.6427770,-71.3150363,False,0
5582963126,42.6434665,-71.3148515,True,2
5582963127,42.6435869,-71.3148969,True,2
5582963128,42.6435999,-71.3147287,True,2
5582963129,42.6448387,-71.3136631,False,2
5584601831,42.6411194,-71.3147805,True,0
5584601832,42.6411930,-71.3150649,True,0
5584601834,42.6410214,-71.3143840,False,0
5584601835,42.6416566,-71.3123377,False,0
5584693635,42.6330278,-71.3096512,False,2
5584693637,42.6355649,-71.3089734,False,2
5584693638,42.6356212,-71.3088806,True,2
5584693639,42.6361782,-71.3088621,True,2
5584693640,42.6365281,-71.3091568,False,2
5584693641,42.6366081,-71.3088401,True,2
5584693642,42.6368750,-71.3089246,True,2
5584693643,42.6369931,-71.3088247,True,2
5584693644,42.6370941,-71.3089161,True,2
5584693645,42.6369226,-71.3093873,False,2
5584693646,42.6369689,-71.3094687,False,2
5584693647,42.6370600,-71.3094645,False,2
5584693648,42.6380358,-71.3088794,False,2
5584693649,42.6380757,-71.3089929,False,2
5584693650,42.6382109,-71.3088754,False,2
5584693651,42.6381213,-71.3087174,False,2
5584693652,42.6389883,-71.3086812,False,2
5584693653,42.6390994,-71.3088413,True,2
5584693654,42.6412486,-71.3080731,True,2
5584693655,42.6413998,-71.3081561,True,2
5584693656,42.6417937,-71.3083954,True,2
5584693657,42.6417452,-71.3086825,True,2
5584693658,42.6418523,-71.3087462,True,2
5584693659,42.6418742,-71.3083370,True,2
5584693660,42.6419844,-71.3084595,True,2
5584693661,42.6419960,-71.3086458,True,2
5584693662,42.6428687,-71.3085091,True,2
5584693663,42.6433720,-71.3084886,True,2
5584693664,42.6442445,-71.3084521,False,2
5584693678,42.6451882,-71.3143993,False,2
5584744989,42.6461110,-71.3329308,False,2
5584744996,42.6489956,-71.3269140,False,2
5584746827,42.6429129,-71.3083847,True,2
5584746828,42.6426339,-71.3086585,True,2
5584746829,42.6411147,-71.3086348,True,2
5584746830,42.6411622,-71.3087425,True,2
5584746831,42.6410270,-71.3088390,True,2
5584746832,42.6409659,-71.3087593,True,2
5584746833,42.6409194,-71.3091518,True,0
5584746839,42.6407543,-71.3087710,True,0
5584746840,42.6405706,-71.3105163,True,2
5584746841,42.6403304,-71.3113031,True,2
5584746842,42.6402879,-71.3111863,True,2
5584746843,42.6401986,-71.3112241,True,2
5584746844,42.6391312,-71.3149726,True,2
5584746847,42.6386715,-71.3155502,False,2
5584746850,42.6395908,-71.3153677,True,2
5584746851,42.6396180,-71.3155144,True,2
5584746852,42.6393881,-71.3161842,True,2
5584746854,42.6393291,-71.3162324,True,2
5584746856,42.6386487,-71.3182850,True,2
5584746879,42.6379153,-71.3160264,True,2
5584810380,42.6410239,-71.3168924,True,2
5584810388,42.6384059,-71.3143232,True,2
5584810403,42.6360810,-71.3124069,True,2
5584810408,42.6353230,-71.3117330,True,0
5584810410,42.6349465,-71.3113213,True,0
5584810764,42.6350402,-71.3118390,True,2
5584810766,42.6352209,-71.3117731,True,2
5584810790,42.6370566,-71.3134624,True,2
5584810792,42.6372581,-71.3137058,True,2
5584810793,42.6372989,-71.3136158,True,2
5584810805,42.6389807,-71.3099380,True,0
5584810807,42.6394280,-71.3107933,True,2
5584810808,42.6394772,-71.3108969,True,2
5584810809,42.6395628,-71.3108656,True,2
5584810810,42.6395170,-71.3107478,True,2
5584810820,42.6388202,-71.3132876,True,0
5584810823,42.6398729,-71.3109591,True,2
5584810842,42.6377432,-71.3055608,False,2
5584810843,42.6374696,-71.3066635,False,2
5584810845,42.6374396,-71.3067841,False,2
5584810850,42.6371491,-71.3077704,True,2
5584810855,42.6372052,-71.3077221,True,0
5584810856,42.6372350,-71.3078038,True,2
5584810874,42.6347066,-71.3068243,False,2
5584810876,42.6342556,-71.3073043,False,2
5584918533,42.6404151,-71.3137025,True,2
5584918534,42.6407932,-71.3124577,True,2
5584918536,42.6411594,-71.3112875,True,2
5584918538,42.6418708,-71.3090004,True,2
5584918540,42.6403159,-71.3137616,True,2
5584918541,42.6404007,-71.3132601,True,2
5584918542,42.6405349,-71.3128158,True,2
5584918543,42.6409040,-71.3116256,True,2
5584918544,42.6409932,-71.3115860,True,2
5584918545,42.6411302,-71.3111342,False,2
5584918546,42.6411476,-71.3108345,True,2
5584918547,42.6400984,-71.3072555,False,2
5584918548,42.6400159,-71.3072745,False,2
5584918549,42.6400628,-71.3071167,False,2
5584918550,42.6399757,-71.3071579,False,2
5584918551,42.6389959,-71.3063581,False,2
5584918556,42.6399028,-71.3079158,False,2
5584918557,42.6412580,-71.3079235,True,2
5584918561,42.6427193,-71.3064727,False,2
5584918563,42.6427038,-71.3063265,False,0
5584918564,42.6429612,-71.3066431,False,0
5584918578,42.6443348,-71.3172193,False,2
5584918580,42.6386017,-71.3306795,False,2
5584918581,42.6383483,-71.3307859,False,2
5584918582,42.6385740,-71.3296260,False,2
5584918583,42.6385067,-71.3295282,False,2
5584918584,42.6386365,-71.3295859,False,2
5584918585,42.6385333,-71.3247155,False,2
5584918586,42.6384626,-71.3246288,True,2
5584918587,42.6384064,-71.3246949,False,2
5584918588,42.6380616,-71.3214624,False,0
5584918589,42.6379833,-71.3212764,False,2
5584918590,42.6380051,-71.3214247,False,2
5584918593,42.6381439,-71.3207558,True,0
5584918595,42.6383809,-71.3199944,False,2
5585000553,42.6409753,-71.3177501,True,0
5585000554,42.6406699,-71.3187564,True,0
5585000566,42.6410361,-71.3172032,False,0
5585019009,42.6408380,-71.3146037,False,0
5585019010,42.6408478,-71.3148223,False,0
5585019011,42.6408991,-71.3152165,False,0
5585019012,42.6409001,-71.3155465,False,0
5585019013,42.6408695,-71.3157557,False,0
5585019014,42.6407955,-71.3159568,False,0
5585019015,42.6406742,-71.3161567,False,0
5585019016,42.6409347,-71.3141687,True,2
5585019017,42.6410120,-71.3138860,False,2
5585019019,42.6409009,-71.3139800,True,2
5585019020,42.6416567,-71.3115764,False,2
5585023521,42.6417484,-71.3115327,False,2
5585023522,42.6433294,-71.3083827,True,2
5586930771,42.6410571,-71.3176382,True,2
5586930772,42.6413644,-71.3177868,True,2
5586930773,42.6417358,-71.3183598,True,2
5586930775,42.6417473,-71.3185048,True,2
5586930776,42.6418533,-71.3184896,True,2
5586930777,42.6418265,-71.3183079,True,2
5586930779,42.6431886,-71.3195846,True,2
5586930780,42.6432708,-71.3197755,True,2
5586930781,42.6435899,-71.3201597,True,2
5586930782,42.6440062,-71.3202711,False,2
5586930783,42.6440730,-71.3204884,False,2
5586930784,42.6439707,-71.3205504,True,2
5586930785,42.6438913,-71.3203262,True,2
5586930786,42.6445889,-71.3211265,False,2
5586930794,42.6373197,-71.3248092,False,2
5586930795,42.6372614,-71.3249112,False,2
5586930796,42.6371894,-71.3248307,False,2
5586930797,42.6372491,-71.3247355,False,2
5586930798,42.6364410,-71.3248823,False,2
5586930799,42.6362816,-71.3250632,False,2
5586930800,42.6355032,-71.3251217,False,2
5586930801,42.6353830,-71.3252463,False,2
5586930802,42.6354463,-71.3249771,False,2
5586930803,42.6353223,-71.3251452,False,2
5586930804,42.6334384,-71.3251578,False,2
5586932625,42.6300224,-71.3291641,False,2
5586932627,42.6298830,-71.3291218,False,2
5586932643,42.6311390,-71.3294739,False,2
5586932645,42.6309926,-71.3294493,False,2
5586932663,42.6319835,-71.3199550,False,2
5611565867,42.6413007,-71.3127364,False,0
5611565868,42.6410686,-71.3126111,False,0
5665109616,42.6465867,-71.3296856,False,0
5665109617,42.6458578,-71.3292986,False,0
5665110622,42.6451606,-71.3292988,False,0
5665110623,42.6450180,-71.3290852,False,0
5928726495,42.6442417,-71.3162544,False,0
6035068119,42.6381281,-71.3213378,False,0
6035068120,42.6387300,-71.3210320,False,0
6086431079,42.6436586,-71.3338231,False,0
6117866571,42.6428665,-71.3284631,True,0
6237315996,42.6349341,-71.3276235,True,0
6237315997,42.6348901,-71.3276222,False,0
6237315998,42.6348516,-71.3276383,False,0
6238896807,42.6386130,-71.3312688,True,0
6250169363,42.6338486,-71.3262508,False,0
6261436994,42.6389923,-71.3094269,True,0
6291830168,42.6430283,-71.3223664,False,0
6291830169,42.6431154,-71.3216701,True,0
6388651968,42.6404316,-71.3245267,True,0
6388655615,42.6400849,-71.3145931,True,2
6388655616,42.6398140,-71.3154019,False,0
6388655617,42.6398173,-71.3154380,False,0
6388655618,42.6398422,-71.3154763,False,0
6388655619,42.6399053,-71.3155282,False,0
6388655620,42.6401292,-71.3156793,False,0
6388656576,42.6398203,-71.3129307,True,2
6388656577,42.6399564,-71.3124950,True,2
6399163761,42.6399714,-71.3122131,True,0
6399163762,42.6396665,-71.3120450,False,0
6400513285,42.6354096,-71.3334531,False,0
6401597338,42.6370870,-71.3291843,True,0
6401597339,42.6370546,-71.3299404,False,0
6442927586,42.6346581,-71.3110106,True,2
6541116211,42.6422430,-71.3205365,True,0
6541116212,42.6425632,-71.3205018,True,0
6579027974,42.6333981,-71.3087546,False,0
6579027975,42.6356765,-71.3274133,True,0
6579027976,42.6359636,-71.3273661,False,0
6579027977,42.6379535,-71.3311896,False,0
6579027978,42.6381035,-71.3312338,False,0
6579027979,42.6381755,-71.3317072,False,0
6579027980,42.6381177,-71.3321170,True,0
6606578714,42.6406689,-71.3077082,True,2
6755476775,42.6377694,-71.3166061,True,0
6755476782,42.6372956,-71.3163360,True,0
6755476783,42.6374621,-71.3162441,True,0
6755479385,42.6425345,-71.3090028,True,0
6755479391,42.6425108,-71.3090760,True,0
6755479393,42.6389462,-71.3164655,True,0
6755486509,42.6382674,-71.3420742,False,0
6755724847,42.6324225,-71.3044558,False,0
6755724853,42.6323266,-71.3042152,False,0
6755976750,42.6394064,-71.3140065,True,0
6755976755,42.6392197,-71.3135193,True,0
6759041058,42.6339940,-71.3226889,True,0
6759041065,42.6343600,-71.3226371,True,0
6765955997,42.6385435,-71.3278375,True,0
6765956006,42.6385366,-71.3273855,True,0
6771569327,42.6395415,-71.3094936,True,0
6771569331,42.6395518,-71.3098666,True,0
6771569337,42.6403692,-71.3109188,True,0
6771569340,42.6399519,-71.3110911,True,0
6771569341,42.6399082,-71.3108258,True,0
6771569343,42.6399623,-71.3106218,True,0
6771746191,42.6344449,-71.3315666,True,0
6771900596,42.6360784,-71.3089624,True,0
6771900603,42.6357462,-71.3089690,True,0
6771900606,42.6336802,-71.3075671,True,0
6774013203,42.6451814,-71.3325147,False,0
6774036735,42.6383008,-71.3230202,True,0
6774297449,42.6365092,-71.3109925,True,0
6796926497,42.6378494,-71.3138638,True,0
6796926545,42.6449983,-71.3314243,True,0
6796926558,42.6435304,-71.3299839,True,0
6796926582,42.6394040,-71.3108644,True,0
6796926596,42.6362068,-71.3122572,True,0
6796926627,42.6460235,-71.3319390,True,0
6796926642,42.6440779,-71.3302749,True,0
6796926666,42.6384374,-71.3140358,True,0
6796926680,42.6370801,-71.3095349,True,0
6796926710,42.6464404,-71.3321073,True,0
6796926726,42.6439004,-71.3302173,True,0
6796926809,42.6442101,-71.3305150,True,0
6796926866,42.6425281,-71.3100028,True,0
6796926876,42.6466404,-71.3319510,True,0
6796926892,42.6441884,-71.3303943,True,0
6796926929,42.6372634,-71.3134642,True,0
6796926960,42.6465629,-71.3321132,True,0
6796926975,42.6440799,-71.3310850,True,0
6796927059,42.6441480,-71.3308235,True,0
6796927131,42.6467617,-71.3318136,True,0
6796927146,42.6447142,-71.3313545,True,0
6796927234,42.6444666,-71.3312754,True,0
6796927272,42.6383536,-71.3142377,True,0
6796927297,42.6424107,-71.3103850,True,0
6796927334,42.6436557,-71.3301234,True,0
6797222853,42.6426581,-71.3155070,False,0
6797222854,42.6426910,-71.3156132,False,0
6814613310,42.6416947,-71.3183182,True,0
6831870303,42.6362711,-71.3117788,True,0
6831870335,42.6368902,-71.3100608,True,0
6831870336,42.6369492,-71.3098771,True,0
6831870337,42.6374393,-71.3097366,True,0
6831870338,42.6389066,-71.3105793,True,0
6831870339,42.6392581,-71.3107794,True,0
6831870340,42.6394068,-71.3108661,True,0
6831870341,42.6394090,-71.3108690,True,0
6831870342,42.6394109,-71.3108768,True,0
6831870343,42.6394103,-71.3108809,True,0
6831870344,42.6394104,-71.3108727,True,0
6831870345,42.6382855,-71.3142410,True,0
6831870346,42.6383136,-71.3142487,True,0
6831870347,42.6383958,-71.3141881,True,0
6831870348,42.6370662,-71.3095364,True,0
6831870362,42.6389691,-71.3106143,True,0
6831870442,42.6379629,-71.3139597,True,0
6831870443,42.6361619,-71.3124476,True,0
6831870444,42.6361772,-71.3123672,True,0
6831870445,42.6381474,-71.3101416,True,0
6831870446,42.6391078,-71.3118619,True,0
6831870447,42.6383755,-71.3142135,True,0
6833075982,42.6433203,-71.3294026,True,0
6833075983,42.6431652,-71.3292912,True,0
6833083999,42.6434631,-71.3295065,True,0
6833084002,42.6430384,-71.3292047,True,0
6833084050,42.6433844,-71.3297600,True,0
6841814094,42.6422918,-71.3312218,True,2
6841814095,42.6445771,-71.3215340,False,2
6841814096,42.6442335,-71.3180316,False,2
6841814102,42.6441462,-71.3186861,False,2
6841816710,42.6443514,-71.3180608,False,2
6841816750,42.6435793,-71.3185520,True,0
6841816751,42.6432505,-71.3191692,True,0
6841816810,42.6431195,-71.3196360,False,0
6841816835,42.6433113,-71.3183562,False,0
6841816836,42.6432638,-71.3183897,False,0
6841816837,42.6432896,-71.3183784,False,0
6841816838,42.6432367,-71.3183887,False,0
6841816839,42.6431486,-71.3183693,False,0
6841816889,42.6440489,-71.3199338,False,0
6841816890,42.6442995,-71.3207104,False,0
6841817024,42.6450477,-71.3214902,False,2
6841817076,42.6449519,-71.3182081,False,2
6841817256,42.6440986,-71.3186737,False,0
6854196040,42.6421452,-71.3063703,False,2
6854196042,42.6418416,-71.3064495,False,2
6854200764,42.6415293,-71.3055409,False,0
6854200765,42.6415046,-71.3059346,False,0
6854200766,42.6414878,-71.3063107,False,0
6854200994,42.6426199,-71.3087395,False,0
6854200995,42.6424472,-71.3085900,False,0
6854200996,42.6424601,-71.3084907,False,0
6854246260,42.6413157,-71.3127444,True,2
6854246270,42.6400865,-71.3068579,False,0
6854246271,42.6406310,-71.3076793,False,0
6854246272,42.6405709,-71.3076398,False,0
6854269650,42.6415560,-71.3097565,True,2
6854269682,42.6402609,-71.3126145,True,2
6854326213,42.6399014,-71.3121745,True,0
6854326214,42.6418716,-71.3082366,False,0
6854326232,42.6393148,-71.3143441,True,0
6854326260,42.6393998,-71.3160049,False,0
6854326262,42.6399085,-71.3146769,True,4
6854326263,42.6390394,-71.3151521,True,2
6854335392,42.6386719,-71.3155499,True,0
6854335397,42.6388217,-71.3154048,False,0
6854335439,42.6408712,-71.3106820,True,0
6854335441,42.6408628,-71.3093283,True,0
6854335443,42.6414599,-71.3087120,True,0
6854343873,42.6402268,-71.3087071,True,2
6854343874,42.6401348,-71.3083307,True,2
6854368339,42.6404563,-71.3103988,True,2
6854368344,42.6395341,-71.3089213,True,2
6854368347,42.6393006,-71.3087384,True,2
6854368349,42.6402051,-71.3080662,True,2
6854368414,42.6405952,-71.3115343,True,2
6854405055,42.6418603,-71.3077471,True,0
6854480170,42.6423740,-71.3092905,True,2
6854480176,42.6423808,-71.3094722,True,0
6855795542,42.6439631,-71.3154881,True,2
6855795599,42.6439008,-71.3144673,True,4
6855795600,42.6438564,-71.3154422,True,4
6859169067,42.6427744,-71.3293912,True,0
6859208429,42.6461102,-71.3319865,True,0
6862134856,42.6410435,-71.3176557,False,0
6862134858,42.6435297,-71.3237844,True,2
6862134870,42.6427608,-71.3234501,True,2
6862134876,42.6424982,-71.3232070,True,0
6862135505,42.6427353,-71.3236189,True,0
6862135506,42.6428502,-71.3239990,False,0
6862135507,42.6428186,-71.3239335,False,0
6862135508,42.6427145,-71.3238019,False,0
6862135509,42.6427394,-71.3238594,False,0
6862135510,42.6427560,-71.3234809,False,0
6862135515,42.6431456,-71.3235687,True,0
6862135516,42.6433544,-71.3243820,True,0
6862135525,42.6434036,-71.3237129,True,2
6862135664,42.6419955,-71.3230645,False,0
6862135665,42.6420502,-71.3229566,False,0
6862135666,42.6419426,-71.3228861,True,2
6862135669,42.6424166,-71.3191031,True,2
6862135670,42.6425031,-71.3191774,True,2
6862135673,42.6424962,-71.3191907,False,0
6862135674,42.6425385,-71.3191096,True,0
6862135675,42.6419219,-71.3181902,False,0
6862135682,42.6421497,-71.3180433,True,2
6862135683,42.6422043,-71.3179025,True,2
6862135717,42.6435631,-71.3170727,True,2
6862135718,42.6434437,-71.3185202,True,2
6862135719,42.6433347,-71.3186049,True,2
6862135720,42.6432769,-71.3184829,True,2
6862135721,42.6433621,-71.3184210,True,2
6862135734,42.6431938,-71.3192610,True,2
6867325684,42.6353525,-71.3224985,True,0
6869947245,42.6368014,-71.3132054,True,0
6869947254,42.6364386,-71.3129042,True,0
6870083297,42.6375243,-71.3097174,True,0
6874258201,42.6439251,-71.3215947,False,3
6874258202,42.6437490,-71.3216111,False,3
6874258203,42.6438477,-71.3215157,True,2
6874258204,42.6437667,-71.3220567,False,0
6874258205,42.6438219,-71.3217046,False,0
6874258206,42.6435901,-71.3230699,False,0
6874258304,42.6416335,-71.3183738,True,2
6876714802,42.6334151,-71.3099166,False,0
6876724455,42.6363810,-71.3143693,True,2
6876724456,42.6363076,-71.3142101,True,2
6876724457,42.6362895,-71.3143956,False,0
6876724458,42.6362536,-71.3142053,False,0
6876724560,42.6363395,-71.3143869,False,0
6876724561,42.6362393,-71.3143905,False,0
6876724586,42.6359902,-71.3139597,False,0
6876724587,42.6361054,-71.3140140,False,0
6876724588,42.6361310,-71.3140650,False,0
6876724589,42.6362460,-71.3140804,False,0
6876724590,42.6362748,-71.3141364,False,0
6876724591,42.6363779,-71.3141485,False,0
6876724592,42.6359122,-71.3141049,False,0
6876724593,42.6360260,-71.3141599,False,0
6876724594,42.6360551,-71.3142145,False,0
6876724595,42.6361665,-71.3142276,False,0
6876724596,42.6362055,-71.3142782,False,0
6876724597,42.6363066,-71.3142695,False,0
6876724598,42.6363789,-71.3142930,False,0
6876724599,42.6364973,-71.3142598,False,0
6876724600,42.6358350,-71.3142521,False,0
6876724601,42.6359453,-71.3143057,False,0
6876724602,42.6359769,-71.3143617,False,0
6876724603,42.6360895,-71.3143763,False,0
6876724604,42.6361229,-71.3144321,False,0
6876724605,42.6362280,-71.3144432,False,0
6876724606,42.6362714,-71.3144747,False,0
6876724607,42.6363952,-71.3144191,False,0
6876724608,42.6365891,-71.3143359,False,0
6876724609,42.6364322,-71.3144036,False,0
6877456012,42.6350238,-71.3311451,True,0
6878204177,42.6383106,-71.3202184,True,0
6878204180,42.6384728,-71.3197020,True,0
6878204184,42.6381794,-71.3206307,True,0
6878267967,42.6457678,-71.3327772,False,0
6878590900,42.6354766,-71.3312851,True,0
6885198342,42.6341225,-71.3180756,True,0
6885198345,42.6342881,-71.3179822,True,0
6893120937,42.6419515,-71.3254969,False,0
6893120938,42.6419945,-71.3255928,True,2
6893120939,42.6420007,-71.3254000,False,3
6893120954,42.6433804,-71.3236999,False,3
6893120955,42.6435522,-71.3237979,False,3
6893120977,42.6426211,-71.3216350,True,2
6893120978,42.6429855,-71.3215938,True,2
6893120979,42.6431058,-71.3217470,True,2
6893120980,42.6437713,-71.3216090,True,2
6893120981,42.6419698,-71.3216974,True,2
6893120982,42.6419320,-71.3217795,True,2
6893120983,42.6419789,-71.3218606,True,2
6893120984,42.6420264,-71.3217714,True,2
6893145799,42.6438974,-71.3215973,True,2
6893145800,42.6444985,-71.3216239,False,2
6893145806,42.6445827,-71.3211602,False,3
6898636690,42.6431728,-71.3295775,True,0
6899379371,42.6410646,-71.3153666,False,0
6899379372,42.6410696,-71.3155939,False,0
6899379373,42.6412437,-71.3151426,True,0
6899379374,42.6409837,-71.3147751,False,0
6904317481,42.6358397,-71.3142008,True,2
6904317482,42.6359202,-71.3140417,True,2
6961273113,42.6439852,-71.3272045,False,0
6961273114,42.6439378,-71.3276886,False,0
6961273132,42.6428423,-71.3287193,False,0
6961273142,42.6439826,-71.3272823,True,0
6961273145,42.6419994,-71.3247824,True,0
6961284530,42.6419980,-71.3240810,True,0
6961284542,42.6407256,-71.3218133,True,0
6961284543,42.6407329,-71.3218376,False,0
6961284544,42.6407629,-71.3218695,False,0
6961284624,42.6412994,-71.3228801,False,0
6961284625,42.6413527,-71.3228962,False,0
6961284678,42.6401970,-71.3192866,False,0
6961284718,42.6398823,-71.3299370,False,0
6961284719,42.6396238,-71.3294770,False,0
6961284720,42.6395173,-71.3267508,False,0
6961284721,42.6394835,-71.3268306,False,0
6961284722,42.6394955,-71.3267868,False,0
6961284723,42.6381222,-71.3247214,False,0
6961284724,42.6375934,-71.3279749,False,0
6961284725,42.6378691,-71.3292530,False,2
6961284726,42.6379625,-71.3293593,False,2
6961284727,42.6379195,-71.3292010,False,2
6961284728,42.6386151,-71.3314921,False,0
6961284729,42.6386107,-71.3310192,True,0
6961284730,42.6385188,-71.3311280,True,0
6961284731,42.6384738,-71.3313221,False,0
6961284732,42.6388163,-71.3305740,False,0
6961284735,42.6398201,-71.3274010,False,0
6961284745,42.6398852,-71.3253229,False,0
6961284746,42.6398093,-71.3261390,False,0
6961284747,42.6398507,-71.3275351,False,0
6961284748,42.6391680,-71.3251600,False,0
6961284749,42.6389117,-71.3246990,True,2
6961284750,42.6373241,-71.3235252,False,0
6961284751,42.6372338,-71.3241481,False,0
6961284752,42.6372323,-71.3244639,False,0
6961284753,42.6389085,-71.3245913,False,0
6961284755,42.6393717,-71.3247640,True,2
6994356323,42.6448062,-71.3280773,False,0
7013268483,42.6355285,-71.3325111,True,0
7013268484,42.6355783,-71.3321291,True,0
7019340829,42.6385622,-71.3138737,True,0
7019340830,42.6386245,-71.3139097,True,0
7019340831,42.6392490,-71.3142722,True,0
7019340832,42.6393234,-71.3143126,True,0
7025244540,42.6426224,-71.3300872,True,0
7025244541,42.6426901,-71.3301020,False,0
7025244542,42.6427672,-71.3301097,False,0
7025244543,42.6430358,-71.3302129,False,0
7025805982,42.6368569,-71.3305284,True,0
7025805983,42.6369064,-71.3299552,False,0
7049354823,42.6384164,-71.3310627,True,0
7053828431,42.6419039,-71.3262771,False,0
7053828432,42.6416700,-71.3268211,False,0
7053828433,42.6415936,-71.3271682,False,0
7053828434,42.6417443,-71.3264373,False,0
7053828435,42.6419857,-71.3256621,False,0
