Node ID,Lat,Lon,Is Intersection,Type
103655712,40.7237663,-74.1811074,True,0
103655713,40.7236900,-74.1809250,True,0
103656792,40.7265223,-74.1895473,True,0
103656816,40.7317052,-74.1874197,False,1
103661392,40.7176200,-74.1815590,False,0
103667907,40.7268170,-74.1980680,True,0
103667909,40.7267910,-74.1979320,True,1
103672188,40.7230693,-74.1768118,False,0
103672231,40.7262200,-74.2036450,False,0
103672233,40.7270000,-74.2032920,False,0
103672330,40.7244236,-74.1874307,True,0
103672332,40.7242020,-74.1866210,False,0
103672338,40.7239063,-74.1814718,False,0
103672340,40.7238320,-74.1808410,True,0
103672344,40.7244870,-74.1808670,False,0
103672346,40.7242050,-74.1806140,False,0
103672351,40.7251230,-74.1803180,True,0
103672353,40.7250480,-74.1801010,True,0
103672378,40.7216300,-74.1860450,True,0
103672380,40.7215520,-74.1860890,True,0
103674283,40.7301674,-74.1890321,False,0
103674298,40.7223780,-74.1771410,False,0
103674360,40.7184680,-74.1972220,True,0
103685102,40.7299532,-74.1852887,False,0
103685104,40.7280040,-74.1860897,True,1
103685108,40.7258658,-74.1869062,True,0
103685110,40.7233787,-74.1878302,True,0
103685112,40.7230870,-74.1879320,False,0
103686904,40.7209710,-74.1844250,True,0
103686944,40.7204280,-74.1828700,True,0
103686946,40.7199428,-74.1814413,True,0
103686964,40.7193742,-74.1796967,True,0
103686969,40.7190903,-74.1788730,False,0
103686975,40.7190351,-74.1787283,True,0
103686978,40.7181499,-74.1761978,False,0
103686981,40.7172830,-74.1736530,False,0
103686989,40.7233050,-74.1870820,True,1
103686992,40.7224040,-74.1864910,True,0
103686994,40.7221380,-74.1863180,False,0
103687496,40.7258752,-74.1796142,True,0
103687498,40.7253460,-74.1799190,True,0
103687499,40.7243650,-74.1805170,True,0
103687501,40.7230510,-74.1813070,True,0
103687503,40.7223760,-74.1817090,True,0
103687504,40.7217290,-74.1820940,True,0
103687506,40.7210870,-74.1824770,True,0
103687508,40.7198020,-74.1832440,True,0
103687510,40.7191390,-74.1836380,True,0
103687512,40.7184590,-74.1840440,False,0
103689661,40.7188950,-74.1897390,False,1
103689663,40.7182920,-74.1879710,False,0
103690491,40.7292338,-74.1823712,True,0
103690493,40.7295359,-74.1835834,True,0
103690495,40.7301874,-74.1861598,False,0
103690499,40.7304001,-74.1870054,False,0
103690501,40.7306121,-74.1878693,False,0
103690802,40.7290480,-74.1995620,True,0
103690804,40.7307680,-74.2007130,False,0
103690805,40.7311120,-74.2006240,False,0
103690809,40.7256669,-74.1930043,True,0
103690811,40.7261160,-74.1950450,True,0
103690815,40.7266910,-74.1987980,True,0
103690817,40.7268310,-74.1984960,False,0
103690819,40.7268300,-74.1982900,False,0
103690866,40.7234830,-74.1889280,False,0
103690868,40.7227570,-74.1892170,True,0
103690870,40.7192210,-74.1907230,True,0
103690873,40.7171380,-74.1915820,False,1
103691226,40.7187020,-74.1981550,True,0
103691227,40.7189370,-74.1990930,True,1
103691228,40.7191660,-74.2000540,True,0
103691229,40.7194190,-74.2010300,True,1
103691230,40.7196310,-74.2019890,True,0
103691232,40.7198420,-74.2028850,True,0
103691238,40.7169470,-74.1907920,False,1
103691240,40.7174092,-74.1927035,False,0
103691242,40.7176890,-74.1938660,False,1
103691244,40.7179830,-74.1950830,True,1
103691246,40.7182480,-74.1962540,True,0
103691622,40.7190268,-74.1810608,False,0
103691625,40.7201367,-74.1796822,True,1
103691627,40.7207031,-74.1789254,True,4
103691629,40.7212380,-74.1783510,True,1
103691631,40.7229090,-74.1765770,False,0
103691633,40.7235800,-74.1758640,False,1
103691635,40.7240770,-74.1753380,False,0
103691931,40.7197730,-74.1930090,True,1
103691933,40.7200582,-74.1942134,True,1
103691935,40.7203350,-74.1953825,True,0
103691937,40.7205594,-74.1963305,True,0
103695811,40.7175850,-74.1904520,False,0
103695813,40.7169750,-74.1887520,False,0
103696165,40.7265280,-74.1991510,False,0
103696166,40.7261520,-74.1992980,True,0
103696167,40.7253590,-74.1996090,True,0
103696169,40.7253410,-74.1996160,False,0
103696171,40.7235040,-74.2003860,True,0
103696173,40.7216810,-74.2011510,False,0
103696175,40.7216580,-74.2011610,True,0
103696177,40.7175760,-74.2028290,False,0
103696179,40.7161980,-74.2034150,False,0
103696620,40.7297230,-74.1979390,True,0
103696622,40.7293670,-74.1987650,True,0
103698340,40.7226660,-74.2058890,False,1
103698778,40.7230080,-74.1874400,False,0
103698780,40.7228520,-74.1875870,False,0
103698782,40.7215370,-74.1883020,True,1
103698784,40.7208570,-74.1886720,True,0
103698786,40.7202230,-74.1890170,True,0
103698788,40.7195660,-74.1893740,True,0
103698790,40.7182560,-74.1900870,False,0
103698792,40.7175300,-74.1904820,False,0
103699291,40.7202400,-74.1868430,True,0
103699293,40.7200910,-74.1864000,False,0
103699295,40.7196800,-74.1852080,True,0
103699297,40.7186487,-74.1822088,True,0
103699300,40.7182136,-74.1809321,False,0
103699302,40.7177150,-74.1794820,False,0
103702286,40.7228580,-74.2068110,False,1
103704458,40.7224310,-74.2047870,False,1
103705085,40.7224892,-74.1902585,False,1
103705086,40.7236945,-74.1908275,False,0
103706082,40.7274750,-74.2095010,False,1
103706084,40.7256020,-74.2102190,False,0
103706086,40.7229790,-74.2112250,False,0
103706282,40.7162006,-74.1971020,False,0
103706288,40.7168770,-74.1999420,False,0
103706290,40.7171140,-74.2009230,False,0
103706294,40.7173460,-74.2018790,False,1
103706295,40.7178230,-74.2038510,False,0
103707569,40.7276680,-74.2104000,False,0
103707571,40.7257910,-74.2111140,False,0
103707572,40.7230190,-74.2121690,False,0
103708683,40.7155430,-74.2015740,False,0
103708687,40.7159000,-74.2025000,False,1
103708689,40.7165110,-74.2043720,False,0
103709146,40.7253747,-74.1781191,True,1
103709151,40.7275013,-74.1768657,False,0
103709154,40.7271184,-74.1781165,True,0
103709158,40.7268722,-74.1788857,True,0
103709160,40.7268306,-74.1793965,False,0
103709162,40.7268602,-74.1803502,True,1
103709168,40.7259509,-74.1807289,True,1
103709177,40.7279251,-74.1784190,True,0
103709663,40.7278660,-74.2113210,False,1
103709665,40.7259860,-74.2120310,False,0
103709667,40.7230660,-74.2131330,False,1
103709950,40.7229580,-74.2101360,False,1
103710310,40.7287838,-74.1760525,False,1
103710315,40.7258757,-74.1778205,False,1
103710317,40.7251043,-74.1782826,True,1
103710319,40.7245316,-74.1786288,True,1
103710321,40.7238444,-74.1790443,True,0
103710324,40.7231854,-74.1794426,True,0
103710326,40.7225345,-74.1798361,True,0
103710329,40.7218817,-74.1802308,True,1
103710330,40.7212353,-74.1806216,True,1
103710332,40.7205892,-74.1810121,True,1
103710336,40.7193155,-74.1818065,True,0
103710338,40.7189617,-74.1820050,False,0
103710720,40.7245350,-74.1766420,False,0
103710721,40.7239610,-74.1769650,False,0
103710722,40.7232610,-74.1773600,False,0
103712041,40.7280540,-74.2121900,False,0
103712042,40.7261740,-74.2129210,False,0
103712043,40.7231400,-74.2140990,False,0
103712276,40.7304270,-74.1974370,True,0
103712278,40.7296240,-74.1967610,True,0
103713824,40.7282480,-74.2131070,False,1
103713825,40.7263650,-74.2138200,False,0
103713827,40.7232851,-74.2150567,False,1
103715919,40.7284350,-74.2139890,False,0
103717085,40.7275454,-74.1800517,False,0
103717088,40.7280420,-74.1827880,True,0
103719992,40.7292968,-74.1776195,True,0
103721594,40.7170570,-74.1798650,False,0
103721600,40.7196000,-74.1872130,True,0
103721602,40.7193170,-74.1863920,False,0
103721604,40.7190320,-74.1856010,True,1
103722534,40.7189310,-74.1876010,True,0
103722536,40.7183530,-74.1859890,False,0
103722630,40.7302430,-74.2043600,False,0
103722634,40.7274520,-74.2054160,False,0
103722635,40.7266610,-74.2057140,False,1
103722638,40.7247990,-74.2064320,False,1
103722640,40.7229350,-74.2071510,False,1
103726079,40.7268920,-74.2067900,False,0
103726081,40.7250280,-74.2075120,False,0
103726085,40.7229921,-74.2082925,False,0
103727821,40.7291088,-74.1770382,True,0
103727823,40.7294421,-74.1780307,False,0
103727825,40.7297368,-74.1789410,False,1
103727829,40.7301304,-74.1806864,True,0
103727831,40.7304245,-74.1819480,True,1
103727833,40.7307073,-74.1831500,False,0
103727884,40.7270860,-74.2076940,False,0
103727886,40.7252160,-74.2083990,False,1
103727888,40.7229670,-74.2092460,False,0
103729222,40.7144090,-74.1903174,False,0
103729366,40.7216190,-74.1840320,True,0
103729368,40.7203410,-74.1848080,True,0
103729489,40.7272800,-74.2085930,False,0
103729490,40.7254070,-74.2093000,False,0
103729491,40.7229590,-74.2102250,False,1
103730380,40.7218590,-74.1927210,True,0
103730382,40.7220150,-74.1934470,True,1
103730384,40.7222610,-74.1945930,True,0
103730386,40.7224620,-74.1955310,True,0
103730388,40.7226700,-74.1965010,True,0
103730390,40.7228660,-74.1974120,False,0
103730392,40.7228760,-74.1974610,True,0
103730394,40.7230860,-74.1984390,True,0
103730395,40.7232970,-74.1994200,True,1
103730397,40.7237220,-74.2014030,True,0
103730399,40.7239380,-74.2024080,True,0
103730401,40.7241580,-74.2034320,True,0
103730403,40.7243760,-74.2044480,False,0
103730404,40.7245960,-74.2054710,False,0
103730976,40.7287410,-74.1895920,True,0
103730977,40.7267394,-74.1904362,True,0
103732027,40.7299410,-74.1881390,False,0
103732029,40.7285510,-74.1887070,True,1
103732372,40.7289500,-74.1905660,True,1
103732374,40.7291580,-74.1915330,True,0
103732376,40.7293430,-74.1923960,True,0
103732377,40.7300440,-74.1956550,False,0
103732378,40.7302340,-74.1965380,True,1
103732379,40.7307140,-74.1987730,True,0
103732380,40.7309346,-74.1998658,False,1
103732381,40.7314240,-74.2020750,False,0
103732444,40.7228570,-74.1718280,False,0
103732446,40.7223050,-74.1721700,False,1
103732631,40.7223422,-74.1703558,False,0
103733097,40.7332680,-74.1954050,False,1
103734446,40.7243240,-74.1947720,True,0
103734448,40.7209424,-74.1961582,True,0
103737365,40.7270149,-74.1914409,True,1
103737367,40.7239064,-74.1927190,True,1
103737368,40.7216320,-74.1936060,True,1
103738065,40.7247060,-74.1810640,True,0
103738069,40.7243295,-74.1817721,True,0
103738071,40.7237580,-74.1831450,True,0
103738073,40.7234680,-74.1838610,True,0
103738076,40.7221890,-74.1870120,False,0
103738078,40.7218120,-74.1872200,False,0
103738080,40.7212670,-74.1875080,True,0
103739978,40.7240030,-74.1751240,False,0
103739980,40.7239210,-74.1748890,False,0
103740668,40.7340250,-74.1951100,False,1
103740747,40.7255770,-74.2006330,True,1
103740748,40.7218730,-74.2021690,True,1
103740750,40.7218550,-74.2021770,False,0
103740754,40.7188340,-74.2032390,False,0
103740756,40.7187660,-74.2032800,False,0
103740758,40.7186490,-74.2034260,False,0
103740760,40.7185510,-74.2035240,False,0
103740997,40.7272280,-74.2043630,False,0
103740999,40.7264450,-74.2047020,False,0
103741001,40.7227440,-74.2062410,False,1
103742858,40.7306790,-74.2023810,False,0
103746428,40.7233350,-74.1751550,False,0
103746436,40.7199380,-74.1768370,False,0
103746438,40.7192790,-74.1772340,False,0
103747168,40.7223790,-74.1906900,True,1
103747441,40.7234600,-74.1755170,False,0
103747443,40.7210750,-74.1778680,True,0
103747445,40.7205236,-74.1784749,True,0
103747447,40.7199254,-74.1791027,True,0
103747449,40.7187780,-74.1803030,False,0
103747549,40.7244985,-74.1855274,False,0
103747551,40.7246960,-74.1864540,False,0
103747554,40.7241840,-74.1866270,False,0
103747556,40.7235650,-74.1862430,True,0
103747562,40.7276730,-74.1975680,True,0
103748186,40.7251100,-74.1839076,True,0
103748188,40.7254344,-74.1851922,True,0
103748190,40.7256641,-74.1860938,False,0
103748192,40.7260915,-74.1878057,True,0
103748194,40.7272376,-74.1923467,True,0
103748195,40.7274489,-74.1931961,True,0
103748197,40.7277156,-74.1942983,True,0
103748200,40.7282986,-74.1966873,True,0
103748202,40.7284359,-74.1972481,True,0
103748212,40.7284720,-74.1968860,False,0
103748214,40.7287401,-74.1971201,True,1
103748252,40.7318294,-74.1959450,False,0
103748253,40.7311220,-74.1962140,False,0
103748255,40.7273120,-74.1977080,False,0
103748258,40.7251550,-74.1986360,True,1
103748262,40.7214530,-74.2001970,True,1
103748265,40.7146037,-74.2032016,False,0
103748342,40.7308290,-74.1917880,False,0
103748947,40.7267940,-74.2023200,True,0
103748950,40.7260140,-74.2026820,True,1
103748952,40.7223020,-74.2041820,True,0
103751483,40.7230090,-74.2119270,False,0
103752450,40.7177515,-74.1704663,False,0
103753459,40.7242285,-74.1844011,True,1
103753461,40.7227680,-74.1833570,True,0
103753462,40.7219530,-74.1827700,False,0
103753468,40.7191103,-74.1744687,False,0
103753470,40.7185470,-74.1728920,False,0
103753472,40.7185350,-74.1728600,False,0
103754624,40.7273210,-74.1830550,True,1
103754626,40.7276040,-74.1843450,True,1
103754630,40.7281953,-74.1869855,True,0
103754885,40.7156760,-74.1895220,False,0
103755071,40.7251428,-74.1823691,True,0
103755076,40.7228570,-74.1784520,True,0
103755353,40.7234990,-74.1756280,False,0
103757220,40.7280857,-74.1776205,False,0
103757222,40.7279146,-74.1782731,False,0
103757771,40.7257930,-74.2016460,True,0
103757773,40.7220860,-74.2031700,True,0
103758042,40.7233294,-74.1820963,True,0
103759667,40.7245180,-74.1957250,True,0
103759668,40.7245010,-74.1957250,False,0
103759670,40.7207879,-74.1972954,True,0
103759854,40.7137587,-74.1907026,False,0
103760746,40.7237740,-74.1915760,True,0
103760748,40.7228440,-74.1917860,False,0
103760749,40.7226500,-74.1918350,False,0
103760751,40.7220140,-74.1921170,True,1
103762226,40.7209090,-74.1864560,True,0
103762228,40.7208840,-74.1863850,False,0
103762236,40.7183640,-74.1791030,False,0
103762306,40.7235110,-74.1780740,True,0
103762308,40.7215360,-74.1792150,True,0
103763053,40.7254310,-74.1817335,True,1
103763354,40.7283657,-74.1797178,False,0
103763356,40.7286290,-74.1811510,False,0
103763358,40.7289267,-74.1824810,True,0
103764235,40.7212760,-74.1949970,True,0
103764237,40.7241310,-74.1938270,True,0
103764978,40.7150560,-74.1898900,False,0
103768293,40.7243285,-74.1841548,True,1
103768614,40.7124545,-74.1914685,False,0
103768957,40.7298970,-74.2027020,False,0
103769148,40.7286040,-74.2147900,False,0
103769654,40.7221860,-74.2036380,False,0
103771550,40.7289824,-74.1793873,False,0
103771886,40.7247300,-74.1966940,True,0
103771887,40.7210237,-74.1982503,True,1
103773335,40.7262260,-74.2036730,False,0
103773338,40.7225230,-74.2052240,False,0
103775305,40.7220060,-74.1851610,True,0
103775307,40.7200676,-74.1794944,True,1
103775309,40.7197570,-74.1786290,False,0
103775310,40.7196600,-74.1783470,True,0
103775312,40.7188135,-74.1758320,False,0
103775313,40.7184620,-74.1748478,False,0
103775316,40.7179210,-74.1732690,False,0
103775317,40.7169011,-74.1702936,False,0
103776536,40.7245220,-74.1836930,True,1
103776539,40.7238570,-74.1853460,True,0
103776543,40.7235240,-74.1863670,False,0
103776544,40.7226260,-74.1897280,False,0
103776547,40.7212430,-74.1992130,True,0
103776550,40.7228820,-74.2069300,False,0
103776551,40.7229820,-74.2076930,False,0
103776552,40.7229840,-74.2078200,False,0
103776553,40.7229890,-74.2079780,False,0
103776554,40.7229760,-74.2111630,False,0
103776555,40.7230500,-74.2129050,False,1
103776556,40.7231310,-74.2140320,False,0
103777352,40.7293203,-74.1810011,True,0
103783901,40.7249420,-74.1976600,True,0
103783905,40.7186750,-74.2002750,False,0
103784381,40.7306280,-74.1909190,False,0
103784383,40.7240940,-74.1936470,True,0
103784484,40.7163500,-74.1891220,False,1
103786847,40.7230837,-74.1826611,True,0
103786851,40.7216490,-74.1860040,False,0
103786861,40.7209490,-74.1864330,False,0
103786863,40.7182700,-74.1879830,False,0
103786865,40.7176570,-74.1883470,False,0
103786869,40.7119121,-74.1918105,False,0
103787471,40.7242840,-74.1856000,False,0
103788409,40.7288380,-74.2158930,False,0
103789601,40.7235030,-74.1890990,False,0
103789606,40.7279100,-74.2115120,False,0
103790070,40.7225690,-74.1822940,False,0
440152513,40.7287560,-74.2155060,False,0
483040661,40.7201859,-74.1843580,True,0
624185924,40.7213590,-74.1782232,True,4
624185963,40.7189677,-74.1808782,False,0
624185964,40.7193886,-74.1803259,False,0
624185965,40.7197586,-74.1798646,False,0
624185966,40.7196330,-74.1802836,True,0
624185967,40.7196285,-74.1804225,False,0
624185968,40.7196448,-74.1805566,False,0
624185969,40.7197464,-74.1809213,True,0
624186038,40.7181486,-74.1825682,False,0
760840189,40.7198493,-74.1812053,False,0
760840190,40.7199021,-74.1812696,False,0
760840191,40.7200038,-74.1813018,True,0
760901291,40.7241919,-74.1800273,False,0
760901301,40.7260533,-74.1802772,False,0
760901306,40.7260340,-74.1801093,True,0
760901317,40.7264064,-74.1798904,True,0
768696122,40.7207839,-74.1913464,False,0
768696133,40.7189461,-74.1920276,False,0
768696135,40.7190559,-74.1919578,False,0
768696138,40.7191657,-74.1918130,False,0
768696141,40.7192795,-74.1915823,False,0
768696143,40.7193608,-74.1914321,False,0
768696144,40.7194544,-74.1913516,False,0
768696146,40.7204409,-74.1909374,False,0
768701063,40.7208164,-74.1967053,False,0
768701064,40.7207920,-74.1969950,False,0
2597321569,40.7279697,-74.1929745,True,0
2597321581,40.7280331,-74.1955992,True,0
2597321749,40.7295495,-74.1933558,True,0
2597321754,40.7296603,-74.1938713,True,0
2597321760,40.7298959,-74.1949665,True,0
2673104170,40.7324525,-74.1957123,False,0
2673108941,40.7291530,-74.1801959,True,0
2673108942,40.7298742,-74.1795565,True,0
2673108943,40.7299380,-74.1798641,True,0
2673108944,40.7300735,-74.1804300,False,0
2673129068,40.7263106,-74.1886941,True,0
2673129069,40.7283665,-74.1878488,True,0
2673129072,40.7287670,-74.1876842,True,0
2673129075,40.7300516,-74.1871563,True,0
2673151369,40.7291468,-74.1894327,True,0
2673151396,40.7297736,-74.1891867,True,0
2673160616,40.7239902,-74.1865068,True,0
2673160619,40.7240895,-74.1875588,True,0
2673160622,40.7247110,-74.1832919,True,0
2673160652,40.7261324,-74.1849197,True,0
2673160663,40.7273640,-74.1863390,True,0
2673160666,40.7278112,-74.1852907,True,0
2673160700,40.7311070,-74.1876609,False,0
2673165840,40.7239392,-74.1876164,True,0
2673165846,40.7241094,-74.2001322,True,0
2673165856,40.7246255,-74.1924112,False,0
2673165858,40.7246897,-74.1965098,True,0
2673165861,40.7248060,-74.1970404,True,0
2673165881,40.7251795,-74.1954435,True,0
2673165888,40.7254208,-74.1920827,False,0
2673165893,40.7255794,-74.1952733,True,0
2673165905,40.7260540,-74.1918211,False,0
3531733690,40.7288843,-74.1788816,False,0
3531733691,40.7295855,-74.1784708,True,0
3564377337,40.7289219,-74.1811449,False,0
3588980244,40.7177081,-74.2006764,False,0
3588980246,40.7183085,-74.2004271,False,0
3631671412,40.7250231,-74.1980315,True,0
3631671413,40.7261494,-74.1975870,False,0
3637297991,40.7214749,-74.1972345,False,0
3637297992,40.7216600,-74.1979792,True,0
3637809178,40.7220960,-74.1969677,False,0
3637809179,40.7222759,-74.1977167,True,0
3902972960,40.7247185,-74.1854486,True,0
3902973836,40.7279289,-74.1909992,True,0
3902974380,40.7294605,-74.1832801,True,0
3902974381,40.7294768,-74.1833466,True,0
3966397646,40.7185656,-74.1839803,True,0
3966397647,40.7186794,-74.1822983,True,0
3966397654,40.7193508,-74.1819109,True,0
3966397656,40.7196343,-74.1804705,True,0
3966403266,40.7199739,-74.1815327,True,0
3966403271,40.7200092,-74.1795643,True,0
3966403274,40.7200753,-74.1797555,True,0
3966403290,40.7205315,-74.1810407,True,0
3966403291,40.7205340,-74.1810488,True,0
4174410183,40.7236492,-74.1812139,False,0
4174410184,40.7233402,-74.1819515,False,0
4174410185,40.7231369,-74.1813748,False,0
4174410186,40.7236024,-74.1810985,False,0
4207180011,40.7218486,-74.1927614,True,0
4207180012,40.7219398,-74.1934782,True,4
4207180013,40.7223906,-74.1932910,True,0
4207180014,40.7225993,-74.1932043,True,0
4207180015,40.7226675,-74.1931364,False,0
4207180016,40.7226852,-74.1932119,False,0
4207180017,40.7235459,-74.1927769,True,0
4207180018,40.7238953,-74.1926339,True,1
4207180019,40.7242053,-74.1925911,True,0
4207180020,40.7246089,-74.1923293,True,0
4207180021,40.7254051,-74.1920046,True,0
4207180022,40.7254845,-74.1984942,True,0
4207180023,40.7257290,-74.1811284,True,0
4207180024,40.7260395,-74.1917458,True,0
4207180025,40.7263599,-74.1916944,False,0
4207180026,40.7263645,-74.1805750,True,0
4207180027,40.7266734,-74.1914875,True,0
4207180028,40.7270725,-74.1914136,True,1
4207180029,40.7273343,-74.1912895,True,0
4207180030,40.7274255,-74.1911710,False,0
4207180031,40.7274336,-74.1912425,False,0
4207180032,40.7278573,-74.1909936,False,0
4207180033,40.7278772,-74.1910641,False,0
4207180034,40.7286120,-74.1907093,True,0
4207180035,40.7292754,-74.1904310,True,0
4207180036,40.7300626,-74.1901044,False,0
4207194087,40.7196745,-74.1799694,True,4
4207194088,40.7203273,-74.1794384,True,0
4207197889,40.7209848,-74.1786140,True,4
4207197890,40.7216456,-74.1779338,False,0
4207197894,40.7256675,-74.1789937,True,0
4207202430,40.7205489,-74.1789593,True,0
4207202431,40.7206366,-74.1791073,False,0
4215581280,40.7213050,-74.1948838,True,0
4228989255,40.7245092,-74.1956819,False,0
4228989257,40.7295910,-74.1935489,False,0
4228989264,40.7291370,-74.1915419,False,0
4229400196,40.7264831,-74.1895138,False,0
4229400197,40.7237155,-74.1907046,False,0
4229400198,40.7235987,-74.1896959,False,0
4229400199,40.7244410,-74.1893363,False,0
4229400200,40.7243065,-74.1887853,False,0
4229400201,40.7261608,-74.1880866,True,0
4229400202,40.7256617,-74.1882747,False,0
4230184887,40.7189570,-74.1920207,False,0
4231041379,40.7216730,-74.1935543,False,0
4231041380,40.7219882,-74.1934218,False,0
4231041381,40.7218590,-74.1927576,False,0
4231064403,40.7240056,-74.1980205,False,0
4231064404,40.7238989,-74.1975846,False,0
4231064405,40.7244904,-74.1973338,False,0
4231064406,40.7245941,-74.1977818,False,0
4233834844,40.7219688,-74.2026191,False,0
4233834845,40.7196836,-74.2029764,True,0
4233834846,40.7197685,-74.2034178,True,0
4233834847,40.7186890,-74.2038100,True,0
4233834848,40.7188111,-74.2043121,True,0
4233834849,40.7211577,-74.2034575,True,0
4233834850,40.7210622,-74.2029484,True,0
4233834851,40.7200906,-74.2032496,True,0
4233834852,40.7200021,-74.2028550,True,0
4281791555,40.7215458,-74.1781695,False,0
4281791556,40.7227997,-74.1782981,True,0
4281791557,40.7225090,-74.1774190,True,0
4281791558,40.7224233,-74.1772371,True,0
4285587138,40.7192973,-74.1840973,True,0
4331571906,40.7235630,-74.1738589,False,0
4728719400,40.7207091,-74.1914638,False,0
4728719737,40.7204969,-74.1911634,False,0
4728719738,40.7202707,-74.1910093,False,0
4728719739,40.7203290,-74.1912375,False,0
4728720799,40.7195032,-74.1913334,False,0
4728725926,40.7173156,-74.1997612,False,0
4728727647,40.7202045,-74.2038047,True,0
4747262447,40.7170456,-74.1707151,False,0
4747262448,40.7178991,-74.1732052,False,0
5280151629,40.7216390,-74.1781895,True,0
5280151630,40.7218159,-74.1782070,True,0
5280151631,40.7221533,-74.1782070,True,0
5280151632,40.7224460,-74.1782284,True,0
5556420252,40.7299509,-74.1851927,False,0
5556420253,40.7295851,-74.1836666,False,0
5703608451,40.7283505,-74.1918751,True,0
5703608456,40.7280360,-74.1920084,True,0
5715614553,40.7299746,-74.1953322,True,0
5715614555,40.7300923,-74.1958795,True,0
5715614560,40.7282519,-74.1964959,True,0
5715614563,40.7281323,-74.1960057,True,0
5715614567,40.7298473,-74.1947404,True,0
5769520204,40.7255083,-74.1930664,False,0
6028861793,40.7290536,-74.1797248,True,0
6113163264,40.7284138,-74.1868949,False,0
6292524478,40.7244864,-74.1934859,True,0
6292524481,40.7250771,-74.1932434,True,0
6605248371,40.7271305,-74.1977860,True,0
6605273085,40.7264685,-74.1980708,True,0
6721254946,40.7224349,-74.1932726,True,0
6888710154,40.7185785,-74.1789832,False,0
6888710161,40.7203474,-74.1803016,True,0
6888710171,40.7193532,-74.1806423,True,0
6888710180,40.7202245,-74.1822707,True,0
6888710183,40.7208329,-74.1817293,True,0
6905368095,40.7245095,-74.1855234,True,0
6905368099,40.7252843,-74.1845979,True,0
6905368103,40.7249563,-74.1839562,True,0
6994476091,40.7172039,-74.2040969,False,0
6994476094,40.7170908,-74.2041418,False,0
7071620519,40.7281781,-74.1791647,True,0
7071831352,40.7284394,-74.1781192,True,0
7111426069,40.7255878,-74.1814151,True,0
7111641732,40.7300062,-74.1820967,True,0
7114091510,40.7295558,-74.1822568,True,0
7114091515,40.7298477,-74.1821530,True,0
7138518536,40.7229702,-74.2089951,False,0
7138518542,40.7229907,-74.2081149,False,0
7148027057,40.7275466,-74.1911213,True,0
7150293868,40.7280481,-74.1956607,True,0
7150293882,40.7267470,-74.1947505,True,0
