Node ID,Lat,Lon,Is Intersection,Type
64810386,42.6405513,-71.3267366,False,0
64810424,42.6384592,-71.3072204,False,0
64810522,42.6422243,-71.3201054,True,0
64810801,42.6488650,-71.3146189,False,0
64810810,42.6385965,-71.3189936,False,0
64810825,42.6448660,-71.3284980,False,0
64810863,42.6393444,-71.3169492,False,0
64810868,42.6401406,-71.3142339,False,0
64810938,42.6401073,-71.3284631,False,0
64810981,42.6433580,-71.3076050,False,0
64810984,42.6469294,-71.3178271,True,0
64811049,42.6416850,-71.3319080,False,0
64811066,42.6409962,-71.3168030,True,1
64811257,42.6440960,-71.3329010,False,0
64811264,42.6389004,-71.3151774,False,0
64811335,42.6451443,-71.3275039,False,0
64811348,42.6440785,-71.3194166,False,0
64811394,42.6434840,-71.3287350,False,0
64811725,42.6489362,-71.3223266,True,0
64811736,42.6433580,-71.3074740,False,0
64811788,42.6410959,-71.3112539,True,0
64811816,42.6396240,-71.3087320,False,0
64812041,42.6455510,-71.3082098,False,0
64812467,42.6496507,-71.3255563,False,1
64812675,42.6468493,-71.3178689,True,2
64812710,42.6465495,-71.3172714,True,2
64812880,42.6389940,-71.3096490,False,0
64812895,42.6439883,-71.3204120,True,1
64812976,42.6469670,-71.3316750,True,0
64813003,42.6485988,-71.3159942,True,4
64813056,42.6412080,-71.3087380,False,0
64813070,42.6437568,-71.3330316,False,0
64813202,42.6397217,-71.3287423,False,0
64813245,42.6434480,-71.3238914,True,2
64813306,42.6406479,-71.3166186,True,0
64813357,42.6475789,-71.3095110,True,0
64813661,42.6395291,-71.3276638,False,0
64813738,42.6479390,-71.3192760,False,0
64813788,42.6411559,-71.3167808,False,0
64813798,42.6487295,-71.3162477,True,0
64813860,42.6439043,-71.3155402,True,0
64813870,42.6473786,-71.3171126,True,0
64814188,42.6439500,-71.3277620,True,0
64814408,42.6490812,-71.3226015,True,0
64814432,42.6475532,-71.3305814,False,0
64814715,42.6429972,-71.3270964,True,0
64814799,42.6414610,-71.3308510,True,0
64814804,42.6392465,-71.3088349,True,0
64815088,42.6482380,-71.3152462,False,0
64815121,42.6466152,-71.3103607,True,0
64815282,42.6392778,-71.3294232,False,0
64815402,42.6476690,-71.3196830,False,0
64815466,42.6438891,-71.3319364,True,0
64815593,42.6398642,-71.3147613,False,0
64815949,42.6450564,-71.3281387,True,0
64816178,42.6397508,-71.3128883,True,0
64816188,42.6460860,-71.3108273,False,0
64816381,42.6397147,-71.3285063,False,0
64816515,42.6394827,-71.3268773,False,0
64816796,42.6443719,-71.3223840,True,0
64816828,42.6409742,-71.3140243,True,0
64816908,42.6485333,-71.3205511,True,0
64817046,42.6464444,-71.3151741,True,0
64817060,42.6477353,-71.3098410,False,0
64817259,42.6459236,-71.3128009,True,1
64817378,42.6410144,-71.3088683,False,0
64817391,42.6395666,-71.3163489,True,0
64817399,42.6413552,-71.3080117,True,2
64817574,42.6460671,-71.3143547,False,0
64817580,42.6449192,-71.3188717,True,0
64817878,42.6429552,-71.3202739,False,0
64817903,42.6398470,-71.3078880,True,0
64818182,42.6383564,-71.3071713,False,0
64818444,42.6405860,-71.3197871,True,0
64818450,42.6406070,-71.3078590,False,0
64818494,42.6404550,-71.3079260,False,0
64818550,42.6473095,-71.3234586,True,0
64818711,42.6473330,-71.3310610,True,4
64818825,42.6457467,-71.3106008,True,1
64818884,42.6421051,-71.3084642,False,0
64819069,42.6389415,-71.3164630,False,0
64819102,42.6388350,-71.3164640,False,0
64819297,42.6446689,-71.3205184,True,4
64819332,42.6400350,-71.3072050,True,0
64819450,42.6429800,-71.3215010,False,0
64819529,42.6425410,-71.3200685,True,0
64819702,42.6472740,-71.3276222,False,0
64819823,42.6439783,-71.3274097,True,4
64819968,42.6436110,-71.3287830,False,0
64820069,42.6405200,-71.3264049,False,0
64820100,42.6481761,-71.3148992,False,0
64820147,42.6443953,-71.3172357,True,0
64820184,42.6393209,-71.3157309,False,0
64820385,42.6404628,-71.3132895,True,0
64820642,42.6430102,-71.3203159,False,0
64820752,42.6394960,-71.3087820,False,0
64820791,42.6399885,-71.3162383,False,0
64820931,42.6456369,-71.3092580,True,0
64820995,42.6468020,-71.3178720,False,0
64821068,42.6430150,-71.3213080,False,0
64821097,42.6444099,-71.3171335,True,0
64821133,42.6388005,-71.3179450,False,0
64821156,42.6454537,-71.3170129,True,0
64821212,42.6383539,-71.3144278,False,0
64821323,42.6433640,-71.3280513,False,0
64821410,42.6469949,-71.3147109,True,0
64821537,42.6459981,-71.3136593,True,0
64821656,42.6400545,-71.3212299,False,0
64821666,42.6405510,-71.3103010,False,0
64821736,42.6401054,-71.3167031,False,0
64822023,42.6479760,-71.3106490,True,0
64822092,42.6434494,-71.3178356,True,0
64822116,42.6394042,-71.3158988,True,0
64822595,42.6396900,-71.3084460,False,0
64822630,42.6411800,-71.3192030,False,0
64822773,42.6456682,-71.3180769,False,0
64822786,42.6389890,-71.3083440,True,0
64822943,42.6402020,-71.3073380,False,0
64823034,42.6417422,-71.3083604,False,0
64823177,42.6414898,-71.3185041,False,0
64823327,42.6445106,-71.3107728,True,1
64823934,42.6407459,-71.3218571,False,0
64823969,42.6405094,-71.3243778,False,0
64823995,42.6433504,-71.3184992,True,0
64824009,42.6387357,-71.3154911,True,1
64824092,42.6460410,-71.3141173,False,0
64824377,42.6414104,-71.3074440,False,0
64824657,42.6473909,-71.3309897,False,0
64824685,42.6481722,-71.3242279,True,0
64824700,42.6451560,-71.3252960,False,0
64824717,42.6483825,-71.3157320,False,0
64824773,42.6442940,-71.3163523,True,0
64824961,42.6406546,-71.3167718,False,0
64825221,42.6436780,-71.3084800,True,0
64825282,42.6409502,-71.3166518,True,1
64825350,42.6481465,-71.3144828,False,0
64825379,42.6429906,-71.3216817,True,0
64825421,42.6401142,-71.3163517,False,0
64825562,42.6472301,-71.3204976,False,0
64825601,42.6461094,-71.3223686,False,0
64825608,42.6471646,-71.3258701,True,0
64826246,42.6452732,-71.3124049,True,0
64826283,42.6461820,-71.3276830,False,0
64826725,42.6490619,-71.3296889,False,0
64827139,42.6400884,-71.3290867,True,0
64827455,42.6379420,-71.3292771,False,3
64827581,42.6386056,-71.3155975,False,0
64827712,42.6486807,-71.3292463,False,0
64828299,42.6384793,-71.3157155,True,0
64828654,42.6390910,-71.3153711,False,0
64828898,42.6454130,-71.3131560,False,0
64829011,42.6391910,-71.3075830,True,0
64829056,42.6411830,-71.3190600,False,0
64829096,42.6423320,-71.3182546,False,0
64829109,42.6476786,-71.3193260,True,2
64829328,42.6491160,-71.3277530,False,0
64829388,42.6405998,-71.3128509,True,0
64829527,42.6397432,-71.3161410,False,0
64829669,42.6396490,-71.3085430,False,0
64829844,42.6450420,-71.3256110,False,0
64829966,42.6426893,-71.3061973,False,0
64830012,42.6438358,-71.3216025,True,0
64830042,42.6389129,-71.3247738,True,0
64830260,42.6446480,-71.3210490,False,0
64830510,42.6470329,-71.3261685,False,0
64830635,42.6382607,-71.3081161,False,0
64830876,42.6456681,-71.3139765,False,0
64831002,42.6481697,-71.3123471,False,0
64831044,42.6400713,-71.3146263,True,0
64831373,42.6409523,-71.3306304,True,0
64831648,42.6417893,-71.3089778,True,4
64831714,42.6481394,-71.3207395,True,2
64831820,42.6402215,-71.3087945,True,0
64831940,42.6449910,-71.3257980,False,0
64831956,42.6434712,-71.3237511,True,0
64831991,42.6387100,-71.3183193,True,0
64832677,42.6479438,-71.3202576,False,0
64832692,42.6400800,-71.3164640,False,0
64832761,42.6398842,-71.3254470,False,0
64833063,42.6397560,-71.3326490,False,0
64833137,42.6471410,-71.3313920,False,0
64833154,42.6400781,-71.3143585,False,0
64833169,42.6460400,-71.3252260,False,0
64833350,42.6378841,-71.3142940,False,0
64833523,42.6396007,-71.3248892,True,0
64833866,42.6405200,-71.3304260,False,0
64834055,42.6438127,-71.3319022,True,0
64834068,42.6418434,-71.3088020,False,0
64834243,42.6392355,-71.3164627,True,0
64834283,42.6390294,-71.3151663,True,0
64834372,42.6412868,-71.3082055,True,2
64834394,42.6406209,-71.3253684,False,0
64835121,42.6482798,-71.3288215,True,1
64835386,42.6434847,-71.3236685,True,2
64836917,42.6429890,-71.3213700,False,0
64836969,42.6385595,-71.3288615,False,0
64837193,42.6445563,-71.3113534,True,0
64837465,42.6401194,-71.3082788,True,0
64838096,42.6387530,-71.3165360,False,0
64838213,42.6479865,-71.3167620,True,0
64838289,42.6377467,-71.3177789,False,0
64838304,42.6456310,-71.3129610,False,0
64838334,42.6403116,-71.3162320,False,0
64838364,42.6404219,-71.3163169,False,0
64838846,42.6410664,-71.3174706,False,0
64838873,42.6489854,-71.3204397,False,0
64839009,42.6404601,-71.3243667,True,0
64839371,42.6397992,-71.3165558,False,0
64839520,42.6444113,-71.3165957,False,0
64839580,42.6433528,-71.3272105,False,0
64839714,42.6486850,-71.3225740,False,0
64840475,42.6407321,-71.3164811,True,0
64840632,42.6470375,-71.3070318,False,0
64840701,42.6383519,-71.3181192,True,0
64840944,42.6444170,-71.3256260,False,0
64841846,42.6407300,-71.3124230,True,0
64842099,42.6474279,-71.3309032,False,0
64842155,42.6408634,-71.3166480,False,0
64842299,42.6486279,-71.3162470,True,4
64842490,42.6391823,-71.3298287,True,0
64842643,42.6406089,-71.3192512,True,0
64842774,42.6393744,-71.3248447,True,0
64843032,42.6386019,-71.3174274,False,0
64843358,42.6446380,-71.3148900,False,0
64843721,42.6433420,-71.3169666,False,0
64843776,42.6402280,-71.3086870,False,0
64843784,42.6384750,-71.3147323,False,0
64844212,42.6436478,-71.3338899,False,0
64844502,42.6432920,-71.3286600,False,0
64844568,42.6460800,-71.3240490,False,0
64844899,42.6484732,-71.3177645,False,0
64845142,42.6478057,-71.3196659,True,0
64845298,42.6474822,-71.3196393,False,0
64845371,42.6434806,-71.3146651,True,4
64845600,42.6445710,-71.3249870,False,0
64845630,42.6488199,-71.3184799,True,0
64846184,42.6415821,-71.3052278,False,0
64846319,42.6405782,-71.3268912,False,0
64846641,42.6490595,-71.3250460,False,0
64847511,42.6431048,-71.3258524,True,1
64847577,42.6416556,-71.3175301,True,0
64847846,42.6443948,-71.3283676,True,0
64847868,42.6345190,-71.3309890,False,0
64848033,42.6474632,-71.3218409,True,0
64848351,42.6440998,-71.3261565,True,0
64848384,42.6456987,-71.3256542,False,0
64848588,42.6393552,-71.3161483,True,1
64848616,42.6436610,-71.3084810,False,0
64848713,42.6444488,-71.3167647,True,0
64848884,42.6428080,-71.3073130,False,0
64848967,42.6486787,-71.3218384,True,0
64849017,42.6391190,-71.3306560,False,0
64849062,42.6440419,-71.3158361,True,2
64849346,42.6409190,-71.3178380,False,0
64849505,42.6482820,-71.3210590,True,0
64849510,42.6481298,-71.3291665,False,0
64849528,42.6418589,-71.3076886,False,0
64849628,42.6442910,-71.3180458,True,0
64850090,42.6399397,-71.3158493,False,0
64850345,42.6409836,-71.3078988,False,0
64850508,42.6412851,-71.3228197,False,0
64850525,42.6484809,-71.3157354,False,0
64850653,42.6401321,-71.3285727,False,0
64850739,42.6468755,-71.3265373,True,0
64850845,42.6393383,-71.3169912,False,0
64851081,42.6482368,-71.3145807,False,0
64851307,42.6412980,-71.3186680,False,0
64851320,42.6479596,-71.3283867,False,0
64851352,42.6462570,-71.3260960,False,0
64851507,42.6481036,-71.3131130,True,1
64851560,42.6442630,-71.3315650,False,0
64851881,42.6421414,-71.3062558,False,0
64852599,42.6445240,-71.3139260,False,0
64852750,42.6418683,-71.3084481,True,1
64852804,42.6389932,-71.3154087,False,0
64852855,42.6442066,-71.3187019,True,0
64853096,42.6480809,-71.3206109,False,0
64853341,42.6397277,-71.3285893,False,0
64853401,42.6466594,-71.3131893,True,4
64853705,42.6411690,-71.3166195,False,0
64853976,42.6384812,-71.3148879,False,0
64854046,42.6423440,-71.3312450,True,0
64854123,42.6412846,-71.3223316,False,0
64854133,42.6446493,-71.3215273,False,0
64854302,42.6431260,-71.3192470,False,0
64854324,42.6465990,-71.3287710,False,0
64854460,42.6472553,-71.3184840,True,0
64854488,42.6458380,-71.3091400,False,0
64854636,42.6428619,-71.3285256,True,0
64855161,42.6463170,-71.3285630,False,0
64855170,42.6455660,-71.3083720,True,1
64855431,42.6386488,-71.3191996,False,0
64855608,42.6402160,-71.3312290,False,0
64855778,42.6422470,-71.3084698,True,0
64856011,42.6400042,-71.3144947,False,0
64856203,42.6399422,-71.3163332,False,0
64856523,42.6464381,-71.3086013,True,0
64856569,42.6407402,-71.3078309,True,4
64856875,42.6387501,-71.3181372,False,0
64857134,42.6393417,-71.3169091,False,0
64857345,42.6417788,-71.3164457,False,0
64857540,42.6445180,-71.3251850,False,0
64858015,42.6451250,-71.3214830,True,0
64858025,42.6385982,-71.3305460,False,0
64858240,42.6426110,-71.3301329,False,0
64858335,42.6396878,-71.3155832,False,0
64858572,42.6418406,-71.3062781,False,0
64859516,42.6419977,-71.3239550,False,0
64859700,42.6398519,-71.3110315,True,0
64859847,42.6475904,-71.3279029,False,0
64859940,42.6447453,-71.3132899,True,0
64860265,42.6426470,-71.3085242,True,0
64860295,42.6477390,-71.3244293,True,0
64860323,42.6420378,-71.3326069,True,0
64860445,42.6497090,-71.3280140,False,0
64860777,42.6464469,-71.3192933,False,0
64861350,42.6414440,-71.3069290,False,0
64861581,42.6388863,-71.3241944,False,0
64861700,42.6446004,-71.3210028,True,4
64861843,42.6459079,-71.3125767,False,0
64862306,42.6425120,-71.3305210,True,0
64862350,42.6397688,-71.3267076,True,0
64862467,42.6459980,-71.3284560,True,0
64862642,42.6433520,-71.3206303,True,0
64862941,42.6381073,-71.3080739,False,0
64863049,42.6469690,-71.3231560,True,0
64863063,42.6463880,-71.3172710,False,0
64863265,42.6439960,-71.3313000,False,0
64863333,42.6445065,-71.3322127,True,0
64863611,42.6406249,-71.3252701,False,0
64863637,42.6424323,-71.3093241,True,0
64864135,42.6480075,-71.3204406,False,0
64864337,42.6392650,-71.3288490,True,4
64864375,42.6435364,-71.3147869,True,1
64864475,42.6466650,-71.3255750,False,0
64864664,42.6412950,-71.3208840,False,0
64865199,42.6379120,-71.3320620,False,0
64865230,42.6461760,-71.3285120,False,0
64865303,42.6397287,-71.3286603,False,0
64865963,42.6433800,-71.3317086,True,0
64866085,42.6482970,-71.3235607,True,0
64866232,42.6491605,-71.3191827,True,0
64866564,42.6437260,-71.3325280,False,0
64866678,42.6463815,-71.3132178,False,0
64866687,42.6400550,-71.3102720,True,0
64867051,42.6479710,-71.3203427,False,0
64867086,42.6442440,-71.3314270,False,0
64867242,42.6459054,-71.3125341,True,0
64867352,42.6387055,-71.3167341,False,0
64867544,42.6412087,-71.3108665,True,0
64867696,42.6398201,-71.3301124,True,0
64868310,42.6406248,-71.3250923,False,0
64868496,42.6481352,-71.3141978,True,0
64868702,42.6422628,-71.3086099,False,0
64868740,42.6480469,-71.3205285,False,0
64868791,42.6395467,-71.3267265,False,0
64869823,42.6482013,-71.3150581,True,0
64870285,42.6420190,-71.3180840,False,0
64870514,42.6384628,-71.3247040,False,1
64870871,42.6402374,-71.3113508,False,0
64871083,42.6401999,-71.3161256,False,0
64871116,42.6410508,-71.3166449,True,0
64871227,42.6432630,-71.3169806,False,0
64872322,42.6489076,-71.3172920,False,0
64872363,42.6444286,-71.3170141,False,0
64872510,42.6389890,-71.3083230,False,0
64872604,42.6446673,-71.3322847,False,0
64872617,42.6488691,-71.3222032,False,0
64872944,42.6391495,-71.3167559,True,0
64873270,42.6412240,-71.3187800,False,0
64873292,42.6479019,-71.3296775,False,0
64873309,42.6414070,-71.3171150,False,0
64873996,42.6428362,-71.3202569,False,0
64874185,42.6489889,-71.3295823,False,0
64874264,42.6474690,-71.3077140,True,0
64874346,42.6457510,-71.3250620,False,0
64874357,42.6495323,-71.3178733,False,1
64874403,42.6416215,-71.3254027,True,0
64874430,42.6404025,-71.3243715,True,0
64874592,42.6482338,-71.3141964,True,0
64874808,42.6444970,-71.3274360,True,0
64875005,42.6430580,-71.3212120,False,0
64875503,42.6455300,-71.3218550,True,0
64875571,42.6393340,-71.3336840,False,0
64875740,42.6481220,-71.3113540,False,0
64875915,42.6402832,-71.3167393,False,0
64876110,42.6376437,-71.3139182,False,0
64876617,42.6469886,-71.3082850,True,2
64876637,42.6426919,-71.3298078,True,0
64876662,42.6401584,-71.3084923,False,0
64876938,42.6481134,-71.3255183,False,0
64877367,42.6384468,-71.3242172,False,0
64877390,42.6393267,-71.3170363,False,0
64878109,42.6405411,-71.3251013,True,0
64878617,42.6387548,-71.3132496,True,0
64878946,42.6455253,-71.3149195,True,0
64878972,42.6457810,-71.3128540,False,0
64879204,42.6433556,-71.3144175,True,0
64879419,42.6460237,-71.3139517,False,0
64879521,42.6488069,-71.3248124,True,0
64879581,42.6453843,-71.3175010,True,0
64879589,42.6376560,-71.3177329,False,0
64880078,42.6410639,-71.3087531,True,1
64880294,42.6416061,-71.3165781,False,0
64880586,42.6449070,-71.3284760,False,0
64880846,42.6476006,-71.3304640,True,0
64880960,42.6392640,-71.3285160,False,0
64880978,42.6497120,-71.3280100,False,0
64881546,42.6463030,-71.3133619,False,0
64882299,42.6474911,-71.3250594,True,0
64882532,42.6395440,-71.3325800,True,0
64882586,42.6383112,-71.3230947,False,0
64882713,42.6412840,-71.3307730,False,0
64882820,42.6460987,-71.3191666,False,0
64882865,42.6446799,-71.3129137,True,0
64883114,42.6481579,-71.3147322,False,0
64883211,42.6451430,-71.3214980,False,0
64883216,42.6403760,-71.3079910,False,0
64883325,42.6460515,-71.3268380,True,0
64883331,42.6405696,-71.3167556,True,0
64883416,42.6418566,-71.3086659,True,1
64883931,42.6403045,-71.3043500,False,0
64884024,42.6440820,-71.3241160,True,0
64884034,42.6459598,-71.3090284,True,0
64884800,42.6437598,-71.3330993,False,0
64884883,42.6404537,-71.3165613,False,0
64884968,42.6462720,-71.3067974,False,0
64885124,42.6392430,-71.3228700,True,0
64885195,42.6465801,-71.3074383,True,0
64885663,42.6419468,-71.3259707,True,0
64885674,42.6444650,-71.3254030,False,0
64885723,42.6418420,-71.3065230,False,0
64885788,42.6490520,-71.3269480,True,0
64886071,42.6414804,-71.3064891,False,0
64886123,42.6491850,-71.3218910,False,0
64886182,42.6398898,-71.3124578,True,0
64886769,42.6388251,-71.3152432,False,0
64886816,42.6427852,-71.3154644,True,0
64886903,42.6444464,-71.3168310,True,0
64887000,42.6483838,-71.3154524,False,0
64887159,42.6400981,-71.3249981,True,0
64887171,42.6479066,-71.3102448,True,0
64887192,42.6391575,-71.3248114,True,0
64887230,42.6398991,-71.3166144,False,0
64887257,42.6412480,-71.3167549,False,0
64887346,42.6398420,-71.3338700,False,0
64887494,42.6390978,-71.3150687,True,1
64887662,42.6413620,-71.3127690,True,0
64887954,42.6394956,-71.3108296,True,4
64888219,42.6464710,-71.3254670,True,0
64888242,42.6411920,-71.3188810,False,0
64888333,42.6388070,-71.3104560,True,0
64888355,42.6453180,-71.3248200,True,0
64888718,42.6386294,-71.3187313,False,0
64888831,42.6466309,-71.3271495,True,0
64888939,42.6369820,-71.3094220,False,0
64888982,42.6485071,-71.3233213,False,0
64889058,42.6409461,-71.3168031,True,0
64889468,42.6446530,-71.3244460,False,0
64889862,42.6463988,-71.3269853,True,0
64889953,42.6478979,-71.3200712,False,0
64889990,42.6490753,-71.3159293,False,0
64890117,42.6404280,-71.3303850,True,0
64890474,42.6460833,-71.3129648,False,0
64890736,42.6413813,-71.3078164,True,0
64890790,42.6432356,-71.3192696,True,0
64890820,42.6457867,-71.3072268,False,0
64890916,42.6460573,-71.3142487,False,0
64890992,42.6495341,-71.3199535,False,0
64891020,42.6422240,-71.3181786,False,0
64891026,42.6363810,-71.3315700,False,0
64891160,42.6393640,-71.3086440,False,0
64891346,42.6393148,-71.3168312,True,0
64891349,42.6478422,-71.3198281,False,0
64891472,42.6443849,-71.3173168,False,0
64891660,42.6481845,-71.3128218,False,0
64891666,42.6464250,-71.3243120,False,0
64891688,42.6449250,-71.3261180,False,0
64891837,42.6392655,-71.3145095,False,0
64892183,42.6417790,-71.3114320,True,0
64892229,42.6416189,-71.3082889,True,0
64892243,42.6382073,-71.3180486,False,0
64892536,42.6431219,-71.3257183,True,2
64892549,42.6384646,-71.3197246,True,0
64892607,42.6430135,-71.3195419,False,0
64892687,42.6446270,-71.3247850,False,0
64892695,42.6484250,-71.3238910,False,0
64892910,42.6405512,-71.3165943,False,0
64892926,42.6471010,-71.3291890,False,0
64892994,42.6460180,-71.3229510,False,0
64893722,42.6386381,-71.3172364,False,0
64893886,42.6435718,-71.3170146,True,0
64894037,42.6388901,-71.3153878,True,0
64894092,42.6470951,-71.3099369,True,0
64894323,42.6457100,-71.3128900,False,0
64894358,42.6446580,-71.3315657,True,0
64894368,42.6460930,-71.3280030,False,0
64894505,42.6481440,-71.3115450,False,0
64894526,42.6471700,-71.3237320,False,0
64894587,42.6406273,-71.3251823,False,0
64894658,42.6466920,-71.3229040,False,0
64894734,42.6384150,-71.3198857,False,0
64894796,42.6369928,-71.3089208,False,1
64895016,42.6483520,-71.3239890,False,0
64895039,42.6458200,-71.3267398,True,0
64895116,42.6442828,-71.3321126,True,0
64895161,42.6461230,-71.3278810,False,0
64895168,42.6426252,-71.3217157,True,0
64895366,42.6419977,-71.3255126,True,0
64895649,42.6496210,-71.3280010,False,0
64895677,42.6461300,-71.3079630,False,0
64895761,42.6429208,-71.3278918,True,0
64895832,42.6474546,-71.3172716,True,0
64895838,42.6406290,-71.3274562,False,0
64895887,42.6405296,-71.3262652,False,0
64896026,42.6380720,-71.3088784,False,0
64896077,42.6477687,-71.3195334,True,2
64896086,42.6380217,-71.3293125,False,2
64896198,42.6478709,-71.3199459,True,0
64896351,42.6400032,-71.3166658,False,0
64896413,42.6452980,-71.3226060,False,0
64896694,42.6386782,-71.3184587,False,0
64896728,42.6446370,-71.3138280,False,0
64896879,42.6422925,-71.3217467,True,0
64896902,42.6448340,-71.3285010,False,0
64897244,42.6439528,-71.3275970,False,0
64897369,42.6449440,-71.3284250,False,0
64897499,42.6411080,-71.3166336,False,0
64897685,42.6445860,-71.3187931,False,0
64897722,42.6491170,-71.3217270,False,0
64897812,42.6385526,-71.3156422,False,0
64897877,42.6397910,-71.3088420,False,0
64898435,42.6424502,-71.3190331,True,0
64898524,42.6413302,-71.3167286,True,0
64898567,42.6443798,-71.3165266,False,0
64898596,42.6437050,-71.3326720,False,0
64898869,42.6335220,-71.3306680,False,0
64898936,42.6417990,-71.3089410,False,0
64899165,42.6459099,-71.3109762,False,0
64899220,42.6458857,-71.3122666,True,0
64899375,42.6495906,-71.3139806,False,0
64899437,42.6447260,-71.3244880,True,0
64899483,42.6440610,-71.3313260,False,0
64899521,42.6461510,-71.3277880,False,0
64899697,42.6411067,-71.3175738,True,0
64899731,42.6446940,-71.3224900,False,0
64899792,42.6413160,-71.3178502,True,0
64899958,42.6415721,-71.3164620,False,0
64899980,42.6400569,-71.3282807,False,0
64900014,42.6413496,-71.3165666,False,0
64900169,42.6401257,-71.3288493,False,0
64900202,42.6451307,-71.3106791,True,0
64900346,42.6457560,-71.3091960,False,0
64900430,42.6487888,-71.3275724,True,0
64900523,42.6440390,-71.3265670,False,0
64900671,42.6405668,-71.3267997,False,0
64900695,42.6481766,-71.3208259,True,0
64900711,42.6431930,-71.3170166,False,0
64900714,42.6449580,-71.3259530,False,0
64900732,42.6394851,-71.3158946,False,0
64900768,42.6395039,-71.3136841,True,0
64900791,42.6448870,-71.3263971,True,0
64901003,42.6402483,-71.3126578,True,0
64901314,42.6395334,-71.3088657,True,0
64901344,42.6480001,-71.3107883,False,0
64901405,42.6442670,-71.3314880,False,0
64901433,42.6398079,-71.3157118,False,0
64901445,42.6408956,-71.3078505,True,4
64901601,42.6417210,-71.3116230,True,0
64902161,42.6464290,-71.3286050,False,0
64902492,42.6493143,-71.3263616,False,0
64902612,42.6403455,-71.3136637,True,0
64902659,42.6481288,-71.3140268,False,0
64903424,42.6400390,-71.3327390,False,0
64903768,42.6412470,-71.3317010,True,0
64903983,42.6477480,-71.3223690,True,0
64904682,42.6479961,-71.3294589,False,0
64904859,42.6486104,-71.3196702,True,0
64904944,42.6408462,-71.3144816,False,0
64904950,42.6457807,-71.3110110,True,0
64904963,42.6398670,-71.3326840,True,0
64904977,42.6405703,-71.3244419,False,0
64905016,42.6396225,-71.3164088,False,0
64905147,42.6444404,-71.3166929,False,0
64905216,42.6403740,-71.3167466,False,0
64905401,42.6481590,-71.3118760,False,0
64905450,42.6479239,-71.3166309,True,0
64905553,42.6452124,-71.3269387,False,0
64905596,42.6401550,-71.3197735,True,0
64905602,42.6427972,-71.3292633,True,0
64905818,42.6419742,-71.3217763,True,3
64905893,42.6482761,-71.3189701,True,1
64905930,42.6489993,-71.3169906,False,0
64905951,42.6493066,-71.3230294,False,0
64905996,42.6433385,-71.3072623,False,0
64906057,42.6490395,-71.3232348,False,0
64906110,42.6439510,-71.3313240,False,0
64906131,42.6418830,-71.3310400,True,0
64906240,42.6429810,-71.3214320,False,0
64906428,42.6396901,-71.3164687,False,0
64906451,42.6395566,-71.3154716,True,1
64906608,42.6437614,-71.3260530,True,0
64906890,42.6472230,-71.3312520,False,0
64906902,42.6437287,-71.3328485,False,0
64907046,42.6411820,-71.3193870,False,0
64907175,42.6382892,-71.3146835,False,0
64907187,42.6466367,-71.3172229,True,0
64907508,42.6425527,-71.3202970,True,0
64907513,42.6395400,-71.3262420,False,0
64907657,42.6415349,-71.3166259,False,0
64907733,42.6429262,-71.3085068,True,0
64907949,42.6488330,-71.3161510,True,0
64908075,42.6397160,-71.3086810,False,0
64908172,42.6484661,-71.3283525,False,0
64908258,42.6385693,-71.3295561,False,0
64908415,42.6398516,-71.3249441,True,0
64908715,42.6395130,-71.3085890,False,0
64908803,42.6439969,-71.3084566,True,0
64908835,42.6382749,-71.3203319,False,0
64908867,42.6457419,-71.3175969,True,0
64909028,42.6401875,-71.3167222,False,0
64909141,42.6394844,-71.3156676,True,0
64909154,42.6402240,-71.3102550,False,0
64909348,42.6494541,-71.3179323,True,1
64909454,42.6467460,-71.3178660,True,0
64909468,42.6413193,-71.3081133,True,1
64909632,42.6434270,-71.3169786,False,0
64909794,42.6484444,-71.3158849,False,0
64909819,42.6408013,-71.3305604,True,0
64909838,42.6483364,-71.3156002,False,0
64909886,42.6484801,-71.3177787,True,0
64910054,42.6480469,-71.3293449,False,0
64910119,42.6428287,-71.3289423,True,0
64910137,42.6339930,-71.3308110,False,0
64910241,42.6449998,-71.3182184,True,0
64910351,42.6478590,-71.3297787,True,0
64910678,42.6416460,-71.3218010,False,0
64910689,42.6454262,-71.3074343,True,1
64910720,42.6452507,-71.3143402,True,0
64910724,42.6412130,-71.3198030,True,0
64910736,42.6468720,-71.3177086,True,0
64911064,42.6448193,-71.3134440,True,0
64911211,42.6446536,-71.3126085,True,2
64911495,42.6393321,-71.3168676,False,0
64911513,42.6488514,-71.3174443,False,0
64911561,42.6486310,-71.3207580,False,0
64911643,42.6405340,-71.3266778,False,0
64911658,42.6475290,-71.3219700,False,0
64912137,42.6440403,-71.3267957,False,0
64912207,42.6389970,-71.3098260,False,0
64912573,42.6460895,-71.3144355,True,0
64912940,42.6452715,-71.3265147,True,0
64912955,42.6486730,-71.3278400,False,0
64913120,42.6474832,-71.3307725,False,0
64913130,42.6389730,-71.3099620,False,0
64913301,42.6470950,-71.3238930,True,4
64913421,42.6408535,-71.3167990,False,0
64913524,42.6410896,-71.3165486,True,0
64913712,42.6413700,-71.3218280,True,0
64913902,42.6429072,-71.3202599,False,0
64913917,42.6479411,-71.3103867,True,2
64914141,42.6409290,-71.3330240,False,0
64914764,42.6406319,-71.3164370,False,0
64914785,42.6452760,-71.3069040,True,0
64914832,42.6404236,-71.3328724,False,0
64915265,42.6330000,-71.3306050,False,0
64915731,42.6414053,-71.3166964,False,0
64916161,42.6485590,-71.3266520,False,0
64916861,42.6422023,-71.3195503,False,0
64916889,42.6395810,-71.3085820,False,0
64916988,42.6395662,-71.3158351,False,0
64917015,42.6401801,-71.3165501,False,0
64917105,42.6450433,-71.3281985,False,2
64917424,42.6437040,-71.3327390,False,0
64917484,42.6489620,-71.3131975,False,0
64917671,42.6405233,-71.3266074,False,0
64917704,42.6444395,-71.3169202,False,0
64917877,42.6422742,-71.3182266,False,0
64918428,42.6396933,-71.3151145,False,0
64918481,42.6410784,-71.3167953,False,0
64918744,42.6446475,-71.3263239,True,0
64918763,42.6405500,-71.3244064,False,0
64919150,42.6389895,-71.3088453,True,4
64919240,42.6407820,-71.3218733,False,0
64919285,42.6465954,-71.3322678,False,0
64919296,42.6468810,-71.3237140,False,0
64919628,42.6480296,-71.3109389,True,0
64919750,42.6412792,-71.3218367,True,0
64920012,42.6418771,-71.3333211,False,1
64920018,42.6482906,-71.3150219,True,4
64920052,42.6396235,-71.3152797,False,0
64920120,42.6444263,-71.3279547,True,0
64920345,42.6393170,-71.3087020,False,0
64920495,42.6406169,-71.3114641,True,0
64920559,42.6402681,-71.3166169,False,0
64920678,42.6405320,-71.3078860,False,0
64920876,42.6441730,-71.3313750,False,0
64921294,42.6475814,-71.3196723,False,0
64921414,42.6461769,-71.3146370,True,0
64921426,42.6391887,-71.3266204,False,0
64921512,42.6389812,-71.3164840,False,0
64921740,42.6472550,-71.3267720,False,0
64921840,42.6449510,-71.3237860,False,0
64921943,42.6457103,-71.3275615,False,0
64922067,42.6467764,-71.3175113,True,0
64922094,42.6393852,-71.3156543,False,0
64922395,42.6419952,-71.3229258,True,0
64922683,42.6456990,-71.3237780,True,0
64922803,42.6408119,-71.3181668,False,0
64922842,42.6464950,-71.3286710,False,0
64922958,42.6395159,-71.3299771,True,0
64922989,42.6380780,-71.3100190,False,0
64923087,42.6404658,-71.3167234,False,0
64923161,42.6392400,-71.3324820,True,0
64923255,42.6395380,-71.3068050,False,0
64923279,42.6397880,-71.3086240,False,0
64923401,42.6398850,-71.3085350,False,0
64923557,42.6421185,-71.3179865,True,0
64923770,42.6445144,-71.3215398,True,0
64923880,42.6479406,-71.3240241,True,0
64924100,42.6405940,-71.3201100,False,0
64924184,42.6402431,-71.3139977,True,0
64924395,42.6458556,-71.3119054,True,0
64924420,42.6449450,-71.3084091,True,0
64924711,42.6437617,-71.3331898,False,0
64924733,42.6464500,-71.3172820,False,0
64924794,42.6439220,-71.3313940,False,0
64924836,42.6401936,-71.3141205,False,0
64924997,42.6473525,-71.3170570,True,0
64925041,42.6488865,-71.3202474,True,0
64925115,42.6435281,-71.3309721,False,0
64925144,42.6356800,-71.3313480,False,0
64925222,42.6441350,-71.3320465,True,0
64925294,42.6405802,-71.3244986,False,0
64925793,42.6375697,-71.3177022,False,0
64925802,42.6472830,-71.3311460,False,0
64925871,42.6401406,-71.3287205,True,0
64926089,42.6417824,-71.3184122,True,3
64926200,42.6474925,-71.3173499,True,0
64926242,42.6449009,-71.3323892,True,0
64926434,42.6402231,-71.3233888,False,0
64926524,42.6449019,-71.3136044,True,1
64926627,42.6419449,-71.3185695,False,0
64926779,42.6402647,-71.3164672,False,0
64927149,42.6416954,-71.3165148,False,0
64927238,42.6486634,-71.3163107,True,0
64927451,42.6386220,-71.3173296,False,0
64927498,42.6477388,-71.3194475,True,0
64927529,42.6402646,-71.3112636,True,0
64927542,42.6388820,-71.3164530,False,0
64927752,42.6437060,-71.3288440,False,0
64927856,42.6478742,-71.3101416,False,0
64928146,42.6446540,-71.3247050,False,0
64928156,42.6487630,-71.3234680,False,0
64928260,42.6455256,-71.3266150,True,0
64928489,42.6395693,-71.3105648,False,0
64928512,42.6371884,-71.3077894,False,0
64928553,42.6387222,-71.3166270,False,0
64928563,42.6405182,-71.3265346,False,0
64928749,42.6443170,-71.3262229,True,0
64928793,42.6433272,-71.3084921,True,0
64928826,42.6405100,-71.3104320,True,0
64928851,42.6443620,-71.3084435,True,1
64929247,42.6411963,-71.3084239,False,0
64929336,42.6386114,-71.3322726,False,0
64929596,42.6447038,-71.3131665,False,0
64929701,42.6438520,-71.3290050,False,0
64929866,42.6437509,-71.3329685,False,0
64929891,42.6416563,-71.3164020,False,0
64929907,42.6482837,-71.3154239,False,0
64929922,42.6409668,-71.3116630,True,0
64930010,42.6397715,-71.3149489,False,0
64930110,42.6467681,-71.3319829,True,0
64930476,42.6469312,-71.3081736,True,1
64930493,42.6431735,-71.3196859,True,0
64930599,42.6381744,-71.3145677,False,0
64930643,42.6456294,-71.3151414,True,0
64930886,42.6456026,-71.3088179,False,0
64931100,42.6389930,-71.3099000,False,0
64931150,42.6382537,-71.3071224,False,0
64931262,42.6472450,-71.3259150,False,0
64931323,42.6378590,-71.3178570,False,0
64931610,42.6387930,-71.3164920,False,0
64931720,42.6436236,-71.3200921,True,0
64931835,42.6394340,-71.3086000,False,0
64932001,42.6451192,-71.3174300,True,0
64932105,42.6489635,-71.3130842,False,0
64932269,42.6393960,-71.3088090,False,0
64932582,42.6402610,-71.3080940,True,0
64932616,42.6361913,-71.3089601,False,0
64932729,42.6461924,-71.3329672,True,0
64932763,42.6434568,-71.3146132,True,0
327265992,42.6394054,-71.3108970,True,0
327275549,42.6377473,-71.3137921,True,0
327278838,42.6389199,-71.3124728,True,0
327287071,42.6369615,-71.3131953,True,0
327290017,42.6387473,-71.3130384,True,0
327298169,42.6364879,-71.3127856,True,0
327638194,42.6361678,-71.3124946,True,0
327641240,42.6386885,-71.3132161,True,0
327650538,42.6386098,-71.3134776,True,0
327668568,42.6384033,-71.3141659,True,0
327670010,42.6383360,-71.3142443,True,0
327671694,42.6367815,-71.3104102,True,0
327674770,42.6370503,-71.3095475,True,0
327680160,42.6382069,-71.3141728,True,0
328321553,42.6447518,-71.3100012,False,0
328584913,42.6447335,-71.3097685,False,0
328602253,42.6449856,-71.3097318,False,0
328603319,42.6450039,-71.3099645,False,0
328636955,42.6383870,-71.3208178,False,0
328642841,42.6449396,-71.3182694,False,0
328644135,42.6383255,-71.3213012,False,0
328648681,42.6449041,-71.3185309,False,0
328650585,42.6383757,-71.3229971,False,0
328653514,42.6391669,-71.3227895,False,0
328655161,42.6445904,-71.3184464,False,0
328661386,42.6446239,-71.3181882,False,0
328684484,42.6387895,-71.3211798,False,0
328713626,42.6439470,-71.3299170,True,0
328714349,42.6446876,-71.3209502,False,0
328717479,42.6461731,-71.3320210,True,0
328723525,42.6454294,-71.3316469,True,0
328725442,42.6443948,-71.3304075,True,0
328730119,42.6440725,-71.3300746,True,0
328731863,42.6435917,-71.3295866,True,0
328735090,42.6448567,-71.3197949,False,0
328739448,42.6465242,-71.3314997,True,0
328745936,42.6469308,-71.3229948,True,0
328747498,42.6431449,-71.3295534,True,0
328747664,42.6428493,-71.3293810,True,0
328749732,42.6459155,-71.3311281,True,0
328751393,42.6428700,-71.3291739,True,0
328752894,42.6476622,-71.3223406,True,0
328753553,42.6437663,-71.3297035,True,0
328757515,42.6470999,-71.3212237,False,0
328758019,42.6429918,-71.3291793,True,0
328762337,42.6463498,-71.3320774,True,0
328766058,42.6466746,-71.3316980,True,0
328768874,42.6452651,-71.3310460,True,0
328771462,42.6434984,-71.3295367,True,0
328771598,42.6436787,-71.3296172,True,0
328772977,42.6438385,-71.3298001,True,0
328773836,42.6462867,-71.3312952,True,0
328775568,42.6451265,-71.3315021,True,0
328780824,42.6456965,-71.3310429,True,0
328783931,42.6458259,-71.3318078,True,0
328805694,42.6459118,-71.3306746,True,0
328807006,42.6433499,-71.3181374,False,0
328813639,42.6438376,-71.3291426,False,0
328815375,42.6433263,-71.3183255,False,0
328817807,42.6463507,-71.3308597,True,0
328824164,42.6451019,-71.3304520,True,0
328831905,42.6454809,-71.3305704,True,0
328832116,42.6430538,-71.3180536,False,0
328835006,42.6441939,-71.3292952,False,0
328837677,42.6473367,-71.3308950,False,0
328837931,42.6442544,-71.3297725,True,0
328842547,42.6468596,-71.3306292,False,0
328843041,42.6443150,-71.3286754,False,0
328845911,42.6476334,-71.3301359,False,0
328850794,42.6445266,-71.3301288,True,0
328851766,42.6447823,-71.3288633,False,0
329022619,42.6437455,-71.3292114,True,0
329026550,42.6430275,-71.3183358,False,0
329027013,42.6458099,-71.3295371,False,0
329027751,42.6465753,-71.3310043,True,0
329032921,42.6440859,-71.3296409,True,0
329038717,42.6466013,-71.3310556,True,0
960068506,42.6484898,-71.3340328,True,0
960074290,42.6482029,-71.3328862,True,0
960080034,42.6484837,-71.3341178,True,0
1070524730,42.6463534,-71.3133200,True,2
1070524733,42.6482007,-71.3131120,True,1
1133148034,42.6485801,-71.3159540,False,0
1133148069,42.6485219,-71.3106947,False,0
1133148207,42.6475671,-71.3080999,False,0
1133148240,42.6472762,-71.3078772,True,0
1133148245,42.6491575,-71.3120324,False,0
1133148251,42.6478913,-71.3165633,True,2
1133148304,42.6483461,-71.3105635,True,0
1133148404,42.6479912,-71.3073180,False,0
1133148496,42.6439354,-71.3084625,False,0
1133148505,42.6478630,-71.3074199,False,0
1133148516,42.6473490,-71.3087980,False,0
1133148540,42.6477370,-71.3084489,False,0
1133148556,42.6485058,-71.3160237,False,0
1133148559,42.6474321,-71.3078225,False,0
1133148566,42.6480043,-71.3108147,True,0
1133148579,42.6484351,-71.3105848,False,0
1133148581,42.6491162,-71.3297646,False,2
1133148606,42.6476143,-71.3075797,True,0
1133148640,42.6471553,-71.3079796,True,0
1133148641,42.6477920,-71.3074120,True,0
1133148748,42.6470441,-71.3081715,False,0
1133148750,42.6474487,-71.3077311,True,0
1133148886,42.6444490,-71.3100040,True,0
1133148888,42.6476313,-71.3082317,False,0
1133150665,42.6489500,-71.3310923,True,0
1133150667,42.6493593,-71.3303661,True,0
1133150668,42.6483640,-71.3328465,True,0
1133150669,42.6486230,-71.3322987,True,0
1133150674,42.6486263,-71.3338528,True,0
1133150677,42.6490216,-71.3309043,True,0
1133150679,42.6490984,-71.3307028,True,0
1133150681,42.6487157,-71.3320043,True,0
1133150689,42.6487091,-71.3338850,True,0
1133150691,42.6485672,-71.3324220,True,0
1134241475,42.6474704,-71.3319646,False,0
1134241568,42.6483267,-71.3305270,False,0
1134241730,42.6481579,-71.3306196,False,0
1134241733,42.6486502,-71.3340031,True,0
1134241748,42.6489303,-71.3301568,True,0
1134241849,42.6477160,-71.3312969,False,0
1134241901,42.6485279,-71.3340889,True,0
1134241951,42.6478403,-71.3311158,False,0
1134241954,42.6476154,-71.3314913,False,0
1134241981,42.6480198,-71.3307269,False,0
1134242022,42.6490645,-71.3300227,False,0
1134242029,42.6475177,-71.3317515,False,0
1134242031,42.6474326,-71.3320851,True,0
1134702130,42.6481493,-71.3107047,False,0
1134702198,42.6448490,-71.3135006,False,0
1134702242,42.6479948,-71.3107510,False,0
1134702302,42.6482905,-71.3130752,False,0
1134702448,42.6480865,-71.3127251,True,0
1134702536,42.6483721,-71.3149801,False,0
1134702552,42.6480379,-71.3107919,False,0
1136506961,42.6412858,-71.3142003,True,0
1136523791,42.6452915,-71.3069666,False,0
1141489345,42.6409857,-71.3148777,False,0
1141489360,42.6410089,-71.3150400,False,0
1141489361,42.6409956,-71.3145652,False,0
1141489364,42.6410040,-71.3144732,False,0
1141489526,42.6410149,-71.3158996,True,0
1141489729,42.6433815,-71.3294465,True,0
1141489844,42.6410528,-71.3152774,False,0
1141489856,42.6410714,-71.3154812,False,0
1141489899,42.6412911,-71.3139834,True,0
1141489937,42.6412792,-71.3152654,True,0
1141489999,42.6411347,-71.3145485,True,0
1141490012,42.6413103,-71.3154209,True,0
1141490057,42.6420053,-71.3116767,True,0
1141490137,42.6412230,-71.3151084,True,0
1141490179,42.6413198,-71.3155568,True,0
1141490183,42.6413222,-71.3157015,True,0
1141490186,42.6411593,-71.3150013,True,0
1141490188,42.6411648,-71.3143750,True,0
1141490191,42.6418657,-71.3117000,True,0
1141490215,42.6410602,-71.3157005,False,0
1141490255,42.6413068,-71.3158916,True,0
1141490264,42.6410937,-71.3141228,False,0
1156916605,42.6447408,-71.3132793,True,2
1236794922,42.6459618,-71.3076024,False,0
1236794932,42.6455062,-71.3078277,False,0
1237892998,42.6483231,-71.3130777,True,2
1237893002,42.6454427,-71.3170903,True,2
1237893011,42.6423608,-71.3159138,True,0
1237893042,42.6486979,-71.3161846,True,0
1237893051,42.6445001,-71.3161504,False,0
1237893052,42.6414142,-71.3165417,True,0
1237893055,42.6454003,-71.3173884,True,2
1237893058,42.6414748,-71.3166606,True,0
1237893061,42.6463800,-71.3166936,False,0
1237893065,42.6412769,-71.3165904,True,0
1237893077,42.6485391,-71.3160747,True,0
1237893078,42.6462842,-71.3192390,True,0
1237893083,42.6471241,-71.3207105,True,0
1237893091,42.6423178,-71.3158128,False,0
1237893118,42.6469138,-71.3194494,False,0
1413783988,42.6460736,-71.3143855,True,2
1413784008,42.6451527,-71.3150232,False,0
1413784012,42.6448831,-71.3147704,False,0
1413784021,42.6447908,-71.3153324,False,0
1413784049,42.6446307,-71.3149860,False,0
1413784054,42.6460099,-71.3137965,True,2
1413784113,42.6449632,-71.3149438,False,0
1413784171,42.6450728,-71.3148502,False,0
1481574943,42.6393648,-71.3126777,False,0
1481574953,42.6374375,-71.3137371,False,0
1481574963,42.6391670,-71.3148508,False,0
1481594533,42.6384561,-71.3142173,True,0
1481594536,42.6403576,-71.3165216,False,0
1481594541,42.6378963,-71.3141673,False,0
1481594543,42.6407418,-71.3166350,False,0
1481594555,42.6382128,-71.3144667,False,0
1481596743,42.6414858,-71.3165117,False,0
1481657588,42.6401713,-71.3189332,False,0
1481657590,42.6411419,-71.3176267,False,0
1481657601,42.6410538,-71.3174057,False,0
1481657605,42.6409211,-71.3252029,False,0
1481657606,42.6411513,-71.3165545,False,0
1481657614,42.6410411,-71.3173136,False,0
1481657619,42.6400723,-71.3214819,True,0
1481657622,42.6410879,-71.3175375,False,0
1481657625,42.6405345,-71.3163863,False,0
1481674248,42.6391044,-71.3158928,True,0
1481674249,42.6385704,-71.3192308,False,0
1481674256,42.6407435,-71.3167868,False,0
1481674257,42.6393280,-71.3162359,False,0
1481674259,42.6385491,-71.3193675,False,0
1481674261,42.6386115,-71.3188560,False,0
1481674263,42.6386525,-71.3185950,False,0
1481674267,42.6385205,-71.3195066,False,0
1481674270,42.6393081,-71.3163099,False,0
1481674271,42.6393771,-71.3160774,False,0
1481674276,42.6385846,-71.3191085,False,0
1481683052,42.6380179,-71.3144166,False,0
1481683055,42.6403735,-71.3166820,False,0
1481699854,42.6385679,-71.3175498,False,0
1481699867,42.6387842,-71.3154464,False,0
1481699869,42.6385641,-71.3194504,False,0
1482813950,42.6399965,-71.3148626,False,0
1607236773,42.6472732,-71.3079654,False,0
1607236775,42.6472165,-71.3080164,False,0
1968674486,42.6398577,-71.3085639,True,0
1968674493,42.6399277,-71.3088092,True,2
1968674497,42.6400165,-71.3088028,True,0
1968674503,42.6401501,-71.3083823,False,0
1968674512,42.6405557,-71.3087767,True,0
1968674523,42.6408159,-71.3094746,True,0
2238896050,42.6427077,-71.3094129,True,0
2238902923,42.6426510,-71.3093356,True,0
2238902927,42.6418779,-71.3117073,True,0
2238902928,42.6421226,-71.3110056,True,0
2238902929,42.6421035,-71.3109944,True,0
2726077346,42.6484967,-71.3106505,True,0
2726077347,42.6491767,-71.3100311,False,0
2726077349,42.6492620,-71.3099533,True,0
2726077350,42.6494117,-71.3098170,True,0
2726077351,42.6487749,-71.3103971,False,0
2726077352,42.6486358,-71.3105238,False,0
2726077354,42.6485585,-71.3105942,False,0
2726077355,42.6485336,-71.3147799,False,0
2726077356,42.6487171,-71.3146028,True,0
2726077358,42.6491531,-71.3143561,False,0
2726077359,42.6493148,-71.3142005,False,0
2726077360,42.6495560,-71.3139256,True,0
2726399982,42.6463230,-71.3131883,False,0
2967382710,42.6447677,-71.3198800,True,4
2967382712,42.6440735,-71.3197318,True,0
3586751064,42.6388925,-71.3184219,True,0
3586751065,42.6393416,-71.3186552,True,0
3586751066,42.6395451,-71.3180575,False,0
3590210570,42.6401762,-71.3057917,False,0
3748379630,42.6421244,-71.3322503,True,0
3748392295,42.6463547,-71.3326990,False,0
3748392323,42.6467043,-71.3320908,False,0
3748392448,42.6419579,-71.3310733,True,0
3748392474,42.6427222,-71.3296654,True,0
3789007063,42.6329036,-71.3305961,False,0
4116913681,42.6427129,-71.3237682,False,0
4116913682,42.6427307,-71.3245648,False,0
4116913683,42.6427236,-71.3238333,False,0
4116913684,42.6427759,-71.3233621,True,0
4116913686,42.6428382,-71.3239629,False,0
4116913687,42.6428535,-71.3240384,True,0
4116913688,42.6427889,-71.3243837,False,0
4382836681,42.6380473,-71.3080551,False,0
4382836685,42.6381248,-71.3088773,False,0
4557444540,42.6474392,-71.3077392,False,0
5008363820,42.6420008,-71.3254337,True,2
5008364422,42.6420502,-71.3255296,True,2
5008364425,42.6417915,-71.3254559,True,2
5008364441,42.6430043,-71.3258127,True,2
5008364446,42.6430894,-71.3259743,True,2
5008364449,42.6432075,-71.3258837,True,2
5008373146,42.6440887,-71.3262297,True,2
5008373149,42.6437727,-71.3259785,True,2
5008373154,42.6443303,-71.3261497,True,2
5008373157,42.6443545,-71.3262344,True,2
5008373161,42.6446371,-71.3263976,True,2
5008373168,42.6452610,-71.3265909,True,2
5008373169,42.6452081,-71.3264953,True,2
5008373172,42.6448980,-71.3263194,True,2
5008373174,42.6448517,-71.3263864,True,2
5008373181,42.6458094,-71.3268174,True,2
5008376290,42.6455406,-71.3265416,True,2
5008376296,42.6460698,-71.3267706,True,2
5008376301,42.6464778,-71.3270371,True,2
5008376303,42.6463756,-71.3270638,True,2
5008376308,42.6466566,-71.3270812,True,2
5008376318,42.6482314,-71.3287547,True,2
5008384665,42.6483177,-71.3287328,True,2
5008384668,42.6483621,-71.3289317,True,2
5250728025,42.6421478,-71.3101885,True,0
5250728026,42.6415304,-71.3098424,True,0
5458718872,42.6422191,-71.3160433,True,0
5458718873,42.6438920,-71.3155161,True,0
5458718885,42.6438264,-71.3153800,True,0
5458718890,42.6458343,-71.3171181,True,0
5458718891,42.6454178,-71.3170031,True,0
5458718894,42.6450968,-71.3169145,True,0
5458718913,42.6494826,-71.3137961,False,0
5458718914,42.6487685,-71.3144553,False,0
5458718925,42.6483315,-71.3141884,True,0
5458718947,42.6475346,-71.3158455,True,0
5458718951,42.6471863,-71.3151132,True,0
5458718956,42.6469112,-71.3131763,True,0
5458718969,42.6470481,-71.3164186,True,0
5458718973,42.6469781,-71.3162805,True,0
5458718974,42.6475149,-71.3158041,True,0
5458718978,42.6468045,-71.3159211,True,0
5458718979,42.6471079,-71.3149484,True,0
5458738879,42.6416733,-71.3144370,True,0
5458738881,42.6410154,-71.3115128,True,0
5458738890,42.6401404,-71.3200290,True,0
5458738898,42.6401105,-71.3204121,True,0
5458790472,42.6421707,-71.3071364,False,0
5458790473,42.6418473,-71.3071503,False,0
5458790475,42.6421857,-71.3074162,True,0
5458790476,42.6421725,-71.3071706,False,0
5458790496,42.6423068,-71.3096885,True,0
5458790502,42.6452252,-71.3118235,True,0
5458790503,42.6451992,-71.3115086,True,0
5458790504,42.6454986,-71.3114643,True,0
5458790505,42.6451811,-71.3112890,True,0
5458790506,42.6454840,-71.3112454,True,0
5458790510,42.6454275,-71.3106405,True,0
5458790511,42.6455538,-71.3121643,True,0
5458790512,42.6443670,-71.3089468,True,0
5458790515,42.6450027,-71.3091287,True,0
5458790520,42.6488141,-71.3113097,True,0
5458791724,42.6490993,-71.3101016,True,0
5458791732,42.6468264,-71.3101746,True,0
5458791733,42.6462850,-71.3096641,True,0
5458791736,42.6467532,-71.3092298,True,0
5458791737,42.6465250,-71.3087565,True,0
5458791740,42.6467076,-71.3091356,True,0
5458829105,42.6417654,-71.3090548,True,0
5458829106,42.6413946,-71.3077133,True,0
5458830549,42.6376577,-71.3097901,False,0
5458830553,42.6376616,-71.3088898,False,0
5466133272,42.6437499,-71.3332924,False,0
5466133275,42.6436887,-71.3336445,False,0
5466133284,42.6482092,-71.3236888,True,0
5466133285,42.6490367,-71.3245363,False,0
5466133304,42.6484512,-71.3238582,True,0
5466133308,42.6484934,-71.3238054,True,0
5466133319,42.6490649,-71.3245110,False,0
5466133525,42.6493097,-71.3252623,False,0
5466133527,42.6491545,-71.3262494,False,0
5545190436,42.6413034,-71.3079000,False,0
5545190437,42.6412407,-71.3079321,False,0
5545190438,42.6411396,-71.3079422,False,0
5545190439,42.6410336,-71.3079296,True,4
5545190440,42.6408352,-71.3078385,True,0
5581638350,42.6423383,-71.3154292,False,0
5581638351,42.6423407,-71.3154015,False,0
5581638352,42.6423848,-71.3153639,False,0
5581638353,42.6423750,-71.3153477,False,0
5581638354,42.6424251,-71.3153040,False,0
5581638355,42.6424416,-71.3153314,False,0
5581638356,42.6428002,-71.3150158,False,0
5581638357,42.6422711,-71.3147694,False,0
5581638358,42.6422547,-71.3148771,False,0
5581638359,42.6422599,-71.3149635,False,0
5581638360,42.6423010,-71.3151444,False,0
5581638361,42.6422749,-71.3152897,False,0
5581638362,42.6422689,-71.3153416,False,0
5581638363,42.6422726,-71.3153751,False,0
5581638364,42.6422929,-71.3154171,False,0
5581638365,42.6422947,-71.3152171,False,0
5582894744,42.6448170,-71.3107291,False,0
5582894747,42.6449696,-71.3126652,False,0
5582894798,42.6414738,-71.3124122,False,0
5582894803,42.6412246,-71.3132076,False,0
5582894806,42.6417390,-71.3115637,False,0
5582894809,42.6418944,-71.3116551,True,0
5582894853,42.6427770,-71.3150363,False,0
5582894894,42.6481525,-71.3117310,True,2
5582894895,42.6480666,-71.3117413,True,2
5582894905,42.6483148,-71.3141913,False,0
5582942253,42.6483879,-71.3149605,False,0
5582963126,42.6434665,-71.3148515,True,2
5582963127,42.6435869,-71.3148969,True,2
5582963128,42.6435999,-71.3147287,True,2
5582963129,42.6448387,-71.3136631,True,2
5582963130,42.6449480,-71.3137017,True,2
5582963131,42.6449601,-71.3135622,True,2
5582963132,42.6458384,-71.3128232,True,2
5582963133,42.6459113,-71.3126337,True,2
5582963134,42.6459398,-71.3130213,True,2
5582963137,42.6464551,-71.3132394,False,0
5582963138,42.6462736,-71.3131517,False,0
5582963139,42.6460731,-71.3135695,True,2
5582963140,42.6459065,-71.3137740,True,2
5582963141,42.6479882,-71.3131186,True,2
5582963142,42.6481173,-71.3133100,True,2
5582963143,42.6482170,-71.3133075,True,2
5582963144,42.6481864,-71.3129205,True,2
5582963145,42.6480916,-71.3128985,True,2
5582963146,42.6475063,-71.3093602,True,2
5582963147,42.6474634,-71.3096129,True,2
5582963148,42.6471882,-71.3098555,True,2
5582963149,42.6470594,-71.3098631,True,2
5582963150,42.6470070,-71.3100153,True,2
5582963151,42.6468378,-71.3082578,True,2
5582963152,42.6468773,-71.3080692,True,2
5582963153,42.6470062,-71.3081057,True,2
5582963154,42.6463123,-71.3068860,False,2
5582963156,42.6458367,-71.3073306,True,2
5582963157,42.6455326,-71.3074347,True,2
5582963158,42.6454578,-71.3075718,True,2
5582963159,42.6453311,-71.3074340,True,2
5582963160,42.6453974,-71.3073125,True,2
5582963161,42.6456249,-71.3090972,True,2
5582963162,42.6457322,-71.3092078,True,2
5582963163,42.6457392,-71.3105164,True,2
5582963164,42.6456672,-71.3106109,True,2
5582963165,42.6458576,-71.3109892,True,2
5582963166,42.6457944,-71.3111563,True,2
5582963167,42.6458437,-71.3117934,True,2
5582963168,42.6457529,-71.3119935,True,2
5582963169,42.6451211,-71.3105608,True,2
5582963170,42.6451372,-71.3107560,True,2
5582963171,42.6449500,-71.3084907,True,2
5584601831,42.6411194,-71.3147805,True,0
5584601832,42.6411930,-71.3150649,True,0
5584601834,42.6410214,-71.3143840,False,0
5584601835,42.6416566,-71.3123377,False,0
5584693640,42.6365281,-71.3091568,False,2
5584693644,42.6370941,-71.3089161,False,2
5584693645,42.6369226,-71.3093873,False,2
5584693647,42.6370600,-71.3094645,False,2
5584693648,42.6380358,-71.3088794,False,2
5584693650,42.6382109,-71.3088754,False,2
5584693652,42.6389883,-71.3086812,False,2
5584693653,42.6390994,-71.3088413,True,2
5584693654,42.6412486,-71.3080731,True,2
5584693655,42.6413998,-71.3081561,True,2
5584693656,42.6417937,-71.3083954,True,2
5584693657,42.6417452,-71.3086825,True,2
5584693658,42.6418523,-71.3087462,True,2
5584693659,42.6418742,-71.3083370,True,2
5584693660,42.6419844,-71.3084595,True,2
5584693661,42.6419960,-71.3086458,True,2
5584693662,42.6428687,-71.3085091,True,2
5584693663,42.6433720,-71.3084886,True,2
5584693664,42.6442445,-71.3084521,True,2
5584693665,42.6443372,-71.3085623,True,2
5584693666,42.6444521,-71.3084373,True,2
5584693667,42.6443862,-71.3083279,True,2
5584693668,42.6454799,-71.3083790,True,2
5584693670,42.6444244,-71.3096870,True,2
5584693671,42.6445012,-71.3106780,True,2
5584693672,42.6445222,-71.3108895,True,2
5584693674,42.6445970,-71.3107707,True,2
5584693676,42.6446854,-71.3129780,True,2
5584693677,42.6452292,-71.3142949,True,2
5584693678,42.6451882,-71.3143993,True,2
5584693679,42.6452776,-71.3143970,True,2
5584693680,42.6453038,-71.3143018,True,2
5584693681,42.6454852,-71.3148349,True,2
5584693682,42.6455879,-71.3148689,True,2
5584693683,42.6455641,-71.3152015,True,2
5584693684,42.6456662,-71.3152199,True,2
5584693685,42.6456935,-71.3150818,True,2
5584693686,42.6465890,-71.3171244,True,2
5584693687,42.6468445,-71.3174642,True,2
5584693688,42.6469646,-71.3178997,True,2
5584693689,42.6477945,-71.3194004,True,2
5584693690,42.6477291,-71.3196761,True,2
5584693691,42.6479190,-71.3201612,True,2
5584693692,42.6482228,-71.3207873,True,2
5584693693,42.6482455,-71.3210928,True,2
5584693695,42.6492668,-71.3230584,False,2
5584744989,42.6461110,-71.3329308,False,2
5584744990,42.6462514,-71.3328710,False,2
5584744991,42.6464787,-71.3324980,True,2
5584744992,42.6482285,-71.3289383,True,2
5584744993,42.6488513,-71.3276092,True,2
5584744994,42.6488162,-71.3275031,True,2
5584744995,42.6487296,-71.3275378,True,2
5584744996,42.6489956,-71.3269140,False,2
5584744997,42.6492504,-71.3263167,False,2
5584744999,42.6495417,-71.3254627,False,2
5584745013,42.6494860,-71.3177738,False,2
5584745014,42.6494097,-71.3178379,False,2
5584745015,42.6493706,-71.3179954,False,2
5584745019,42.6482918,-71.3131813,False,0
5584745020,42.6483243,-71.3131820,True,2
5584746821,42.6488755,-71.3130794,True,2
5584746822,42.6488711,-71.3131918,True,2
5584746827,42.6429129,-71.3083847,True,2
5584746828,42.6426339,-71.3086585,True,2
5584746829,42.6411147,-71.3086348,True,2
5584746830,42.6411622,-71.3087425,True,2
5584746831,42.6410270,-71.3088390,True,2
5584746832,42.6409659,-71.3087593,True,2
5584746833,42.6409194,-71.3091518,True,0
5584746839,42.6407543,-71.3087710,True,0
5584746840,42.6405706,-71.3105163,True,2
5584746841,42.6403304,-71.3113031,True,2
5584746842,42.6402879,-71.3111863,True,2
5584746843,42.6401986,-71.3112241,True,2
5584746844,42.6391312,-71.3149726,True,2
5584746847,42.6386715,-71.3155502,False,2
5584746850,42.6395908,-71.3153677,True,2
5584746851,42.6396180,-71.3155144,True,2
5584746852,42.6393881,-71.3161842,True,2
5584746854,42.6393291,-71.3162324,True,2
5584746856,42.6386487,-71.3182850,True,2
5584810380,42.6410239,-71.3168924,True,2
5584810388,42.6384059,-71.3143232,False,2
5584810805,42.6389807,-71.3099380,True,0
5584810807,42.6394280,-71.3107933,True,2
5584810808,42.6394772,-71.3108969,True,2
5584810809,42.6395628,-71.3108656,True,2
5584810810,42.6395170,-71.3107478,True,2
5584810820,42.6388202,-71.3132876,True,0
5584810823,42.6398729,-71.3109591,True,2
5584810856,42.6372350,-71.3078038,False,2
5584918533,42.6404151,-71.3137025,True,2
5584918534,42.6407932,-71.3124577,True,2
5584918536,42.6411594,-71.3112875,True,2
5584918538,42.6418708,-71.3090004,True,2
5584918540,42.6403159,-71.3137616,True,2
5584918541,42.6404007,-71.3132601,True,2
5584918542,42.6405349,-71.3128158,True,2
5584918543,42.6409040,-71.3116256,True,2
5584918544,42.6409932,-71.3115860,True,2
5584918545,42.6411302,-71.3111342,False,2
5584918546,42.6411476,-71.3108345,True,2
5584918547,42.6400984,-71.3072555,False,2
5584918548,42.6400159,-71.3072745,False,2
5584918549,42.6400628,-71.3071167,False,2
5584918556,42.6399028,-71.3079158,False,2
5584918557,42.6412580,-71.3079235,True,2
5584918561,42.6427193,-71.3064727,False,2
5584918563,42.6427038,-71.3063265,False,0
5584918566,42.6463844,-71.3085087,True,2
5584918567,42.6463817,-71.3086503,True,2
5584918568,42.6465038,-71.3087145,True,2
5584918569,42.6465211,-71.3085294,True,2
5584918570,42.6460419,-71.3089551,True,2
5584918571,42.6460038,-71.3091044,True,2
5584918573,42.6465414,-71.3104258,True,2
5584918574,42.6465817,-71.3102880,True,2
5584918575,42.6466964,-71.3102890,True,2
5584918576,42.6445259,-71.3167812,True,2
5584918577,42.6444732,-71.3172568,True,2
5584918578,42.6443348,-71.3172193,True,2
5584918583,42.6385067,-71.3295282,False,2
5584918584,42.6386365,-71.3295859,False,2
5584918585,42.6385333,-71.3247155,False,2
5584918593,42.6381439,-71.3207558,False,0
5584918595,42.6383809,-71.3199944,False,2
5585000553,42.6409753,-71.3177501,True,0
5585000554,42.6406699,-71.3187564,True,0
5585000566,42.6410361,-71.3172032,False,0
5585019009,42.6408380,-71.3146037,False,0
5585019010,42.6408478,-71.3148223,False,0
5585019011,42.6408991,-71.3152165,False,0
5585019012,42.6409001,-71.3155465,False,0
5585019013,42.6408695,-71.3157557,False,0
5585019014,42.6407955,-71.3159568,False,0
5585019015,42.6406742,-71.3161567,False,0
5585019016,42.6409347,-71.3141687,True,2
5585019017,42.6410120,-71.3138860,False,2
5585019019,42.6409009,-71.3139800,True,2
5585019020,42.6416567,-71.3115764,False,2
5585023521,42.6417484,-71.3115327,False,2
5585023522,42.6433294,-71.3083827,True,2
5586930771,42.6410571,-71.3176382,True,2
5586930772,42.6413644,-71.3177868,True,2
5586930773,42.6417358,-71.3183598,True,2
5586930775,42.6417473,-71.3185048,True,2
5586930776,42.6418533,-71.3184896,True,2
5586930777,42.6418265,-71.3183079,True,2
5586930779,42.6431886,-71.3195846,True,2
5586930780,42.6432708,-71.3197755,True,2
5586930781,42.6435899,-71.3201597,True,2
5586930782,42.6440062,-71.3202711,False,2
5586930783,42.6440730,-71.3204884,True,2
5586930784,42.6439707,-71.3205504,True,2
5586930785,42.6438913,-71.3203262,True,2
5586930786,42.6445889,-71.3211265,True,2
5586930787,42.6446879,-71.3210855,True,2
5586930788,42.6446102,-71.3208974,True,2
5586930789,42.6478915,-71.3239778,True,2
5586930790,42.6479792,-71.3240605,True,2
5586930791,42.6479875,-71.3239671,True,2
5586930792,42.6488436,-71.3247529,True,2
5588724179,42.6460083,-71.3145060,True,2
5588724180,42.6461021,-71.3147048,True,2
5588724181,42.6462115,-71.3147149,True,2
5588724182,42.6464042,-71.3151004,True,2
5588724183,42.6465120,-71.3151176,True,2
5588724184,42.6482341,-71.3188810,True,2
5588724185,42.6482090,-71.3190281,True,2
5588724186,42.6483210,-71.3190653,True,2
5588724187,42.6483361,-71.3189183,True,2
5588724188,42.6488315,-71.3202945,True,2
5611565867,42.6413007,-71.3127364,False,0
5611565868,42.6410686,-71.3126111,False,0
5665109616,42.6465867,-71.3296856,False,0
5665109617,42.6458578,-71.3292986,False,0
5665110622,42.6451606,-71.3292988,False,0
5665110623,42.6450180,-71.3290852,False,0
5665118687,42.6464548,-71.3204866,False,0
5665118688,42.6463987,-71.3207054,False,0
5665118689,42.6463578,-71.3208417,False,0
5665118690,42.6462830,-71.3209976,False,0
5665118691,42.6462339,-71.3210778,False,0
5665118692,42.6461226,-71.3211948,False,0
5665118693,42.6459496,-71.3213715,False,0
5665118694,42.6460638,-71.3215423,False,0
5665118695,42.6461346,-71.3216085,False,0
5665118696,42.6461869,-71.3216179,False,0
5665118697,42.6462566,-71.3216106,False,0
5665118698,42.6469279,-71.3214867,False,0
5665118700,42.6471045,-71.3213297,True,0
5675046479,42.6462204,-71.3224662,True,0
5928726495,42.6442417,-71.3162544,True,0
6035068119,42.6381281,-71.3213378,False,0
6035068120,42.6387300,-71.3210320,False,0
6086431053,42.6418962,-71.3332416,False,2
6086431079,42.6436586,-71.3338231,False,0
6117866571,42.6428665,-71.3284631,True,0
6261436994,42.6389923,-71.3094269,True,0
6291830168,42.6430283,-71.3223664,False,0
6291830169,42.6431154,-71.3216701,True,0
6388651968,42.6404316,-71.3245267,True,0
6388655615,42.6400849,-71.3145931,True,2
6388655616,42.6398140,-71.3154019,False,0
6388655617,42.6398173,-71.3154380,False,0
6388655618,42.6398422,-71.3154763,False,0
6388655619,42.6399053,-71.3155282,False,0
6388655620,42.6401292,-71.3156793,False,0
6388656576,42.6398203,-71.3129307,True,2
6388656577,42.6399564,-71.3124950,True,2
6399163761,42.6399714,-71.3122131,True,0
6399163762,42.6396665,-71.3120450,False,0
6400481562,42.6484598,-71.3102700,False,0
6541116211,42.6422430,-71.3205365,True,0
6541116212,42.6425632,-71.3205018,True,0
6555068743,42.6454950,-71.3154501,True,0
6555068744,42.6454063,-71.3160672,True,0
6555068745,42.6456391,-71.3154887,True,0
6555068746,42.6455709,-71.3161113,True,0
6555130208,42.6476154,-71.3210433,True,0
6555130212,42.6478383,-71.3214705,True,0
6555130222,42.6471665,-71.3214593,True,0
6555130223,42.6480310,-71.3206333,True,0
6579027980,42.6381177,-71.3321170,False,0
6606578714,42.6406689,-71.3077082,True,2
6755479385,42.6425345,-71.3090028,True,0
6755479391,42.6425108,-71.3090760,True,0
6755479393,42.6389462,-71.3164655,True,0
6755518416,42.6448498,-71.3158353,True,0
6755976750,42.6394064,-71.3140065,True,0
6755976755,42.6392197,-71.3135193,True,0
6769096992,42.6481390,-71.3170751,True,0
6769096994,42.6484474,-71.3177112,True,0
6769097000,42.6480148,-71.3184282,True,0
6769097001,42.6480330,-71.3191893,True,0
6769097006,42.6478630,-71.3181147,True,0
6771569327,42.6395415,-71.3094936,True,0
6771569331,42.6395518,-71.3098666,True,0
6771569337,42.6403692,-71.3109188,True,0
6771569340,42.6399519,-71.3110911,True,0
6771569341,42.6399082,-71.3108258,True,0
6771569343,42.6399623,-71.3106218,True,0
6773918391,42.6482270,-71.3242868,True,0
6773918403,42.6486673,-71.3246896,True,0
6774013203,42.6451814,-71.3325147,True,0
6775477348,42.6482156,-71.3241723,True,2
6781065525,42.6486506,-71.3322437,True,0
6781065526,42.6483843,-71.3328103,True,0
6781080484,42.6484767,-71.3148834,False,0
6781080485,42.6484444,-71.3149250,False,0
6781080486,42.6484166,-71.3148868,False,0
6781080487,42.6484513,-71.3148415,False,0
6781080488,42.6484979,-71.3148241,True,0
6781080489,42.6484063,-71.3149376,True,0
6796926497,42.6378494,-71.3138638,True,0
6796926518,42.6488735,-71.3301916,True,0
6796926525,42.6450474,-71.3212842,True,0
6796926545,42.6449983,-71.3314243,True,0
6796926558,42.6435304,-71.3299839,True,0
6796926582,42.6394040,-71.3108644,True,0
6796926596,42.6362068,-71.3122572,True,0
6796926627,42.6460235,-71.3319390,True,0
6796926642,42.6440779,-71.3302749,True,0
6796926666,42.6384374,-71.3140358,True,0
6796926680,42.6370801,-71.3095349,True,0
6796926693,42.6476691,-71.3222820,True,0
6796926710,42.6464404,-71.3321073,True,0
6796926726,42.6439004,-71.3302173,True,0
6796926770,42.6490072,-71.3300939,True,0
6796926809,42.6442101,-71.3305150,True,0
6796926857,42.6455315,-71.3199511,True,0
6796926866,42.6425281,-71.3100028,True,0
6796926876,42.6466404,-71.3319510,True,0
6796926892,42.6441884,-71.3303943,True,0
6796926929,42.6372634,-71.3134642,True,0
6796926960,42.6465629,-71.3321132,True,0
6796926975,42.6440799,-71.3310850,True,0
6796927059,42.6441480,-71.3308235,True,0
6796927131,42.6467617,-71.3318136,True,0
6796927146,42.6447142,-71.3313545,True,0
6796927234,42.6444666,-71.3312754,True,0
6796927272,42.6383536,-71.3142377,True,0
6796927297,42.6424107,-71.3103850,True,0
6796927334,42.6436557,-71.3301234,True,0
6797222853,42.6426581,-71.3155070,False,0
6797222854,42.6426910,-71.3156132,False,0
6814124497,42.6480553,-71.3114606,False,0
6814124498,42.6480287,-71.3111521,False,0
6814124499,42.6480883,-71.3111246,False,0
6814124500,42.6482546,-71.3148361,False,0
6814124515,42.6446797,-71.3080314,False,0
6814613310,42.6416947,-71.3183182,True,0
6814924835,42.6483436,-71.3149947,True,2
6814924894,42.6480738,-71.3107638,True,2
6814925322,42.6493702,-71.3175412,False,0
6814925323,42.6483246,-71.3151922,False,0
6831860452,42.6476686,-71.3223309,True,0
6831860467,42.6469766,-71.3230122,True,0
6831860468,42.6470563,-71.3229766,True,0
6831860469,42.6464632,-71.3225649,False,0
6831860470,42.6447591,-71.3203944,False,0
6831860471,42.6460454,-71.3200832,False,0
6831860472,42.6460967,-71.3201167,False,0
6831860473,42.6461253,-71.3201744,False,0
6831860474,42.6462057,-71.3202133,False,0
6831860482,42.6464188,-71.3202931,False,0
6831870289,42.6476730,-71.3222937,True,0
6831870290,42.6476728,-71.3223192,True,0
6831870291,42.6476743,-71.3223065,True,0
6831870292,42.6474881,-71.3225254,False,0
6831870335,42.6368902,-71.3100608,True,0
6831870336,42.6369492,-71.3098771,True,0
6831870337,42.6374393,-71.3097366,True,0
6831870338,42.6389066,-71.3105793,True,0
6831870339,42.6392581,-71.3107794,True,0
6831870340,42.6394068,-71.3108661,True,0
6831870341,42.6394090,-71.3108690,True,0
6831870342,42.6394109,-71.3108768,True,0
6831870343,42.6394103,-71.3108809,True,0
6831870344,42.6394104,-71.3108727,True,0
6831870345,42.6382855,-71.3142410,True,0
6831870346,42.6383136,-71.3142487,True,0
6831870347,42.6383958,-71.3141881,True,0
6831870348,42.6370662,-71.3095364,True,0
6831870362,42.6389691,-71.3106143,True,0
6831870442,42.6379629,-71.3139597,True,0
6831870443,42.6361619,-71.3124476,True,0
6831870444,42.6361772,-71.3123672,True,0
6831870445,42.6381474,-71.3101416,True,0
6831870446,42.6391078,-71.3118619,True,0
6831870447,42.6383755,-71.3142135,True,0
6833075982,42.6433203,-71.3294026,True,0
6833075983,42.6431652,-71.3292912,True,0
6833083999,42.6434631,-71.3295065,True,0
6833084002,42.6430384,-71.3292047,True,0
6833084050,42.6433844,-71.3297600,True,0
6833162393,42.6460317,-71.3129226,True,2
6833162394,42.6459754,-71.3128775,False,0
6833162395,42.6459865,-71.3127826,False,0
6833162396,42.6465572,-71.3131570,False,0
6833162397,42.6464678,-71.3131441,False,0
6833162398,42.6463942,-71.3131225,False,0
6833162399,42.6463357,-71.3130930,False,0
6833162400,42.6462863,-71.3130564,False,0
6833162401,42.6460960,-71.3128695,False,0
6833162402,42.6460413,-71.3128159,True,2
6833162403,42.6460126,-71.3129085,False,0
6833162404,42.6465401,-71.3132375,True,0
6833162405,42.6464543,-71.3132738,False,0
6833173867,42.6459609,-71.3132520,True,4
6833196200,42.6481229,-71.3136385,True,4
6833196201,42.6475423,-71.3131459,True,4
6833457161,42.6491442,-71.3300303,False,0
6833457162,42.6490955,-71.3300865,False,0
6833457190,42.6490839,-71.3300658,False,0
6833457191,42.6490914,-71.3299937,False,0
6833457192,42.6490908,-71.3300272,False,0
6833457193,42.6491113,-71.3300325,False,0
6833457194,42.6493666,-71.3303467,False,0
6835712287,42.6478492,-71.3214597,True,0
6835712339,42.6473420,-71.3227792,True,0
6839014436,42.6485313,-71.3177416,True,2
6839014438,42.6488720,-71.3184340,True,2
6839264827,42.6495037,-71.3198908,False,2
6839264829,42.6486683,-71.3196208,True,2
6839264853,42.6455109,-71.3141149,True,0
6839264857,42.6458057,-71.3146809,True,0
6839284639,42.6472639,-71.3170929,True,2
6839284640,42.6473397,-71.3170308,True,0
6839284770,42.6486845,-71.3230980,True,0
6839284799,42.6476282,-71.3237371,False,0
6839284800,42.6478938,-71.3240813,True,2
6839284821,42.6489219,-71.3294958,False,0
6839284822,42.6488839,-71.3294589,False,0
6839284948,42.6470022,-71.3177884,True,2
6839284980,42.6478066,-71.3199794,True,2
6839285028,42.6477248,-71.3200329,False,0
6839285073,42.6474780,-71.3211695,True,0
6839285076,42.6476650,-71.3209941,True,0
6839285080,42.6477166,-71.3209427,True,0
6839285084,42.6478557,-71.3208044,True,0
6839285180,42.6490411,-71.3226489,False,2
6839285181,42.6473994,-71.3218292,True,0
6839285196,42.6474234,-71.3174118,True,2
6839285224,42.6477029,-71.3177842,True,0
6839285232,42.6475149,-71.3173960,True,0
6839285277,42.6491094,-71.3192282,False,2
6839285287,42.6487638,-71.3185299,True,2
6839285288,42.6487812,-71.3184000,True,2
6839285289,42.6488726,-71.3185887,True,2
6841814094,42.6422918,-71.3312218,True,2
6841814095,42.6445771,-71.3215340,True,2
6841814096,42.6442335,-71.3180316,True,2
6841814097,42.6457314,-71.3176653,True,2
6841814100,42.6442662,-71.3187174,True,2
6841814101,42.6442152,-71.3186349,True,2
6841814102,42.6441462,-71.3186861,True,2
6841814103,42.6443805,-71.3162670,True,2
6841816710,42.6443514,-71.3180608,True,2
6841816750,42.6435793,-71.3185520,True,0
6841816751,42.6432505,-71.3191692,True,0
6841816810,42.6431195,-71.3196360,False,0
6841816835,42.6433113,-71.3183562,False,0
6841816836,42.6432638,-71.3183897,False,0
6841816837,42.6432896,-71.3183784,False,0
6841816838,42.6432367,-71.3183887,False,0
6841816839,42.6431486,-71.3183693,False,0
6841816889,42.6440489,-71.3199338,True,0
6841816890,42.6442995,-71.3207104,True,0
6841816893,42.6472787,-71.3235191,True,2
6841816894,42.6458427,-71.3233629,False,0
6841816895,42.6462256,-71.3225626,True,0
6841816896,42.6462622,-71.3225031,True,0
6841816916,42.6471818,-71.3206344,False,0
6841816951,42.6447036,-71.3202940,True,4
6841816953,42.6447803,-71.3198148,True,2
6841816954,42.6448079,-71.3196876,False,0
6841816983,42.6440697,-71.3194915,True,2
6841816984,42.6441353,-71.3195045,True,2
6841816993,42.6441277,-71.3191532,False,0
6841816994,42.6441243,-71.3195823,False,0
6841816995,42.6441420,-71.3194371,False,0
6841816996,42.6440587,-71.3195857,False,0
6841816997,42.6441613,-71.3191649,False,0
6841816998,42.6440815,-71.3196643,True,4
6841816999,42.6441603,-71.3190376,True,4
6841817024,42.6450477,-71.3214902,True,2
6841817073,42.6449322,-71.3187367,False,3
6841817074,42.6451098,-71.3174942,True,2
6841817075,42.6451039,-71.3175284,False,0
6841817076,42.6449519,-71.3182081,True,2
6841817112,42.6459098,-71.3183740,False,0
6841817113,42.6457154,-71.3183016,False,0
6841817114,42.6456860,-71.3182549,False,0
6841817115,42.6456613,-71.3181377,False,0
6841817116,42.6457534,-71.3183351,False,0
6841817117,42.6456674,-71.3181987,False,0
6841817220,42.6464231,-71.3192854,True,0
6841817247,42.6468270,-71.3194204,True,0
6841817249,42.6448734,-71.3188626,True,2
6841817250,42.6449126,-71.3189467,True,2
6841817251,42.6449282,-71.3187690,True,2
6841817252,42.6450111,-71.3188925,True,2
6841817253,42.6461323,-71.3191797,True,2
6841817256,42.6440986,-71.3186737,False,0
6841817257,42.6442994,-71.3187260,False,0
6841817259,42.6449618,-71.3185041,False,0
6841817260,42.6447857,-71.3188436,False,0
6841817261,42.6450585,-71.3189027,False,0
6841817262,42.6454427,-71.3189949,False,0
6841817263,42.6458052,-71.3190814,False,0
6841817264,42.6472168,-71.3195474,False,0
6841817302,42.6449924,-71.3182828,True,0
6841817305,42.6450353,-71.3179730,True,0
6854196040,42.6421452,-71.3063703,False,2
6854196042,42.6418416,-71.3064495,False,2
6854200764,42.6415293,-71.3055409,False,0
6854200765,42.6415046,-71.3059346,False,0
6854200766,42.6414878,-71.3063107,False,0
6854200965,42.6450743,-71.3099952,False,0
6854200994,42.6426199,-71.3087395,False,0
6854200995,42.6424472,-71.3085900,False,0
6854200996,42.6424601,-71.3084907,False,0
6854201133,42.6444066,-71.3171566,True,2
6854201134,42.6485235,-71.3160509,True,2
6854201135,42.6485954,-71.3159868,True,2
6854201136,42.6473586,-71.3170701,True,2
6854246260,42.6413157,-71.3127444,True,2
6854246270,42.6400865,-71.3068579,False,0
6854246271,42.6406310,-71.3076793,False,0
6854246272,42.6405709,-71.3076398,False,0
6854269650,42.6415560,-71.3097565,True,2
6854269682,42.6402609,-71.3126145,True,2
6854326213,42.6399014,-71.3121745,True,0
6854326214,42.6418716,-71.3082366,False,0
6854326232,42.6393148,-71.3143441,True,0
6854326260,42.6393998,-71.3160049,False,0
6854326262,42.6399085,-71.3146769,True,4
6854326263,42.6390394,-71.3151521,True,2
6854335392,42.6386719,-71.3155499,True,0
6854335397,42.6388217,-71.3154048,False,0
6854335439,42.6408712,-71.3106820,True,0
6854335441,42.6408628,-71.3093283,True,0
6854335443,42.6414599,-71.3087120,True,0
6854343873,42.6402268,-71.3087071,True,2
6854343874,42.6401348,-71.3083307,True,2
6854368339,42.6404563,-71.3103988,True,2
6854368344,42.6395341,-71.3089213,True,2
6854368347,42.6393006,-71.3087384,True,2
6854368349,42.6402051,-71.3080662,True,2
6854368414,42.6405952,-71.3115343,True,2
6854405055,42.6418603,-71.3077471,True,0
6854457266,42.6466355,-71.3073938,True,2
6854457270,42.6454332,-71.3106988,True,2
6854457274,42.6447538,-71.3128503,True,2
6854479900,42.6459365,-71.3109591,True,0
6854479997,42.6450850,-71.3106864,True,2
6854479998,42.6451885,-71.3106716,True,2
6854480030,42.6452654,-71.3123108,True,2
6854480031,42.6455469,-71.3120770,True,2
6854480087,42.6455773,-71.3085103,True,2
6854480088,42.6455552,-71.3082556,True,2
6854480097,42.6457402,-71.3072679,False,0
6854480098,42.6455285,-71.3079824,False,0
6854480170,42.6423740,-71.3092905,True,2
6854480176,42.6423808,-71.3094722,True,0
6855790935,42.6454068,-71.3173429,True,0
6855790936,42.6454335,-71.3171549,True,0
6855790937,42.6445929,-71.3167754,False,0
6855795498,42.6450934,-71.3156179,True,0
6855795527,42.6459876,-71.3158789,True,0
6855795538,42.6454957,-71.3154503,False,0
6855795539,42.6456604,-71.3154944,False,0
6855795542,42.6439631,-71.3154881,True,2
6855795599,42.6439008,-71.3144673,True,4
6855795600,42.6438564,-71.3154422,True,4
6855857316,42.6494254,-71.3253598,False,0
6855857323,42.6470269,-71.3230975,True,2
6855857326,42.6488927,-71.3223695,True,2
6855857358,42.6487872,-71.3161938,True,2
6855857361,42.6478116,-71.3297419,True,2
6855857362,42.6482843,-71.3141932,True,2
6859169067,42.6427744,-71.3293912,True,0
6859208429,42.6461102,-71.3319865,True,0
6860871195,42.6457232,-71.3103195,False,0
6861925203,42.6469354,-71.3147610,True,2
6862134856,42.6410435,-71.3176557,False,0
6862134858,42.6435297,-71.3237844,True,2
6862134870,42.6427608,-71.3234501,True,2
6862134876,42.6424982,-71.3232070,True,0
6862135505,42.6427353,-71.3236189,True,0
6862135506,42.6428502,-71.3239990,False,0
6862135507,42.6428186,-71.3239335,False,0
6862135508,42.6427145,-71.3238019,False,0
6862135509,42.6427394,-71.3238594,False,0
6862135510,42.6427560,-71.3234809,False,0
6862135515,42.6431456,-71.3235687,True,0
6862135516,42.6433544,-71.3243820,True,0
6862135525,42.6434036,-71.3237129,True,2
6862135664,42.6419955,-71.3230645,False,0
6862135665,42.6420502,-71.3229566,False,0
6862135666,42.6419426,-71.3228861,True,2
6862135669,42.6424166,-71.3191031,True,2
6862135670,42.6425031,-71.3191774,True,2
6862135673,42.6424962,-71.3191907,False,0
6862135674,42.6425385,-71.3191096,True,0
6862135675,42.6419219,-71.3181902,False,0
6862135682,42.6421497,-71.3180433,True,2
6862135683,42.6422043,-71.3179025,True,2
6862135717,42.6435631,-71.3170727,True,2
6862135718,42.6434437,-71.3185202,True,2
6862135719,42.6433347,-71.3186049,True,2
6862135720,42.6432769,-71.3184829,True,2
6862135721,42.6433621,-71.3184210,True,2
6862135734,42.6431938,-71.3192610,True,2
6870083297,42.6375243,-71.3097174,False,0
6874256183,42.6472943,-71.3131609,True,0
6874256184,42.6473015,-71.3131606,True,0
6874258201,42.6439251,-71.3215947,False,3
6874258202,42.6437490,-71.3216111,False,3
6874258203,42.6438477,-71.3215157,True,2
6874258204,42.6437667,-71.3220567,False,0
6874258205,42.6438219,-71.3217046,False,0
6874258206,42.6435901,-71.3230699,False,0
6874258207,42.6441907,-71.3188096,False,0
6874258304,42.6416335,-71.3183738,True,2
6874258323,42.6453302,-71.3071188,False,0
6877456012,42.6350238,-71.3311451,False,0
6878204177,42.6383106,-71.3202184,False,0
6878204180,42.6384728,-71.3197020,True,0
6878204184,42.6381794,-71.3206307,False,0
6878267967,42.6457678,-71.3327772,True,0
6878590900,42.6354766,-71.3312851,False,0
6879999925,42.6457546,-71.3106962,False,0
6880266456,42.6494924,-71.3198676,False,3
6880698189,42.6473382,-71.3276737,True,0
6893120937,42.6419515,-71.3254969,False,0
6893120938,42.6419945,-71.3255928,True,2
6893120939,42.6420007,-71.3254000,False,3
6893120954,42.6433804,-71.3236999,False,3
6893120955,42.6435522,-71.3237979,False,3
6893120977,42.6426211,-71.3216350,True,2
6893120978,42.6429855,-71.3215938,True,2
6893120979,42.6431058,-71.3217470,True,2
6893120980,42.6437713,-71.3216090,True,2
6893120981,42.6419698,-71.3216974,True,2
6893120982,42.6419320,-71.3217795,True,2
6893120983,42.6419789,-71.3218606,True,2
6893120984,42.6420264,-71.3217714,True,2
6893145799,42.6438974,-71.3215973,True,2
6893145800,42.6444985,-71.3216239,True,2
6893145805,42.6446162,-71.3208587,False,3
6893145806,42.6445827,-71.3211602,False,3
6893145807,42.6449093,-71.3189751,False,3
6893145808,42.6448509,-71.3188577,False,3
6893145809,42.6477033,-71.3196791,False,3
6893145810,42.6478164,-71.3193818,False,3
6893145811,42.6488834,-71.3186109,False,3
6893145812,42.6487698,-71.3183764,False,3
6898636690,42.6431728,-71.3295775,True,0
6899379364,42.6465398,-71.3073529,True,4
6899379371,42.6410646,-71.3153666,False,0
6899379372,42.6410696,-71.3155939,False,0
6899379373,42.6412437,-71.3151426,True,0
6899379374,42.6409837,-71.3147751,False,0
6961273109,42.6443985,-71.3281607,False,0
6961273110,42.6456510,-71.3283391,False,2
6961273111,42.6451017,-71.3281540,False,2
6961273112,42.6450708,-71.3280728,False,2
6961273113,42.6439852,-71.3272045,False,0
6961273114,42.6439378,-71.3276886,False,0
6961273115,42.6453048,-71.3265248,False,0
6961273132,42.6428423,-71.3287193,False,0
6961273142,42.6439826,-71.3272823,True,0
6961273145,42.6419994,-71.3247824,True,0
6961284530,42.6419980,-71.3240810,True,0
6961284542,42.6407256,-71.3218133,True,0
6961284543,42.6407329,-71.3218376,False,0
6961284544,42.6407629,-71.3218695,False,0
6961284624,42.6412994,-71.3228801,False,0
6961284625,42.6413527,-71.3228962,False,0
6961284678,42.6401970,-71.3192866,False,0
6961284718,42.6398823,-71.3299370,False,0
6961284719,42.6396238,-71.3294770,False,0
6961284720,42.6395173,-71.3267508,False,0
6961284721,42.6394835,-71.3268306,False,0
6961284722,42.6394955,-71.3267868,False,0
6961284732,42.6388163,-71.3305740,False,0
6961284735,42.6398201,-71.3274010,False,0
6961284745,42.6398852,-71.3253229,False,0
6961284746,42.6398093,-71.3261390,False,0
6961284747,42.6398507,-71.3275351,False,0
6961284748,42.6391680,-71.3251600,False,0
6961284749,42.6389117,-71.3246990,True,2
6961284753,42.6389085,-71.3245913,False,0
6961284755,42.6393717,-71.3247640,True,2
6994356323,42.6448062,-71.3280773,False,0
7019340829,42.6385622,-71.3138737,True,0
7019340830,42.6386245,-71.3139097,True,0
7019340831,42.6392490,-71.3142722,True,0
7019340832,42.6393234,-71.3143126,True,0
7025244540,42.6426224,-71.3300872,True,0
7025244541,42.6426901,-71.3301020,False,0
7025244542,42.6427672,-71.3301097,False,0
7025244543,42.6430358,-71.3302129,False,0
7026993166,42.6486389,-71.3292050,True,0
7026993178,42.6485897,-71.3280462,True,0
7026993185,42.6489404,-71.3272108,False,0
7026993186,42.6488582,-71.3274041,True,0
7026993190,42.6491005,-71.3277446,False,0
7026993206,42.6492091,-71.3277987,False,0
7053828431,42.6419039,-71.3262771,False,0
7053828432,42.6416700,-71.3268211,False,0
7053828433,42.6415936,-71.3271682,False,0
7053828434,42.6417443,-71.3264373,False,0
7053828435,42.6419857,-71.3256621,False,0
7155680787,42.6468191,-71.3230196,True,0
