Node Type,Segment IDs
0,11616417_2,11622821_2,11622821_3
0,11620143_5,262807638_3,262807638_4
0,11621590_19,262807638_15,262807638_16
1,11614422_4,11618338_1,262807638_8,262807638_9,581804494_1
0,11614422_1,11618341_5,224940732_9
0,262807638_5,262807638_6,387149980_2
1,11622706_8,262807638_13,262807638_14
0,11619922_4,262807638_18,262807638_19
0,11617022_1,11617025_5,425219244_8
0,11617021_3,277202372_13,277202372_14
0,11619477_15,11619477_16
0,268206329_12,268206329_13
0,11616170_1,11616170_2,11624910_1
0,11619846_5,11619846_6,11622706_1
0,11616417_1,11619560_2,11619560_3
0,11616417_1,11616417_2,11618021_2,11618021_3
0,11622258_1,425217558_12,425217558_13
0,11617737_1,425217558_13,425217558_14
0,11621575_1,425217558_14,425217558_15
0,222857312_4,425217558_18,425217558_19
0,425217558_34,425217558_35,425217561_5
0,425217558_37,425217558_38,425217565_28
0,425217558_38,425217560_1
1,11619478_14,424472325_5,425217560_4,425217560_5
0,425183013_10,425217560_7,425217560_8
0,11617022_4,262807709_22,262807709_23
0,11617025_1,277202372_14,277202372_15
0,11619478_12,11619478_13,425217559_14
0,11617659_4,425183013_4,425183013_5
0,11617737_1,222857201_2,222857201_3
0,11617861_21,11617861_22,11619478_1
1,11617925_1,268206329_24,268206329_25
0,11617925_2,11617925_3,268206419_4,268206419_5
1,11617925_3,11617925_4,425217565_14,425217565_15
0,11617925_4,262807709_13,262807709_14
0,277202372_2,277202372_3
0,11617972_1,425217561_2,425217561_3
0,11617972_1,425217565_26,425217565_27
1,11618021_1,262807709_8,262807709_9,582118687_1
0,11618052_1,268206329_26,268206329_27
1,11618052_1,11618052_2,268206419_3,268206419_4
0,11618052_2,11618052_3,425217565_15,425217565_16
0,11618052_3,262807709_15,262807709_16
0,11618207_1,277202372_4,277202372_5
0,11618208_1,268206329_29,268206329_30
0,11618208_1,11618208_2,268206419_2,268206419_3
0,11618208_2,11618208_3,425217565_16,425217565_17
0,11618208_3,262807709_16,262807709_17
0,11618338_3,268206327_12,268206327_13
0,11618338_2,11618338_3,11619477_6,11619477_7
0,11618338_1,11618338_2,262807708_5,262807708_6
1,11618341_1,262807638_9,262807638_10
0,11618386_1,268206329_30,268206329_31
0,11618386_1,11618386_2,268206419_1,268206419_2
0,11618386_2,11618386_3,425217565_17,425217565_18
1,11618386_4,11618386_5,262807709_17,262807709_18
0,11618386_7,11618386_8,425219244_1
1,11618386_8,11618386_9,277202372_6,277202372_7
1,268206329_32,268206329_33,296095871_4,296095871_5
1,268206325_1,268206419_1,296095871_5,579984664_1
1,268206325_1,268206325_2,425217565_18,425217565_19
1,262807709_18,262807709_19,268206325_2,268206325_3
0,268206325_3,268206325_4,425219244_1,425219244_2
1,268206325_4,268206325_5,277202372_7,277202372_8
1,11618623_4,11618623_5,268206329_33,268206329_34
0,11616170_3,11618623_1,268206326_9,579984664_1
0,268206326_8,268206326_9,425217565_19,425217565_20
0,262807709_19,262807709_20,268206326_7,268206326_8
0,268206326_6,268206326_7,425219244_2,425219244_3
1,268206326_5,268206326_6,277202372_8,277202372_9
1,11624153_5,224940702_1,268206320_1,268206416_1
1,268206320_2,268206320_3,268206329_17,268206329_18
1,11619477_18,11619477_19,268206320_3,268206320_4
1,268206320_4,268206320_5,425217565_9,425217565_10
1,262807709_9,262807709_10,268206320_8,268206320_9
0,11622821_3,268206320_10,268206320_11
0,11619584_1,268206320_12,268206320_13
0,11620061_12,268206329_11,268206329_12
0,262807633_2,268206329_13,268206329_14
1,11620358_7,11620358_8,268206329_15,268206329_16
0,11619921_5,268206329_9,268206329_10
0,11620062_1,268206329_10,268206329_11
1,11620202_1,268206329_41
0,11622777_1,268206329_21,268206329_22
1,268206323_3,268206323_4,268206329_20,268206329_21
1,268206322_1,268206322_2,268206329_19,268206329_20
0,11624841_1,268206327_4,268206327_5
0,11620219_1,268206327_10,268206327_11
0,11624455_1,268206327_14,268206327_15
1,262807523_7,268206210_1,268206327_18,268206329_1
0,268206329_1,268206329_2,592208311_1,592208311_2
0,11622706_3,11622706_4,268206329_2,268206329_3
1,11621590_13,11621590_14,268206329_6,268206329_7
0,11619922_1,268206329_8,268206329_9
0,11619121_1,11620202_25,11620202_26
0,11619121_1,11619121_2,11622682_3,11622682_4
0,11619121_2,425217560_1,425217560_2
0,11619149_1,268206322_3,268206416_1,268206417_1
0,11619477_19,268206321_19,268206322_1,268206418_1
0,268206321_18,268206321_19,425217565_11,425217565_12
0,262807709_10,262807709_11,268206321_13,268206321_14
0,11619584_1,268206321_9,268206321_10
0,11623761_2,224940732_4,224940732_5
0,224940704_3,268206323_1,268206417_1
1,268206323_4,268206324_1,268206418_1,268206419_7
0,268206324_1,268206324_2,425217565_12,425217565_13
0,262807709_11,262807709_12,268206324_4,268206324_5
1,268206324_11,277202372_1
0,11619445_1,268206419_6,268206419_7
0,11619445_1,11619445_2,425217565_13,425217565_14
1,11619445_3,11619445_4,262807709_12,262807709_13
0,11619445_8,11619445_9,277202372_1,277202372_2
1,11616170_1,11620202_24,11620202_25,424472325_1
0,11622682_4,424472325_4,424472325_5
0,11619477_3,11619477_4,11620143_1
0,11619477_4,11619477_5,11624841_2
0,11619477_5,11619477_6,727241604_1,727241604_2
0,11619477_7,11619477_8,11624455_1,11624455_2
1,11619477_8,11619477_9,268206210_1,268206210_2
0,11619477_9,11619477_10,592208311_3,592208311_4
0,11619477_11,11619477_12,11622706_4,11622706_5
1,11619477_12,11619477_13,11621590_15,11621590_16
0,11619477_13,11619477_14,11619922_1,11619922_2
1,11619477_14,11619477_15,11620062_1,11620062_2
0,11619477_16,11619477_17,11620228_1
0,11619477_17,11619477_18,11620358_8,11620358_9
0,11622777_1,268206419_5,268206419_6
1,11619560_1,262807638_19
0,11619560_1,11619560_2,11620062_4,576622095_1
0,11619560_4,11620358_12,262807709_7,262807709_8
0,11622996_2,11622996_3,277202372_9,277202372_10
0,11624909_1,277202372_11,277202372_12
0,11624910_6,277202372_12,277202372_13
1,222857201_9,277202372_16
0,11623761_1,262807638_4,262807638_5
0,222857217_1,222857217_2,262807638_10,262807638_11
1,222857188_1,222857188_2,262807638_11,262807638_12
1,11619846_8,262807523_1,417266341_3,579737197_1
0,11619846_6,11619846_7,11624270_1
1,11619846_4,11619846_5,11621590_10,11621590_11
0,11619846_2,11619846_3,11619921_2,11619921_3
0,11619846_1,11619846_2,11620061_10,11620061_11
1,11619846_1,262807633_1
0,11619921_4,11619921_5,11624153_1,11624153_2
0,11619922_2,11619922_3,425217565_5,425217565_6
0,11619922_3,11619922_4,262807709_4,262807709_5
0,11620061_11,11620061_12,11624153_2,11624153_3
0,11620062_2,11620062_3,425217565_6,425217565_7
1,11620062_3,11620062_4,262807709_5,262807709_6
0,11620143_3,11620143_4,262807708_1,262807708_2
0,11620202_23,11620202_24,425183013_1
1,11620202_26,11620202_27,425217565_22,425217565_23
0,11620202_27,11620202_28,425217561_1
0,11620202_28,11620202_29,11622559_1
1,11620202_29,222857201_1,222857312_1,262807709_23
0,11621575_1,222857201_1,222857201_2
0,11622258_1,222857201_3,222857201_4
0,11624490_4,222857201_4,222857201_5
0,262807708_3,262807708_4,387149980_1
0,11620228_1,11620228_2,425217565_7,425217565_8
0,11620228_2,262807709_6,262807709_7
0,11624153_3,11624153_4,262807633_1,262807633_2
0,11620358_9,11620358_10,425217565_8,425217565_9
0,11620358_6,11620358_7,11624153_4,11624153_5
0,222857217_1,576622096_1,576622097_1,581804494_2
1,222857187_1,222857188_1,262807709_1,576622096_1
0,262807709_1,262807709_2,592208311_5
0,11622706_6,11622706_7,262807709_2,262807709_3
0,11621590_17,11621590_18,262807709_3,262807709_4
0,11624910_4,11624910_5,262807709_21,262807709_22
0,262807523_5,262807523_6,710894203_3
1,222857187_1,268206210_3,425217565_1,579430492_1
0,11621590_11,11621590_12,592208310_2
0,11621590_12,11621590_13,11624153_1
0,11621590_16,11621590_17,425217565_4,425217565_5
0,11622559_1,11624910_3,11624910_4
0,11622682_1,11622682_2,425217561_4,425217561_5
0,11622682_2,11622682_3,425217565_27,425217565_28
0,11622706_2,11622706_3,592208310_1,592208310_2
0,11622706_5,11622706_6,425217565_3,425217565_4
0,11622996_1,11622996_2,425219244_3,425219244_4
0,11624455_4,262807708_6,576622097_1,579430492_1
0,425217565_1,425217565_2,592208311_4,592208311_5
0,11624910_1,11624910_2,425217565_21,425217565_22
0,11624270_1,592208310_1,592208311_1,710894203_1
0,11624910_5,11624910_6,425219244_4,425219244_5
0,11625051_4,425183013_3,425183013_4
0,38312483_8
0,11619478_13,11619478_14
0,11622996_1,262807709_20,262807709_21,576629751_1
0,11616170_2,11616170_3,576629751_2
0,425217565_20,425217565_21,576629751_1,576629751_2
0,38312481_1,38312491_8
0,38312482_1,582734776_14
0,38312481_1,582734774_1
0,38312482_1,38312483_1
0,268206329_25,268206329_26
0,224940732_6,224940732_7
0,224940732_7,224940732_8,261712557_2
0,262807638_12,262807638_13
0,224940732_8,224940732_9,261712547_1
0,262807638_6,262807638_7
0,262807638_7,262807638_8
0,268206324_10,268206324_11,352864757_1
0,268206324_8,268206324_9,352864758_1
0,11619746_1,268206324_6,268206324_7
0,11619445_5,11619445_6,11619746_1
0,268206320_6,268206320_7,357209348_2
0,268206321_14,268206321_15,357209348_1,357209348_2
0,268206324_3,268206324_4,357209348_1
0,262807708_4,262807708_5,727241604_4
0,268206329_28,268206329_29
0,11617025_4,11617025_5,11624490_1
0,11618386_6,11618386_7
0,262807709_14,262807709_15
0,277202372_5,277202372_6
0,11619445_7,11619445_8
0,11618341_3,11618341_4,261712562_4
0,268206320_7,268206320_8,582118687_1
0,262807523_3,262807523_4
0,268206327_13,268206327_14
0,417266341_2,417266341_3
0,268206327_11,268206327_12
0,11623761_1,11623761_2
0,262807523_6,262807523_7
0,268206323_1,268206323_2
0,11622706_7,11622706_8
0,268206320_1,268206320_2
0,262807708_2,262807708_3
0,11620143_4,11620143_5
0,11620143_2,11620143_3
0,727241604_3,727241604_4
0,11620143_1,11620143_2
0,727241604_2,727241604_3
0,11619846_7,11619846_8
0,262807523_1,262807523_2
0,262807523_2,262807523_3
0,262807523_4,262807523_5
0,11624841_1,11624841_2
0,425217565_10,425217565_11
0,11624455_3,11624455_4
0,11624455_2,11624455_3
0,268206321_16,268206321_17
0,268206321_17,268206321_18
0,268206324_7,268206324_8
0,268206329_4,268206329_5
0,268206329_3,268206329_4
0,592208311_2,592208311_3
