Node Type,Segment IDs
0,9192557_1,9196484_49,9196484_50
0,9197137_38,9197304_61,9197304_62
0,9192293_33,9192293_34
0,9191982_1,9192127_28
0,9196674_1,636444894_1
0,9191982_7,9191982_8
0,9196544_1,9197317_8,9197317_9
0,9196271_54,9197317_18,9197317_19
0,9196436_1
0,9196484_60,9196484_61,9197137_1
0,9196484_56,9196484_57,9197503_3
0,9196307_1,9196674_42,9196674_43
0,9196271_39,9196271_40,9196695_9
0,9196484_52,9196484_53,9197502_33
0,9192286_1
0,9196674_33,9196674_34
0,9197137_26,9197137_27,459658884_1
0,9196567_91,9197304_74,9197304_75
0,9192556_1,9196484_94,9197304_70,9197304_71
0,9192127_8,9192127_9,9192252_8
0,9196484_1,9196674_59,9196674_60
0,9192293_1,9192462_7,9192462_8
0,9196484_1,9196484_2
0,9196408_6
0,9192293_25,9192293_26
0,9196674_56,9196674_57,9197317_36
0,9196307_13,9196307_14,9196484_14,9196484_15
0,9196567_83,9196567_84
0,9196436_4,9196590_1,9197423_1
0,9191982_36,9192127_24,9192127_25
0,9191683_1,9197276_4,9197304_45,9197304_46
0,636444901_3,636444901_4
0,9197502_8,9197502_9
0,9197502_30,9197502_31,9197503_1
4,9196357_42,9196674_16,9196674_17,9197502_1
0,9192008_8,9196674_39,9196674_40
0,9197317_7,9197317_8
0,9192388_10,9197293_11,9197293_12
0,9191699_1,9196357_35,9196357_36
0,9196484_84,9196484_85
0,9196307_58,9197304_4,9197304_5
0,9196674_26,9196674_27
0,9192293_37,9192293_38
0,9192286_6,9196484_77,9196484_78
0,9196484_73,9196484_74,9197423_23
0,9196674_3,9196674_4,636444901_8
0,9196567_63,9196567_64,9196590_6
0,9192293_30,9192293_31
0,9196357_1,9197293_1
0,9196674_49,9196674_50
0,9196307_25,9196307_26,9196408_1
0,9196484_34,9196484_35
0,636444894_1,742042048_61
2,9196484_93,9196484_94
0,9196484_46,9196484_47
0,9192293_40,636444900_1
0,9197502_28,9197502_29
0,9192462_18
0,9197288_5,9197317_22,9197317_23
0,9196484_35,9196484_36
0,9196567_64,9196567_65,154905360_1
0,154905360_7,154905360_8,154905363_1
0,9196567_57,9196567_58,154905363_8
0,9192556_16
0,157474115_8
0,157474112_1
0,9197502_7,9197502_8
0,157474112_1,157474112_2,450843906_4
0,636444898_1,636444899_2
0,157474115_1,636444898_1
0,157474115_7,157474115_8,450843906_1
0,157474112_12,157474112_13,157474114_1
0,157474112_23,157474112_24,157474114_28
0,9197293_6,9197293_7,243608952_1
0,243608951_8,243608952_5,243608952_6
0,243608951_1,243608952_6,243608952_7
0,9196484_89,9196484_90
0,9197304_69,9197304_70
0,636444900_2,636444901_1
0,9192293_18,9192293_19
0,9192293_20,9192293_21
0,9192293_29,9192293_30
0,9192293_34,9192293_35
0,9192293_38,9192293_39
0,636444901_2,636444901_3
2,9196674_1,9196674_2
0,636444901_7,636444901_8
0,9197276_3,9197276_4
2,9197137_37,9197137_38
0,9197317_35,9197317_36
2,9196674_55,9196674_56
2,9196307_2,9196307_3
2,9196674_38,9196674_39
0,9192008_7,9192008_8
0,9196674_35,9196674_36
2,9196674_27,9196674_28
2,9196674_25,9196674_26
2,9197502_2,9197502_3
0,29859752_75,29859752_76
0,29859752_79,29859752_80
0,9197502_10,9197502_11
2,9196674_15,9196674_16
0,29859752_72,29859752_73
0,29859752_73,29859752_74
0,9196484_83,9196484_84
0,9196484_85,9196484_86
0,9196484_86,9196484_87
0,9196484_87,9196484_88
0,9196484_88,9196484_89
2,9196567_90,9196567_91
0,9196567_89,9196567_90
0,9196567_87,9196567_88
0,9196567_86,9196567_87
0,9196567_82,9196567_83
0,9196567_80,9196567_81
0,9196567_84,9196567_85
0,9196567_78,9196567_79
0,9196567_76,9196567_77
0,9196567_74,9196567_75
0,9196567_71,9196567_72
0,9196567_68,9196567_69
0,9196674_70,9196674_71
0,9196674_45,9196674_46
0,9197304_39,9197304_40
0,9197137_18,9197137_19
0,9197304_51,9197304_52
0,9196357_27,9196357_28
0,9191982_28,9191982_29
0,9191982_27,9191982_28
0,9196307_6,9196307_7
0,9196674_63,9196674_64
0,9192557_6,9192557_7
0,9192557_8,9192557_9
0,9196484_40,9196484_41
0,9196674_48,9196674_49
