Node Type,Segment IDs
0,8890196_1,8890949_23,8891181_1,8891297_1,8891322_4
0,8888901_3,8888901_4,8890143_9
0,8891217_1,9256416_64
0,8889859_2,8891219_1,8891219_2
0,8890781_1,8890781_2,8891119_3
0,8891567_2,8891567_3
0,8888935_2,8889986_1,8890198_1
0,8890094_3,8890094_4,8891344_13
0,8889850_6,8890781_4,8890781_5
0,8890022_1,8890151_1,8890151_2
0,8890100_1,8891119_1,8891119_2
0,8890094_1,8890094_2,8891140_7
0,8890196_9,8890196_10
0,8890273_1,38757418_12,38757418_13
0,8888961_8,8890196_5,8890196_6
0,8891297_6,134018745_1
0,8890998_1,8890998_2,8891086_8,8891086_9
0,8888840_1,8888840_2,134018744_1
0,8891003_3,8891567_5
0,8890594_4,8890936_1
0,134018742_4,134018743_1
0,288135649_22,288135651_1,288135658_10,288135658_11
0,8889758_1,8891219_5,8891219_6
0,8890256_2,8890497_4,8890497_5
0,8891012_6,9257447_118
0,8889075_12,8890537_1,8891320_1
0,8888777_5,8888884_1,8888884_2
4,8890334_4,8890781_6,8890988_1
0,8889233_1,288134872_5
0,8889070_1,8891181_13,8891181_14
0,8891217_7,8891217_8
0,8891086_6,8891086_7,8891222_1
0,8889868_1,8889868_2,8890859_1
0,8890196_14,8890196_15,8890334_1
0,8890537_2,8890537_3,8891256_1
0,8890094_2,8890094_3,8891219_1
0,8891246_2,8891246_3,288135659_1,288135659_2
0,8889091_1,8891219_10,8891219_11,8891549_1
0,134018744_1,134018745_1
0,8891140_1,288135658_3,288135658_4
0,8888774_1,8888774_2,8891219_3,8891219_4
0,8889263_7,8889263_8
0,8889076_1,8890151_1,8890475_1,138042718_6
0,8890803_3,8890803_4
0,102809449_1
0,8889869_4,8891322_1,8891322_2
0,8890196_23,8891119_1,266953703_1
0,134018742_1,606635559_1
0,8890196_12,8890196_13,8891256_7
0,8888984_1,8889075_4,8889075_5
0,8891022_1,8891181_22,38757418_11,38757418_12
0,8889075_9,8889075_10,8890032_1
0,8888884_2,38757418_4,38757418_5
0,8889777_2,8889777_3,8891297_5,8891297_6
0,8888777_2,8888777_3
0,8890198_2,8891222_3,8891576_1
0,8891181_10,8891181_11
0,8890731_3,8891591_9,8891591_10
0,8890402_2,38757413_1
0,8890052_12,8891181_11,8891181_12
0,8889381_2,8889381_3,8891219_2,8891219_3
0,8891549_1
0,8889923_1,8890753_7
0,8891051_1,8891344_8,8891344_9,288135651_17
0,8889414_1,8889414_2
0,8891012_3,8891012_4,8891217_9
0,138669509_1,138669510_1
0,8889765_2,8889765_3,680020469_1
0,8891189_10,8891217_3,8891217_4
0,138042713_1,138042718_1
0,8888920_1,8891140_3,8891140_4
0,8891344_11,8891344_12,288135650_1,288135650_2
4,8889076_2,8889307_1,8890261_2
0,38757418_8,38757418_9,731064217_2
0,8890052_3,8890052_4,353262393_4
0,8889777_1,8890949_18,8890949_19
0,8889923_4,8890936_7,8890936_8
0,8890803_6,8890803_7,8891003_1
0,8889114_6,8889114_7,8889986_6
0,8890032_6,8890936_5,8890936_6
0,8888935_1,266953702_1
0,8891181_15,8891181_16
0,8889414_1,602135489_1
0,8890744_1,8891576_2,8891576_3
0,8888961_1,8890537_3,8890537_4
0,8890256_1,138669509_3,138669509_4
0,8890151_7,8890151_8,8890261_1
0,8889114_2,8889114_3,8890744_3
0,8890803_12,138042713_1
0,8890576_11
0,8888881_2,8891344_12,8891344_13
0,8891061_1,38757418_16,38757418_17
4,8889839_2,8889839_3,8889868_2,8891067_1
0,8889986_4,8889986_5,8890143_7,8890143_8
0,8889014_1,8890052_8,8890052_9,8890988_4
0,8890475_2
0,8891246_6,288135654_1,288135658_1
0,8890803_9,8890803_10
0,8890196_18,8890196_19,8890936_8
0,8891181_19,8891181_20,8891541_1
0,8890143_6,8890143_7,8890744_2,8890744_3
0,8889233_12,288134872_1
0,8890949_22,8890949_23,8891558_1
0,266953703_4,266953704_1
0,8888920_15,8891140_5,8891140_6,288135650_1
0,8888901_6,8889114_10,8889114_11
0,8890835_1,107759251_1,107759251_2
0,8889114_9,8889114_10
0,8890936_6,8890936_7,8891320_10
0,8889114_8,8889114_9,8891189_1
0,8888901_1,8890576_1,8891417_2
0,8889868_1,8891297_1,8891297_2,134018746_2
0,8889869_1,8890537_5,8890537_6
0,8890402_1,8891012_1,8891591_1
0,8888984_1,8890936_3,8890936_4
0,8889839_1,8891181_9,8891181_10
0,8889850_1,8890196_17,8890196_18
0,8889777_3,8889777_4,8889839_3
0,8888840_2,8890093_1
0,8890704_2,8890949_19,8890949_20
0,8891417_1,266953702_1,266953705_3
0,8889765_1,8890196_10,8890196_11
0,38757413_4,38757418_1
0,8890949_17,8890949_18,693953482_1
0,8890803_7,8890803_8,8891219_11
0,8889075_1,8890594_1
0,8891324_13,602009194_3
0,680020469_1
0,8890537_21,8890949_7,8890949_8
0,8891344_4,8891344_5,288135658_18,288136973_1
0,8890052_1,8890100_4,8890781_1
4,8889070_5,8891067_2,134018743_1
0,8889263_12,138669509_7,138669509_8
0,8889777_1,8889777_2
0,8889839_1,8889839_2,8890859_2
0,38757418_20,138669510_1
0,8888881_1,8888881_2,8891140_6,8891140_7
0,266953704_4,266953705_1
0,9256416_41,9256416_42,9257537_1
0,29883077_38,29883077_39,29883562_4,29883562_5
0,29883077_3,29883077_4,29883562_1,29883562_2
0,29883077_1,29883077_39,29883562_3,29883562_4
0,29883077_4,29883077_5,29883562_1,29883562_126
0,102809449_1
0,488037581_12,488037581_13
0,107759251_10,107759251_11
0,488037581_7,488037581_8
0,107759251_11,107759251_12
0,488037581_9,488037581_10
0,488037581_8,488037581_9
0,107759251_9,107759251_10
0,107759251_13,107759251_14
0,488037581_10,488037581_11
0,107759251_12,107759251_13
0,488037581_13,488037581_14
0,488037581_11,488037581_12
0,107759251_8,107759251_9
0,107759251_14,107759251_15
0,8890835_1,8890835_2,107759251_2,107759251_3
4,8891067_1,8891067_2,606635559_1
0,8889263_1
0,138669509_2,138669509_3
0,288135649_3,288135649_4,288135659_2
0,288135654_8,288135654_9,288135659_1
0,8890094_4
0,8890803_8,8890803_9
0,8890781_3,8890781_4,353262393_1
0,29883077_30,29883077_31
0,488037581_1,488037581_14
0,488037581_6,488037581_7
0,8890537_10,8890537_11
0,8890537_13,8890537_14
0,8890093_1,8890093_2
0,8889114_3,8889114_4
0,8889114_5,8889114_6
0,8891119_2,8891119_3
0,8891324_10,8891324_11
0,8891324_5,8891324_6
0,8891051_4,8891051_5,586524435_8
0,8891051_5,8891051_6,586524435_1
0,288135654_9,288135654_10
0,8891246_1,8891246_2
0,8890537_20,8890537_21
0,8888961_6,8888961_7,697975637_1
0,8891181_2,8891181_3
0,8891181_7,8891181_8
0,38757418_18,38757418_19
0,8889307_6,8889307_7
0,8890196_7,8890196_8
0,8891256_4,8891256_5
0,8891541_3,731064217_1
0,8889076_1,8889076_2
0,8890475_1,8890475_2
0,8890537_1,8890537_2
0,9257447_116,9257447_117
0,8889070_4,8889070_5
0,8889070_2,8889070_3
0,38757418_5,38757418_6
