Node Type,Segment IDs
0,8890965_1,8891467_2,8891467_3
0,8889760_1,8889819_23,8889819_24
0,8890999_1,133667519_11,133667519_12
0,8889819_20,8889819_21,587270092_1
0,8889873_2,8889873_3,8889985_1
0,8890058_1,8890058_2,8890691_1
0,8890112_1,8890247_1
0,8891414_15,8891414_16,29838562_8,29838562_9
0,8890053_1,8890761_1,8890761_2
0,8891414_14,8891414_15,29838562_7,29838562_8
0,8889948_1,8889948_2,8890879_1
0,8888894_2,8888894_3,8890247_6
0,8888894_1,8888894_2,8890205_3
0,50810856_1,50810858_1
0,8890940_12,50810858_4,50810858_5
0,8891467_1,8891589_1
0,8889150_2,8889150_3,8891038_1
0,8889830_5,8889830_6,8890843_2
0,8889994_1,8889994_2,8890426_1,8890426_2
0,8890289_2,8890289_3,8891424_1
0,8889989_5,8889989_6
0,8889985_3,8891179_3
0,8890385_1
0,8889552_1,133667519_37,133667519_38
0,8888891_1,8889819_10,8889819_11
0,8889214_1,288804949_8,288804949_9
0,8889819_31,8889819_32,8890074_2
0,8889101_1,8889101_2,8890234_1,8890234_2
0,8889101_3,8889101_4,8889830_1
0,8889101_1,8889819_33,8889819_34
0,8888985_4,8888985_5,8890289_3
0,8889819_46,8889819_47,8891467_20
0,8890848_6,133667519_31,133667519_32
0,8889819_39,8889819_40,8890534_1
0,8890940_5,8890940_6,133768488_6
0,8890695_1,8890976_24,8891467_5,8891467_6
0,8888747_5,8889053_1,309453831_1
0,8889819_2,8889819_3,587267325_1
0,8890675_1,540988973_3,540988973_4
0,8888985_10,8888985_11,8890126_1,8890462_3,8890882_5
0,93291740_3,133907836_20,133907841_1
0,8889101_12,8889101_13,8890393_1
0,8890360_7
0,8891038_9,8891038_10,8891467_16,8891467_17
0,8889759_7,133667519_9,133667519_10
0,8889873_6,8889873_7,663191617_1
0,8889819_40,8889819_41,8889995_1
0,8890333_1,8890761_11,8890761_12
0,8889214_1,8889214_2
0,8888937_3,8889759_1
0,8889830_4,8889830_5,8890882_1
0,8889759_6,8889759_7,8890691_1
0,8889760_3,8889760_4,8891001_1
0,8890426_1,8890967_1,8890967_2
0,8888937_2,8888937_3,8889819_7,8889819_8
0,8889819_12,8889819_13,8890784_1
0,133667519_14,133667519_15
0,8888732_1,8890719_1,8890719_2
0,8889830_13,8889830_14,8889995_1
0,8890188_2,8890719_2,8890719_3
0,8889819_37,8889819_38,8890843_1
0,8890028_2,8890543_1,8890543_2
0,8888894_4,8888894_5,8891467_9,8891467_10
0,8889150_3,8889819_36,8889819_37
4,8889150_1,8890976_8,8890976_9,606704730_2
0,133667519_4,133667519_5,587267325_8
0,8890534_1,8891038_1,8891038_2
0,8889594_1,8890999_3
0,8889101_13,8889101_14,8890462_1,8890462_2
1,8889819_1,133667519_1,288804949_14,540988973_6
0,8891414_17,8891414_18,29838562_1,29838562_10
0,8890761_2,8890761_3,8890976_1
0,8890188_1,8890761_10,8890761_11
0,133667519_30,133667519_31
0,8888831_1,8890284_1
0,8889255_1,8889255_19,606704730_1
0,8888894_1,8889150_1,8889150_2
0,8889760_4,8889760_5,8890393_1
0,29838562_2,29838562_3,133768488_1,541854998_1
0,8890205_1,8890976_12,8890976_13
0,8889760_5,8889760_6,8890462_1
0,8889819_43,8889819_44,8889964_1
0,133667519_7,133667519_8,587267324_6
0,8888823_9,8891414_16,8891414_17,29838562_9,29838562_10
4,8889554_1,8889989_20
0,8890074_1,8890188_1,8890188_2
0,8889819_5,8889819_6,8889938_3
0,8889830_10,8889830_11,8890289_1
0,8890761_1,8891568_3
0,8891299_1,8891467_6,8891467_7
0,8889819_19,8889819_20,8889994_2
0,8890234_2,8890843_1,8890843_2
0,8889964_1,8891038_8,8891038_9
0,8889760_6,133667519_24,133667519_25
0,8889948_2,8890543_3,8890543_4
0,8890940_1,541854998_2,541854998_3
0,8890426_2,8890761_6,8890761_7
0,8890112_3,8891555_6,8891555_7
0,133667519_20,133667519_21,587270092_1
0,8889760_1,8889760_2,8890234_1
0,8890769_1,8890967_2
0,8888823_6,8888823_7,8889005_3
0,8889405_1,8913249_2
0,8889819_11,8889819_12,8890058_1
0,8889819_3,8889819_4,8890543_4
0,8890804_1,666382865_1,666382865_2
0,8891099_1,133667519_26,133667519_27
0,8889819_35,8889819_36,8890719_3
0,8888747_1,133907839_1,133907839_2
0,8889594_2,151454644_1,151454712_7
0,8889873_1,133667519_18,133667519_19
1,8889053_3,8890705_1,541854998_3,544739858_1
0,8888894_3,8888894_4,8891555_11
0,8891414_13,8891414_14,29838562_6,29838562_7
0,8889819_14,8889819_15,8890523_1,8890769_1
0,8890976_19,8890976_20,8891555_1
0,8888787_1,8890058_2,133667519_15,133667519_16
0,8889948_1,540988973_4,540988973_5
0,8888823_1,133667519_32,133667519_33
0,8890028_1,540988973_2,540988973_3
0,8889257_3,8890761_7,8890761_8
0,8889405_1,8889405_2,8889707_1
0,8890079_1,8890289_1,8890289_2
0,8889101_7,8889101_8,8891001_1
0,8889101_14,133667519_29,133667519_30
0,8890523_8,133667519_17,133667519_18
0,8890462_2,8890462_3,8890848_5,8890848_6
0,8891414_12,8891414_13,29838562_5,29838562_6
0,8888732_1,8889051_1
0,8888985_16,133667519_33,133667519_34
1,133768487_6,666382859_1
0,151454644_1
0,50810860_1,133907839_6
0,8889164_1,133768487_3,133768487_4
0,8890074_1,8890074_2,8890333_1
0,133768486_1,309453831_6,544739858_1
0,8888985_13,8888985_14,8889865_1
0,8889051_6,8890761_9,8890761_10
0,8890543_2,8890543_3,8890675_1
0,8889830_2,8889830_3,8890848_1
0,8891457_1,133907840_1,133907840_2
0,8889005_1,8889873_8,8891414_1
0,8889994_1,8891568_1
0,8891179_1,133667519_22,133667519_23
0,133667519_36,133667519_37
0,8889819_21,8889819_22,8890761_12
0,8891414_18,29838562_1,29838562_2
0,8889819_1,8889819_2,8890879_1
0,8910963_3,8910963_4,8910977_1
0,8910977_1,8910977_2,8911754_4,8911754_5
0,8911211_1,8912341_22
0,8910963_5,8910963_6,8911346_1
0,8911211_7,8912341_4,8912341_5
0,8911346_4,8911754_6,8913249_1
0,8891414_11,8891414_12,29838562_4,29838562_5
0,29837306_6,29837306_7
0,133768486_1,666382865_2
0,133907835_1,133907840_1
0,50810858_5,133907835_1
0,133907839_1,133907841_1
0,288804949_1,288804949_2
0,288804949_3,288804949_4
0,288804949_9,288804949_10
0,288804949_10,288804949_11
0,288804949_12,288804949_13
0,133667519_1,133667519_2
0,8889214_3,8889214_4
0,8889214_4,8889214_5
0,8889214_5,151454712_1
0,151454712_2,151454712_3
0,151454712_6,151454712_7
0,8890999_2,8890999_3
0,8890999_1,8890999_2
0,133667519_13,133667519_14
0,151454712_3,151454712_4
0,151454712_4,151454712_5
0,151454712_5,151454712_6
0,8889989_1,8889989_2
0,8889989_7,8889989_8
0,8891467_1,8891467_2
0,8891467_3,8891467_4
0,8891467_4,8891467_5
0,288804949_4,288804949_5
0,8889989_9,8889989_10
0,8889819_41,8889819_42
0,8890761_3,8890761_4
0,8890976_1,8890976_2
0,8890976_3,8890976_4
0,8890761_4,8890761_5
0,8889819_4,8889819_5,587267324_1
0,666382859_1,666382865_1
0,8889005_2,8889005_3
0,29837306_5,29837306_6
0,8891271_1,8891271_2
0,8889760_2,8889760_3
