Node Type,Segment IDs
0,225260900_7,225260900_8
0,725808997_15,725808997_16
0,377847197_3,377847198_1
0,20600668_3,20600668_4
0,377847195_12,377847195_13
0,20589890_1,20603073_4
0,47973209_6,47973209_7
0,20595605_1,20600650_15,20600650_16
0,625229935_2,625229935_3
1,691104192_1,691104192_2,691104193_3,691104193_4
1,183009801_2,183009801_3,691104193_2,691104193_3
0,20589890_21,20589890_22,20603274_11
0,20589890_23,20589890_24,377847195_8,377847195_9
0,20603274_2,20603274_3
0,20603274_10,20603274_11
0,20603073_1,20603073_2
0,20603274_4,20603274_5
0,20603274_8,20603274_9
0,20589933_1,377847195_15,377847195_16
0,20589933_9,377847195_13,377847195_14
0,690966812_12
1,20589972_11,20589972_12,183009801_1,183009801_2
1,20589972_10,20589972_11,691104192_2,691104192_3
0,20589972_9,20589972_10
0,690966802_8,690966802_9
0,225260899_10,225260899_11
0,20591597_23,625229952_1
0,20600650_1,625229953_2
0,377847197_2,377847197_3
0,20592488_9,20592488_10
1,20592488_7,20592488_8,20601531_1,20601531_2
1,20592488_6,20592488_7,691104192_8,691104192_9
0,20592488_5,20592488_6
1,225260900_5,225260900_6
0,377847195_6,377847195_7
0,20590244_1,20590447_3,20590741_1,20600668_5,20600668_6
0,20590244_2,377847195_14,377847195_15
0,47973209_15,691104193_1
0,691104193_1,691104193_2
0,20594099_3,625229933_1,625229934_1,691104155_1
4,625229934_1,625229939_1,625229940_1
0,690966805_2,691104195_1
1,690966805_1,690966805_2,691104192_7,691104192_8
1,20601531_2,37884840_2,690966805_1,690966811_1
0,37884840_1
0,20590447_1,20590447_2,20592975_1,20592975_2
0,20590401_6,20590401_7,20590447_1
0,606517613_11,606517613_12
0,183010063_6,725808997_18,725808997_19
0,20590480_1,20590480_2,20597451_1
0,20590244_1,20590244_2,20590480_2
0,20590483_1,20603073_1,377847195_11,377847195_12
0,20590483_1,20600668_1,20600668_2
4,20597989_1,20601531_1,605437947_1,690966804_2,691104192_9
4,20591113_1,20597989_2,20604273_1,20604275_3,377847195_1
0,20590741_2,20590741_3,20592975_1
0,20590401_5,20590401_6,20590741_3
0,690966806_2,690966806_3
0,20592488_12,20604275_1,377847196_1
0,20591113_1,377847196_3,377847197_1
0,20592488_3,20592488_4,691104194_1
0,47973209_1,225260900_8,225260900_9
0,47973209_1,47973209_2,725808997_13,725808997_14
0,20598378_3,20598378_4
0,20598378_2,20598378_3
0,20604082_1,20604082_2
0,20595605_3,20595605_4
4,20591364_1,616326726_1,625229944_1,625229951_1
0,20591364_5,20591597_12,20591597_13
4,20594143_20,372809737_1,636115137_1,691104150_7
0,20594143_2,20594143_3
0,225260900_1,225260900_2
0,725808997_20,725808997_21
0,37884846_7
0,20600668_1,20603274_1,620599649_1
0,620599649_1,620599649_2
0,20591530_1,20591534_1,620599649_2
0,20590401_3,20590401_4,20591530_3
0,20590401_4,20590401_5,20591534_1
0,20591597_1,20591597_2,625229948_1,625229950_1
0,20591597_1,20594096_1,20594143_1,20602109_5
0,616310819_8,616310819_9
0,372809737_5,372809737_6
0,20594099_1,20594099_2,224493660_1,224493660_2
0,224493660_2,625229940_1,625229940_2
0,47996564_2,47996564_3
0,47996564_1,47996564_2
0,20594747_1,20596542_1
0,47996538_10,47996538_11
0,616310819_1,691104150_2,691104150_3
0,372809737_6,372809737_7,616310819_1,616310819_2
4,20602109_1,625229945_1
4,20602115_3,625229947_1
0,20601526_1,616232798_6,616232798_7
0,20592389_1
0,20592389_1,20592389_2,20609691_1,20609691_2
4,20592392_1,20592392_2,625229945_1,625229946_3
4,20592392_1,395923344_1,625229947_2
0,183010063_1,377847198_4,377847199_1
1,377847199_4,377847199_5,725808997_17,725808997_18
0,225260900_6,225260900_7,377847199_5
0,37884819_2,37884819_3
0,183009801_3,183009801_4
0,690966811_2,690966811_3
0,691104192_6,691104192_7
0,225260900_4,225260900_5
4,20600650_11,20600650_12,625229936_1,625229937_2
4,20600650_10,20600650_11,183009813_5,625229929_1
0,20590401_2,20590401_3,225260901_1
0,20595162_9,20595162_10
0,20595162_4,20595162_5
0,377847195_17,377847195_18
0,20593931_1,20593931_2,224839051_2,224839051_3
0,20593931_3,691104113_4,691104113_5
0,20593940_3,20593940_4,183009807_10,183009807_11
0,20593940_5,20593940_6,20594378_1,20594378_2
0,20593940_7,20593940_8,20600958_1,20600958_2
0,20593940_8,20593940_9,20599975_2,20599975_3
0,20593940_9,20602885_2,20602885_3
1,20594099_1,20595852_3,691104154_1,691104156_2
0,20596557_11,625229941_4,625229941_5
1,37884848_1,625229942_1,625229943_3,690966806_1,690966807_1
0,20594132_1,691104147_4,691104147_5
0,20594132_1,224839051_3,224839051_4
4,20594143_3,20594143_4,616326731_1,625229956_1
0,20594143_5,20594143_6,20601804_2
0,20594143_6,20594143_7,20601526_3,20601526_4
0,20594143_10,20594143_11,20596542_5,20596542_6
0,20594143_14,20594143_15,608580531_3,608580531_4
0,20594143_15,20594143_16,37849277_2,37849277_3
0,20594143_16,20594143_17,616310819_10,625229925_1
0,20594378_1,47996538_11,47996538_12
0,20594378_2,20594378_3,20599890_6,20599890_7
0,20594378_3,20594378_4,606517611_9,606517611_10
0,20594719_1,20594719_2,224839051_1,224839051_2
0,20594719_2,691104113_3,691104113_4
0,20591597_14,20591597_15,690966807_2
4,616326730_1,625229928_1,690966806_3,690966806_4
1,20594739_1,611384927_1,625229954_4,690966806_5
0,20594739_3,20594739_4,608580530_3,608580530_4
1,20594739_8,20594739_9,37849277_6,81611245_1,222279118_7
0,20594739_11,20602788_1,20604075_1,47972584_5,625229925_3
0,20594747_3,20601526_1,20601526_2
0,20594747_2,20594747_3,20599248_1
0,20594747_1,20594747_2,20599248_4
1,372809737_8,626287695_1,691104149_1,691104151_1
0,20601773_1,227756265_1,636115137_3,636115137_4
1,20602788_2,224839053_4,555185726_1,636115137_4,691104146_1
1,47972584_1,47972584_2,224839053_3,224839053_4
0,20596557_1,224839053_2,224839053_3
1,20595833_1,224839053_1,225260898_2,616310858_5
1,222999569_1,225260898_1,225260898_2,691104153_1
0,225260898_1,225260899_11,690966799_1
1,690966799_1,690966801_1,690966802_10,725808997_22
1,377847195_3,377847195_4,725808997_19,725808997_20
1,225260900_2,225260900_3,377847195_4,377847195_5
1,20590401_1,225260900_1,690966800_1,690966801_1
0,225260902_1,690966800_1,691104152_1
1,38028731_4,641816481_2,691104152_1,691104153_1
1,20595833_1,20595833_2,38028731_3,38028731_4
0,38028731_2,38028731_3,224839051_6
1,38028731_1,47972584_1,555185726_1,691104147_7
1,183009807_1,375026037_7,691104149_1,691104150_1
0,377847193_1,377847195_22,606517613_6,606517613_7
0,20592975_4,20592975_5,606517613_12,606517613_13
0,20590401_9,20590401_10,606517613_13,606517613_14
0,308820225_1,606517613_14,606517613_15
1,606517613_17,641816478_25,691104113_1,691104114_1
0,224839051_1,675528337_1,691104114_1,691104114_2
1,38028717_15,691104114_2,691104147_1,691104148_1
1,47972583_1,606517611_1,691104146_5,691104148_1
0,20602885_5,606517611_4,606517611_5
0,20599975_4,606517611_5,606517611_6
0,20600958_3,606517611_7,606517611_8
0,183009807_13,606517610_1,606517611_10,691104145_1
0,47996538_13,47996538_14,183009807_7,183009807_8
0,20600958_1,47996538_9,47996538_10
0,20599975_1,47996538_7,47996538_8
0,20602885_1,47996538_6,47996538_7
0,47996538_4,47996538_5
0,47996538_1,47996538_2,691104146_2,691104146_3
0,20595423_1,47996538_1,691104147_5,691104147_6
0,20592392_2,616310820_1
4,616310820_4,616326731_1
0,616326726_1,616326730_1,616326742_1,625229956_1
4,20595108_1,20596557_9,20596557_10,625229927_3,625229928_1
0,20595852_2,20595852_3,625229926_1
0,20595162_11,377847195_19,377847195_20
0,20595423_1,20595423_2,224839051_4,224839051_5
4,20595423_3,20595423_4,20595833_3,641816481_1,691104113_5
0,20595423_4,225260901_1,225260902_1,308820225_4
0,20595605_7,222388889_1
0,222388889_3,605437947_1
0,308820230_1,641816478_23,641816478_24
0,20591597_19,20591597_20,690966808_2
1,222279120_7,222999565_3,222999572_1,616310858_1,616310859_4
0,222999569_4,222999569_5,608580530_6,608580530_7
0,222279118_4,222279118_5,222999569_3,222999569_4
0,20604075_3,20604075_4,222999569_2,222999569_3
0,20596277_5,616232797_1,616232797_2
0,616232797_1,616232798_2,616232798_3
0,20596542_3,20596542_4,20600214_1
0,20596542_8,608580529_6,608580529_7,608580530_1
0,20596557_5,20596557_6,608580530_4,608580530_5
0,225260899_5,225260899_6,608580530_9,608580530_10
0,608580530_10,608580530_11,690966802_2,690966802_3
0,222279121_2,222279121_3,608580530_11,608580530_12
0,20597989_1,20597989_2,608580530_12
0,20596557_8,20596557_9,611384927_4,611384927_5
0,20596557_2,20596557_3,222279118_6,222279118_7
0,20596557_1,20596557_2,20604075_1,20604075_2
0,308820230_1,308820230_2,675528337_1,675528337_2
0,20597362_1,308820225_2,308820225_3
0,20590401_7,20590401_8,20597362_2
0,20597451_1,377847195_16,377847195_17
0,20590480_1
0,20597782_1,20602109_3,20602109_4
0,20597782_1,20597782_2,20602115_1,625229949_1
4,20597782_4,612086588_11,612086588_12
0,20604082_3,20604082_4,377847195_1,377847195_2
0,20603274_1,20603274_2,377847195_10,377847195_11
0,20598378_1,20602885_3,20602885_4
0,20598378_5,20598378_6,691104146_3,691104146_4
0,20598378_6,691104147_2,691104147_3
0,20598990_2,20598990_3,20606008_5,20606008_6
0,20598990_4,20598990_5,20610258_1
0,20598990_7
0,20599890_5,20599890_6,183009807_12,183009807_13
0,20599890_7,20600958_2,20600958_3
0,20599919_8,20599919_9,606517610_1,606517610_2
0,20594378_7,20594378_8,20599919_9
0,20590401_10,20590401_11,308820241_1
0,38028717_14,38028717_15,308820230_2
4,20601526_6,608580529_9,616326737_2,625229954_1
4,81611245_4,608580529_1,608580531_1,608580532_1
0,37849277_3,37849277_4,608580532_1,608580532_2
0,20601773_3,231006627_1,625229925_2,625229925_3
4,20600214_2,37849277_1,47996564_4,608580531_5
4,20600650_18,222279121_1,690966804_1,690966804_2
0,20604273_1,222279118_1,222279119_1,222279121_3
0,20600668_8,606517613_10,606517613_11
0,222279120_4,222279120_5,225260899_1,225260899_2
1,222279120_1,625229931_1,690966803_1,690966804_1
0,20601804_1,616232798_8,616232798_9
0,20603266_1,616232798_9,616232798_10
4,20604277_7,47996564_1,616232797_3,616232798_1,626287697_1
4,395923344_3,616232798_10,625229946_1
0,20602115_1,20602115_2
0,625229948_1,625229949_1
0,20602230_1,47973204_7
0,222279118_2,222279118_3,690966802_5,690966802_6
0,20604075_5,690966802_7,690966802_8
0,20604075_4,20604075_5,225260899_9,225260899_10
0,222279118_3,222279118_4,225260899_7,225260899_8
0,20591597_22,20591597_23
0,20603266_2,20603267_1
0,20601804_1,20601804_2,20603267_1
0,20603865_1,20604082_1,446107129_8
0,20603865_8,446107129_1
0,20602239_11,47973204_1
0,20602230_4,37884847_1
0,37884800_1,616352928_1
0,37884847_1,616352927_1
0,691104192_1
0,183009980_1,691104193_4
0,20589972_12,690966812_1
0,691104192_3,691104192_4
0,183009801_1,690966811_3
0,377845706_3
0,20589972_1,20589972_2,691104195_1,691104195_2
0,183009980_9,377845706_1,691104194_1,691104195_2
0,20592488_8,20592488_9
0,20589972_1,20592488_4,20592488_5
0,20592488_1
0,625229936_6
0,183009813_1
0,20592389_13,20592389_14,20610258_5
0,20592389_18,20592389_19,20606008_9
0,20592389_19,20592389_20,20598990_1
0,20594739_9,20594739_10
0,20594739_10,20594739_11
4,222999565_1,222999572_3,611384927_6
0,625229932_1,625229935_4
0,20600650_16,20600650_17
0,377847198_3,377847198_4
4,224493661_1,225260899_1
0,224493660_1,632245311_2
0,47996538_2,47996538_3
0,691104146_1,691104146_2
0,227756265_2,227756265_3
0,227756265_3,227756265_4
0,47996538_5,47996538_6
0,636115137_2,636115137_3
0,227756265_4
0,691104147_6,691104147_7
0,38028731_1,38028731_2
0,224839051_5,224839051_6
0,231006625_1,608580532_2
0,231006625_1,231006627_1
0,20594143_18,20594143_19
0,377847195_21,377847195_22
0,377847195_20,377847195_21
0,377847195_18,377847195_19
0,20600668_2,20600668_3
0,20592975_3,20592975_4
0,20590401_8,20590401_9
0,20592975_2,20592975_3
0,20600668_7,20600668_8
0,20592975_7,20592975_8,308820241_2
0,308820241_1,308820241_2
0,20592975_5,20592975_6
0,20592975_6,20592975_7,308820246_1
0,20604082_4,20604082_5
0,37884840_1,37884840_2
0,690966811_1,690966811_2
1,625229938_1,625229941_1,690966808_1,691104154_1
0,20593931_2,20593931_3,310313550_1
0,20595423_2,20595423_3,310313550_1
0,20609691_6
0,20591597_3,20591597_4,366497679_1
0,20597782_2,20597782_3,366497679_2
0,20592389_22
0,20604277_6,20604277_7
0,20596277_4,20596277_5
0,183009807_2,183009807_3
0,20598990_5,20598990_6
0,20610258_2,20610258_3
0,20606008_6,20606008_7
0,20598990_3,20598990_4
0,20606008_2,20606008_3
0,20606008_4,20606008_5
0,20606008_3,20606008_4
0,20609691_3,20609691_4
0,20592389_3,20592389_4
0,20592389_5,20592389_6
0,20592389_6,20592389_7
0,20592389_4,20592389_5
0,20592389_8,20592389_9
0,20592389_9,20592389_10
0,20592389_14,20592389_15
0,20592389_16,20592389_17
0,20592389_10,20592389_11
0,619032221_1,619032221_2
0,20601631_1
0,20592389_12,20592389_13
0,377847195_5,377847195_6
0,20590401_1,20590401_2
0,616352928_1,690966813_1
0,616352927_1,690966814_1
0,366497679_1,366497679_2
0,20597782_3,20597782_4
0,20591364_2,20591364_3
0,183009812_1,183009812_2
0,20591364_1,20591364_2
0,20591597_2,20591597_3
0,20591597_11,20591597_12
0,20591597_10,20591597_11
0,20591597_16,20591597_17
0,20591597_15,20591597_16
0,690966808_1,690966808_2
0,20591597_21,20591597_22
0,20591597_20,20591597_21
0,20600650_7,20600650_8
0,625229953_1,625229953_2
0,20600650_12,20600650_13
0,625229937_1,625229937_2
0,625229929_1,625229929_2
0,20600650_9,20600650_10
0,20600650_8,20600650_9
0,625229941_2,625229941_3
0,625229941_3,625229941_4
0,20591597_17,20591597_18
0,690966807_1,690966807_2
0,625229942_1,625229942_2
0,690966806_1,690966806_2
0,37884848_1,37884848_2
0,20591364_4,20591364_5
0,20591597_13,20591597_14
0,20591364_3,20591364_4
0,20594378_5,20594378_6
0,20594378_4,20594378_5
0,20594378_6,20594378_7
0,20602885_1,20602885_2
0,606517611_6,606517611_7
0,606517611_8,606517611_9
0,616232798_5,616232798_6
0,616232798_3,616232798_4
0,668826138_1,668826138_2
0,20604075_2,20604075_3,616310858_3,616310858_4
0,625229933_2,625229935_1
0,20594099_2,20594099_3
1,20595852_1,222279120_6,222279120_7,222999569_5
0,222279118_5,222279118_6,616310858_2,616310858_3
0,608580530_5,608580530_6,616310858_1,616310858_2
4,20595108_3,616310859_2,616310859_3,625229926_1,625229927_1
1,616310859_1,616310859_2,691104156_1,691104156_2
1,616310859_1,625229941_1,625229941_2,690966809_2
0,690966809_1,690966809_2
0,20591597_18,20591597_19,690966809_1
0,20596557_10,20596557_11,625229942_3,625229942_4
0,625229943_2,625229943_3
0,616326737_1,616326742_1
0,625229952_1,625229953_1
0,668826138_24,668826138_25
0,668826138_23,668826138_24
0,668826138_22,668826138_23
0,668826138_21,668826138_22
0,668826138_20,668826138_21
0,668826138_19,668826138_20
0,668826138_18,668826138_19
0,668826138_17,668826138_18
0,668826138_16,668826138_17
0,668826138_15,668826138_16
0,668826138_14,668826138_15
0,668826138_13,668826138_14
0,668826138_12,668826138_13
0,668826138_11,668826138_12
0,668826138_10,668826138_11
0,668826138_9,668826138_10
0,668826138_8,668826138_9
0,668826138_7,668826138_8
0,668826138_6,668826138_7
0,668826138_5,668826138_6
0,668826138_4,668826138_5
0,668826138_3,668826138_4
0,668826138_2,668826138_3
0,668826138_1,668826138_44
4,625229930_3,690966802_1
0,625229930_1,690966803_1
4,625229931_1,625229932_2
4,625229937_1,691104155_1
4,625229929_2,625229939_1
4,625229938_1,625229940_2
0,625229942_4,691104156_1
4,625229941_5,625229943_1
0,37884848_2,625229944_1
0,183009812_1,625229951_1
4,20594096_1,183009812_2,625229950_1
0,20594143_1,20594143_2
0,626287695_1,626287697_1
0,47996564_3,47996564_4
0,20596542_2,20596542_3
0,20594143_4,20594143_5
0,616326737_1,616326737_2
0,625229954_2,625229954_3
0,20601526_4,20601526_5
0,625229933_1,625229933_2
0,20600650_13,20600650_14
0,625229935_1,625229935_2
0,225260899_2,225260899_3
0,222279120_2,222279120_3
0,690966802_1,690966802_2
0,625229930_2,625229930_3
0,225260899_3,225260899_4
0,632245311_1,632245312_2
0,224493661_2,632245312_1
0,632245317_8,632245317_9
0,632245317_1,632245317_2
0,632245312_1,632245312_2
0,625229932_1,625229932_2
0,222279120_1,222279120_2
0,222279120_3,222279120_4
0,625229935_3,625229935_4
0,691104150_1,691104150_2
0,47996538_12,47996538_13
0,183009807_4,183009807_5
0,691104150_3,691104150_4
0,636115137_1,636115137_2
0,20594143_19,20594143_20
0,372809737_3,372809737_4
0,616310819_5,616310819_6
0,372809737_7,372809737_8
0,625229925_1,625229925_2
0,20601773_2,20601773_3
0,47996538_8,47996538_9
0,37884819_8,690966813_1
0,37884846_1,690966814_1
0,20599248_2,20599248_3
0,20596542_1,20596542_2
0,20594143_8,20594143_9
0,20596542_4,20596542_5
2,20596542_6,20596542_7
2,20594143_11,20594143_12
2,20594143_7,20594143_8
2,625229954_3,625229954_4
2,20594739_1,20594739_2
2,608580531_2,608580531_3
2,20594143_13,20594143_14
2,608580531_1,608580531_2
2,81611245_3,81611245_4
2,37849277_5,37849277_6
2,81611245_1,81611245_2
2,20594739_7,20594739_8
2,608580530_2,608580530_3
2,608580530_1,608580530_2
2,20596542_7,20596542_8
2,608580529_1,608580529_2
2,608580529_5,608580529_6
2,608580529_7,608580529_8
2,608580529_8,608580529_9
2,20601526_5,20601526_6
2,625229954_1,625229954_2
2,20594143_9,20594143_10
0,608580529_4,608580529_5
0,608580529_3,608580529_4
0,608580529_2,608580529_3
0,690966802_6,690966802_7
0,225260899_8,225260899_9
0,20598378_1,20598378_2
0,20598378_4,20598378_5
0,20600214_1,20600214_2
0,611384927_1,611384927_2
0,611384927_2,611384927_3
0,611384927_3,611384927_4
0,20594739_2,20594739_3
0,20596557_7,20596557_8
0,611384927_5,611384927_6
0,608580530_8,608580530_9
0,225260899_6,225260899_7
0,608580530_7,608580530_8
2,308820246_6,308820246_7
2,377847193_1,377847193_2
2,606517613_7,606517613_8
2,308820246_1,308820246_2
0,664708858_15,664708858_16
0,20600650_14,20600650_15
0,20595605_1,20595605_2
0,691104146_4,691104146_5
0,20602885_4,20602885_5
0,606517611_3,606517611_4
0,606517611_1,606517611_2
0,693868569_23,693868569_24,693869968_58,693869968_59
0,693868569_22,693868569_23,693869968_57,693869968_58
0,693868569_24,693868569_25,693869968_1,693869968_59
0,20592389_20,20592389_21
0,20606008_1,20606008_2
0,20594739_6,20594739_7
0,20596557_3,20596557_4
0,20596557_4,20596557_5
0,20594739_4,20594739_5
0,690966802_3,690966802_4
0,641816478_22,641816478_23
0,641816478_24,641816478_25
0,606517613_16,606517613_17
0,308820225_1,308820225_2
0,20597362_1,20597362_2
0,691104113_1,691104113_2
0,691104113_2,691104113_3
0,606517613_15,606517613_16
0,183009807_11,183009807_12
0,20593940_4,20593940_5
0,625229930_1,625229930_2
0,222279121_1,222279121_2
0,183009807_8,183009807_9
0,183009807_9,183009807_10
0,690966802_9,690966802_10
0,690966802_4,690966802_5
