Node Type,Segment IDs
0,11613734_1,11616607_5,11616607_6
0,11613734_1,11613734_2,60787554_5,60787554_6
0,11613734_6,11613734_7,261713314_1
0,11616506_6,11616506_7,11621614_4,11621614_5
0,11616417_2,11622821_2,11622821_3
0,11619684_5,11620999_8,11620999_9
1,224940733_9,224940733_10,576622105_2
1,11619684_1,224940733_10,224940733_11
0,224940733_7,224940733_8,576622098_2
0,11620283_1,224940733_8,224940733_9
0,11620143_5,262807638_3,262807638_4
0,11621590_19,262807638_15,262807638_16
1,11614421_1,224940642_1,579670588_1
1,11614421_4,11614421_5,386947060_1,386947060_2
1,11614422_4,11618338_1,262807638_8,262807638_9,581804494_1
0,11614422_1,11618341_5,224940732_9
0,224940733_11,224940733_12
0,277181763_2,277181763_3
0,262807638_5,262807638_6,387149980_2
0,224940733_5,224940733_6
0,261715208_1,261715208_2
1,11622706_8,262807638_13,262807638_14
0,11616703_1,11616706_3
1,222857188_12,222857188_13
0,713600999_1,713600999_2
0,11621474_2,11621474_3
0,11620213_1,11620213_2,576606624_1
0,11615268_1,11616506_2,11616506_3,576606624_1
0,11619583_4,11624489_2,11624489_3
0,11619922_4,262807638_18,262807638_19
0,261715208_1,576606623_3
1,11621566_4,11621566_5,576606623_2,576606623_3
0,11616360_1,11620999_4,11620999_5,576606623_1
0,11616417_1,11619560_2,11619560_3
0,11616417_1,11616417_2,11618021_2,11618021_3
0,11616506_1,224940665_1,224940665_2
0,11616506_1,11616506_2,11620213_1
0,11616506_3,11616506_4,11622408_1
0,11616607_7,60787962_3,60787962_4
0,11616607_6,11616607_7,11618398_1
0,11616607_1,11616607_2,576622099_1,576622103_1
0,11616607_1,11619775_6,11619775_7
0,11616674_1,224940643_4,224940643_5
0,11616674_3,11616674_4,11624831_1,11624831_2
0,11624200_1,261715208_2,261715208_3
0,11620283_1,261715208_3,261715208_4,608312522_3
0,11619684_2,11619684_3,261715208_5
0,11616703_1,11616703_2,11617215_2
0,11616703_2,11616703_3,11620655_4
0,11616703_3,261712591_1,261712591_2
0,11616705_1,609095924_1
0,11616705_1,11622045_2,11622045_3
0,11616706_1,576595632_3
0,11624512_1,576595632_1,576595632_2
0,11617175_8,268206207_1,268206207_2,576595632_1
0,11617215_1,11621000_3,11621000_4
0,11617215_1,11617215_2,11620954_1,11620954_2
0,11618021_3,224940716_2,224940716_3
1,11618021_1,262807709_8,262807709_9
0,11618099_9,11618099_10,11624552_2,11624552_3
0,11618099_10,11618099_11,11620506_1
1,11618099_11,11618099_12,60787962_2,60787962_3
0,11618099_14,11619775_1,11619775_2
0,11618195_2,11618195_3,46965494_1
1,11618194_1,11621566_1,46965494_2
1,11618192_1,224940664_1,420815259_1,420815287_1
0,11618338_1,11618338_2,262807708_5,262807708_6
1,11618341_1,262807638_9,262807638_10
0,11618398_1,60787554_6,60787554_7
0,359227269_1,608817067_10,608817067_11
0,222857188_6,222857188_7,359227269_1
0,11618680_1,224940643_6,224940643_7
1,262807709_9,262807709_10,268206320_8,268206320_9
0,11622821_3,268206320_10,268206320_11
0,11619584_1,268206320_12,268206320_13
0,11625042_2,268206320_13,268206320_14
1,224940741_1,268206320_14,277147061_1,579670587_1
1,224940703_1,579670586_1,579670587_1,584073799_3
0,11620655_1,224940703_1,224940703_2
0,11622978_3,224940703_3,224940703_4
0,11624512_4,224940703_9,224940703_10
1,224940703_10,268206207_8,268206207_9
0,262807709_10,262807709_11,268206321_13,268206321_14
0,11619584_1,268206321_9,268206321_10
0,224940741_1,224940741_2,268206321_8,268206321_9
1,268206321_7,268206321_8,584073799_1,584073799_2
0,268206207_9,268206207_10,268206321_2,268206321_3
1,11620139_4,224940659_1,224940732_1,224940733_13
0,11624481_1,224940732_1,224940732_2
0,224940732_2,224940732_3,261712527_2
0,11623761_2,224940732_4,224940732_5,261712552_2
0,11619314_9,11619314_10,11623772_1
1,11619314_10,224940642_3,224940643_1,224940733_1
0,11624831_1,224940733_2,224940733_3,747508382_1
0,224940733_6,224940733_7,261715206_5
1,11619560_1,224940716_1,261712530_7,262807638_19
0,11619560_1,11619560_2,11620062_4,576622095_1
0,11619560_4,11620358_12,262807709_7,262807709_8
0,11619582_1,677813584_2,677813584_3
0,11619582_4,277181763_3,277181763_4
0,11619583_1,11619583_2,608312521_2,608312521_3
0,11619583_1,11620999_9,11620999_10
1,11619683_3,11619775_7,677813583_1,677813584_1
1,60787554_1,277181763_4,576622105_1,677813583_1
0,11619684_3,11619684_4,11624489_1
1,11619684_4,11619684_5,608312521_1,608312521_2
1,11619722_1,420815270_1,420815277_1,608312521_3
0,11619722_1,11624482_1,608361211_1,608361212_1
0,608361211_1,608817066_1,608817067_1,608817069_1
0,222857217_6,608817067_7,608817067_8
1,222857188_5,222857188_6,608817067_9,608817067_10
0,11621000_4,261712589_1,608817067_11
1,11620954_1,261712589_1,261712589_2
0,11622978_1,261712591_1,582118668_1
0,224940716_4,277147061_1,579670586_1,582118668_1
0,11619775_5,11619775_6,11620284_1,576622103_2
1,11620139_1,11621474_1,677813584_4,713600999_1
0,11623414_1,222857296_2,222857310_1,713600999_2
1,11624481_1,222857296_1,222857296_2
1,222857296_1,262807572_2,262807638_1
0,11623761_1,262807638_4,262807638_5
0,222857217_1,222857217_2,262807638_10,262807638_11
1,222857188_1,222857188_2,262807638_11,262807638_12
1,262807638_14,262807638_15
0,224940716_1,224940716_2,576622095_1
0,11622821_1,224940716_3,224940716_4
0,11619922_3,11619922_4,262807709_4,262807709_5
1,60787554_3,60787554_4,576622106_1
1,11620062_3,11620062_4,262807709_5,262807709_6
1,11620139_1,11620139_2,11623414_1,277181763_1
1,11624489_3,11624489_4,420815267_1,420815269_1
1,11620999_11,11620999_12,224940660_1,420815275_2
0,11620143_3,11620143_4,262807708_1,262807708_2
0,11620213_2,11620213_3,11622408_2,11622408_3
0,11620213_3,11620213_4,11621614_1,11621614_2
0,262807708_3,262807708_4,387149980_1
0,11620228_2,262807709_6,262807709_7
0,60787554_1,60787554_2,576622098_1,576622099_1
0,222857217_1,576622096_1,576622097_1,581804494_2
1,222857187_1,222857188_1,262807709_1,576622096_1
0,262807709_1,262807709_2,592208311_5
0,11622706_6,11622706_7,262807709_2,262807709_3
0,11621590_17,11621590_18,262807709_3,262807709_4
1,11620433_1,268206207_2,268206207_3
0,11620506_1,11624388_2,11624388_3
0,11620655_1,11620655_2,11622978_1,11622978_2
1,11624388_1,386947060_1
0,11620954_2,222857188_9,222857188_10
0,11620999_1,224940643_8,224940643_9
0,11620999_2,11620999_3,11624831_4,11624831_5
0,11620999_5,11620999_6,11624200_3
0,11620999_12,608361212_4,609095923_1,609095924_1
0,608817066_2,609095923_1,609095923_2
0,11622045_1,609095923_2,609095923_3
0,11621000_1,632685210_1,632685211_1
0,222857188_8,222857188_9,632685210_1
1,11621000_2,11621000_3,222857188_7,222857188_8
0,222857188_3,222857188_4,608817068_8
1,61671703_11,268206207_1,268206211_1,420815257_1
0,11624489_5,261712527_1,608817068_1,608817069_1
0,11621071_1,11624512_1,11624512_2
1,11621071_1,11621071_2,268206207_4,268206207_5
0,222857310_1,262807572_1,262807708_1,422703427_2
1,11621566_1,11621566_2,224940643_7,224940643_8
1,11621566_2,11621566_3,11624831_2,11624831_3
0,11621566_5,11621566_6,11624200_2,11624200_3
0,11621614_1,11623676_3,11623676_4
0,11621873_1,268206207_3,268206207_4
0,11622045_5,11622045_6,61671703_5,61671703_6
1,11622408_3,11623676_2,11623676_3
0,11622440_1,224940643_5,224940643_6
0,11622821_1,11622821_2,11625042_1
1,11624388_3,60787554_7,60787962_5,579670588_1
1,11623676_6,11623676_7,224940643_10
0,262807708_6,576622097_1
0,11623451_1,268206207_6,268206207_7
0,11623676_8,11623676_9,11624831_9
0,11623772_1,572297853_1,639894135_2
0,11624388_1,11624388_2,11624552_1,11624552_2
0,11624454_1,61671703_9,61671703_10
0,222857217_2,222857217_3,608817068_7,608817068_8
0,11624482_1,11624489_4,11624489_5
0,61671703_1,61671703_2,609095925_1
0,11618192_2,224940665_1
0,11618195_3,224940664_1
0,608817066_1,608817066_2
0,609095923_3,609095923_4
0,608817067_1,608817067_2
0,608817067_3,608817067_4
0,608817067_5,608817067_6
0,261712537_1,386947066_5
0,261712537_7,261712543_1,386947066_1
1,261712530_1,261712589_2,261712591_2
0,261712552_1,608817068_1,608817068_2
0,224940659_1,224940659_2,261712543_1,261712550_1
0,261712530_1,261712530_2
0,261712527_1,261712527_2,261712564_1
0,261712557_1,608817068_3,608817068_4
0,261712539_1,261712550_1,386947067_7
0,261712542_1,261712564_1,261712564_2
0,261712552_1,261712552_2,261712564_2,261712564_3
0,261712562_1,608817068_6,608817068_7
0,261712545_1,261712564_3,261712564_4
0,261712557_1,261712557_2,261712564_4,261712564_5
0,261712547_1,261712564_5,261712564_6
0,261712562_1,261712562_2,261712564_6,261712564_7
0,261712530_5,261712530_6
0,261712553_1,261712564_7
0,261712539_8,386947067_1
0,222857188_2,222857188_3
0,224940732_3,224940732_4,261712542_1
0,261712562_2,261712562_3,580428652_1
0,224940732_5,224940732_6,261712545_1
0,261712553_1,580428652_1
0,224940732_6,224940732_7
0,224940732_7,224940732_8,261712557_2
0,262807638_12,262807638_13
0,224940732_8,224940732_9,261712547_1
0,262807638_6,262807638_7
0,261713316_1,639894135_1,639894135_2
0,11619314_6,11619314_7
0,11619314_7,11619314_8,261713316_1
0,11619314_8,11619314_9
0,224940642_1,224940642_2,261713324_3
0,261713324_1,261713324_2,261713328_1
0,261713314_1,261713329_1,747508382_1
0,261713324_1,261713329_1,261713329_2
0,11613734_5,11613734_6,579535227_1
0,11613734_4,11613734_5,261713329_3
0,261713322_1,261713328_1,261713328_2
0,11613734_3,11613734_4,261713323_3
0,261715206_4,261715206_5,579535226_2
0,261713321_1,261713328_2,261713328_3
0,11614421_3,11614421_4
0,261713323_1,261713323_2,261713327_1
0,261713321_1,261713321_2,261713322_2
0,11614421_1,11614421_2
0,11613734_2,11613734_3,261713321_2
0,261713323_1,261715206_3,261715206_4
0,261713317_1,261713327_1,261713327_2
0,261713317_1,261715206_1,261715206_2
0,261713327_2,579535225_1
0,261715206_1,576622106_1,579535225_1
0,11620999_7,11620999_8,261715211_1
0,11621566_6,261715211_1,608312521_1,608312522_1
0,608312522_1,608312522_2
0,608312522_2,608312522_3
0,224940733_12,224940733_13
0,11620139_3,11620139_4
0,262807638_7,262807638_8
0,11619583_2,11619583_3
0,11619583_3,11619583_4
0,11624489_1,11624489_2
0,11616360_2,11616360_3
0,11623676_4,11623676_5
0,11624831_3,11624831_4
0,576606623_1,576606623_2
0,11621566_3,11621566_4
0,261715208_4,261715208_5
0,11619684_1,11619684_2
0,61671703_6,61671703_7
0,61671703_8,61671703_9
0,11622045_4,11622045_5
0,11622045_3,11622045_4
0,11619314_4,11619314_5,346657923_1
0,261715206_2,261715206_3,353008483_1
0,61671703_10,61671703_11,358206079_1
0,224940642_2,224940642_3,359399607_1
0,11616607_2,11616607_3
0,359617901_7,359617901_8
0,359617901_9,576622103_1,576622103_2
0,359617901_4,359617901_5
0,11619775_4,11619775_5,359617901_1
0,11619775_2,11619775_3
0,11624831_5,11624831_6
0,420815279_1,420815284_1,420815285_4
0,11616674_1,11616674_2
0,11616674_2,11616674_3
0,608817068_2,608817068_3
0,11613734_7,11613734_8
0,608817068_4,608817068_5
0,224940733_1,224940733_2
0,224940733_4,224940733_5
0,261713324_2,261713324_3
0,261713318_3,387150007_1,579535227_1
0,261713318_1,387150007_3,579535226_1
0,579535226_1,579535226_2
0,262807708_4,262807708_5,727241604_4
0,262807638_17,262807638_18
0,420815286_2,420815286_3
0,222857188_14,420815257_1
0,11623676_1,420815259_1
0,420815286_3,420815286_4
0,11618194_1,420815287_1
0,420815271_1,420815286_4
1,11620999_10,11620999_11,420815271_1,420815275_1,420815275_2,420815285_1
0,420815275_1,420815284_3
0,420815270_1,420815279_1
0,420815265_1,420815277_1
0,420815265_1,420815269_1
0,224940659_2,420815267_1
0,224940665_2,420818168_1
0,11620656_3,420818204_1
0,11614421_2,11614421_3,11624552_1
0,11620999_6,11620999_7,423266970_6,423266970_7
0,11618341_3,11618341_4,261712562_4
0,591127898_1,677813584_1,677813584_2
0,591127898_2,591127898_3,591127900_4
0,591127898_4,591127898_5,591127900_1
0,608361212_2,608361212_3
0,608361212_3,608361212_4
0,608817067_6,608817067_7
0,608817067_8,608817067_9
0,609095923_6,632685211_1
0,609095923_5,609095923_6
0,608817067_4,608817067_5
0,222857217_5,222857217_6
0,222857217_4,222857217_5
0,222857217_3,222857217_4
0,608817068_5,608817068_6
0,604717247_4,604717247_5,604717249_3
0,277181763_1,277181763_2,604717247_11
0,604717247_1,604717247_2,604717249_1
0,11623761_1,11623761_2
0,11624625_1,639894135_1
0,609095925_1,609095925_2
0,609095925_2,609095925_3
0,222857188_11,222857188_12
0,222857188_13,222857188_14
0,11622706_7,11622706_8
0,262807708_2,262807708_3
0,11620143_4,11620143_5
0,11620143_2,11620143_3
0,422703427_1,422703427_2
0,727241604_3,727241604_4
0,11620143_1,11620143_2
0,11621474_3,11621474_4
0,60787554_2,60787554_3
0,60787554_4,60787554_5
0,11624831_6,11624831_7
0,11620999_1,11620999_2
0,224940643_9,224940643_10
0,11622440_3,11622440_4
0,261713323_2,261713323_3
0,11616607_3,11616607_4
0,11616607_4,11616607_5
0,11618099_12,11618099_13
0,11623676_1,11623676_2
0,224940643_1,224940643_2
0,224940643_3,224940643_4
0,224940643_2,224940643_3
0,420815285_2,420815285_3
0,609095923_4,609095923_5
0,11622045_1,11622045_2
