Node Type,Segment IDs
0,8889891_1,666216987_1,729719225_2,734688191_3
0,8890892_8,8890892_9,8891423_1
0,8889897_1,107758384_3,729421216_1,729421217_1
0,8890291_13,8890291_14,8890331_1
0,8891073_2,662292049_1,662292049_2
2,92208512_9,92208512_10
1,8890836_9,666216989_1,722319905_1
2,107758384_2,107758384_3
2,8889102_1,8889102_2
0,107758397_1,730062559_4
4,107758330_1,666216981_6
0,8890979_10,107758303_1,666216977_4
0,8888665_13,8888665_14,8890145_13,8890773_1
0,8890072_1,8890072_2,666216984_1,666216984_2
0,8889140_4,107758349_3,107758349_4
0,107758308_1,107758335_1
0,107758340_1,666216987_4,729762152_2,729762152_3
0,8890606_12,8890986_10,8890986_11
0,662292049_1,666216990_1,666382751_2
0,8888800_2,107758357_4,107758357_5
0,8889849_1,8890979_3,8890979_4
0,8889891_5,624694254_1
0,8890136_27,8890901_13,8890901_14
4,8890118_4,8890316_1,8890316_2,729367251_1
0,8890894_4,734024462_1
0,8890569_1,8890599_1,578542100_5
0,8890561_11,8890561_12,8891358_6
0,8890658_1,730313569_3,730313569_4
0,8890367_2,8890367_3,8890664_3
0,8888949_1,666217007_5,729379628_1
1,8890864_7,8891372_10,107758318_3,729376861_1,729379622_2
2,666216987_1,666216987_2
0,8888964_7,8888964_8,8890338_5,8890338_6
0,8889842_10,8889842_11,8890851_1
0,8890249_3,8890249_4,8890420_4
0,8890136_8,8890136_9,8890986_19,8890986_20
4,107758385_5,730062559_1
1,666216976_3,666216976_4,732000506_4
0,8890145_12,8890145_13,8891239_1
1,8888683_15,729421214_1,729421215_1,732682387_3
4,730313563_3,733995235_1
0,8888892_1,8890136_15,8890136_16,8890789_2
0,8888665_7,8888665_8,8890730_1
0,8888929_8,8889956_1,8890084_1,666216973_4
1,8890927_5,722347975_5,722347976_1,722382476_1
0,8890892_4,8890892_5,8891585_1
2,107758367_2,107758367_3
0,8890380_2,267139813_1
0,8888817_1,543153086_4,666216976_1
0,8890084_2,107758376_1
0,8889102_5,8889102_6,107758320_2
0,8888949_3,107758356_6
0,8889749_1,8890231_7,8890231_8,92208383_5
0,107758340_1,729762152_7,729762152_8
0,8891110_4,107758388_1
2,107758327_1,107758327_2
1,8890760_1,107758311_4,107758311_5
0,8890040_1,666216989_8,666216989_9
0,8889080_1,107758349_1,666217004_4
0,8888872_4,8888872_5,8891101_11,8891101_12
0,8890136_16,8890136_17,8890220_2
0,8891615_3,8891615_4,454593090_6
1,8890586_1,107758367_3,722347977_4,722382476_1
0,107758339_8,107758378_1
2,722347976_1,722347976_2
0,107758325_13,666216983_1
2,8888753_1,8888753_2
0,8890708_3,8890708_4
0,8890145_11,8890145_12,8890892_10,8890892_11
2,662292049_6,662292049_7
0,8891598_1,732682386_2,732682386_3
0,8890773_3,8890773_4,8891305_4,8891305_5
0,8890348_2,666382754_1,666382754_2
1,8889103_13,8889103_14,666217002_9,666217002_10
0,8888665_1,8890291_6,8890291_7
0,8890863_1,92208512_4,92208512_5
0,107758392_2,107758393_1
0,8891580_3,729421215_2,729421215_3
0,8888665_8,8888665_9,617707212_1
0,107758311_2,107758311_3
0,8890264_7,107758394_1
4,8889118_1,8891128_1,732682388_4
0,8888800_1,8891102_2
0,285235407_1,578851734_5
4,107758379_1,729719226_4
3,8888848_1,8890345_1,8890605_1,666216985_4
0,8890119_3,8890119_4,8890316_1
0,8888964_25,662292049_16,666216972_1
0,8890264_1,666216971_3,730062574_1,732682385_6
0,8889856_5,92208512_6,92208512_7
0,8890220_1,8891543_20,8891543_21
0,285235407_2,285235407_3
0,8888665_14,8891305_6,8891305_7
4,107758325_1,722994379_2
0,8890569_6,8890966_1,8891610_1
0,8888758_2,8891215_1
4,8888848_8,107758327_5,107758332_3,578851734_1
0,8889102_10,666217004_1,729421211_1
0,8890892_18,8890892_19,8891305_10
0,8891087_4,8891087_5
0,662292049_3,662292049_4
2,107758349_2,107758349_3
0,8891215_4,662292049_4,662292049_5
0,8890681_2,8890681_3,666216973_2,666216973_3
0,8888872_6,8888872_7,8891196_1
0,8889842_8,8889842_9,8890730_1
1,666217199_1,666217202_1,729379641_2,729379642_2
0,8888964_1,578853354_11,666216973_1,730313576_2
4,8891372_1,729376861_9,729376862_1
0,8889056_1,8891305_2,8891305_3
0,8888753_1,8889897_2
0,8890447_2,107758343_1
1,8888850_6,8889935_1,543153086_1
0,8888665_9,8888665_10,8890851_1
0,8888817_7,8888817_8,8890023_6,8891116_1
0,8890249_12,8890249_13,8891483_15
0,8889761_1,8891398_2,8891398_3
0,107758348_1,666382777_1
0,8888872_2,8888872_3,8890420_1
4,8890249_15,730313554_1,730313563_1,730313569_8
0,8890773_5,8890773_6,8891250_2
0,8890599_3,8890599_4,8891497_1
0,8890863_5,8890901_5,8890901_6
0,8890249_4,8890249_5,8890323_1
0,8888665_12,8888665_13,8890398_1
1,8889821_1,666216960_13,666216960_14,729367251_3
2,729699265_1,729699265_2
0,666216990_4,666216990_5
0,8891580_1,732173340_3,732682385_3,732682385_4
0,8890985_6,8890986_6,8890986_7
0,107758368_10,107758368_11
0,107758318_1,107758366_1
0,8890738_1,107758321_12,666216980_1
1,8891543_23,92208512_10,666382764_1,722007104_1
0,107758321_8,107758321_9,566956875_5
0,8888665_10,8888665_11,8891423_1
0,8890316_8,8890985_2,8890985_3
4,8888683_1,666216982_6
0,8889842_4,8889842_5,8891175_1
0,8890118_3,8890118_4,8891228_1
0,8890118_1,8890585_5,8890986_1,8891427_3
0,8890398_1,8890892_9,8890892_10
0,8890930_6
1,8890447_1,666216978_1,666216979_1,666216984_4
0,8890738_1,8890738_2,729967501_2,729967501_3
0,8890966_3,8890966_4,663075443_1
0,97905622_18,267139813_6
0,8888749_11,8890249_10,8890249_11
0,8890986_23,8890986_24,8891408_12,8891408_13
2,107758303_2,107758303_3
4,92208479_1,666216983_4,730820616_1
0,8891316_1,666217005_1,666217006_1
0,624405383_1,666216989_5,666216989_6
0,8889956_3,8889956_4,8890823_1
0,107758385_1,666217002_16
0,8890708_7
0,8890538_1,732682386_1
0,267139817_2,267139817_3
0,8888872_3,8888872_4,8890828_1,8890996_3
0,8891615_6,107758311_1,666382777_4
0,107758332_1,107758375_1
0,8889856_2,8889856_3
0,8889103_4,8889103_5,8890783_1
0,8890345_7,107758368_13,666216986_1
0,8891101_3,8891101_4,730313569_2,730313569_3
0,8888817_4,8888817_5,8889849_4
0,92208550_1,107758357_6,736935658_2
0,8891102_1,736935657_2,736935657_3
0,8891087_3,8891087_4
0,8891101_15,666217002_1,722319906_6
0,107758376_3,729421211_1
0,666216977_1,666216977_2
2,107758332_2,107758332_3
0,8890783_3,8891101_9,8891101_10
0,8890237_5,8890237_6,8891101_6,8891101_7
0,8890986_25,8890986_26,8891543_14,8891543_15
0,8890561_1,8890836_1,722319907_2
0,8891087_9,730820623_1
0,8889761_1,8890892_5,8890892_6,617707212_1
0,8888872_8,8889103_7,8889103_8
0,8889103_5,8889103_6,8891497_6
0,107758327_1,107758365_1
0,8891116_5,92208550_3,92208550_4
0,8891128_4,732682385_1,732682386_9,732682387_1
0,8891137_1,8891137_2,8891305_1,8891305_2
0,8888892_5,8891543_18,8891543_19
0,8889056_1,8889842_9,8889842_10
4,107758367_1,722382477_1,729207877_11,729207877_12
0,8890266_2,8890266_3,8890585_1,8890901_22
0,8891087_1,624694254_6
0,8889842_1,8890291_7,8890291_8
0,8888665_4,8888665_5,8891175_1
0,8890023_1,8890979_7,8890979_8
0,8890331_1,8890331_2,8891263_1
0,8890519_1
0,8889103_3,8889103_4,8890105_2
0,8890985_1,666216960_7,666216960_8
0,107758308_1,666216970_7
2,666216972_1,666216972_2
0,8888700_5,662292049_14,662292049_15
0,624694257_1,722319896_3
0,8890892_1,8890892_2,8891331_1
0,107758366_1,666382776_1
0,8888749_8,8888749_9,8891101_5,8891101_6
0,8890760_4,454593090_1,732000506_1,732000507_5
0,8890708_1,8891196_3,666217002_4,666217002_5
0,8889960_1,8890291_16,8890291_17
0,8890367_1,662292049_5,662292049_6
0,8890266_1,8890900_1,734024462_2
0,8890237_12,743772994_8,743772994_9
0,267139817_1,566956871_1,729967504_1
0,8890349_4,8891358_3,8891358_4
0,8889285_1,8889285_24,130467884_1
1,8890119_1,107758393_2,666216960_14,729367250_5
0,8888892_2,8888892_3,8891408_14
0,8889960_2,8889960_3,8891263_3,8891263_4
0,8890828_4,722319906_3,722319906_4
4,8890900_27,722347977_1
0,8890606_1,666216960_5,666216960_6
0,8889118_2,8889118_3,8891598_3
0,8888758_1,8890323_3
1,722994379_1,729421214_1,729699265_1,729967500_2
0,732173340_1,732682388_2,732682388_3
0,570843230_1,666216976_5,732000447_1
0,624694254_3,624694254_4
0,107758356_1,107758394_1
1,8891153_6,666216970_1,666216971_1,732682388_1
0,8890040_9,666382751_1,666382751_2
0,730313569_1,743772994_2,743772994_3
0,8889102_1,107758373_5,729421212_1
0,107758375_1,267139817_3
0,8890901_1,722347976_4
0,8890072_3,107758365_1
0,8889956_4,8889956_5,8890791_1
1,666216978_1,729421215_4,729719226_1,730062574_3
0,8889956_5,107758384_1
0,8890264_3,8890264_4,8891147_1
0,8890338_10,8890338_11,8890681_5
0,8890599_11,666217002_15,666217002_16
1,8888797_4,8888850_1,8891194_4,732000537_2
0,8889140_1,8889749_5,666217005_3,666217005_4
0,107758347_1,729421216_1
0,8889899_2,107758348_1
0,8889118_4,8889118_5,8890010_1
2,107758311_1,107758311_2
0,8890231_1,8891316_4,666217008_1
0,8889103_1,578542100_1,743772994_10
0,8890291_4,8890291_5,8890892_1
4,8889305_1,8890420_1,8890420_2
2,107758388_1,666216977_1
4,8890266_7,8891427_1,92208512_1
4,8891194_1,107758378_1
0,8891137_1,8891250_1,8891250_2
0,8889285_15,8889285_16,584215882_1
0,666216986_2,729719225_1
0,8889842_11,8889842_12,8891224_1
0,8890966_5,743772994_6,743772994_7
0,8890349_1,8890561_12,8890561_13
4,8890587_23,722347975_1
0,8891110_1,666217199_6,729379640_1
4,566956875_4,566956875_5,666216981_1,729967501_5
0,8890352_1,8890352_2,8890966_2,8890966_3
0,8890449_1,666217008_1,729379628_3
0,8891185_3,107758347_1,729421212_1
0,8890237_4,8890237_5,8890996_1
0,8890119_9,8890894_1
2,666216988_1,666216988_2
0,8889285_19,8889285_20,8890380_1
0,8888929_1,578853354_1
0,8891483_11,8891483_12,730313569_5,730313569_6
0,8888872_1,8890249_1,666216989_10,666216990_7
4,8890010_4,8890348_1
0,8891615_1,570843230_3,666382776_1
0,8889935_2,8889935_3,732000507_1
0,107758335_2,666217007_1
0,8890367_4,732682388_3,732682388_4
0,8890291_9,8890291_10,8891305_1
0,666216970_6,666216970_7,729421217_3
1,8889899_1,8890864_1,666217005_6,730062483_4
0,8890136_21,8890136_22,92208512_2,92208512_3
0,8890072_1,729719226_3,729719226_4
0,8888753_2,8891153_1,666216972_2
0,8889103_2,8889103_3,8889763_1
0,8888749_1,743772994_4,743772994_5
1,8888797_1,8889935_4,107758311_10,107758324_1
0,8890331_2,8890773_7
1,8888817_10,8890930_1,107758303_3,736935657_1
0,8889080_6,8890449_3,107758373_1,666217006_1
0,8890892_2,8890892_3,8891398_1
0,8889956_2,8889956_3,8890338_14
0,8889285_16,8889285_17,92208473_4
0,8889842_6,8889842_7,8891137_2
0,8890561_6,8890561_7
0,29818911_7,29818911_8
0,29818911_6,29818911_7
0,29818911_1,29818911_9
0,29818911_8,29818911_9
0,29818911_5,29818911_6
0,29835593_1,29835593_158,29860682_10,29860682_11
0,29834894_13,29834894_14
0,29834894_46,29834894_47
0,29834894_42,29834894_43
0,29834894_11,29834894_12
0,29834894_12,29834894_13
0,29835593_2,29835593_3,29860682_8,29860682_9
0,29834894_17,29834894_18
0,29834894_6,29834894_7
0,29835593_1,29835593_2,29860682_9,29860682_10
0,29835648_24,29835648_25
0,29834894_27,29834894_28
0,29834894_26,29834894_27
0,29834894_8,29834894_9
0,29835648_28,29835648_29
0,29834894_15,29834894_16
0,29834894_1,29834894_47
0,29834894_5,29834894_6
0,29834894_10,29834894_11
0,29834894_18,29834894_19
0,29834894_16,29834894_17
0,29834894_14,29834894_15
0,29834894_7,29834894_8
0,29834894_41,29834894_42
0,29834894_9,29834894_10
0,29834894_43,29834894_44
0,29861319_13,29861319_14
0,29861319_14,29861319_15
0,29861319_11,29861319_12
0,29835593_157,29835593_158,29860682_11,29860682_12
0,29861319_12,29861319_13
0,29861319_9,29861319_10
0,29835593_156,29835593_157,29860682_12,29860682_13
0,29861319_10,29861319_11
0,29861319_7,29861319_8
0,29861319_15,29861319_16
0,29861319_8,29861319_9
0,29861319_16,29861319_17
0,98016798_32,98016798_33
2,92208383_2,92208383_3
1,92208473_1,92208483_5,584215882_4,666217202_1,729967501_1
0,722382470_3,729407142_1
0,97905665_1,97905695_1
0,730820623_1,730820623_2
0,97905633_3,97905633_4
0,721293599_9,721293599_10
2,666216985_1,666216985_2
0,97905662_4,584205533_1
0,8890930_3,8890930_4
0,97905630_1,267139813_3,267139813_4
2,107758356_1,107758356_2
2,8891087_6,8891087_7,721293596_1,721293596_2
0,97905627_1
0,721293599_1,721293599_2
0,97905634_65,97905634_66
0,97905633_4,97905681_1
0,97905630_5,97905630_6,683342568_1
0,97905620_10,97905627_3,741151634_1
0,721293600_2,729137797_1
0,97905634_69,97905695_1
2,107758368_1,107758368_2
0,97905634_55,97905634_56
0,107758327_2,107758327_3
0,97905622_1,97905665_7,732482765_4
2,107758339_6,107758339_7
0,97905664_1,732482765_1
0,97905638_10,262459583_5,734688191_1
0,97905614_1,97905693_4
2,624694254_4,624694254_5
0,8891110_1,8891110_2,97905630_9
2,8889103_21,107758392_1
0,721293625_1,732482763_3
0,97905686_3
0,8890930_2,8890930_3
0,97905686_2,97905686_3
0,97905638_1
0,721293597_3,721293599_12
0,97905638_7,97905638_8,741151635_2
0,721293626_11,732482763_1
0,130467884_7,130467884_8
0,8890930_5,8890930_6
0,97905634_67,97905634_68
0,97905631_1,97905633_1
0,97905634_16,97905634_17
0,97905664_1,584205533_1
0,107758311_6,107758311_7
0,721293599_1,729137797_3
0,98016798_6,98016798_7
0,98016798_9,98016798_10
0,98016798_1,98016798_37
0,98016798_3,98016798_4
0,98016798_36,98016798_37
0,98016798_7,98016798_8
0,98016798_8,98016798_9
0,98016798_5,98016798_6
0,98016798_35,98016798_36
0,98016798_2,98016798_3
0,29835593_118,29835593_119
0,29835593_122,29835593_123
0,29835593_125,29835593_126
0,29835593_127,29835593_128
0,29835593_112,29835593_113
0,29835593_128,29835593_129
0,29835593_136,29835593_137
0,29835593_150,29835593_151
0,29835593_132,29835593_133
0,98016798_34,98016798_35
0,98016798_19,98016798_20
0,29835593_87,29835593_88
0,29835593_140,29835593_141
0,29835593_131,29835593_132
0,29835593_143,29835593_144
0,29835593_93,29835593_94
0,29835593_153,29835593_154
0,29835593_135,29835593_136
0,29835593_88,29835593_89
0,29835593_108,29835593_109
0,29835593_152,29835593_153
0,29835593_97,29835593_98
0,29835593_103,29835593_104
0,29835593_144,29835593_145
0,29835593_126,29835593_127
0,98016798_33,98016798_34
0,29835593_123,29835593_124
0,29835593_90,29835593_91
0,29835593_86,29835593_87
0,29835593_91,29835593_92
0,29835593_104,29835593_105
0,29835593_155,29835593_156
0,29835593_105,29835593_106
0,29835593_130,29835593_131
0,29835593_96,29835593_97
0,29835593_141,29835593_142
0,29835593_107,29835593_108
0,29835593_89,29835593_90
0,29835593_142,29835593_143
0,29835593_101,29835593_102
0,29835593_133,29835593_134
0,29835593_115,29835593_116
0,29835593_113,29835593_114
0,29835593_116,29835593_117
0,29835593_124,29835593_125
0,29835593_110,29835593_111
0,29835593_120,29835593_121
0,98016798_29,98016798_30
0,29835593_111,29835593_112
0,29835593_151,29835593_152
0,29835593_129,29835593_130
0,29835593_137,29835593_138
0,29835593_139,29835593_140
0,29835593_109,29835593_110
0,29835593_92,29835593_93
0,29835593_98,29835593_99
0,29835593_119,29835593_120
0,29835593_134,29835593_135
0,29835593_147,29835593_148
0,29835593_102,29835593_103
0,29835593_114,29835593_115
0,29835593_106,29835593_107
0,29835593_94,29835593_95
0,29835593_148,29835593_149
0,29835593_100,29835593_101
0,29835593_99,29835593_100
0,29835593_154,29835593_155
0,29835593_146,29835593_147
0,29835593_145,29835593_146
0,29835593_95,29835593_96
0,29835593_149,29835593_150
0,29835593_138,29835593_139
0,29835593_121,29835593_122
0,29835593_117,29835593_118
0,98059828_1,98059828_2
0,98059828_9,98059828_10
0,98059828_8,98059828_9
0,98059828_15,98059828_16
0,98059828_1,98059828_39
0,666217199_2,666217199_3
0,98059828_5,98059828_6
0,98059828_3,98059828_4
0,98059828_4,98059828_5
0,98059828_6,98059828_7
0,98059828_7,98059828_8
0,98059828_12,98059828_13
0,470072807_15,470072807_16
0,470072807_4,470072807_5
0,98241397_1
0,107758339_5,107758339_6
2,107758357_5,107758357_6
0,8891194_1,8891194_2,98241397_1
0,470072807_6,470072807_7
0,470072807_2,470072807_3
0,470072807_11,470072807_12
0,29834894_20,29834894_21
0,470072807_14,470072807_15
0,470072807_7,470072807_8
0,470072807_12,470072807_13
0,470072807_13,470072807_14
0,470072807_3,470072807_4
0,470072807_5,470072807_6
0,470072807_10,470072807_11
0,470072807_9,470072807_10
0,470072807_8,470072807_9
2,666382777_1,666382777_2
0,722347974_2,722347974_3
0,8890927_1,8890927_2,107097078_1
0,666382762_12,666382764_6
2,666382762_10,666382762_11
0,722644961_5
2,8890927_1,722347974_3
2,722347974_1,722347974_2
0,721293659_10,721293659_11
0,97905634_5,97905634_6
0,721293626_2,721293626_3
0,97905634_1,732482764_2
2,624694254_2,624694254_3
0,721293596_2,721293626_1
2,92208473_2,92208473_3
2,107758320_1,107758320_2
0,107758330_1,666216984_1
2,8890823_1,107758338_1
0,107758321_1,107758379_1
0,8888964_14,8888964_15
0,8888700_1
2,8890231_1,8890231_2
2,8890231_6,8890231_7
0,97905630_3,97905630_4,267139811_1
0,267139811_6,267139811_7
0,267139811_7
0,8889542_5,566956876_1,722946702_1
0,8889542_1,566956873_1,566956874_4,566956876_3
2,285235407_9,285235407_10
0,8890605_4,262459583_1,285235407_10
4,8890338_1,730313564_1
1,92208508_3,107758360_1,666216988_1,733995257_3
0,8890291_5,8890291_6,353225857_1
0,97905665_1,97905665_2
0,97905634_68,97905634_69
2,97905627_1,97905627_2
2,8888749_1,8888749_2
2,743772994_5,743772994_6
2,8890966_4,8890966_5
2,578542100_1,578542100_2
2,743772994_9,743772994_10
2,8890237_11,8890237_12
2,743772994_7,743772994_8
2,8890105_1,8890105_2
2,8889763_1,8889763_2
2,8890783_1,8890783_2
2,8889103_6,8889103_7
2,8891497_5,8891497_6
2,8888872_7,8888872_8
2,8889103_12,8889103_13
2,666217002_8,666217002_9
2,8889103_14,8889103_15
2,729367250_4,729367250_5
2,8889821_1,8889821_2
2,666216960_12,666216960_13
2,729367251_2,729367251_3
2,8890119_1,8890119_2
2,107758393_1,107758393_2
2,722007104_1,722007104_2
0,729207877_15,729207877_16
0,8889102_4,8889102_5
0,8889102_6,8889102_7
0,8889102_7,8889102_8
0,267139813_2,267139813_3
0,130467884_4,130467884_5
0,566956871_1,566956873_4,566956874_1
0,8890738_4
0,285235407_5,285235407_6
0,8888848_4,8888848_5
0,285235407_6,285235407_7
0,285235407_7,285235407_8
0,8888848_3,8888848_4
0,8888848_2,8888848_3
0,666216985_2,666216985_3
0,107758356_2,107758356_3
0,107758356_4,107758356_5
0,729376862_1,729376862_2
0,666217007_2,666217007_3
0,666217007_3,666217007_4
0,107758356_3,107758356_4
0,666217007_4,666217007_5
0,107758356_5,107758356_6
0,267139813_5,267139813_6
0,130467884_5,130467884_6
0,454593090_4,454593090_5
0,454593090_3,454593090_4
0,566967578_2,566967578_3
0,454593090_2,454593090_3
0,566967578_3,566967578_4
0,566967578_5,732000506_2,732000506_3
0,8891615_2,8891615_3,566967578_1
0,107758311_8,107758311_9
0,732000507_2,732000507_3
0,97905630_1,97905630_2
0,267139811_4,267139811_5
0,8890979_5,8890979_6
0,8889849_2,8889849_3
0,8890023_2,8890023_3
0,8890023_4,8890023_5
0,8890023_3,8890023_4
0,666216990_5,666216990_6
0,624405383_2,624405383_3
0,8890040_4,8890040_5
0,8890040_5,8890040_6
4,8891358_1,624405383_3
0,8891358_1,8891358_2
0,666216989_3,666216989_4
0,8890828_2,8890828_3
0,732682386_3,732682386_4
0,732682386_4,732682386_5
0,97905638_2,97905638_3
0,97905638_1,97905638_2
0,107758368_8,107758368_9
0,107758368_2,107758368_3
4,8889118_5,733995257_1
0,8890538_3
0,8890136_18,8890136_19
0,8890220_1,8890220_2
0,8888892_3,8888892_4
0,8889856_1,8890863_2,8890863_3
0,8889856_3,8889856_4
2,92208483_1,729379640_4
2,666217199_3,666217199_4
2,730062483_3,730062483_4
2,666217005_5,666217005_6
2,8890864_1,8890864_2
2,8890864_6,8890864_7
2,107758318_2,107758318_3
2,729379622_1,729379622_2
2,92208383_4,92208383_5
2,8889749_1,8889749_2
2,729379642_1,729379642_2
2,729379641_1,729379641_2
2,729967501_1,729967501_2
2,92208483_4,92208483_5
2,666217199_1,666217199_2
2,107758303_1,107758303_2
2,8890979_9,8890979_10
2,8890979_8,8890979_9
2,8890023_1,8890023_2
2,8890979_6,8890979_7
2,8888817_9,8888817_10
2,736935657_1,736935657_2
2,8890930_1,8890930_2
2,736935658_1,736935658_2
2,92208550_1,92208550_2
2,8891116_4,8891116_5
2,732000537_1,732000537_2
2,8888850_1,8888850_2
2,8888797_3,8888797_4
2,8891194_3,8891194_4
2,543153086_3,543153086_4
2,8888817_1,8888817_2
2,666216976_2,666216976_3
2,732000506_3,732000506_4
2,732000447_1,732000447_2
2,570843230_1,570843230_2
2,570843230_2,570843230_3
2,8891615_1,8891615_2
2,732000507_4,732000507_5
2,454593090_1,454593090_2
2,732000507_1,732000507_2
0,133435815_31,133435815_32
0,8888694_17,8888694_18
0,8888694_19,8888694_20
0,133435815_28,133435815_29
2,8890586_1,8890586_2
2,722347975_4,722347975_5
2,8890927_4,8890927_5
2,722347977_3,722347977_4
2,107758324_1,107758324_2
2,107758311_9,107758311_10
2,8889935_3,8889935_4
2,8888797_1,8888797_2
2,8889935_1,8889935_2
2,107758311_7,107758311_8
2,107758311_5,107758311_6
2,107758311_3,107758311_4
2,8890760_1,8890760_2
2,666382777_3,666382777_4
2,666217005_4,666217005_5
2,8889140_1,8889140_2
2,666217005_2,666217005_3
2,8889749_4,8889749_5
2,666217005_1,666217005_2
2,8891316_1,8891316_2
2,8889080_5,8889080_6
2,107758373_1,107758373_2
2,8890449_2,8890449_3
2,107758373_4,107758373_5
2,8891185_2,8891185_3
2,8889897_1,8889897_2
2,8891153_1,8891153_2
2,8888964_24,8888964_25
2,662292049_12,662292049_13
2,8890367_1,8890367_2
2,8891215_3,8891215_4
2,8890040_8,8890040_9
0,8890561_14,666382754_1
0,666382751_1,666382754_2
2,8890561_13,8890561_14
2,8890349_1,8890349_2
2,8891358_5,8891358_6
2,8890561_8,8890561_9
0,8890561_5,8890561_6
2,8890561_1,8890561_2
2,666217002_10,666217002_11
2,8890708_1,8890708_2
2,666217002_3,666217002_4
2,8891196_2,8891196_3
2,8891101_14,8891101_15
2,8890828_3,8890828_4
2,722319905_1,722319905_2
2,666216989_1,666216989_2
2,8890836_8,8890836_9
2,733995257_2,733995257_3
2,107758360_1,107758360_2
0,107758360_2,584215881_1,729207877_2,729207877_3
2,92208508_1,92208508_2
2,8888683_14,8888683_15
2,722994379_1,722994379_2
2,729967500_1,729967500_2
2,729421215_1,729421215_2
2,732682387_2,732682387_3
2,666216979_1,666216979_2
2,729421215_3,729421215_4
2,8890447_1,8890447_2
2,666216984_3,666216984_4
2,729719226_1,729719226_2
2,730062574_2,730062574_3
2,584215882_2,584215882_3
2,92208473_3,92208473_4
2,584215882_1,584215882_2
2,8890380_1,8890380_2
2,130467884_2,130467884_3
2,130467884_3,130467884_4
2,97905650_2,97905650_3
2,8891116_1,8891116_2
2,8888817_6,8888817_7
2,8890023_5,8890023_6
2,8888817_8,8888817_9
2,8888817_5,8888817_6
2,8889849_3,8889849_4
2,8890979_2,8890979_3
2,8889849_1,8889849_2
2,8890979_4,8890979_5
2,8889102_9,8889102_10
2,8889956_1,8889956_2
2,8888929_7,8888929_8
2,730313569_7,730313569_8
2,8890249_13,8890249_14
2,730313563_1,730313563_2
2,8890249_1,8890249_2
2,666216989_9,666216989_10
2,666216990_6,666216990_7
2,624405383_1,624405383_2
2,8891316_3,8891316_4
2,8890449_1,8890449_2
2,729379628_2,729379628_3
2,729379628_1,729379628_2
2,8888949_1,8888949_2
2,666216970_1,666216970_2
2,8891153_5,8891153_6
2,732682388_1,732682388_2
2,666216971_1,666216971_2
2,8890367_3,8890367_4
2,8891128_1,8891128_2
2,8891598_2,8891598_3
2,8889118_3,8889118_4
2,666382764_1,666382764_2
2,8891543_22,8891543_23
2,8890863_1,8890863_2
2,8890136_22,8890136_23
2,8890136_20,8890136_21
2,8891427_1,8891427_2
2,8890266_5,8890266_6
2,8890986_1,8890986_2
0,29835648_35,29835648_36
0,8890249_8,8890249_9
0,8888665_6,8888665_7,8890388_1
0,8888665_5,8888665_6,8891585_1
0,8889842_7,8889842_8,8890388_1
0,8889842_17,8891305_3,8891305_4
0,8888665_11,8888665_12,8891224_1
0,721293600_1,732482760_1
0,624694257_1,624694260_1
0,107758349_1,107758349_2
0,8890291_2,8890291_3,683273018_1
0,697989218_1
0,697989218_2,697989218_3
0,697989218_5
0,697989218_3,697989218_4
0,697993311_4,697993311_5
0,8891215_1,8891215_2
0,697993311_6
0,697993311_1
0,8890892_7,8890892_8,700215356_1
0,8889080_3,8889080_4
0,92208550_2,92208550_3
0,721293596_1,721293597_1
2,8889891_1,8889891_2
2,734688191_2,734688191_3
2,8891087_1,8891087_2
2,666216986_1,666216986_2
2,107758368_12,107758368_13
2,8890345_6,8890345_7
0,721293626_5,721293626_6
0,721293625_1,732482764_1
2,624694254_5,624694254_6
0,721293659_17,721293659_18
0,721293659_7,721293659_8
0,721293659_6,721293659_7
0,721293659_5,721293659_6
0,721293659_4,721293659_5
0,721293659_3,721293659_4
0,721293659_2,721293659_3
0,721293659_1,721293659_2
0,721293659_1,721293659_19
0,721293659_18,721293659_19
0,721293659_16,721293659_17
0,721293659_15,721293659_16
0,721293659_14,721293659_15
0,721293659_8,721293659_9
0,721293659_11,721293659_12
0,721293659_12,721293659_13
0,721293659_13,721293659_14
2,729719225_1,729719225_2
0,8888848_5,8888848_6
0,8890264_6,8890264_7
0,8890264_5,8890264_6
0,666216970_2,666216970_3
0,8891153_4,8891153_5
0,666216970_3,666216970_4
2,285235407_8,285235407_9
2,262459583_1,262459583_2
2,8890605_3,8890605_4
0,470072807_1,470072807_52
4,722007104_3,722347974_1
0,107097078_2,722007110_1
0,722007110_1
0,666216989_7,666216989_8
0,666216989_6,666216989_7
0,732682386_1,732682386_2
2,8890348_1,8890348_2
0,722319896_1,730820623_3
4,722319905_4,722319906_1
0,666216988_4,722319907_1
2,8891358_2,8891358_3
2,8890040_1,8890040_2
0,729207877_12,729207877_13
0,729207877_1,729207877_2
0,8890836_2,8890836_3
0,666216988_2,666216988_3
0,729207877_10,729207877_11
0,729207877_3,729207877_4
4,92208479_3,92208508_1,666216982_1
0,8890561_10,8890561_11
0,97905631_5,722382470_1
0,98059828_14,98059828_15
0,98059828_2,98059828_3
0,98059828_10,98059828_11
0,98059828_11,98059828_12
0,584215881_1,722382477_1
0,722644916_1,722644956_1,722644956_2
0,722644960_1
0,722644947_1,722644960_3,722644960_4
0,722644947_1
0,722644960_2,722644960_3
0,722644952_1
0,722644955_1,722644956_2,722644956_3
0,722644957_1,722644957_2
0,722644955_1,722644957_2,722644957_3
0,722644956_3,722644961_1,722644961_2
0,722946693_1
0,722644952_1,722644957_1,722644960_4,722946693_1
0,722644961_1
0,8890345_4,8890345_5
0,262459583_4,262459583_5
0,98016798_4,98016798_5
0,98016798_1,98016798_2
0,98059828_13,98059828_14
0,722946702_2,722946703_3,722946704_1
0,566956875_1,722946703_1,722946704_3
0,97905681_1,724626756_3,732482760_1
0,724626756_1
0,98016798_20,98016798_21
0,29835648_22,29835648_23
0,29834894_40,29834894_41
0,29834894_30,29834894_31
0,29818911_1,29818911_2
0,29834894_44,29834894_45
0,29834894_33,29834894_34
0,721293659_9,721293659_10
0,29835648_33,29835648_34
0,29834894_1,29834894_2
0,29834894_32,29834894_33
0,98016798_18,98016798_19
0,29834894_35,29834894_36
0,29835648_18,29835648_19
0,29834894_3,29834894_4
0,29834894_34,29834894_35
0,29834894_2,29834894_3
0,29834894_37,29834894_38
0,29834894_36,29834894_37
0,29834894_4,29834894_5
0,29834894_39,29834894_40
0,29834894_38,29834894_39
0,29834894_31,29834894_32
2,267139813_1,267139813_2
0,107758343_1,666216985_1
2,107758327_4,107758327_5
2,8888848_7,8888848_8
2,578851734_1,578851734_2
0,729699266_9,729699266_10
0,729699266_1,729699266_2
2,566956875_3,566956875_4
2,97905630_7,97905630_8
2,8891580_2,8891580_3
2,8890605_1,8890605_2
2,8888848_1,8888848_2
2,666216985_3,666216985_4
2,8890345_1,8890345_2
0,729699266_11,729699266_12
0,729762152_8,729762152_9
0,729762152_1,729762152_2
0,729207877_5,729207877_6
0,729207877_7,729207877_8
0,729207877_13,729207877_14
0,729207877_9,729207877_10
0,729207877_8,729207877_9
0,729207877_4,729207877_5
0,729207877_1,729207877_16
2,97905638_9,97905638_10
0,29835648_29,29835648_30
0,29835648_25,29835648_26
0,29835648_26,29835648_27
0,29835648_32,29835648_33
0,29835648_30,29835648_31
0,29835648_31,29835648_32
0,729207877_14,729207877_15
0,29834894_21,29834894_22
0,29834894_19,29834894_20
0,29834894_29,29834894_30
0,29860682_15,29860682_16
2,8891372_7,8891372_8
2,729376861_2,729376861_3
0,8891372_1,8891372_2,92208383_1
4,8890231_8,729379622_1
4,666216980_2,729379641_1
4,729376862_4,729379642_1
0,98016798_11,98016798_12
0,98016798_16,98016798_17
0,98016798_15,98016798_16
0,98016798_14,98016798_15
0,98016798_10,98016798_11
0,729407142_1,729407145_7
0,729407144_2
0,97905688_1
0,97905688_1,97905693_1
0,97905693_3,97905693_4,729407144_1
0,97905614_15,729407145_1
0,724626756_1,724626756_2
0,729699266_7,729699266_8
0,729699266_3,729699266_4
0,107758342_1,107758368_1,729699266_2,729699266_3
0,107758342_1,729699265_2,729699266_8,729699266_9
0,729699266_5,729699266_6
2,8890345_3,8890345_4
0,8891215_2,8891215_3
0,8890323_2,8890323_3
2,97905620_9,97905620_10
2,741151635_1,741151635_2
0,97905620_1,97905620_2
0,729762152_3,729762152_4
0,729762152_6,729762152_7
2,8890010_1,8890010_2
4,666216979_2,729967500_1
0,8889285_2,8889285_3,97905650_1
0,8889285_7,8889285_8,729967503_2
2,729967503_1,729967503_2
0,97905650_3,729967503_1,729967504_1
2,8891147_1,8891147_2
2,730062574_1,730062574_2
2,8891580_1,8891580_2
0,29861664_1,29861664_2
0,8890538_1,8890538_2
2,732682385_1,732682385_2
2,732682386_8,732682386_9
2,732173340_1,732173340_2
0,8889749_3,8889749_4
0,8891316_2,8891316_3
2,8891185_1,8891185_2
0,8891185_1,666217007_1,666217007_2
0,666216990_2,666216990_3
2,8888872_1,8888872_2
2,729421217_1,729421217_2
2,8888700_4,8888700_5
0,697993311_5,697993311_6
0,697993311_3,697993311_4
0,697993311_2,697993311_3
0,697993311_1,697993311_2
2,666216990_1,666216990_2
0,29835648_34,29835648_35
2,729421217_2,729421217_3
0,666216970_4,666216970_5
0,666216970_5,666216970_6
2,732173340_2,732173340_3
2,8891128_3,8891128_4
2,8891598_1,8891598_2
2,666216971_2,666216971_3
2,8890264_1,8890264_2
2,732682385_5,732682385_6
2,732682387_1,732682387_2
2,8891483_12,8891483_13
2,8890681_1,8890681_2
2,8890791_1,8890791_2
2,8888964_1,8888964_2
2,666216973_1,666216973_2
2,578853354_10,578853354_11
2,8889080_1,8889080_2
2,8890681_3,8890681_4
0,730313554_1,730313555_1
2,8890420_3,8890420_4
0,8890237_1,8890237_2
0,8890237_1,8890249_7,8890249_8
4,730313564_1,733995235_1
2,8890338_1,8890338_2
2,730313575_2,730313575_3
2,730313574_3,730313574_4
0,730313574_5,730313575_1
4,730313574_1,730313575_5,730313576_1
2,8891483_14,8891483_15
2,8890338_13,8890338_14
2,8890681_4,8890681_5
0,8888964_15,8888964_16
0,8888964_17,8888964_18
2,8888964_6,8888964_7
2,8890338_4,8890338_5
2,8890338_6,8890338_7
2,8888964_8,8888964_9
2,8888964_13,8888964_14
0,8890338_9,8890338_10
0,8890338_11,8890338_12
0,624694260_1,730820616_1
2,8890084_1,8890084_2
2,107758321_1,107758321_2
2,666216981_5,666216981_6
2,107758335_1,107758335_2
2,8891102_1,8891102_2
2,566967578_4,566967578_5
2,8891615_5,8891615_6
2,8888800_1,8888800_2
0,8890979_1,732000447_3
2,8890760_3,8890760_4
2,732000506_1,732000506_2
2,454593090_5,454593090_6
2,566967578_1,566967578_2
2,543153086_1,543153086_2
2,8888850_5,8888850_6
0,92208550_4,732000537_1
0,732682386_6,732682386_7
0,732682386_5,732682386_6
0,107758338_1,584241644_1
0,107758320_1,584241644_1
0,8889080_4,8889080_5
0,107758373_2,107758373_3
2,8890323_1,8890323_2
2,8891073_1,8891073_2
2,8890072_2,8890072_3
2,8890599_10,8890599_11
2,8890738_2,8890738_3
2,8890863_4,8890863_5
2,8890316_2,8890316_3
2,8891228_1,8891228_2
2,8890136_26,8890136_27
2,8889856_4,8889856_5
2,8889856_1,8889856_2
0,29834894_45,29834894_46
2,8888949_2,8888949_3
0,729376862_2,729376862_3
0,729376862_3,729376862_4
0,97905620_2,97905620_3
0,8889103_9,8889103_10
2,730313569_4,730313569_5
0,29834894_28,29834894_29
4,736935657_3,736935658_1
2,741151634_1,741151634_2
0,741151634_2,741151635_1
0,729207877_6,729207877_7
0,8889103_15,8889103_16
0,666217002_6,666217002_7
0,666217002_1,666217002_2
0,666217002_2,666217002_3
0,8890708_2,8890708_3
0,8890708_4,8890708_5
0,722319906_5,722319906_6
0,722319906_4,722319906_5
0,722319905_3,722319905_4
0,722319906_1,722319906_2
0,130467884_8,130467884_9
0,8890249_5,8890249_6
