Node Type,Segment IDs
0,436616714_2,436616714_3
1,37020142_4,315904410_1
3,27401253_2,31165962_1,315904410_4,532632625_1
1,15377309_1,204974728_3,204974728_4,436612059_2
1,15377309_4,204974799_1,314612912_4,655501852_1
1,204974761_1,204974799_5,204974801_1,655283395_4
1,41287628_1,204974801_3,655283396_1,655501858_6
3,27401241_1,41287628_2,41287628_3
1,30756754_1,144469638_1,204981554_12,655501844_3
1,204981554_8,204981554_9,207524116_2,328078178_1
1,204981554_4,204981554_5,436617513_2,436617518_1
1,30148740_8,204981554_1,422088229_3,655283392_1
1,143948185_4,315904408_4,422088229_1,422088248_1
1,37749556_4,315821985_5,315904408_1,315904413_1
0,15396565_4,15396565_5,37749556_2,37749556_3
0,37749555_1,37749556_1
0,31165968_3,37749555_1
1,15381973_1,143978650_2,143978650_3
1,15381973_4,15381973_5,204974723_16,204974723_17
1,15381973_6,15381973_7,656122436_1,656122436_2
1,15381973_8,15381973_9,436615692_3,436615692_4
1,15382769_1,129170700_1,204964687_4,204999701_1
3,32065527_13,32065527_14,129170700_7,129170700_8
3,129170700_12,204981568_1,263361802_1,436617515_2
3,30148740_1,30602324_1,204999702_3,263361802_4
0,15382778_1,204999702_1,422086391_2
1,204999703_3,204999708_1,422086391_1,436610720_4
1,15382769_5,15382769_6,204974723_8,204974723_9
1,15382769_9,141161580_6,321870323_1,655283351_4
1,15382778_2,143948165_1,143948185_1,436613327_2
0,143948186_1,422088238_1,422088248_4,655283393_4
0,143948186_4,143948186_5,436612060_4,436612060_5
0,143948186_8,172814612_3,328078179_1,328078187_1
0,204989730_2,204989730_3,328078187_2
1,51864151_1,141161581_1,143978649_1,311608419_4,436742892_2
1,37020142_1,130624540_1,201680470_4,655501857_4
1,27401240_2,149706995_4,201680470_1,436625345_2,655283394_1
1,15383474_1,204974728_1,655501845_5,655501854_4
1,15383474_4,15383474_5,204998669_7,204998669_8
1,15383474_7,436617523_4,436617523_5
1,172814612_1,204981569_11,204981569_12
1,315821986_8,315821986_9,328078179_3,328078180_1
1,30511389_1,143978650_5,204964687_1,275398021_4
3,30148684_9,32065527_8,32065527_9,275398021_1
3,30148684_5,30148684_6,204981568_5,204981568_6
0,30148684_1,30602326_1
1,30511389_6,30511389_7,204974723_12,204974723_13
1,30511389_9,30511389_10,141161580_1,141161580_2
3,204964753_1,311608420_4
1,15404286_1,201680484_9,204974728_6,655501844_1
1,201680484_4,201680484_5,655501852_5,655501852_6
1,201680484_1,655283394_3,655283395_1,655501856_4
0,27401240_1,27401253_1,40526566_11
1,130624544_1,130624549_1,258828955_3,321870323_4
1,130624544_5,655501851_1,655501856_1,655501857_1
1,15388175_1,30756754_4,130624549_9,204999701_3
1,15388175_5,32065527_18,204998668_1,204998675_1
1,204981553_1,204998675_4,436617517_1,436617518_4
1,30148740_4,30148740_5,204981553_3,204981553_4
1,315821983_1,315821985_1,436613328_2,436616716_2
0,15396565_2,15396565_3,31165965_1,315821983_2
0,31165965_1,37749553_1
0,37749553_1,37749554_1
0,37749554_1,436616714_1,436616714_2
1,204981569_1,207517640_5,655283392_4,655283393_1
1,204981569_6,204981569_7,436612060_7,436612060_8
1,204981569_15,204981569_16,204989730_4,204989730_5
1,315821984_1,315821986_1,422088238_3,436610717_2
1,315821986_4,315821986_5,436612060_2,436612060_3
1,15396942_2,204989730_1,204989759_1,315821986_11
0,37749561_1,176875114_3
0,37749561_1,436612060_1
1,37749560_1,201680483_1,436612058_2,436617519_2
1,37749560_3,37749560_4,204998669_3,204998669_4
0,37020142_2,37020142_3,40526566_5,40526566_6
0,37749558_1,37749558_2,103072755_1
1,204989730_11,204998669_11
1,204989730_8,204989730_9,436617523_1
1,15404286_4,204998669_1,204998678_1,328078178_4
1,204974723_1,655501794_3,655501850_1,655501853_1
1,201680483_4,201680483_5,207517640_2,207517640_3
1,314612912_1,655501854_1
0,37749558_2,37749559_1
1,130624549_5,130624549_6,204974723_4,204974723_5
1,25758373_7,25758373_8,258828956_5,655283350_1,655283351_1,656122466_2
3,25758373_4,25758373_5,40526567_1,204964753_3,321869241_1,321870324_1
0,30602324_1,30602326_4
0,37749558_1,315821984_2
0,655501858_3,655501858_4
0,656122421_1,656122421_2
0,258828956_2,258828956_3
0,141161580_3,141161580_4
0,321870323_2,321870323_3
0,130624544_2,130624544_3
0,655501856_2,655501856_3
0,655283395_2,655283395_3
0,204974761_4,204974761_5
0,314612912_2,314612912_3
0,655501852_2,655501852_3
0,655501852_7,655501852_8
0,204974723_6,204974723_7
0,204974723_10,204974723_11
0,15388175_2,15388175_3
0,130624549_7,130624549_8
0,30511389_4,30511389_5
0,275398021_2,275398021_3
0,15382769_3,15382769_4
0,204981554_10,204981554_11
0,144469638_2,144469638_3
0,15404286_2,15404286_3
0,201680484_7,201680484_8
0,37749560_5,37749560_6
0,15377309_2,15377309_3
0,655501854_2,655501854_3
0,15383474_2,15383474_3
0,32065527_6,32065527_7
0,32065527_10,32065527_11
0,32065527_16,32065527_17
0,204998668_2,204998668_3
0,328078178_2,328078178_3
0,204998669_5,204998669_6
0,204998669_9,204998669_10
0,30148740_2,30148740_3
0,30148740_6,30148740_7
0,655283392_2,655283392_3
0,204981569_3,204981569_4
0,204981569_9,204981569_10
0,436617523_2,436617523_3
0,436617523_6,436617523_7
0,201680483_2,201680483_3
0,201680483_6,201680483_7
0,436617518_2,436617518_3
0,436617517_2,436617517_3
0,204981568_2,204981568_3
0,204981568_8,204981568_9
0,30602326_2,30602326_3
0,143948185_2,143948185_3
0,422088248_2,422088248_3
0,143948186_2,143948186_3
0,143948186_6,143948186_7
0,315821985_2,315821985_3
0,315904413_2,315904413_3
0,315821986_2,315821986_3
0,315821986_6,315821986_7
0,15396565_5,15396565_6
0,37749559_2,37749559_3
0,31165968_2,31165968_3
0,15396565_8,103072755_1
1,436610720_2,436610720_3
0,15396565_1,204999703_1,204999703_2
2,27401240_1,27401240_2
0,27401241_4,149706995_1
0,207517639_1,207517640_1
0,204998678_2,207517639_1
0,204998668_3,207524116_1
1,30511389_12,311608420_1,436615692_1,655283350_3
0,15381973_2,15381973_3
0,30511389_2,30511389_3
0,30511389_3,30511389_4
0,129170700_4,129170700_5
1,25758373_8,25758373_9,258828956_1,436613537_1,436742886_2,655283390_7
0,25758373_1,25758373_9,40526566_1,40526567_6,655283390_3,655283390_4
2,25758373_5,25758373_6,321870324_1,321870324_2
0,30148684_3,30148684_4
0,328078180_2,328078182_1
0,655283396_2,655283396_3
0,27401241_2,27401241_3
0,40526566_6,40526566_7
2,37020142_1,37020142_2
2,201680470_3,201680470_4
2,655501857_3,655501857_4
2,130624540_1,130624540_2
2,655501857_2,655501857_3
2,655501856_1,655501856_2
2,655501851_1,655501853_2
2,655501853_1,655501853_2
2,655501850_1,655501852_8
2,655501852_6,655501852_7
2,655501844_1,655501844_2
2,15404286_1,15404286_2
2,204974728_5,204974728_6
2,201680484_8,201680484_9
2,15377309_1,15377309_2
2,204974728_2,204974728_3
2,436612059_1,436612059_2
2,204974728_4,204974728_5
2,314612912_3,314612912_4
2,15377309_3,15377309_4
2,655501852_1,655501852_2
2,204974799_1,204974799_2
2,204974801_1,204974801_2
2,204998669_4,204998669_5
2,37749560_4,37749560_5
2,37749560_2,37749560_3
2,204998669_2,204998669_3
2,37749560_1,37749560_2
2,436617519_1,436617519_2
2,436612058_1,436612058_2
2,201680483_1,201680483_2
2,207517640_4,207517640_5
2,655283392_3,655283392_4
2,15383474_6,15383474_7
2,204998669_6,204998669_7
2,15383474_5,15383474_6
2,15383474_3,15383474_4
2,204998669_8,204998669_9
2,204974728_1,204974728_2
2,15383474_1,15383474_2
2,655501854_3,655501854_4
2,655501845_4,655501845_5
4,315904413_3,436610717_1
4,204989759_2,436610719_1
4,436612058_1,436612060_10
4,37749560_6,436612059_1
4,143948165_2,436613328_1
4,204981553_5,436613327_1
4,258828955_1,436613537_2
4,311608419_1,436615692_5
4,436616711_1,436616714_3
4,204999708_3,436616716_1
4,436617515_1,436617517_3
4,201680483_7,436617513_1
4,436617519_1,436617523_7
4,436625345_1,655283396_3
4,436742886_1,656122421_2
0,40526566_9,40526566_10
0,201680470_2,201680470_3
0,25758373_3,25758373_4,40526567_3,40526567_4
2,655283390_6,655283390_7
0,25758373_2,25758373_3,40526567_4,40526567_5
2,258828956_1,258828956_2
2,25758373_6,25758373_7,656122466_1,656122466_2
2,258828956_4,258828956_5
0,315904410_2,315904410_3
0,40526566_8,40526566_9
2,172814612_2,172814612_3
2,143948186_7,143948186_8
0,436610720_1,436610720_2
0,204999708_2,204999708_3
0,204999703_2,204999703_3
0,422086391_1,422086391_2
2,204998678_1,204998678_2
2,328078178_3,328078178_4
2,15404286_3,15404286_4
2,204998669_1,204998669_2
2,436617523_5,436617523_6
2,436617523_3,436617523_4
0,204999708_1,204999708_2
2,655501844_2,655501844_3
2,30756754_1,30756754_2
2,204981554_11,204981554_12
0,655501857_1,655501857_2
2,144469638_1,144469638_2
2,204999701_2,204999701_3
2,30756754_3,30756754_4
2,15388175_1,15388175_2
0,130624549_1,130624549_2
2,130624549_8,130624549_9
2,204999701_1,204999701_2
0,15382769_8,15382769_9
0,15381973_1,15381973_2
2,315821986_10,315821986_11
2,315821986_5,315821986_6
0,315821986_3,315821986_4
2,436612060_1,436612060_2
2,436612060_3,436612060_4
0,315821986_1,315821986_2
0,436610717_1,436610717_2
0,315821984_1,315821984_2
0,422088238_2,422088238_3
0,328078180_1,328078180_2
0,328078179_2,328078179_3
0,315821986_9,315821986_10
0,315821986_7,315821986_8
2,204989759_1,204989759_2
2,204989730_1,204989730_2
2,15396942_1,15396942_2
0,15396565_7,15396565_8
0,15396565_6,15396565_7
2,204981569_16,204981569_17
0,275398021_1,275398021_2
0,32065527_7,32065527_8
0,32065527_9,32065527_10
0,30148684_8,30148684_9
2,30148684_4,30148684_5
0,204974723_14,204974723_15
0,144469638_3,655501794_1
0,130624540_2,656122421_1
0,141161580_1,656122436_3
0,321870324_3,656122466_1
0,436616716_1,436616716_2
0,436613328_1,436613328_2
0,315821983_1,315821983_2
0,315821985_1,315821985_2
2,15382778_1,15382778_2
2,143948165_1,143948165_2
2,143948185_1,143948185_2
2,436613327_1,436613327_2
2,204981553_4,204981553_5
2,30148740_5,30148740_6
2,204981553_2,204981553_3
0,30148740_3,30148740_4
2,436617517_1,436617517_2
2,204981553_1,204981553_2
2,436617518_3,436617518_4
2,204998675_3,204998675_4
2,32065527_17,32065527_18
2,204998675_1,204998675_2
2,204998668_1,204998668_2
2,15388175_4,15388175_5
2,204981568_1,204981568_2
2,436617515_1,436617515_2
2,422088238_1,422088238_2
2,143948186_1,143948186_2
2,143948186_5,143948186_6
2,143948186_3,143948186_4
2,204964753_2,204964753_3
2,311608420_2,311608420_3
2,655283350_1,655283350_2
2,655283351_1,655283351_2
2,436742886_1,436742886_2
2,436613537_1,436613537_2
2,130624549_4,130624549_5
2,204974723_3,204974723_4
2,130624549_6,130624549_7
2,204974723_5,204974723_6
2,258828955_2,258828955_3
2,130624544_1,130624544_2
2,130624549_2,130624549_3
2,321870323_3,321870323_4
2,204999702_2,204999702_3
2,263361802_3,263361802_4
2,30602326_3,30602326_4
2,30148740_1,30148740_2
2,204981554_9,204981554_10
2,207524116_1,207524116_2
2,204981554_7,204981554_8
2,328078178_1,328078178_2
2,436617513_1,436617513_2
2,436617518_1,436617518_2
2,204981554_1,204981554_2
2,655283392_1,655283392_2
2,422088229_2,422088229_3
2,30148740_7,30148740_8
2,422088229_1,422088229_2
2,422088248_1,422088248_2
2,143948185_3,143948185_4
0,315904408_1,315904408_2
0,315904413_1,315904413_2
0,37749556_3,37749556_4
0,315821985_4,315821985_5
2,204974723_7,204974723_8
2,204974723_9,204974723_10
2,15382769_4,15382769_5
2,141161580_5,141161580_6
2,40526566_1,40526566_2
2,655283390_2,655283390_3
2,655283396_1,655283396_2
2,204974801_2,204974801_3
2,41287628_1,41287628_2
2,130624544_4,130624544_5
2,655283395_1,655283395_2
2,204981554_6,204981554_7
2,204981554_3,204981554_4
2,40526566_4,40526566_5
2,15381973_9,15381973_10
2,311608419_2,311608419_3
2,207517640_1,207517640_2
2,201680483_3,201680483_4
2,207517640_3,207517640_4
2,201680483_5,201680483_6
2,204989730_5,204989730_6
2,204981569_14,204981569_15
2,204989730_3,204989730_4
2,204981569_12,204981569_13
2,172814612_1,172814612_2
2,204981569_10,204981569_11
2,204981569_7,204981569_8
2,436612060_5,436612060_6
2,204981569_4,204981569_5
2,436612060_8,436612060_9
2,655283393_2,655283393_3
2,204981569_1,204981569_2
2,315904408_3,315904408_4
2,655283393_3,655283393_4
2,422088248_3,422088248_4
2,328078179_1,328078179_2
2,328078187_1,328078187_2
2,129170700_8,129170700_9
2,32065527_15,32065527_16
2,129170700_5,129170700_6
2,32065527_12,32065527_13
2,15382769_1,15382769_2
2,204964687_2,204964687_3
2,129170700_2,129170700_3
2,129170700_10,129170700_11
2,263361802_2,263361802_3
2,15381973_5,15381973_6
2,15382769_6,15382769_7
2,655501794_1,655501794_2
2,204974723_2,204974723_3
2,201680484_6,201680484_7
2,655501852_3,655501852_4
2,201680484_2,201680484_3
2,141161580_2,141161580_3
2,30511389_10,30511389_11
2,656122436_2,656122436_3
2,30511389_8,30511389_9
2,15382769_7,15382769_8
2,321870323_1,321870323_2
2,655283351_3,655283351_4
2,30511389_1,30511389_2
2,204964687_1,204964687_2
2,275398021_3,275398021_4
2,30511389_7,30511389_8
2,30511389_5,30511389_6
2,204974723_11,204974723_12
0,655501856_3,655501856_4
2,201680484_1,201680484_2
2,655283394_2,655283394_3
2,204974761_2,204974761_3
2,204974799_3,204974799_4
2,655283390_4,655283390_5
0,25758373_1,25758373_2,40526567_5,40526567_6
2,15381973_3,15381973_4
2,15381973_7,15381973_8
2,436615692_2,436615692_3
2,436615692_4,436615692_5
2,204974723_15,204974723_16
2,204974723_17,204974723_18
2,204974723_13,204974723_14
2,436615692_1,436615692_2
2,30511389_11,30511389_12
2,655283350_2,655283350_3
0,40526567_2,40526567_3
2,143978650_3,143978650_4
2,143978650_4,143978650_5
2,436625345_1,436625345_2
2,655283394_1,655283394_2
2,201680470_1,201680470_2
2,149706995_3,149706995_4
2,30148684_2,30148684_3
2,30602326_1,30602326_2
2,30148684_7,30148684_8
2,204981568_3,204981568_4
2,204981568_6,204981568_7
