Segment Id,Start Node,End Node,Perant Road ID,Road Name,State,Road Type,Lanes,TurnLanes,OneWay,Surface,Lit,SideWalk,Left Side parking,Right Side parking,Both Side parking,Direction
11616171_1,103682811,6339539092,11616171,Somme Street,"Essex,NJ",residential,. ,. ,. ,. ,. ,. ,. ,. ,. ,. 
11616171_2,6339539092,6895030153,11616171,Somme Street,"Essex,NJ",residential,. ,. ,. ,. ,. ,. ,. ,. ,. ,. 
11616171_3,6895030153,6895030151,11616171,Somme Street,"Essex,NJ",residential,. ,. ,. ,. ,. ,. ,. ,. ,. ,. 
11616171_4,6895030151,6895030150,11616171,Somme Street,"Essex,NJ",residential,. ,. ,. ,. ,. ,. ,. ,. ,. ,. 
11616171_5,6895030150,103682814,11616171,Somme Street,"Essex,NJ",residential,. ,. ,. ,. ,. ,. ,. ,. ,. ,. 
11616334_1,103684556,747626711,11616334,Jackson Street,"Essex,NJ",primary,. ,. ,. ,. ,. ,. ,. ,. ,. ,. 
11616492_1,103656794,103687363,11616492,Christie Street,"Essex,NJ",residential,. ,. ,. ,. ,. ,. ,. ,. ,. ,. 
11616492_2,103687363,103687365,11616492,Christie Street,"Essex,NJ",residential,. ,. ,. ,. ,. ,. ,. ,. ,. ,. 
11616492_3,103687365,1051398710,11616492,Christie Street,"Essex,NJ",residential,. ,. ,. ,. ,. ,. ,. ,. ,. ,. 
11616492_4,1051398710,1051398711,11616492,Christie Street,"Essex,NJ",residential,. ,. ,. ,. ,. ,. ,. ,. ,. ,. 
11616492_5,1051398711,103687366,11616492,Christie Street,"Essex,NJ",residential,. ,. ,. ,. ,. ,. ,. ,. ,. ,. 
11616492_6,103687366,103687369,11616492,Christie Street,"Essex,NJ",residential,. ,. ,. ,. ,. ,. ,. ,. ,. ,. 
11616804_1,103691649,103692125,11616804,New York Avenue,"Essex,NJ",residential,2,. ,. ,. ,. ,. ,. ,. ,. ,. 
11616804_2,103692125,103692127,11616804,New York Avenue,"Essex,NJ",residential,2,. ,. ,. ,. ,. ,. ,. ,. ,. 
11616804_3,103692127,103692128,11616804,New York Avenue,"Essex,NJ",residential,2,. ,. ,. ,. ,. ,. ,. ,. ,. 
11616804_4,103692128,103692130,11616804,New York Avenue,"Essex,NJ",residential,2,. ,. ,. ,. ,. ,. ,. ,. ,. 
11616804_5,103692130,103692134,11616804,New York Avenue,"Essex,NJ",residential,2,. ,. ,. ,. ,. ,. ,. ,. ,. 
11616804_6,103692134,103692137,11616804,New York Avenue,"Essex,NJ",residential,2,. ,. ,. ,. ,. ,. ,. ,. ,. 
11616804_7,103692137,103692139,11616804,New York Avenue,"Essex,NJ",residential,2,. ,. ,. ,. ,. ,. ,. ,. ,. 
11616804_8,103692139,103692141,11616804,New York Avenue,"Essex,NJ",residential,2,. ,. ,. ,. ,. ,. ,. ,. ,. 
11616806_1,103692149,103692151,11616806,New York Avenue,"Essex,NJ",residential,2,. ,. ,. ,. ,. ,. ,. ,. ,. 
11616806_2,103692151,103692153,11616806,New York Avenue,"Essex,NJ",residential,2,. ,. ,. ,. ,. ,. ,. ,. ,. 
11616806_3,103692153,103692155,11616806,New York Avenue,"Essex,NJ",residential,2,. ,. ,. ,. ,. ,. ,. ,. ,. 
11616806_4,103692155,103692158,11616806,New York Avenue,"Essex,NJ",residential,2,. ,. ,. ,. ,. ,. ,. ,. ,. 
11616806_5,103692158,103692160,11616806,New York Avenue,"Essex,NJ",residential,2,. ,. ,. ,. ,. ,. ,. ,. ,. 
11616806_6,103692160,103692162,11616806,New York Avenue,"Essex,NJ",residential,2,. ,. ,. ,. ,. ,. ,. ,. ,. 
11616806_7,103692162,103692164,11616806,New York Avenue,"Essex,NJ",residential,2,. ,. ,. ,. ,. ,. ,. ,. ,. 
11616806_8,103692164,103692166,11616806,New York Avenue,"Essex,NJ",residential,2,. ,. ,. ,. ,. ,. ,. ,. ,. 
11616806_9,103692166,103692168,11616806,New York Avenue,"Essex,NJ",residential,2,. ,. ,. ,. ,. ,. ,. ,. ,. 
11616811_1,103739001,4336479771,11616811,Chestnut Street,. ,tertiary,. ,. ,. ,. ,. ,. ,. ,. ,. ,. 
11616811_2,4336479771,103692310,11616811,Chestnut Street,. ,tertiary,. ,. ,. ,. ,. ,. ,. ,. ,. ,. 
11616811_3,103692310,4336477726,11616811,Chestnut Street,. ,tertiary,. ,. ,. ,. ,. ,. ,. ,. ,. ,. 
11616811_4,4336477726,103692308,11616811,Chestnut Street,. ,tertiary,. ,. ,. ,. ,. ,. ,. ,. ,. ,. 
11616811_5,103692308,103692306,11616811,Chestnut Street,. ,tertiary,. ,. ,. ,. ,. ,. ,. ,. ,. ,. 
11616811_6,103692306,103692304,11616811,Chestnut Street,. ,tertiary,. ,. ,. ,. ,. ,. ,. ,. ,. ,. 
11616811_7,103692304,103692302,11616811,Chestnut Street,. ,tertiary,. ,. ,. ,. ,. ,. ,. ,. ,. ,. 
11616811_8,103692302,103692298,11616811,Chestnut Street,. ,tertiary,. ,. ,. ,. ,. ,. ,. ,. ,. ,. 
11616811_9,103692298,103692296,11616811,Chestnut Street,. ,tertiary,. ,. ,. ,. ,. ,. ,. ,. ,. ,. 
11616811_10,103692296,6902227047,11616811,Chestnut Street,. ,tertiary,. ,. ,. ,. ,. ,. ,. ,. ,. ,. 
11616811_11,6902227047,6902227037,11616811,Chestnut Street,. ,tertiary,. ,. ,. ,. ,. ,. ,. ,. ,. ,. 
11616811_12,6902227037,5569725513,11616811,Chestnut Street,. ,tertiary,. ,. ,. ,. ,. ,. ,. ,. ,. ,. 
11616811_13,5569725513,103692292,11616811,Chestnut Street,. ,tertiary,. ,. ,. ,. ,. ,. ,. ,. ,. ,. 
11617063_1,103672386,103695121,11617063,Jefferson Street,"Essex,NJ",residential,. ,. ,yes,. ,. ,. ,. ,. ,. ,. 
11617063_2,103695121,103692296,11617063,Jefferson Street,"Essex,NJ",residential,. ,. ,yes,. ,. ,. ,. ,. ,. ,. 
11617064_1,747626750,747626751,11617064,Jefferson Street,"Essex,NJ",residential,. ,. ,yes,. ,. ,. ,. ,. ,. ,. 
11617064_2,747626751,103686135,11617064,Jefferson Street,"Essex,NJ",residential,. ,. ,yes,. ,. ,. ,. ,. ,. ,. 
11617067_1,103686135,103695151,11617067,Jefferson Street,"Essex,NJ",residential,. ,. ,yes,. ,. ,. ,. ,. ,. ,. 
11617067_2,103695151,103695152,11617067,Jefferson Street,"Essex,NJ",residential,. ,. ,yes,. ,. ,. ,. ,. ,. ,. 
11617067_3,103695152,103695154,11617067,Jefferson Street,"Essex,NJ",residential,. ,. ,yes,. ,. ,. ,. ,. ,. ,. 
11617067_4,103695154,5569725512,11617067,Jefferson Street,"Essex,NJ",residential,. ,. ,yes,. ,. ,. ,. ,. ,. ,. 
11617067_5,5569725512,103695156,11617067,Jefferson Street,"Essex,NJ",residential,. ,. ,yes,. ,. ,. ,. ,. ,. ,. 
11617067_6,103695156,5569725511,11617067,Jefferson Street,"Essex,NJ",residential,. ,. ,yes,. ,. ,. ,. ,. ,. ,. 
11617067_7,5569725511,4344829622,11617067,Jefferson Street,"Essex,NJ",residential,. ,. ,yes,. ,. ,. ,. ,. ,. ,. 
11617067_8,4344829622,103695192,11617067,Jefferson Street,"Essex,NJ",residential,. ,. ,yes,. ,. ,. ,. ,. ,. ,. 
11617067_9,103695192,103695196,11617067,Jefferson Street,"Essex,NJ",residential,. ,. ,yes,. ,. ,. ,. ,. ,. ,. 
11617067_10,103695196,103692137,11617067,Jefferson Street,"Essex,NJ",residential,. ,. ,yes,. ,. ,. ,. ,. ,. ,. 
11617067_11,103692137,103695198,11617067,Jefferson Street,"Essex,NJ",residential,. ,. ,yes,. ,. ,. ,. ,. ,. ,. 
11617067_12,103695198,103695200,11617067,Jefferson Street,"Essex,NJ",residential,. ,. ,yes,. ,. ,. ,. ,. ,. ,. 
11617067_13,103695200,103672386,11617067,Jefferson Street,"Essex,NJ",residential,. ,. ,yes,. ,. ,. ,. ,. ,. ,. 
11617146_1,103695859,103695858,11617146,Providence Street,"Essex,NJ",residential,. ,. ,yes,. ,. ,. ,. ,. ,. ,. 
11617227_1,103696800,103696798,11617227,Union Street,"Essex,NJ",residential,. ,. ,yes,. ,. ,. ,. ,. ,. ,. 
11617227_2,103696798,103696794,11617227,Union Street,"Essex,NJ",residential,. ,. ,yes,. ,. ,. ,. ,. ,. ,. 
11617227_3,103696794,103696792,11617227,Union Street,"Essex,NJ",residential,. ,. ,yes,. ,. ,. ,. ,. ,. ,. 
11617227_4,103696792,7146251551,11617227,Union Street,"Essex,NJ",residential,. ,. ,yes,. ,. ,. ,. ,. ,. ,. 
11617227_5,7146251551,103696790,11617227,Union Street,"Essex,NJ",residential,. ,. ,yes,. ,. ,. ,. ,. ,. ,. 
11617227_6,103696790,103653233,11617227,Union Street,"Essex,NJ",residential,. ,. ,yes,. ,. ,. ,. ,. ,. ,. 
11617227_7,103653233,103696786,11617227,Union Street,"Essex,NJ",residential,. ,. ,yes,. ,. ,. ,. ,. ,. ,. 
11617272_1,103697495,103697497,11617272,Wall Street,"Essex,NJ",residential,. ,. ,. ,. ,. ,. ,. ,. ,. ,. 
11617272_2,103697497,103697499,11617272,Wall Street,"Essex,NJ",residential,. ,. ,. ,. ,. ,. ,. ,. ,. ,. 
11617272_3,103697499,103697500,11617272,Wall Street,"Essex,NJ",residential,. ,. ,. ,. ,. ,. ,. ,. ,. ,. 
11617272_4,103697500,103697501,11617272,Wall Street,"Essex,NJ",residential,. ,. ,. ,. ,. ,. ,. ,. ,. ,. 
11617484_1,103686141,103700475,11617484,Monroe Street,"Essex,NJ",residential,1,. ,yes,. ,. ,. ,. ,. ,. ,. 
11617484_2,103700475,103700477,11617484,Monroe Street,"Essex,NJ",residential,1,. ,yes,. ,. ,. ,. ,. ,. ,. 
11617484_3,103700477,103700479,11617484,Monroe Street,"Essex,NJ",residential,1,. ,yes,. ,. ,. ,. ,. ,. ,. 
11617484_4,103700479,103700481,11617484,Monroe Street,"Essex,NJ",residential,1,. ,yes,. ,. ,. ,. ,. ,. ,. 
11617484_5,103700481,103700484,11617484,Monroe Street,"Essex,NJ",residential,1,. ,yes,. ,. ,. ,. ,. ,. ,. 
11617484_6,103700484,103761266,11617484,Monroe Street,"Essex,NJ",residential,1,. ,yes,. ,. ,. ,. ,. ,. ,. 
11617740_1,103703907,4337881206,11617740,Merchant Place,"Essex,NJ",residential,. ,. ,. ,. ,. ,. ,. ,. ,. ,. 
11617740_2,4337881206,103703909,11617740,Merchant Place,"Essex,NJ",residential,. ,. ,. ,. ,. ,. ,. ,. ,. ,. 
11617777_1,103704292,103704294,11617777,Paterson Street,"Essex,NJ",residential,. ,. ,yes,. ,. ,. ,. ,. ,. ,. 
11617777_2,103704294,103697499,11617777,Paterson Street,"Essex,NJ",residential,. ,. ,yes,. ,. ,. ,. ,. ,. ,. 
11617777_3,103697499,103704295,11617777,Paterson Street,"Essex,NJ",residential,. ,. ,yes,. ,. ,. ,. ,. ,. ,. 
11617854_1,103665502,103702597,11617854,North J RR Avenue,"Essex,NJ",residential,. ,. ,. ,asphalt,. ,. ,. ,. ,. ,N
11618070_1,103702458,103692160,11618070,Houston Street,"Essex,NJ",residential,. ,. ,yes,. ,. ,. ,. ,. ,. ,. 
11618070_2,103692160,103707732,11618070,Houston Street,"Essex,NJ",residential,. ,. ,yes,. ,. ,. ,. ,. ,. ,. 
11618447_1,103712555,103712557,11618447,Wilson Avenue,"Essex,NJ",secondary,. ,. ,. ,. ,. ,. ,. ,. ,. ,. 
11618447_2,103712557,103712559,11618447,Wilson Avenue,"Essex,NJ",secondary,. ,. ,. ,. ,. ,. ,. ,. ,. ,. 
11618447_3,103712559,103712561,11618447,Wilson Avenue,"Essex,NJ",secondary,. ,. ,. ,. ,. ,. ,. ,. ,. ,. 
11618447_4,103712561,103712563,11618447,Wilson Avenue,"Essex,NJ",secondary,. ,. ,. ,. ,. ,. ,. ,. ,. ,. 
11618447_5,103712563,103712565,11618447,Wilson Avenue,"Essex,NJ",secondary,. ,. ,. ,. ,. ,. ,. ,. ,. ,. 
11618447_6,103712565,103712567,11618447,Wilson Avenue,"Essex,NJ",secondary,. ,. ,. ,. ,. ,. ,. ,. ,. ,. 
11618447_7,103712567,2902437011,11618447,Wilson Avenue,"Essex,NJ",secondary,. ,. ,. ,. ,. ,. ,. ,. ,. ,. 
11618447_8,2902437011,103712572,11618447,Wilson Avenue,"Essex,NJ",secondary,. ,. ,. ,. ,. ,. ,. ,. ,. ,. 
11618447_9,103712572,658553447,11618447,Wilson Avenue,"Essex,NJ",secondary,. ,. ,. ,. ,. ,. ,. ,. ,. ,. 
11618447_10,658553447,103712573,11618447,Wilson Avenue,"Essex,NJ",secondary,. ,. ,. ,. ,. ,. ,. ,. ,. ,. 
11618447_11,103712573,103712577,11618447,Wilson Avenue,"Essex,NJ",secondary,. ,. ,. ,. ,. ,. ,. ,. ,. ,. 
11618447_12,103712577,295515452,11618447,Wilson Avenue,"Essex,NJ",secondary,. ,. ,. ,. ,. ,. ,. ,. ,. ,. 
11618447_13,295515452,6902858494,11618447,Wilson Avenue,"Essex,NJ",secondary,. ,. ,. ,. ,. ,. ,. ,. ,. ,. 
11618447_14,6902858494,103691023,11618447,Wilson Avenue,"Essex,NJ",secondary,. ,. ,. ,. ,. ,. ,. ,. ,. ,. 
11618447_15,103691023,6676476837,11618447,Wilson Avenue,"Essex,NJ",secondary,. ,. ,. ,. ,. ,. ,. ,. ,. ,. 
11618447_16,6676476837,103712583,11618447,Wilson Avenue,"Essex,NJ",secondary,. ,. ,. ,. ,. ,. ,. ,. ,. ,. 
11618447_17,103712583,103712585,11618447,Wilson Avenue,"Essex,NJ",secondary,. ,. ,. ,. ,. ,. ,. ,. ,. ,. 
11618447_18,103712585,103712587,11618447,Wilson Avenue,"Essex,NJ",secondary,. ,. ,. ,. ,. ,. ,. ,. ,. ,. 
11618447_19,103712587,103712589,11618447,Wilson Avenue,"Essex,NJ",secondary,. ,. ,. ,. ,. ,. ,. ,. ,. ,. 
11618447_20,103712589,103712591,11618447,Wilson Avenue,"Essex,NJ",secondary,. ,. ,. ,. ,. ,. ,. ,. ,. ,. 
11618447_21,103712591,3888203352,11618447,Wilson Avenue,"Essex,NJ",secondary,. ,. ,. ,. ,. ,. ,. ,. ,. ,. 
11618467_1,103684570,103712891,11618467,Downing Street,"Essex,NJ",residential,. ,. ,yes,. ,. ,. ,. ,. ,. ,. 
11618467_2,103712891,103700477,11618467,Downing Street,"Essex,NJ",residential,. ,. ,yes,. ,. ,. ,. ,. ,. ,. 
11618467_3,103700477,103712889,11618467,Downing Street,"Essex,NJ",residential,. ,. ,yes,. ,. ,. ,. ,. ,. ,. 
11618467_4,103712889,103695152,11618467,Downing Street,"Essex,NJ",residential,. ,. ,yes,. ,. ,. ,. ,. ,. ,. 
11618653_1,103712549,103716449,11618653,Darcy Street,"Essex,NJ",residential,. ,. ,yes,. ,. ,. ,. ,. ,. ,. 
11618653_2,103716449,103697501,11618653,Darcy Street,"Essex,NJ",residential,. ,. ,yes,. ,. ,. ,. ,. ,. ,. 
11618653_3,103697501,103716452,11618653,Darcy Street,"Essex,NJ",residential,. ,. ,yes,. ,. ,. ,. ,. ,. ,. 
11618653_4,103716452,103682814,11618653,Darcy Street,"Essex,NJ",residential,. ,. ,yes,. ,. ,. ,. ,. ,. ,. 
11618653_5,103682814,103682819,11618653,Darcy Street,"Essex,NJ",residential,. ,. ,yes,. ,. ,. ,. ,. ,. ,. 
11618653_6,103682819,103716455,11618653,Darcy Street,"Essex,NJ",residential,. ,. ,yes,. ,. ,. ,. ,. ,. ,. 
11618660_1,103716586,6861858965,11618660,Mc Whorter Street,"Essex,NJ",residential,. ,. ,yes,. ,. ,. ,. ,. ,. ,. 
11618660_2,6861858965,103653231,11618660,Mc Whorter Street,"Essex,NJ",residential,. ,. ,yes,. ,. ,. ,. ,. ,. ,. 
11618660_3,103653231,6861858962,11618660,Mc Whorter Street,"Essex,NJ",residential,. ,. ,yes,. ,. ,. ,. ,. ,. ,. 
11618660_4,6861858962,6476603230,11618660,Mc Whorter Street,"Essex,NJ",residential,. ,. ,yes,. ,. ,. ,. ,. ,. ,. 
11618660_5,6476603230,103716608,11618660,Mc Whorter Street,"Essex,NJ",residential,. ,. ,yes,. ,. ,. ,. ,. ,. ,. 
11618660_6,103716608,6476603231,11618660,Mc Whorter Street,"Essex,NJ",residential,. ,. ,yes,. ,. ,. ,. ,. ,. ,. 
11618660_7,6476603231,103716614,11618660,Mc Whorter Street,"Essex,NJ",residential,. ,. ,yes,. ,. ,. ,. ,. ,. ,. 
11618660_8,103716614,6929381554,11618660,Mc Whorter Street,"Essex,NJ",residential,. ,. ,yes,. ,. ,. ,. ,. ,. ,. 
11618660_9,6929381554,103716620,11618660,Mc Whorter Street,"Essex,NJ",residential,. ,. ,yes,. ,. ,. ,. ,. ,. ,. 
11618660_10,103716620,103706506,11618660,Mc Whorter Street,"Essex,NJ",residential,. ,. ,yes,. ,. ,. ,. ,. ,. ,. 
11618686_1,3432295812,6131876725,11618686,Commercial Street,"Essex,NJ",service,. ,. ,. ,. ,. ,. ,. ,. ,. ,. 
11618686_2,6131876725,6131876724,11618686,Commercial Street,"Essex,NJ",service,. ,. ,. ,. ,. ,. ,. ,. ,. ,. 
11618686_3,6131876724,6131876723,11618686,Commercial Street,"Essex,NJ",service,. ,. ,. ,. ,. ,. ,. ,. ,. ,. 
11618686_4,6131876723,3432295811,11618686,Commercial Street,"Essex,NJ",service,. ,. ,. ,. ,. ,. ,. ,. ,. ,. 
11618686_5,3432295811,103717174,11618686,Commercial Street,"Essex,NJ",service,. ,. ,. ,. ,. ,. ,. ,. ,. ,. 
11618686_6,103717174,651854134,11618686,Commercial Street,"Essex,NJ",service,. ,. ,. ,. ,. ,. ,. ,. ,. ,. 
11618686_7,651854134,652442740,11618686,Commercial Street,"Essex,NJ",service,. ,. ,. ,. ,. ,. ,. ,. ,. ,. 
11618689_1,103702590,2649253385,11618689,Alling Street,"Essex,NJ",residential,. ,. ,yes,. ,. ,. ,. ,. ,. ,. 
11618698_1,103702443,103717324,11618698,Lang Street,"Essex,NJ",residential,. ,. ,. ,. ,. ,. ,. ,. ,. ,. 
11618698_2,103717324,103692153,11618698,Lang Street,"Essex,NJ",residential,. ,. ,. ,. ,. ,. ,. ,. ,. ,. 
11618698_3,103692153,103706513,11618698,Lang Street,"Essex,NJ",residential,. ,. ,. ,. ,. ,. ,. ,. ,. ,. 
11618739_1,103718524,103718527,11618739,Brill Street,"Essex,NJ",residential,. ,. ,. ,. ,. ,. ,. ,. ,. ,. 
11618739_2,103718527,103718529,11618739,Brill Street,"Essex,NJ",residential,. ,. ,. ,. ,. ,. ,. ,. ,. ,. 
11618739_3,103718529,103718539,11618739,Brill Street,"Essex,NJ",residential,. ,. ,. ,. ,. ,. ,. ,. ,. ,. 
11618740_1,103718539,103718542,11618740,Brill Street,"Essex,NJ",residential,. ,. ,. ,. ,. ,. ,. ,. ,. ,. 
11618740_2,103718542,103687366,11618740,Brill Street,"Essex,NJ",residential,. ,. ,. ,. ,. ,. ,. ,. ,. ,. 
11618793_1,103696790,103719807,11618793,Dodd Alley,"Essex,NJ",service,. ,. ,. ,. ,. ,. ,. ,. ,. ,. 
11618821_1,103712551,103692158,11618821,Napoleon Street,"Essex,NJ",residential,. ,. ,yes,. ,. ,. ,. ,. ,. ,. 
11618821_2,103692158,103702454,11618821,Napoleon Street,"Essex,NJ",residential,. ,. ,yes,. ,. ,. ,. ,. ,. ,. 
11619367_1,103710304,103699872,11619367,Green Street,. ,residential,. ,. ,yes,. ,. ,. ,. ,. ,. ,. 
11619367_2,103699872,103728447,11619367,Green Street,. ,residential,. ,. ,yes,. ,. ,. ,. ,. ,. ,. 
11619367_3,103728447,103728449,11619367,Green Street,. ,residential,. ,. ,yes,. ,. ,. ,. ,. ,. ,. 
11619367_4,103728449,103728450,11619367,Green Street,. ,residential,. ,. ,yes,. ,. ,. ,. ,. ,. ,. 
11619367_5,103728450,103718631,11619367,Green Street,. ,residential,. ,. ,yes,. ,. ,. ,. ,. ,. ,. 
11619367_6,103718631,103728453,11619367,Green Street,. ,residential,. ,. ,yes,. ,. ,. ,. ,. ,. ,. 
11619367_7,103728453,103691656,11619367,Green Street,. ,residential,. ,. ,yes,. ,. ,. ,. ,. ,. ,. 
11619367_8,103691656,103728456,11619367,Green Street,. ,residential,. ,. ,yes,. ,. ,. ,. ,. ,. ,. 
11619367_9,103728456,103728459,11619367,Green Street,. ,residential,. ,. ,yes,. ,. ,. ,. ,. ,. ,. 
11619367_10,103728459,103728461,11619367,Green Street,. ,residential,. ,. ,yes,. ,. ,. ,. ,. ,. ,. 
11619367_11,103728461,103728464,11619367,Green Street,. ,residential,. ,. ,yes,. ,. ,. ,. ,. ,. ,. 
11619367_12,103728464,103728467,11619367,Green Street,. ,residential,. ,. ,yes,. ,. ,. ,. ,. ,. ,. 
11619367_13,103728467,103716614,11619367,Green Street,. ,residential,. ,. ,yes,. ,. ,. ,. ,. ,. ,. 
11619367_14,103716614,103696798,11619367,Green Street,. ,residential,. ,. ,yes,. ,. ,. ,. ,. ,. ,. 
11619371_1,103728497,3569385594,11619371,Freeman Street,"Essex,NJ",residential,. ,. ,. ,. ,. ,. ,. ,. ,. ,. 
11619371_2,3569385594,3569385593,11619371,Freeman Street,"Essex,NJ",residential,. ,. ,. ,. ,. ,. ,. ,. ,. ,. 
11619371_3,3569385593,103728499,11619371,Freeman Street,"Essex,NJ",residential,. ,. ,. ,. ,. ,. ,. ,. ,. ,. 
11619371_4,103728499,103728501,11619371,Freeman Street,"Essex,NJ",residential,. ,. ,. ,. ,. ,. ,. ,. ,. ,. 
11619496_1,103708240,6866739029,11619496,Lafayette Street,. ,tertiary,2,. ,no,asphalt,. ,. ,. ,. ,. ,. 
11619496_2,6866739029,103729976,11619496,Lafayette Street,. ,tertiary,2,. ,no,asphalt,. ,. ,. ,. ,. ,. 
11619496_3,103729976,2649253198,11619496,Lafayette Street,. ,tertiary,2,. ,no,asphalt,. ,. ,. ,. ,. ,. 
11619496_4,2649253198,2649253199,11619496,Lafayette Street,. ,tertiary,2,. ,no,asphalt,. ,. ,. ,. ,. ,. 
11619496_5,2649253199,103729978,11619496,Lafayette Street,. ,tertiary,2,. ,no,asphalt,. ,. ,. ,. ,. ,. 
11619496_6,103729978,2649253196,11619496,Lafayette Street,. ,tertiary,2,. ,no,asphalt,. ,. ,. ,. ,. ,. 
11619496_7,2649253196,103718629,11619496,Lafayette Street,. ,tertiary,2,. ,no,asphalt,. ,. ,. ,. ,. ,. 
11619496_8,103718629,2649253195,11619496,Lafayette Street,. ,tertiary,2,. ,no,asphalt,. ,. ,. ,. ,. ,. 
11619496_9,2649253195,103729979,11619496,Lafayette Street,. ,tertiary,2,. ,no,asphalt,. ,. ,. ,. ,. ,. 
11619496_10,103729979,103691657,11619496,Lafayette Street,. ,tertiary,2,. ,no,asphalt,. ,. ,. ,. ,. ,. 
11619496_11,103691657,103729981,11619496,Lafayette Street,. ,tertiary,2,. ,no,asphalt,. ,. ,. ,. ,. ,. 
11619496_12,103729981,103729983,11619496,Lafayette Street,. ,tertiary,2,. ,no,asphalt,. ,. ,. ,. ,. ,. 
11619496_13,103729983,103729985,11619496,Lafayette Street,. ,tertiary,2,. ,no,asphalt,. ,. ,. ,. ,. ,. 
11619496_14,103729985,103729987,11619496,Lafayette Street,. ,tertiary,2,. ,no,asphalt,. ,. ,. ,. ,. ,. 
11619496_15,103729987,103729989,11619496,Lafayette Street,. ,tertiary,2,. ,no,asphalt,. ,. ,. ,. ,. ,. 
11619496_16,103729989,103716608,11619496,Lafayette Street,. ,tertiary,2,. ,no,asphalt,. ,. ,. ,. ,. ,. 
11619496_17,103716608,103696794,11619496,Lafayette Street,. ,tertiary,2,. ,no,asphalt,. ,. ,. ,. ,. ,. 
11619496_18,103696794,103729993,11619496,Lafayette Street,. ,tertiary,2,. ,no,asphalt,. ,. ,. ,. ,. ,. 
11619496_19,103729993,103729994,11619496,Lafayette Street,. ,tertiary,2,. ,no,asphalt,. ,. ,. ,. ,. ,. 
11619496_20,103729994,103695156,11619496,Lafayette Street,. ,tertiary,2,. ,no,asphalt,. ,. ,. ,. ,. ,. 
11619496_21,103695156,103729997,11619496,Lafayette Street,. ,tertiary,2,. ,no,asphalt,. ,. ,. ,. ,. ,. 
11619496_22,103729997,103700484,11619496,Lafayette Street,. ,tertiary,2,. ,no,asphalt,. ,. ,. ,. ,. ,. 
11619496_23,103700484,103730005,11619496,Lafayette Street,. ,tertiary,2,. ,no,asphalt,. ,. ,. ,. ,. ,. 
11619496_24,103730005,103684574,11619496,Lafayette Street,. ,tertiary,2,. ,no,asphalt,. ,. ,. ,. ,. ,. 
11619496_25,103684574,103730007,11619496,Lafayette Street,. ,tertiary,2,. ,no,asphalt,. ,. ,. ,. ,. ,. 
11619496_26,103730007,103730009,11619496,Lafayette Street,. ,tertiary,2,. ,no,asphalt,. ,. ,. ,. ,. ,. 
11619496_27,103730009,103730013,11619496,Lafayette Street,. ,tertiary,2,. ,no,asphalt,. ,. ,. ,. ,. ,. 
11619496_28,103730013,103730015,11619496,Lafayette Street,. ,tertiary,2,. ,no,asphalt,. ,. ,. ,. ,. ,. 
11619496_29,103730015,103730017,11619496,Lafayette Street,. ,tertiary,2,. ,no,asphalt,. ,. ,. ,. ,. ,. 
11619496_30,103730017,103712543,11619496,Lafayette Street,. ,tertiary,2,. ,no,asphalt,. ,. ,. ,. ,. ,. 
11619710_1,103732252,103732254,11619710,Somme Street,"Essex,NJ",residential,. ,. ,yes,. ,. ,. ,. ,. ,. ,. 
11619710_2,103732254,103686156,11619710,Somme Street,"Essex,NJ",residential,. ,. ,yes,. ,. ,. ,. ,. ,. ,. 
11619710_3,103686156,103653256,11619710,Somme Street,"Essex,NJ",residential,. ,. ,yes,. ,. ,. ,. ,. ,. ,. 
11619710_4,103653256,103732258,11619710,Somme Street,"Essex,NJ",residential,. ,. ,yes,. ,. ,. ,. ,. ,. ,. 
11619710_5,103732258,103682811,11619710,Somme Street,"Essex,NJ",residential,. ,. ,yes,. ,. ,. ,. ,. ,. ,. 
11620115_1,103737203,103737204,11620115,Hamilton Street,"Essex,NJ",residential,. ,. ,. ,. ,. ,. ,. ,. ,. ,. 
11620115_2,103737204,6476603230,11620115,Hamilton Street,"Essex,NJ",residential,. ,. ,. ,. ,. ,. ,. ,. ,. ,. 
11620115_3,6476603230,103696792,11620115,Hamilton Street,"Essex,NJ",residential,. ,. ,. ,. ,. ,. ,. ,. ,. ,. 
11620125_1,103737238,103737239,11620125,Richards Street,"Essex,NJ",residential,. ,. ,yes,. ,. ,. ,. ,. ,. ,. 
11620125_2,103737239,103737241,11620125,Richards Street,"Essex,NJ",residential,. ,. ,yes,. ,. ,. ,. ,. ,. ,. 
11620336_1,103686129,103653239,11620336,Congress Street,"Essex,NJ",residential,. ,. ,. ,. ,. ,. ,. ,. ,. ,. 
11620336_2,103653239,103739494,11620336,Congress Street,"Essex,NJ",residential,. ,. ,. ,. ,. ,. ,. ,. ,. ,. 
11620336_3,103739494,4345301204,11620336,Congress Street,"Essex,NJ",residential,. ,. ,. ,. ,. ,. ,. ,. ,. ,. 
11620336_4,4345301204,103729994,11620336,Congress Street,"Essex,NJ",residential,. ,. ,. ,. ,. ,. ,. ,. ,. ,. 
11620336_5,103729994,103739496,11620336,Congress Street,"Essex,NJ",residential,. ,. ,. ,. ,. ,. ,. ,. ,. ,. 
11620483_1,103741193,5569725515,11620483,Adams Street,"Essex,NJ",tertiary,. ,. ,yes,. ,. ,. ,. ,. ,. ,. 
11620483_2,5569725515,103728585,11620483,Adams Street,"Essex,NJ",tertiary,. ,. ,yes,. ,. ,. ,. ,. ,. ,. 
11620483_3,103728585,103741191,11620483,Adams Street,"Essex,NJ",tertiary,. ,. ,yes,. ,. ,. ,. ,. ,. ,. 
11620483_4,103741191,103692298,11620483,Adams Street,"Essex,NJ",tertiary,. ,. ,yes,. ,. ,. ,. ,. ,. ,. 
11620483_5,103692298,103741189,11620483,Adams Street,"Essex,NJ",tertiary,. ,. ,yes,. ,. ,. ,. ,. ,. ,. 
11620483_6,103741189,4927034821,11620483,Adams Street,"Essex,NJ",tertiary,. ,. ,yes,. ,. ,. ,. ,. ,. ,. 
11620483_7,4927034821,103741185,11620483,Adams Street,"Essex,NJ",tertiary,. ,. ,yes,. ,. ,. ,. ,. ,. ,. 
11620483_8,103741185,103741184,11620483,Adams Street,"Essex,NJ",tertiary,. ,. ,yes,. ,. ,. ,. ,. ,. ,. 
11620483_9,103741184,4927034822,11620483,Adams Street,"Essex,NJ",tertiary,. ,. ,yes,. ,. ,. ,. ,. ,. ,. 
11620483_10,4927034822,103741183,11620483,Adams Street,"Essex,NJ",tertiary,. ,. ,yes,. ,. ,. ,. ,. ,. ,. 
11620483_11,103741183,103692141,11620483,Adams Street,"Essex,NJ",tertiary,. ,. ,yes,. ,. ,. ,. ,. ,. ,. 
11620483_12,103692141,103706509,11620483,Adams Street,"Essex,NJ",tertiary,. ,. ,yes,. ,. ,. ,. ,. ,. ,. 
11620483_13,103706509,103741182,11620483,Adams Street,"Essex,NJ",tertiary,. ,. ,yes,. ,. ,. ,. ,. ,. ,. 
11620483_14,103741182,103730005,11620483,Adams Street,"Essex,NJ",tertiary,. ,. ,yes,. ,. ,. ,. ,. ,. ,. 
11620483_15,103730005,103741178,11620483,Adams Street,"Essex,NJ",tertiary,. ,. ,yes,. ,. ,. ,. ,. ,. ,. 
11620483_16,103741178,103712891,11620483,Adams Street,"Essex,NJ",tertiary,. ,. ,yes,. ,. ,. ,. ,. ,. ,. 
11620483_17,103712891,103741177,11620483,Adams Street,"Essex,NJ",tertiary,. ,. ,yes,. ,. ,. ,. ,. ,. ,. 
11620483_18,103741177,103741176,11620483,Adams Street,"Essex,NJ",tertiary,. ,. ,yes,. ,. ,. ,. ,. ,. ,. 
11620483_19,103741176,103686143,11620483,Adams Street,"Essex,NJ",tertiary,. ,. ,yes,. ,. ,. ,. ,. ,. ,. 
11620534_1,103741668,103741670,11620534,Oxford Street,"Essex,NJ",residential,. ,. ,yes,. ,. ,. ,. ,. ,. ,. 
11620721_1,103744845,103744843,11620721,East Kinney Street,"Essex,NJ",residential,. ,. ,yes,. ,. ,. ,. ,. ,. ,E
11620723_1,103741185,5568167653,11620723,East Kinney Street,"Essex,NJ",residential,. ,. ,yes,. ,. ,. ,. ,. ,. ,E
11620723_2,5568167653,103672386,11620723,East Kinney Street,"Essex,NJ",residential,. ,. ,yes,. ,. ,. ,. ,. ,. ,E
11620723_3,103672386,5568167652,11620723,East Kinney Street,"Essex,NJ",residential,. ,. ,yes,. ,. ,. ,. ,. ,. ,E
11620723_4,5568167652,103744861,11620723,East Kinney Street,"Essex,NJ",residential,. ,. ,yes,. ,. ,. ,. ,. ,. ,E
11620723_5,103744861,103716629,11620723,East Kinney Street,"Essex,NJ",residential,. ,. ,yes,. ,. ,. ,. ,. ,. ,E
11620723_6,103716629,3158791822,11620723,East Kinney Street,"Essex,NJ",residential,. ,. ,yes,. ,. ,. ,. ,. ,. ,E
11620723_7,3158791822,103744859,11620723,East Kinney Street,"Essex,NJ",residential,. ,. ,yes,. ,. ,. ,. ,. ,. ,E
11620723_8,103744859,103744857,11620723,East Kinney Street,"Essex,NJ",residential,. ,. ,yes,. ,. ,. ,. ,. ,. ,E
11620723_9,103744857,103691647,11620723,East Kinney Street,"Essex,NJ",residential,. ,. ,yes,. ,. ,. ,. ,. ,. ,E
11620775_1,103745346,6895030158,11620775,Magazine Street,"Essex,NJ",residential,. ,. ,. ,. ,. ,. ,. ,. ,. ,. 
11620775_2,6895030158,103745348,11620775,Magazine Street,"Essex,NJ",residential,. ,. ,. ,. ,. ,. ,. ,. ,. ,. 
11620775_3,103745348,103716455,11620775,Magazine Street,"Essex,NJ",residential,. ,. ,. ,. ,. ,. ,. ,. ,. ,. 
11620775_4,103716455,103745350,11620775,Magazine Street,"Essex,NJ",residential,. ,. ,. ,. ,. ,. ,. ,. ,. ,. 
11620775_5,103745350,103745352,11620775,Magazine Street,"Essex,NJ",residential,. ,. ,. ,. ,. ,. ,. ,. ,. ,. 
11620775_6,103745352,103745354,11620775,Magazine Street,"Essex,NJ",residential,. ,. ,. ,. ,. ,. ,. ,. ,. ,. 
11620775_7,103745354,103664740,11620775,Magazine Street,"Essex,NJ",residential,. ,. ,. ,. ,. ,. ,. ,. ,. ,. 
11620775_8,103664740,103664743,11620775,Magazine Street,"Essex,NJ",residential,. ,. ,. ,. ,. ,. ,. ,. ,. ,. 
11620775_9,103664743,103745333,11620775,Magazine Street,"Essex,NJ",residential,. ,. ,. ,. ,. ,. ,. ,. ,. ,. 
11620775_10,103745333,6862408060,11620775,Magazine Street,"Essex,NJ",residential,. ,. ,. ,. ,. ,. ,. ,. ,. ,. 
11620775_11,6862408060,103691029,11620775,Magazine Street,"Essex,NJ",residential,. ,. ,. ,. ,. ,. ,. ,. ,. ,. 
11620775_12,103691029,103745335,11620775,Magazine Street,"Essex,NJ",residential,. ,. ,. ,. ,. ,. ,. ,. ,. ,. 
11621015_1,103712557,103692162,11621015,Garrison Street,"Essex,NJ",residential,. ,. ,yes,. ,. ,. ,. ,. ,. ,. 
11621118_1,103749392,103695200,11621118,Nichols Street,"Essex,NJ",residential,2,. ,yes,. ,. ,. ,. ,. ,. ,. 
11621118_2,103695200,103741184,11621118,Nichols Street,"Essex,NJ",residential,2,. ,yes,. ,. ,. ,. ,. ,. ,. 
11621119_1,103749399,103749401,11621119,Nichols Street,"Essex,NJ",residential,. ,. ,yes,. ,. ,. ,. ,. ,. ,. 
11621227_1,103751013,5569725510,11621227,Madison Street,"Essex,NJ",residential,. ,. ,yes,. ,. ,. ,. ,. ,. ,. 
11621227_2,5569725510,103729997,11621227,Madison Street,"Essex,NJ",residential,. ,. ,yes,. ,. ,. ,. ,. ,. ,. 
11621230_1,103729997,5569725509,11621230,Madison Street,"Essex,NJ",residential,. ,. ,yes,. ,. ,. ,. ,. ,. ,. 
11621230_2,5569725509,103751027,11621230,Madison Street,"Essex,NJ",residential,. ,. ,yes,. ,. ,. ,. ,. ,. ,. 
11621230_3,103751027,103750113,11621230,Madison Street,"Essex,NJ",residential,. ,. ,yes,. ,. ,. ,. ,. ,. ,. 
11621230_4,103750113,103712889,11621230,Madison Street,"Essex,NJ",residential,. ,. ,yes,. ,. ,. ,. ,. ,. ,. 
11621230_5,103712889,103653242,11621230,Madison Street,"Essex,NJ",residential,. ,. ,yes,. ,. ,. ,. ,. ,. ,. 
11621230_6,103653242,103686137,11621230,Madison Street,"Essex,NJ",residential,. ,. ,yes,. ,. ,. ,. ,. ,. ,. 
11621232_1,103751051,103751053,11621232,. ,"Essex,NJ",trunk_link,. ,. ,yes,. ,. ,. ,. ,. ,. ,. 
11621232_2,103751053,103751055,11621232,. ,"Essex,NJ",trunk_link,. ,. ,yes,. ,. ,. ,. ,. ,. ,. 
11621232_3,103751055,103751057,11621232,. ,"Essex,NJ",trunk_link,. ,. ,yes,. ,. ,. ,. ,. ,. ,. 
11621232_4,103751057,103751059,11621232,. ,"Essex,NJ",trunk_link,. ,. ,yes,. ,. ,. ,. ,. ,. ,. 
11621232_5,103751059,103751061,11621232,. ,"Essex,NJ",trunk_link,. ,. ,yes,. ,. ,. ,. ,. ,. ,. 
11621232_6,103751061,103751063,11621232,. ,"Essex,NJ",trunk_link,. ,. ,yes,. ,. ,. ,. ,. ,. ,. 
11621232_7,103751063,103751066,11621232,. ,"Essex,NJ",trunk_link,. ,. ,yes,. ,. ,. ,. ,. ,. ,. 
11621232_8,103751066,103686139,11621232,. ,"Essex,NJ",trunk_link,. ,. ,yes,. ,. ,. ,. ,. ,. ,. 
11621374_1,103686161,103695859,11621374,Fleming Avenue,"Essex,NJ",residential,. ,. ,yes,. ,. ,. ,. ,. ,. ,. 
11621379_1,103706507,103752438,11621379,Pacific Street,"Essex,NJ",tertiary,. ,. ,. ,. ,. ,. ,. ,. ,. ,. 
11621495_1,103750139,103753899,11621495,Fillmore Street,"Essex,NJ",residential,. ,. ,yes,. ,. ,. ,. ,. ,. ,. 
11621495_2,103753899,3639396130,11621495,Fillmore Street,"Essex,NJ",residential,. ,. ,yes,. ,. ,. ,. ,. ,. ,. 
11621495_3,3639396130,103653259,11621495,Fillmore Street,"Essex,NJ",residential,. ,. ,yes,. ,. ,. ,. ,. ,. ,. 
11621495_4,103653259,103686157,11621495,Fillmore Street,"Essex,NJ",residential,. ,. ,yes,. ,. ,. ,. ,. ,. ,. 
11621496_1,103686158,103753909,11621496,Fillmore Street,"Essex,NJ",residential,. ,. ,yes,. ,. ,. ,. ,. ,. ,. 
11621732_1,103756053,103756052,11621732,Niagara Street,"Essex,NJ",residential,. ,. ,yes,. ,. ,. ,. ,. ,. ,. 
11621732_2,103756052,103756050,11621732,Niagara Street,"Essex,NJ",residential,. ,. ,yes,. ,. ,. ,. ,. ,. ,. 
11621732_3,103756050,103756048,11621732,Niagara Street,"Essex,NJ",residential,. ,. ,yes,. ,. ,. ,. ,. ,. ,. 
11621732_4,103756048,103756046,11621732,Niagara Street,"Essex,NJ",residential,. ,. ,yes,. ,. ,. ,. ,. ,. ,. 
11621732_5,103756046,103716452,11621732,Niagara Street,"Essex,NJ",residential,. ,. ,yes,. ,. ,. ,. ,. ,. ,. 
11621741_1,103664315,103756158,11621741,Main Street,"Essex,NJ",residential,. ,. ,yes,. ,. ,. ,. ,. ,. ,. 
11621741_2,103756158,103756156,11621741,Main Street,"Essex,NJ",residential,. ,. ,yes,. ,. ,. ,. ,. ,. ,. 
11621741_3,103756156,477531408,11621741,Main Street,"Essex,NJ",residential,. ,. ,yes,. ,. ,. ,. ,. ,. ,. 
11621741_4,477531408,103750141,11621741,Main Street,"Essex,NJ",residential,. ,. ,yes,. ,. ,. ,. ,. ,. ,. 
11621934_1,103712555,103756048,11621934,Komorn Street,"Essex,NJ",residential,. ,. ,yes,. ,. ,. ,. ,. ,. ,. 
11621934_2,103756048,103745352,11621934,Komorn Street,"Essex,NJ",residential,. ,. ,yes,. ,. ,. ,. ,. ,. ,. 
11621934_3,103745352,103756158,11621934,Komorn Street,"Essex,NJ",residential,. ,. ,yes,. ,. ,. ,. ,. ,. ,. 
11621934_4,103756158,103758351,11621934,Komorn Street,"Essex,NJ",residential,. ,. ,yes,. ,. ,. ,. ,. ,. ,. 
11621934_5,103758351,103758353,11621934,Komorn Street,"Essex,NJ",residential,. ,. ,yes,. ,. ,. ,. ,. ,. ,. 
11621992_1,103730017,103703907,11621992,Merchant Street,"Essex,NJ",residential,. ,. ,yes,. ,. ,. ,. ,. ,. ,. 
11621992_2,103703907,103712538,11621992,Merchant Street,"Essex,NJ",residential,. ,. ,yes,. ,. ,. ,. ,. ,. ,. 
11621993_1,103750125,103758954,11621993,Merchant Street,"Essex,NJ",residential,. ,. ,yes,. ,. ,. ,. ,. ,. ,. 
11622211_1,103717327,103761268,11622211,Elm Street,"Essex,NJ",residential,1,. ,yes,. ,. ,. ,. ,. ,. ,. 
11622211_2,103761268,103761267,11622211,Elm Street,"Essex,NJ",residential,1,. ,yes,. ,. ,. ,. ,. ,. ,. 
11622211_3,103761267,103741182,11622211,Elm Street,"Essex,NJ",residential,1,. ,yes,. ,. ,. ,. ,. ,. ,. 
11622211_4,103741182,103761266,11622211,Elm Street,"Essex,NJ",residential,1,. ,yes,. ,. ,. ,. ,. ,. ,. 
11622211_5,103761266,103751013,11622211,Elm Street,"Essex,NJ",residential,1,. ,yes,. ,. ,. ,. ,. ,. ,. 
11622211_6,103751013,103695192,11622211,Elm Street,"Essex,NJ",residential,1,. ,yes,. ,. ,. ,. ,. ,. ,. 
11622211_7,103695192,103739496,11622211,Elm Street,"Essex,NJ",residential,1,. ,yes,. ,. ,. ,. ,. ,. ,. 
11622211_8,103739496,103761265,11622211,Elm Street,"Essex,NJ",residential,1,. ,yes,. ,. ,. ,. ,. ,. ,. 
11622211_9,103761265,103752438,11622211,Elm Street,"Essex,NJ",residential,1,. ,yes,. ,. ,. ,. ,. ,. ,. 
11622587_1,103695858,103686159,11622587,Read Street,"Essex,NJ",residential,. ,. ,yes,. ,. ,. ,. ,. ,. ,. 
11622588_1,103745350,103756046,11622588,Marne Street,"Essex,NJ",residential,. ,. ,yes,. ,. ,. ,. ,. ,. ,. 
11622588_2,103756046,103712553,11622588,Marne Street,"Essex,NJ",residential,. ,. ,yes,. ,. ,. ,. ,. ,. ,. 
11622643_1,103750156,103752404,11622643,Schalk Street,"Essex,NJ",residential,. ,. ,yes,. ,. ,. ,. ,. ,. ,. 
11622875_1,103767932,103767935,11622875,Lexington Street,"Essex,NJ",residential,. ,. ,. ,. ,. ,. ,. ,. ,. ,. 
11622875_2,103767935,103752400,11622875,Lexington Street,"Essex,NJ",residential,. ,. ,. ,. ,. ,. ,. ,. ,. ,. 
11622875_3,103752400,5568167650,11622875,Lexington Street,"Essex,NJ",residential,. ,. ,. ,. ,. ,. ,. ,. ,. ,. 
11623005_1,103679714,103769318,11623005,Raymond Boulevard,"Essex,NJ",trunk,2,. ,yes,. ,. ,. ,. ,. ,. ,. 
11623005_2,103769318,760901310,11623005,Raymond Boulevard,"Essex,NJ",trunk,2,. ,yes,. ,. ,. ,. ,. ,. ,. 
11623005_3,760901310,103686125,11623005,Raymond Boulevard,"Essex,NJ",trunk,2,. ,yes,. ,. ,. ,. ,. ,. ,. 
11623033_1,103730015,103761268,11623033,Pulaski Street,"Essex,NJ",tertiary,. ,. ,. ,. ,. ,. ,. ,. ,. ,. 
11623033_2,103761268,103706511,11623033,Pulaski Street,"Essex,NJ",tertiary,. ,. ,. ,. ,. ,. ,. ,. ,. ,. 
11623059_1,103750143,103769719,11623059,St Francis Street,"Essex,NJ",residential,. ,. ,yes,. ,. ,. ,. ,. ,. ,. 
11623059_2,103769719,103758351,11623059,St Francis Street,"Essex,NJ",residential,. ,. ,yes,. ,. ,. ,. ,. ,. ,. 
11623059_3,103758351,103769721,11623059,St Francis Street,"Essex,NJ",residential,. ,. ,yes,. ,. ,. ,. ,. ,. ,. 
11623232_1,103769259,747626733,11623232,Van Buren Street,"Essex,NJ",tertiary,. ,. ,yes,. ,. ,. ,. ,. ,. ,. 
11623232_2,747626733,103686145,11623232,Van Buren Street,"Essex,NJ",tertiary,. ,. ,yes,. ,. ,. ,. ,. ,. ,. 
11623232_3,103686145,103771391,11623232,Van Buren Street,"Essex,NJ",tertiary,. ,. ,yes,. ,. ,. ,. ,. ,. ,. 
11623232_4,103771391,103771393,11623232,Van Buren Street,"Essex,NJ",tertiary,. ,. ,yes,. ,. ,. ,. ,. ,. ,. 
11623232_5,103771393,103750117,11623232,Van Buren Street,"Essex,NJ",tertiary,. ,. ,yes,. ,. ,. ,. ,. ,. ,. 
11623232_6,103750117,103730007,11623232,Van Buren Street,"Essex,NJ",tertiary,. ,. ,yes,. ,. ,. ,. ,. ,. ,. 
11623232_7,103730007,103761267,11623232,Van Buren Street,"Essex,NJ",tertiary,. ,. ,yes,. ,. ,. ,. ,. ,. ,. 
11623232_8,103761267,103706510,11623232,Van Buren Street,"Essex,NJ",tertiary,. ,. ,yes,. ,. ,. ,. ,. ,. ,. 
11623232_9,103706510,103692149,11623232,Van Buren Street,"Essex,NJ",tertiary,. ,. ,yes,. ,. ,. ,. ,. ,. ,. 
11623232_10,103692149,103771395,11623232,Van Buren Street,"Essex,NJ",tertiary,. ,. ,yes,. ,. ,. ,. ,. ,. ,. 
11623232_11,103771395,4927028698,11623232,Van Buren Street,"Essex,NJ",tertiary,. ,. ,yes,. ,. ,. ,. ,. ,. ,. 
11623232_12,4927028698,4335867391,11623232,Van Buren Street,"Essex,NJ",tertiary,. ,. ,yes,. ,. ,. ,. ,. ,. ,. 
11623232_13,4335867391,103749399,11623232,Van Buren Street,"Essex,NJ",tertiary,. ,. ,yes,. ,. ,. ,. ,. ,. ,. 
11623232_14,103749399,103744843,11623232,Van Buren Street,"Essex,NJ",tertiary,. ,. ,yes,. ,. ,. ,. ,. ,. ,. 
11623232_15,103744843,103771396,11623232,Van Buren Street,"Essex,NJ",tertiary,. ,. ,yes,. ,. ,. ,. ,. ,. ,. 
11623232_16,103771396,103692302,11623232,Van Buren Street,"Essex,NJ",tertiary,. ,. ,yes,. ,. ,. ,. ,. ,. ,. 
11623232_17,103692302,103745034,11623232,Van Buren Street,"Essex,NJ",tertiary,. ,. ,yes,. ,. ,. ,. ,. ,. ,. 
11623232_18,103745034,103728586,11623232,Van Buren Street,"Essex,NJ",tertiary,. ,. ,yes,. ,. ,. ,. ,. ,. ,. 
11623232_19,103728586,5569725516,11623232,Van Buren Street,"Essex,NJ",tertiary,. ,. ,yes,. ,. ,. ,. ,. ,. ,. 
11623232_20,5569725516,103755349,11623232,Van Buren Street,"Essex,NJ",tertiary,. ,. ,yes,. ,. ,. ,. ,. ,. ,. 
11623371_1,103702599,6861906302,11623371,Bruen Street,"Essex,NJ",residential,. ,. ,. ,. ,. ,. ,. ,. ,. ,. 
11623371_2,6861906302,6861906297,11623371,Bruen Street,"Essex,NJ",residential,. ,. ,. ,. ,. ,. ,. ,. ,. ,. 
11623371_3,6861906297,103772595,11623371,Bruen Street,"Essex,NJ",residential,. ,. ,. ,. ,. ,. ,. ,. ,. ,. 
11623371_4,103772595,103737204,11623371,Bruen Street,"Essex,NJ",residential,. ,. ,. ,. ,. ,. ,. ,. ,. ,. 
11623371_5,103737204,103729989,11623371,Bruen Street,"Essex,NJ",residential,. ,. ,. ,. ,. ,. ,. ,. ,. ,. 
11623371_6,103729989,103728464,11623371,Bruen Street,"Essex,NJ",residential,. ,. ,. ,. ,. ,. ,. ,. ,. ,. 
11623371_7,103728464,103761262,11623371,Bruen Street,"Essex,NJ",residential,. ,. ,. ,. ,. ,. ,. ,. ,. ,. 
11623590_1,103686154,6888283518,11623590,Ferguson Street,"Essex,NJ",residential,. ,. ,yes,. ,. ,. ,. ,. ,. ,. 
11623590_2,6888283518,103653250,11623590,Ferguson Street,"Essex,NJ",residential,. ,. ,yes,. ,. ,. ,. ,. ,. ,. 
11623590_3,103653250,103775820,11623590,Ferguson Street,"Essex,NJ",residential,. ,. ,yes,. ,. ,. ,. ,. ,. ,. 
11623590_4,103775820,103750131,11623590,Ferguson Street,"Essex,NJ",residential,. ,. ,yes,. ,. ,. ,. ,. ,. ,. 
11623694_1,103750133,103776677,11623694,Chambers Street,"Essex,NJ",residential,. ,. ,yes,. ,. ,. ,. ,. ,. ,. 
11623694_2,103776677,103653254,11623694,Chambers Street,"Essex,NJ",residential,. ,. ,yes,. ,. ,. ,. ,. ,. ,. 
11623694_3,103653254,6888283517,11623694,Chambers Street,"Essex,NJ",residential,. ,. ,yes,. ,. ,. ,. ,. ,. ,. 
11623694_4,6888283517,103686155,11623694,Chambers Street,"Essex,NJ",residential,. ,. ,yes,. ,. ,. ,. ,. ,. ,. 
11623702_1,103746446,103691645,11623702,Oliver Street,. ,residential,. ,. ,yes,. ,. ,. ,. ,. ,. ,. 
11623702_2,103691645,103776712,11623702,Oliver Street,. ,residential,. ,. ,yes,. ,. ,. ,. ,. ,. ,. 
11623702_3,103776712,103747435,11623702,Oliver Street,. ,residential,. ,. ,yes,. ,. ,. ,. ,. ,. ,. 
11623702_4,103747435,103716631,11623702,Oliver Street,. ,residential,. ,. ,yes,. ,. ,. ,. ,. ,. ,. 
11623702_5,103716631,103752441,11623702,Oliver Street,. ,residential,. ,. ,yes,. ,. ,. ,. ,. ,. ,. 
11623702_6,103752441,103776713,11623702,Oliver Street,. ,residential,. ,. ,yes,. ,. ,. ,. ,. ,. ,. 
11623702_7,103776713,103695121,11623702,Oliver Street,. ,residential,. ,. ,yes,. ,. ,. ,. ,. ,. ,. 
11623702_8,103695121,103741189,11623702,Oliver Street,. ,residential,. ,. ,yes,. ,. ,. ,. ,. ,. ,. 
11623702_9,103741189,103771396,11623702,Oliver Street,. ,residential,. ,. ,yes,. ,. ,. ,. ,. ,. ,. 
11623702_10,103771396,103655869,11623702,Oliver Street,. ,residential,. ,. ,yes,. ,. ,. ,. ,. ,. ,. 
11623780_1,103730009,103750119,11623780,Polk Street,"Essex,NJ",residential,. ,. ,yes,. ,. ,. ,. ,. ,. ,. 
11623780_2,103750119,103777425,11623780,Polk Street,"Essex,NJ",residential,. ,. ,yes,. ,. ,. ,. ,. ,. ,. 
11623780_3,103777425,103777423,11623780,Polk Street,"Essex,NJ",residential,. ,. ,yes,. ,. ,. ,. ,. ,. ,. 
11623780_4,103777423,103686153,11623780,Polk Street,"Essex,NJ",residential,. ,. ,yes,. ,. ,. ,. ,. ,. ,. 
11623892_1,103776677,103775820,11623892,Clover Street,"Essex,NJ",residential,. ,. ,yes,. ,. ,. ,. ,. ,. ,. 
11623892_2,103775820,103758954,11623892,Clover Street,"Essex,NJ",residential,. ,. ,yes,. ,. ,. ,. ,. ,. ,. 
11623892_3,103758954,103778454,11623892,Clover Street,"Essex,NJ",residential,. ,. ,yes,. ,. ,. ,. ,. ,. ,. 
11623892_4,103778454,6684017695,11623892,Clover Street,"Essex,NJ",residential,. ,. ,yes,. ,. ,. ,. ,. ,. ,. 
11623892_5,6684017695,103777425,11623892,Clover Street,"Essex,NJ",residential,. ,. ,yes,. ,. ,. ,. ,. ,. ,. 
11623892_6,103777425,103771393,11623892,Clover Street,"Essex,NJ",residential,. ,. ,yes,. ,. ,. ,. ,. ,. ,. 
11623892_7,103771393,103684568,11623892,Clover Street,"Essex,NJ",residential,. ,. ,yes,. ,. ,. ,. ,. ,. ,. 
11624136_1,103781266,103769719,11624136,George Street,"Essex,NJ",residential,. ,. ,yes,. ,. ,. ,. ,. ,. ,. 
11624136_2,103769719,103756156,11624136,George Street,"Essex,NJ",residential,. ,. ,yes,. ,. ,. ,. ,. ,. ,. 
11624136_3,103756156,103745348,11624136,George Street,"Essex,NJ",residential,. ,. ,yes,. ,. ,. ,. ,. ,. ,. 
11624143_1,103712567,103756053,11624143,Rome Street,"Essex,NJ",residential,. ,. ,. ,. ,. ,. ,. ,. ,. ,. 
11624143_2,103756053,103664743,11624143,Rome Street,"Essex,NJ",residential,. ,. ,. ,. ,. ,. ,. ,. ,. ,. 
11624144_1,103664743,103664316,11624144,Rome Street,"Essex,NJ",residential,. ,. ,. ,. ,. ,. ,. ,. ,. ,. 
11624144_2,103664316,103714393,11624144,Rome Street,"Essex,NJ",residential,. ,. ,. ,. ,. ,. ,. ,. ,. ,. 
11624244_1,103745354,103756050,11624244,Barbara Street,"Essex,NJ",residential,. ,. ,yes,. ,. ,. ,. ,. ,. ,. 
11624244_2,103756050,103712559,11624244,Barbara Street,"Essex,NJ",residential,. ,. ,yes,. ,. ,. ,. ,. ,. ,. 
11624441_1,103750129,103783751,11624441,Alyea Street,"Essex,NJ",residential,. ,. ,. ,. ,. ,. ,. ,. ,. ,. 
11624441_2,103783751,103704294,11624441,Alyea Street,"Essex,NJ",residential,. ,. ,. ,. ,. ,. ,. ,. ,. ,. 
11624441_3,103704294,103783753,11624441,Alyea Street,"Essex,NJ",residential,. ,. ,. ,. ,. ,. ,. ,. ,. ,. 
11624441_4,103783753,103716449,11624441,Alyea Street,"Essex,NJ",residential,. ,. ,. ,. ,. ,. ,. ,. ,. ,. 
11624559_1,103750149,5723400361,11624559,Saint Charles Street,"Essex,NJ",tertiary,. ,. ,. ,. ,. ,. ,. ,. ,. ,. 
11624559_2,5723400361,103653261,11624559,Saint Charles Street,"Essex,NJ",tertiary,. ,. ,. ,. ,. ,. ,. ,. ,. ,. 
11624559_3,103653261,103785016,11624559,Saint Charles Street,"Essex,NJ",tertiary,. ,. ,. ,. ,. ,. ,. ,. ,. ,. 
11624559_4,103785016,103781266,11624559,Saint Charles Street,"Essex,NJ",tertiary,. ,. ,. ,. ,. ,. ,. ,. ,. ,. 
11624559_5,103781266,103780515,11624559,Saint Charles Street,"Essex,NJ",tertiary,. ,. ,. ,. ,. ,. ,. ,. ,. ,. 
11624559_6,103780515,103758353,11624559,Saint Charles Street,"Essex,NJ",tertiary,. ,. ,. ,. ,. ,. ,. ,. ,. ,. 
11624559_7,103758353,103785018,11624559,Saint Charles Street,"Essex,NJ",tertiary,. ,. ,. ,. ,. ,. ,. ,. ,. ,. 
11624559_8,103785018,103714393,11624559,Saint Charles Street,"Essex,NJ",tertiary,. ,. ,. ,. ,. ,. ,. ,. ,. ,. 
11624559_9,103714393,103785034,11624559,Saint Charles Street,"Essex,NJ",tertiary,. ,. ,. ,. ,. ,. ,. ,. ,. ,. 
11624559_10,103785034,103785036,11624559,Saint Charles Street,"Essex,NJ",tertiary,. ,. ,. ,. ,. ,. ,. ,. ,. ,. 
11624559_11,103785036,103767053,11624559,Saint Charles Street,"Essex,NJ",tertiary,. ,. ,. ,. ,. ,. ,. ,. ,. ,. 
11624563_1,103702447,103692155,11624563,Ann Street,"Essex,NJ",residential,. ,. ,yes,. ,. ,. ,. ,. ,. ,. 
11624563_2,103692155,103712547,11624563,Ann Street,"Essex,NJ",residential,. ,. ,yes,. ,. ,. ,. ,. ,. ,. 
11624567_1,103741183,103695198,11624567,Warwick Street,"Essex,NJ",residential,2,. ,yes,. ,. ,. ,. ,. ,. ,. 
11624567_2,103695198,103752440,11624567,Warwick Street,"Essex,NJ",residential,2,. ,yes,. ,. ,. ,. ,. ,. ,. 
11624651_1,103756045,103697500,11624651,Hensler Street,"Essex,NJ",residential,. ,. ,yes,. ,. ,. ,. ,. ,. ,. 
11624651_2,103697500,103783753,11624651,Hensler Street,"Essex,NJ",residential,. ,. ,yes,. ,. ,. ,. ,. ,. ,. 
11624651_3,103783753,103712541,11624651,Hensler Street,"Essex,NJ",residential,. ,. ,yes,. ,. ,. ,. ,. ,. ,. 
11624695_1,103664740,103786263,11624695,Kossuth Street,"Essex,NJ",residential,. ,. ,. ,. ,. ,. ,. ,. ,. ,. 
11624695_2,103786263,103664315,11624695,Kossuth Street,"Essex,NJ",residential,. ,. ,. ,. ,. ,. ,. ,. ,. ,. 
11624695_3,103664315,103769721,11624695,Kossuth Street,"Essex,NJ",residential,. ,. ,. ,. ,. ,. ,. ,. ,. ,. 
11624695_4,103769721,103785018,11624695,Kossuth Street,"Essex,NJ",residential,. ,. ,. ,. ,. ,. ,. ,. ,. ,. 
11624696_1,103712563,103756052,11624696,Kossuth Street,"Essex,NJ",residential,. ,. ,yes,. ,. ,. ,. ,. ,. ,. 
11624696_2,103756052,103664740,11624696,Kossuth Street,"Essex,NJ",residential,. ,. ,yes,. ,. ,. ,. ,. ,. ,. 
11624797_1,103750109,103719807,11624797,Prospect Street,"Essex,NJ",residential,. ,. ,yes,. ,. ,. ,. ,. ,. ,. 
11624797_2,103719807,4346246097,11624797,Prospect Street,"Essex,NJ",residential,. ,. ,yes,. ,. ,. ,. ,. ,. ,. 
11624797_3,4346246097,103768010,11624797,Prospect Street,"Essex,NJ",residential,. ,. ,yes,. ,. ,. ,. ,. ,. ,. 
11624797_4,103768010,103729993,11624797,Prospect Street,"Essex,NJ",residential,. ,. ,yes,. ,. ,. ,. ,. ,. ,. 
11624797_5,103729993,103761265,11624797,Prospect Street,"Essex,NJ",residential,. ,. ,yes,. ,. ,. ,. ,. ,. ,. 
11624898_1,103769238,103752396,11624898,Mott Street,"Essex,NJ",residential,. ,. ,. ,. ,. ,. ,. ,. ,. ,. 
39680961_1,475721877,475721876,39680961,Independence Park,. ,. ,. ,. ,. ,. ,. ,. ,. ,. ,. ,. 
39680961_2,475721876,475721885,39680961,Independence Park,. ,. ,. ,. ,. ,. ,. ,. ,. ,. ,. ,. 
39680961_3,475721885,475721883,39680961,Independence Park,. ,. ,. ,. ,. ,. ,. ,. ,. ,. ,. ,. 
39680961_4,475721883,475721870,39680961,Independence Park,. ,. ,. ,. ,. ,. ,. ,. ,. ,. ,. ,. 
39680961_5,475721870,4927028698,39680961,Independence Park,. ,. ,. ,. ,. ,. ,. ,. ,. ,. ,. ,. 
39680961_6,4927028698,475721877,39680961,Independence Park,. ,. ,. ,. ,. ,. ,. ,. ,. ,. ,. ,. 
46965528_1,4844515122,103687363,46965528,Ferry Street,"Essex,NJ",trunk,2,. ,yes,. ,. ,. ,. ,. ,. ,. 
46965528_2,103687363,103718539,46965528,Ferry Street,"Essex,NJ",trunk,2,. ,yes,. ,. ,. ,. ,. ,. ,. 
46965528_3,103718539,103737241,46965528,Ferry Street,"Essex,NJ",trunk,2,. ,yes,. ,. ,. ,. ,. ,. ,. 
46965528_4,103737241,103708571,46965528,Ferry Street,"Essex,NJ",trunk,2,. ,yes,. ,. ,. ,. ,. ,. ,. 
46965528_5,103708571,103750156,46965528,Ferry Street,"Essex,NJ",trunk,2,. ,yes,. ,. ,. ,. ,. ,. ,. 
46965528_6,103750156,103704347,46965528,Ferry Street,"Essex,NJ",trunk,2,. ,yes,. ,. ,. ,. ,. ,. ,. 
46965528_7,103704347,103682526,46965528,Ferry Street,"Essex,NJ",trunk,2,. ,yes,. ,. ,. ,. ,. ,. ,. 
46965528_8,103682526,103750157,46965528,Ferry Street,"Essex,NJ",trunk,2,. ,yes,. ,. ,. ,. ,. ,. ,. 
46965528_9,103750157,1051400989,46965528,Ferry Street,"Essex,NJ",trunk,2,. ,yes,. ,. ,. ,. ,. ,. ,. 
46965528_10,1051400989,103750158,46965528,Ferry Street,"Essex,NJ",trunk,2,. ,yes,. ,. ,. ,. ,. ,. ,. 
46965528_11,103750158,1051402209,46965528,Ferry Street,"Essex,NJ",trunk,2,. ,yes,. ,. ,. ,. ,. ,. ,. 
46965528_12,1051402209,1051402213,46965528,Ferry Street,"Essex,NJ",trunk,2,. ,yes,. ,. ,. ,. ,. ,. ,. 
46965528_13,1051402213,1051401501,46965528,Ferry Street,"Essex,NJ",trunk,2,. ,yes,. ,. ,. ,. ,. ,. ,. 
46965528_14,1051401501,103739811,46965528,Ferry Street,"Essex,NJ",trunk,2,. ,yes,. ,. ,. ,. ,. ,. ,. 
46965528_15,103739811,103722064,46965528,Ferry Street,"Essex,NJ",trunk,2,. ,yes,. ,. ,. ,. ,. ,. ,. 
46965528_16,103722064,5735457779,46965528,Ferry Street,"Essex,NJ",trunk,2,. ,yes,. ,. ,. ,. ,. ,. ,. 
46965528_17,5735457779,103663042,46965528,Ferry Street,"Essex,NJ",trunk,2,. ,yes,. ,. ,. ,. ,. ,. ,. 
46965528_18,103663042,6902329364,46965528,Ferry Street,"Essex,NJ",trunk,2,. ,yes,. ,. ,. ,. ,. ,. ,. 
46965528_19,6902329364,1051402005,46965528,Ferry Street,"Essex,NJ",trunk,2,. ,yes,. ,. ,. ,. ,. ,. ,. 
46965528_20,1051402005,5735457782,46965528,Ferry Street,"Essex,NJ",trunk,2,. ,yes,. ,. ,. ,. ,. ,. ,. 
46965528_21,5735457782,1051402007,46965528,Ferry Street,"Essex,NJ",trunk,2,. ,yes,. ,. ,. ,. ,. ,. ,. 
46965528_22,1051402007,103750160,46965528,Ferry Street,"Essex,NJ",trunk,2,. ,yes,. ,. ,. ,. ,. ,. ,. 
46965528_23,103750160,103750161,46965528,Ferry Street,"Essex,NJ",trunk,2,. ,yes,. ,. ,. ,. ,. ,. ,. 
46965528_24,103750161,4926248776,46965528,Ferry Street,"Essex,NJ",trunk,2,. ,yes,. ,. ,. ,. ,. ,. ,. 
46965528_25,4926248776,103712076,46965528,Ferry Street,"Essex,NJ",trunk,2,. ,yes,. ,. ,. ,. ,. ,. ,. 
46965528_26,103712076,4926248780,46965528,Ferry Street,"Essex,NJ",trunk,2,. ,yes,. ,. ,. ,. ,. ,. ,. 
46965528_27,4926248780,103748000,46965528,Ferry Street,"Essex,NJ",trunk,2,. ,yes,. ,. ,. ,. ,. ,. ,. 
46965528_28,103748000,4926248201,46965528,Ferry Street,"Essex,NJ",trunk,2,. ,yes,. ,. ,. ,. ,. ,. ,. 
46965528_29,4926248201,103750163,46965528,Ferry Street,"Essex,NJ",trunk,2,. ,yes,. ,. ,. ,. ,. ,. ,. 
46965528_30,103750163,4926248734,46965528,Ferry Street,"Essex,NJ",trunk,2,. ,yes,. ,. ,. ,. ,. ,. ,. 
46965528_31,4926248734,4207909035,46965528,Ferry Street,"Essex,NJ",trunk,2,. ,yes,. ,. ,. ,. ,. ,. ,. 
46965574_1,103750123,103750125,46965574,Ferry Street,"Essex,NJ",tertiary,. ,. ,. ,. ,. ,. ,. ,. ,. ,. 
46965574_2,103750125,103750127,46965574,Ferry Street,"Essex,NJ",tertiary,. ,. ,. ,. ,. ,. ,. ,. ,. ,. 
46965574_3,103750127,103750129,46965574,Ferry Street,"Essex,NJ",tertiary,. ,. ,. ,. ,. ,. ,. ,. ,. ,. 
46965574_4,103750129,103750131,46965574,Ferry Street,"Essex,NJ",tertiary,. ,. ,. ,. ,. ,. ,. ,. ,. ,. 
46965574_5,103750131,103697495,46965574,Ferry Street,"Essex,NJ",tertiary,. ,. ,. ,. ,. ,. ,. ,. ,. ,. 
46965574_6,103697495,103750133,46965574,Ferry Street,"Essex,NJ",tertiary,. ,. ,. ,. ,. ,. ,. ,. ,. ,. 
46965574_7,103750133,103750135,46965574,Ferry Street,"Essex,NJ",tertiary,. ,. ,. ,. ,. ,. ,. ,. ,. ,. 
46965574_8,103750135,6339535677,46965574,Ferry Street,"Essex,NJ",tertiary,. ,. ,. ,. ,. ,. ,. ,. ,. ,. 
46965574_9,6339535677,103682811,46965574,Ferry Street,"Essex,NJ",tertiary,. ,. ,. ,. ,. ,. ,. ,. ,. ,. 
46965799_1,103752445,103752444,46965799,Pacific Street,"Essex,NJ",tertiary,. ,. ,. ,. ,. ,. ,. ,. ,. ,. 
46965799_2,103752444,103729580,46965799,Pacific Street,"Essex,NJ",tertiary,. ,. ,. ,. ,. ,. ,. ,. ,. ,. 
46965799_3,103729580,103728584,46965799,Pacific Street,"Essex,NJ",tertiary,. ,. ,. ,. ,. ,. ,. ,. ,. ,. 
46965799_4,103728584,103687357,46965799,Pacific Street,"Essex,NJ",tertiary,. ,. ,. ,. ,. ,. ,. ,. ,. ,. 
46965799_5,103687357,103745032,46965799,Pacific Street,"Essex,NJ",tertiary,. ,. ,. ,. ,. ,. ,. ,. ,. ,. 
46965799_6,103745032,103752443,46965799,Pacific Street,"Essex,NJ",tertiary,. ,. ,. ,. ,. ,. ,. ,. ,. ,. 
46965799_7,103752443,103692292,46965799,Pacific Street,"Essex,NJ",tertiary,. ,. ,. ,. ,. ,. ,. ,. ,. ,. 
46965799_8,103692292,103752441,46965799,Pacific Street,"Essex,NJ",tertiary,. ,. ,. ,. ,. ,. ,. ,. ,. ,. 
46965799_9,103752441,103744861,46965799,Pacific Street,"Essex,NJ",tertiary,. ,. ,. ,. ,. ,. ,. ,. ,. ,. 
46965799_10,103744861,103749392,46965799,Pacific Street,"Essex,NJ",tertiary,. ,. ,. ,. ,. ,. ,. ,. ,. ,. 
46965799_11,103749392,103725549,46965799,Pacific Street,"Essex,NJ",tertiary,. ,. ,. ,. ,. ,. ,. ,. ,. ,. 
46965799_12,103725549,103752440,46965799,Pacific Street,"Essex,NJ",tertiary,. ,. ,. ,. ,. ,. ,. ,. ,. ,. 
46965799_13,103752440,103692130,46965799,Pacific Street,"Essex,NJ",tertiary,. ,. ,. ,. ,. ,. ,. ,. ,. ,. 
46965799_14,103692130,103706507,46965799,Pacific Street,"Essex,NJ",tertiary,. ,. ,. ,. ,. ,. ,. ,. ,. ,. 
51141029_1,652442747,652442739,51141029,Jersey Street,. ,unclassified,. ,. ,. ,. ,. ,. ,. ,. ,. ,. 
51141030_1,103684560,6888283495,51141030,Market Street,"Essex,NJ",trunk,2,. ,yes,. ,. ,. ,. ,. ,. ,. 
51141030_2,6888283495,103686145,51141030,Market Street,"Essex,NJ",trunk,2,. ,yes,. ,. ,. ,. ,. ,. ,. 
51141030_3,103686145,103686151,51141030,Market Street,"Essex,NJ",trunk,2,. ,yes,. ,. ,. ,. ,. ,. ,. 
51141030_4,103686151,103686153,51141030,Market Street,"Essex,NJ",trunk,2,. ,yes,. ,. ,. ,. ,. ,. ,. 
51141030_5,103686153,6888283510,51141030,Market Street,"Essex,NJ",trunk,2,. ,yes,. ,. ,. ,. ,. ,. ,. 
51141030_6,6888283510,103686154,51141030,Market Street,"Essex,NJ",trunk,2,. ,yes,. ,. ,. ,. ,. ,. ,. 
51141030_7,103686154,6888283515,51141030,Market Street,"Essex,NJ",trunk,2,. ,yes,. ,. ,. ,. ,. ,. ,. 
51141030_8,6888283515,103686155,51141030,Market Street,"Essex,NJ",trunk,2,. ,yes,. ,. ,. ,. ,. ,. ,. 
51141030_9,103686155,103686156,51141030,Market Street,"Essex,NJ",trunk,2,. ,yes,. ,. ,. ,. ,. ,. ,. 
51141030_10,103686156,103686157,51141030,Market Street,"Essex,NJ",trunk,2,. ,yes,. ,. ,. ,. ,. ,. ,. 
51141030_11,103686157,103686158,51141030,Market Street,"Essex,NJ",trunk,2,. ,yes,. ,. ,. ,. ,. ,. ,. 
51141030_12,103686158,103686159,51141030,Market Street,"Essex,NJ",trunk,2,. ,yes,. ,. ,. ,. ,. ,. ,. 
51141030_13,103686159,103686161,51141030,Market Street,"Essex,NJ",trunk,2,. ,yes,. ,. ,. ,. ,. ,. ,. 
51141030_14,103686161,103686163,51141030,Market Street,"Essex,NJ",trunk,2,. ,yes,. ,. ,. ,. ,. ,. ,. 
51141030_15,103686163,4207258432,51141030,Market Street,"Essex,NJ",trunk,2,. ,yes,. ,. ,. ,. ,. ,. ,. 
51196002_1,653214241,2649253188,51196002,Commerce Street,"Essex,NJ",residential,. ,. ,. ,. ,. ,. ,. ,. ,. ,. 
51196002_2,2649253188,103686119,51196002,Commerce Street,"Essex,NJ",residential,. ,. ,. ,. ,. ,. ,. ,. ,. ,. 
51509994_1,301356754,301356755,51509994,US 1-9 Local,. ,motorway,2,. ,yes,. ,. ,. ,. ,. ,. ,. 
51509995_1,301356755,301356756,51509995,US 1-9 Local,. ,motorway,2,. ,yes,. ,. ,. ,. ,. ,. ,. 
51509996_1,301356756,301356757,51509996,US 1-9 Local,. ,motorway,2,. ,yes,. ,. ,. ,. ,. ,. ,. 
51509997_1,301356757,301356758,51509997,US 1-9 Local,. ,motorway,2,. ,yes,. ,. ,. ,. ,. ,. ,. 
51510000_1,301356758,658485157,51510000,US 1-9 Local,. ,motorway,2,. ,yes,. ,. ,. ,. ,. ,. ,. 
51510032_1,658490372,301357867,51510032,US 1-9 Local,. ,motorway,2,. ,yes,. ,. ,. ,. ,. ,. ,. 
51510032_2,301357867,301357868,51510032,US 1-9 Local,. ,motorway,2,. ,yes,. ,. ,. ,. ,. ,. ,. 
51510032_3,301357868,301357869,51510032,US 1-9 Local,. ,motorway,2,. ,yes,. ,. ,. ,. ,. ,. ,. 
51510038_1,658490614,295515456,51510038,US 1-9 Express,. ,motorway,2,. ,yes,. ,. ,. ,. ,. ,. ,. 
51510038_2,295515456,295515457,51510038,US 1-9 Express,. ,motorway,2,. ,yes,. ,. ,. ,. ,. ,. ,. 
51510046_1,301357870,1051391488,51510046,US 1-9 Local,. ,motorway,2,. ,yes,. ,. ,. ,. ,. ,. ,. 
51510046_2,1051391488,301357871,51510046,US 1-9 Local,. ,motorway,2,. ,yes,. ,. ,. ,. ,. ,. ,. 
51510047_1,301357869,301357870,51510047,US 1-9 Local,. ,motorway,2,. ,yes,. ,. ,. ,. ,. ,. ,. 
51510051_1,301357871,301357872,51510051,US 1-9 Local,. ,motorway,2,. ,yes,. ,. ,. ,. ,. ,. ,. 
51510054_1,301357872,1051391200,51510054,US 1-9 Local,. ,motorway,2,. ,yes,. ,. ,. ,. ,. ,. ,. 
51510054_2,1051391200,1051387515,51510054,US 1-9 Local,. ,motorway,2,. ,yes,. ,. ,. ,. ,. ,. ,. 
51510054_3,1051387515,3556646571,51510054,US 1-9 Local,. ,motorway,2,. ,yes,. ,. ,. ,. ,. ,. ,. 
51510068_1,301356728,658496885,51510068,US 1-9 Express,. ,motorway,2,. ,yes,. ,. ,. ,. ,. ,. ,. 
51510069_1,658496028,3556646570,51510069,US 1-9 Express,. ,motorway,2,. ,yes,. ,. ,. ,. ,. ,. ,. 
51510069_2,3556646570,1051387779,51510069,US 1-9 Express,. ,motorway,2,. ,yes,. ,. ,. ,. ,. ,. ,. 
51510069_3,1051387779,1051387783,51510069,US 1-9 Express,. ,motorway,2,. ,yes,. ,. ,. ,. ,. ,. ,. 
51510069_4,1051387783,295515459,51510069,US 1-9 Express,. ,motorway,2,. ,yes,. ,. ,. ,. ,. ,. ,. 
51510073_1,295515458,658496028,51510073,US 1-9 Express,. ,motorway,2,. ,yes,. ,. ,. ,. ,. ,. ,. 
51510074_1,658496790,295515454,51510074,US 1-9 Express,. ,motorway,2,. ,yes,. ,. ,. ,. ,. ,. ,. 
51510082_1,658496885,658496790,51510082,US 1-9 Express,. ,motorway,2,. ,yes,. ,. ,. ,. ,. ,. ,. 
51510083_1,658497429,295515453,51510083,US 1-9 Express,. ,motorway,2,. ,yes,. ,. ,. ,. ,. ,. ,. 
51510083_2,295515453,103787847,51510083,US 1-9 Express,. ,motorway,2,. ,yes,. ,. ,. ,. ,. ,. ,. 
51510084_1,295515454,658497429,51510084,US 1-9 Express,. ,motorway,2,. ,yes,. ,. ,. ,. ,. ,. ,. 
51510087_1,658497949,295515458,51510087,US 1-9 Express,. ,motorway,2,. ,yes,. ,. ,. ,. ,. ,. ,. 
51510097_1,295515457,658497949,51510097,US 1-9 Express,. ,motorway,2,. ,yes,. ,. ,. ,. ,. ,. ,. 
60194053_1,103684560,747626704,60194053,Jackson Street,. ,tertiary,. ,. ,yes,. ,. ,. ,. ,. ,. ,. 
60194053_2,747626704,747626705,60194053,Jackson Street,. ,tertiary,. ,. ,yes,. ,. ,. ,. ,. ,. ,. 
60194057_1,103684560,103684557,60194057,Jackson Street,"Essex,NJ",primary,. ,. ,. ,. ,. ,. ,. ,. ,. ,. 
60194058_1,103684557,747626728,60194058,Jackson Street,"Essex,NJ",primary,. ,. ,. ,. ,. ,. ,. ,. ,. ,. 
60194059_1,103679714,103769322,60194059,Raymond Boulevard,"Essex,NJ",trunk,5,. ,. ,. ,. ,. ,. ,. ,. ,. 
60194059_2,103769322,103769324,60194059,Raymond Boulevard,"Essex,NJ",trunk,5,. ,. ,. ,. ,. ,. ,. ,. ,. 
60194059_3,103769324,103769326,60194059,Raymond Boulevard,"Essex,NJ",trunk,5,. ,. ,. ,. ,. ,. ,. ,. ,. 
60194059_4,103769326,103769328,60194059,Raymond Boulevard,"Essex,NJ",trunk,5,. ,. ,. ,. ,. ,. ,. ,. ,. 
60194060_1,103686122,103686123,60194060,Market Street,"Essex,NJ",primary,. ,. ,yes,. ,. ,. ,. ,. ,. ,. 
60194060_2,103686123,103686125,60194060,Market Street,"Essex,NJ",primary,. ,. ,yes,. ,. ,. ,. ,. ,. ,. 
60194061_1,652442740,103769318,60194061,Market Street,"Essex,NJ",primary,. ,. ,yes,. ,. ,. ,. ,. ,. ,. 
60194061_2,103769318,103686122,60194061,Market Street,"Essex,NJ",primary,. ,. ,yes,. ,. ,. ,. ,. ,. ,. 
60787529_1,103665502,6131876740,60787529,Ferry Street,"Essex,NJ",secondary,. ,. ,. ,asphalt,. ,. ,. ,. ,. ,. 
60787529_2,6131876740,103702600,60787529,Ferry Street,"Essex,NJ",secondary,. ,. ,. ,asphalt,. ,. ,. ,. ,. ,. 
60787529_3,103702600,103716586,60787529,Ferry Street,"Essex,NJ",secondary,. ,. ,. ,asphalt,. ,. ,. ,. ,. ,. 
60787544_1,652442740,103679714,60787544,Raymond Boulevard,"Essex,NJ",trunk,3,. ,yes,. ,. ,. ,. ,. ,. ,. 
60788199_1,103702597,103702599,60788199,Edison Place,"Essex,NJ",residential,. ,. ,. ,. ,. ,. ,. ,. ,. ,. 
60788199_2,103702599,6861906298,60788199,Edison Place,"Essex,NJ",residential,. ,. ,. ,. ,. ,. ,. ,. ,. ,. 
60788199_3,6861906298,103702600,60788199,Edison Place,"Essex,NJ",residential,. ,. ,. ,. ,. ,. ,. ,. ,. ,. 
60810964_1,747626750,103769269,60810964,Market Street,"Essex,NJ",trunk,3,. ,yes,. ,. ,. ,. ,. ,. ,. 
60810964_2,103769269,652442739,60810964,Market Street,"Essex,NJ",trunk,3,. ,yes,. ,. ,. ,. ,. ,. ,. 
60810964_3,652442739,652442740,60810964,Market Street,"Essex,NJ",trunk,3,. ,yes,. ,. ,. ,. ,. ,. ,. 
62208156_1,747626728,103684556,62208156,Jackson Street,"Essex,NJ",primary,. ,. ,. ,. ,. ,. ,. ,. ,. ,. 
62208163_1,103684560,103684564,62208163,Jackson Street,"Essex,NJ",tertiary,2,. ,. ,. ,. ,. ,. ,. ,. ,. 
62208163_2,103684564,103653246,62208163,Jackson Street,"Essex,NJ",tertiary,2,. ,. ,. ,. ,. ,. ,. ,. ,. 
62208163_3,103653246,103684568,62208163,Jackson Street,"Essex,NJ",tertiary,2,. ,. ,. ,. ,. ,. ,. ,. ,. 
62208163_4,103684568,103684570,62208163,Jackson Street,"Essex,NJ",tertiary,2,. ,. ,. ,. ,. ,. ,. ,. ,. 
62208163_5,103684570,103684572,62208163,Jackson Street,"Essex,NJ",tertiary,2,. ,. ,. ,. ,. ,. ,. ,. ,. 
62208163_6,103684572,7038294284,62208163,Jackson Street,"Essex,NJ",tertiary,2,. ,. ,. ,. ,. ,. ,. ,. ,. 
62208163_7,7038294284,7038314401,62208163,Jackson Street,"Essex,NJ",tertiary,2,. ,. ,. ,. ,. ,. ,. ,. ,. 
62208163_8,7038314401,103684574,62208163,Jackson Street,"Essex,NJ",tertiary,2,. ,. ,. ,. ,. ,. ,. ,. ,. 
75689636_1,893537921,103732252,75689636,Riverbank Park,. ,. ,. ,. ,. ,. ,. ,. ,. ,. ,. ,. 
75689636_2,103732252,103686156,75689636,Riverbank Park,. ,. ,. ,. ,. ,. ,. ,. ,. ,. ,. ,. 
75689636_3,103686156,103686145,75689636,Riverbank Park,. ,. ,. ,. ,. ,. ,. ,. ,. ,. ,. ,. 
75689636_4,103686145,103769259,75689636,Riverbank Park,. ,. ,. ,. ,. ,. ,. ,. ,. ,. ,. ,. 
75689636_5,103769259,893537921,75689636,Riverbank Park,. ,. ,. ,. ,. ,. ,. ,. ,. ,. ,. ,. 
132500853_1,103682811,103682817,132500853,Ferry Street,"Essex,NJ",tertiary,. ,. ,. ,. ,. ,. ,. ,. ,. ,. 
132500853_2,103682817,103750139,132500853,Ferry Street,"Essex,NJ",tertiary,. ,. ,. ,. ,. ,. ,. ,. ,. ,. 
132500853_3,103750139,103745346,132500853,Ferry Street,"Essex,NJ",tertiary,. ,. ,. ,. ,. ,. ,. ,. ,. ,. 
132500853_4,103745346,103750141,132500853,Ferry Street,"Essex,NJ",tertiary,. ,. ,. ,. ,. ,. ,. ,. ,. ,. 
132500853_5,103750141,3639396122,132500853,Ferry Street,"Essex,NJ",tertiary,. ,. ,. ,. ,. ,. ,. ,. ,. ,. 
132500886_1,103686121,6894973579,132500886,Market Street,"Essex,NJ",primary,. ,. ,. ,. ,. ,. ,. ,. ,. ,. 
132500886_2,6894973579,5740993678,132500886,Market Street,"Essex,NJ",primary,. ,. ,. ,. ,. ,. ,. ,. ,. ,. 
132500886_3,5740993678,103679702,132500886,Market Street,"Essex,NJ",primary,. ,. ,. ,. ,. ,. ,. ,. ,. ,. 
132500886_4,103679702,103686122,132500886,Market Street,"Essex,NJ",primary,. ,. ,. ,. ,. ,. ,. ,. ,. ,. 
132500903_1,103732252,5568167645,132500903,Raymond Boulevard,"Essex,NJ",trunk,3,. ,yes,. ,. ,. ,. ,. ,. ,. 
132500903_2,5568167645,103769259,132500903,Raymond Boulevard,"Essex,NJ",trunk,3,. ,yes,. ,. ,. ,. ,. ,. ,. 
132500903_3,103769259,103769261,132500903,Raymond Boulevard,"Essex,NJ",trunk,3,. ,yes,. ,. ,. ,. ,. ,. ,. 
132500903_4,103769261,6888283509,132500903,Raymond Boulevard,"Essex,NJ",trunk,3,. ,yes,. ,. ,. ,. ,. ,. ,. 
132500903_5,6888283509,747626705,132500903,Raymond Boulevard,"Essex,NJ",trunk,3,. ,yes,. ,. ,. ,. ,. ,. ,. 
132500903_6,747626705,3573159450,132500903,Raymond Boulevard,"Essex,NJ",trunk,3,. ,yes,. ,. ,. ,. ,. ,. ,. 
132500903_7,3573159450,103769263,132500903,Raymond Boulevard,"Essex,NJ",trunk,3,. ,yes,. ,. ,. ,. ,. ,. ,. 
132500903_8,103769263,4207244050,132500903,Raymond Boulevard,"Essex,NJ",trunk,3,. ,yes,. ,. ,. ,. ,. ,. ,. 
222857197_1,103682522,103752404,222857197,Fleming Avenue,"Essex,NJ",residential,. ,. ,. ,. ,. ,. ,. ,. ,. ,. 
222857197_2,103752404,103737239,222857197,Fleming Avenue,"Essex,NJ",residential,. ,. ,. ,. ,. ,. ,. ,. ,. ,. 
222857197_3,103737239,103752402,222857197,Fleming Avenue,"Essex,NJ",residential,. ,. ,. ,. ,. ,. ,. ,. ,. ,. 
222857197_4,103752402,103718529,222857197,Fleming Avenue,"Essex,NJ",residential,. ,. ,. ,. ,. ,. ,. ,. ,. ,. 
222857197_5,103718529,103656794,222857197,Fleming Avenue,"Essex,NJ",residential,. ,. ,. ,. ,. ,. ,. ,. ,. ,. 
222857197_6,103656794,103728499,222857197,Fleming Avenue,"Essex,NJ",residential,. ,. ,. ,. ,. ,. ,. ,. ,. ,. 
222857197_7,103728499,103741670,222857197,Fleming Avenue,"Essex,NJ",residential,. ,. ,. ,. ,. ,. ,. ,. ,. ,. 
222857197_8,103741670,103752400,222857197,Fleming Avenue,"Essex,NJ",residential,. ,. ,. ,. ,. ,. ,. ,. ,. ,. 
222857197_9,103752400,103752398,222857197,Fleming Avenue,"Essex,NJ",residential,. ,. ,. ,. ,. ,. ,. ,. ,. ,. 
222857197_10,103752398,103752396,222857197,Fleming Avenue,"Essex,NJ",residential,. ,. ,. ,. ,. ,. ,. ,. ,. ,. 
222857289_1,103769243,103769245,222857289,Raymond Boulevard,"Essex,NJ",trunk,3,left|through|through,yes,. ,. ,. ,. ,. ,. ,. 
222857289_2,103769245,103769247,222857289,Raymond Boulevard,"Essex,NJ",trunk,3,left|through|through,yes,. ,. ,. ,. ,. ,. ,. 
222857289_3,103769247,103769249,222857289,Raymond Boulevard,"Essex,NJ",trunk,3,left|through|through,yes,. ,. ,. ,. ,. ,. ,. 
259492782_1,2649253170,2649253171,259492782,Peter Francisco Park,. ,. ,. ,. ,. ,. ,. ,. ,. ,. ,. ,. 
259492782_2,2649253171,2649253177,259492782,Peter Francisco Park,. ,. ,. ,. ,. ,. ,. ,. ,. ,. ,. ,. 
259492782_3,2649253177,2649253178,259492782,Peter Francisco Park,. ,. ,. ,. ,. ,. ,. ,. ,. ,. ,. ,. 
259492782_4,2649253178,2649253179,259492782,Peter Francisco Park,. ,. ,. ,. ,. ,. ,. ,. ,. ,. ,. ,. 
259492782_5,2649253179,2649253180,259492782,Peter Francisco Park,. ,. ,. ,. ,. ,. ,. ,. ,. ,. ,. ,. 
259492782_6,2649253180,2649253170,259492782,Peter Francisco Park,. ,. ,. ,. ,. ,. ,. ,. ,. ,. ,. ,. 
259492803_1,103702594,103702596,259492803,Edison Place,"Essex,NJ",residential,. ,. ,yes,. ,. ,. ,. ,. ,. ,. 
259492803_2,103702596,103702597,259492803,Edison Place,"Essex,NJ",residential,. ,. ,yes,. ,. ,. ,. ,. ,. ,. 
259492804_1,2649253382,103702590,259492804,Edison Place,"Essex,NJ",residential,. ,. ,yes,. ,. ,. ,. ,. ,. ,. 
259492804_2,103702590,103702594,259492804,Edison Place,"Essex,NJ",residential,. ,. ,yes,. ,. ,. ,. ,. ,. ,. 
259492805_1,2649253385,4226120963,259492805,Alling Street,"Essex,NJ",residential,. ,. ,yes,. ,. ,. ,. ,. ,. ,. 
259492805_2,4226120963,4226120960,259492805,Alling Street,"Essex,NJ",residential,. ,. ,yes,. ,. ,. ,. ,. ,. ,. 
259492805_3,4226120960,4226120964,259492805,Alling Street,"Essex,NJ",residential,. ,. ,yes,. ,. ,. ,. ,. ,. ,. 
259492805_4,4226120964,4226120965,259492805,Alling Street,"Essex,NJ",residential,. ,. ,yes,. ,. ,. ,. ,. ,. ,. 
259492805_5,4226120965,4226120962,259492805,Alling Street,"Essex,NJ",residential,. ,. ,yes,. ,. ,. ,. ,. ,. ,. 
259492805_6,4226120962,6899339138,259492805,Alling Street,"Essex,NJ",residential,. ,. ,yes,. ,. ,. ,. ,. ,. ,. 
259492805_7,6899339138,4226120958,259492805,Alling Street,"Essex,NJ",residential,. ,. ,yes,. ,. ,. ,. ,. ,. ,. 
259492805_8,4226120958,1457420107,259492805,Alling Street,"Essex,NJ",residential,. ,. ,yes,. ,. ,. ,. ,. ,. ,. 
262807558_1,103752438,103696800,262807558,Elm Street,"Essex,NJ",residential,. ,. ,yes,. ,. ,. ,. ,. ,. ,. 
262807562_1,103696786,103750107,262807562,Ferry Street,"Essex,NJ",secondary,. ,. ,. ,. ,. ,. ,. ,. ,. ,. 
262807562_2,103750107,6861858971,262807562,Ferry Street,"Essex,NJ",secondary,. ,. ,. ,. ,. ,. ,. ,. ,. ,. 
262807562_3,6861858971,103750109,262807562,Ferry Street,"Essex,NJ",secondary,. ,. ,. ,. ,. ,. ,. ,. ,. ,. 
262807563_1,103750151,2794848137,262807563,Ferry Street,"Essex,NJ",tertiary,. ,. ,yes,. ,. ,. ,. ,. ,. ,. 
262807563_2,2794848137,5723400353,262807563,Ferry Street,"Essex,NJ",tertiary,. ,. ,yes,. ,. ,. ,. ,. ,. ,. 
262807563_3,5723400353,5568167649,262807563,Ferry Street,"Essex,NJ",tertiary,. ,. ,yes,. ,. ,. ,. ,. ,. ,. 
262807563_4,5568167649,103686165,262807563,Ferry Street,"Essex,NJ",tertiary,. ,. ,yes,. ,. ,. ,. ,. ,. ,. 
262807590_1,103686121,4226120961,262807590,Market Street,"Essex,NJ",primary,. ,. ,. ,. ,. ,. ,. ,. ,. ,. 
262807590_2,4226120961,4226120967,262807590,Market Street,"Essex,NJ",primary,. ,. ,. ,. ,. ,. ,. ,. ,. ,. 
262807590_3,4226120967,4226120968,262807590,Market Street,"Essex,NJ",primary,. ,. ,. ,. ,. ,. ,. ,. ,. ,. 
262807590_4,4226120968,103686119,262807590,Market Street,"Essex,NJ",primary,. ,. ,. ,. ,. ,. ,. ,. ,. ,. 
262807590_5,103686119,6899339117,262807590,Market Street,"Essex,NJ",primary,. ,. ,. ,. ,. ,. ,. ,. ,. ,. 
262807590_6,6899339117,103665500,262807590,Market Street,"Essex,NJ",primary,. ,. ,. ,. ,. ,. ,. ,. ,. ,. 
262807620_1,103706511,103692151,262807620,Pulaski Street,"Essex,NJ",tertiary,2,. ,. ,. ,. ,. ,. ,. ,. ,. 
262807620_2,103692151,103769567,262807620,Pulaski Street,"Essex,NJ",tertiary,2,. ,. ,. ,. ,. ,. ,. ,. ,. 
262807620_3,103769567,103702442,262807620,Pulaski Street,"Essex,NJ",tertiary,2,. ,. ,. ,. ,. ,. ,. ,. ,. 
262807620_4,103702442,103749401,262807620,Pulaski Street,"Essex,NJ",tertiary,2,. ,. ,. ,. ,. ,. ,. ,. ,. 
262807620_5,103749401,4335918807,262807620,Pulaski Street,"Essex,NJ",tertiary,2,. ,. ,. ,. ,. ,. ,. ,. ,. 
262807620_6,4335918807,103744873,262807620,Pulaski Street,"Essex,NJ",tertiary,2,. ,. ,. ,. ,. ,. ,. ,. ,. 
262807620_7,103744873,103744845,262807620,Pulaski Street,"Essex,NJ",tertiary,2,. ,. ,. ,. ,. ,. ,. ,. ,. 
262807620_8,103744845,103655868,262807620,Pulaski Street,"Essex,NJ",tertiary,2,. ,. ,. ,. ,. ,. ,. ,. ,. 
262807620_9,103655868,103655869,262807620,Pulaski Street,"Essex,NJ",tertiary,2,. ,. ,. ,. ,. ,. ,. ,. ,. 
262807620_10,103655869,103692304,262807620,Pulaski Street,"Essex,NJ",tertiary,2,. ,. ,. ,. ,. ,. ,. ,. ,. 
262807620_11,103692304,103745036,262807620,Pulaski Street,"Essex,NJ",tertiary,2,. ,. ,. ,. ,. ,. ,. ,. ,. 
262807620_12,103745036,103728588,262807620,Pulaski Street,"Essex,NJ",tertiary,2,. ,. ,. ,. ,. ,. ,. ,. ,. 
262807620_13,103728588,5569725517,262807620,Pulaski Street,"Essex,NJ",tertiary,2,. ,. ,. ,. ,. ,. ,. ,. ,. 
262807620_14,5569725517,103755347,262807620,Pulaski Street,"Essex,NJ",tertiary,2,. ,. ,. ,. ,. ,. ,. ,. ,. 
262807621_1,103751051,103769267,262807621,Raymond Boulevard,"Essex,NJ",trunk,3,. ,yes,. ,. ,. ,. ,. ,. ,. 
262807621_2,103769267,747626750,262807621,Raymond Boulevard,"Essex,NJ",trunk,3,. ,yes,. ,. ,. ,. ,. ,. ,. 
262807664_1,103706511,103706513,262807664,Walnut Street,. ,residential,. ,. ,. ,. ,. ,. ,. ,. ,. ,. 
262807665_1,103706506,103706507,262807665,Walnut Street,. ,residential,2,. ,. ,. ,. ,. ,. ,. ,. ,. 
262807665_2,103706507,103706508,262807665,Walnut Street,. ,residential,2,. ,. ,. ,. ,. ,. ,. ,. ,. 
262807665_3,103706508,103695196,262807665,Walnut Street,. ,residential,2,. ,. ,. ,. ,. ,. ,. ,. ,. 
262807665_4,103695196,103706509,262807665,Walnut Street,. ,residential,2,. ,. ,. ,. ,. ,. ,. ,. ,. 
262807665_5,103706509,103706510,262807665,Walnut Street,. ,residential,2,. ,. ,. ,. ,. ,. ,. ,. ,. 
262807665_6,103706510,103706511,262807665,Walnut Street,. ,residential,2,. ,. ,. ,. ,. ,. ,. ,. ,. 
274819707_1,103750149,103750151,274819707,Ferry Street,"Essex,NJ",tertiary,. ,. ,. ,. ,. ,. ,. ,. ,. ,. 
274873388_1,103752404,103765838,274873388,Schalk Street,"Essex,NJ",residential,. ,. ,yes,. ,. ,. ,. ,. ,. ,. 
274894361_1,103702443,103702442,274894361,Elm Road,"Essex,NJ",residential,. ,. ,yes,. ,. ,. ,. ,. ,. ,. 
274894363_1,103702451,103702449,274894363,Elm Road,"Essex,NJ",residential,. ,. ,yes,. ,. ,. ,. ,. ,. ,. 
274894363_2,103702449,103702447,274894363,Elm Road,"Essex,NJ",residential,. ,. ,yes,. ,. ,. ,. ,. ,. ,. 
274894363_3,103702447,103702445,274894363,Elm Road,"Essex,NJ",residential,. ,. ,yes,. ,. ,. ,. ,. ,. ,. 
274894363_4,103702445,103702443,274894363,Elm Road,"Essex,NJ",residential,. ,. ,yes,. ,. ,. ,. ,. ,. ,. 
275899834_1,103695858,2805588745,275899834,Read Street,"Essex,NJ",residential,. ,. ,. ,. ,. ,. ,. ,. ,. ,. 
275899834_2,2805588745,2805588746,275899834,Read Street,"Essex,NJ",residential,. ,. ,. ,. ,. ,. ,. ,. ,. ,. 
275899834_3,2805588746,103769249,275899834,Read Street,"Essex,NJ",residential,. ,. ,. ,. ,. ,. ,. ,. ,. ,. 
279601658_1,103692296,6902227053,279601658,Jefferson Street,"Essex,NJ",residential,. ,. ,. ,. ,. ,. ,. ,. ,. ,. 
279601658_2,6902227053,103695125,279601658,Jefferson Street,"Essex,NJ",residential,. ,. ,. ,. ,. ,. ,. ,. ,. ,. 
279601658_3,103695125,103695128,279601658,Jefferson Street,"Essex,NJ",residential,. ,. ,. ,. ,. ,. ,. ,. ,. ,. 
279601658_4,103695128,103695130,279601658,Jefferson Street,"Essex,NJ",residential,. ,. ,. ,. ,. ,. ,. ,. ,. ,. 
279601658_5,103695130,103695132,279601658,Jefferson Street,"Essex,NJ",residential,. ,. ,. ,. ,. ,. ,. ,. ,. ,. 
279601658_6,103695132,103695134,279601658,Jefferson Street,"Essex,NJ",residential,. ,. ,. ,. ,. ,. ,. ,. ,. ,. 
279601658_7,103695134,103695136,279601658,Jefferson Street,"Essex,NJ",residential,. ,. ,. ,. ,. ,. ,. ,. ,. ,. 
279601658_8,103695136,103695138,279601658,Jefferson Street,"Essex,NJ",residential,. ,. ,. ,. ,. ,. ,. ,. ,. ,. 
279601658_9,103695138,7138034202,279601658,Jefferson Street,"Essex,NJ",residential,. ,. ,. ,. ,. ,. ,. ,. ,. ,. 
279601658_10,7138034202,7138034197,279601658,Jefferson Street,"Essex,NJ",residential,. ,. ,. ,. ,. ,. ,. ,. ,. ,. 
279601658_11,7138034197,103672366,279601658,Jefferson Street,"Essex,NJ",residential,. ,. ,. ,. ,. ,. ,. ,. ,. ,. 
279601658_12,103672366,103695140,279601658,Jefferson Street,"Essex,NJ",residential,. ,. ,. ,. ,. ,. ,. ,. ,. ,. 
279601658_13,103695140,5295958979,279601658,Jefferson Street,"Essex,NJ",residential,. ,. ,. ,. ,. ,. ,. ,. ,. ,. 
279601658_14,5295958979,4747343432,279601658,Jefferson Street,"Essex,NJ",residential,. ,. ,. ,. ,. ,. ,. ,. ,. ,. 
279601658_15,4747343432,4747343431,279601658,Jefferson Street,"Essex,NJ",residential,. ,. ,. ,. ,. ,. ,. ,. ,. ,. 
279601658_16,4747343431,4747324720,279601658,Jefferson Street,"Essex,NJ",residential,. ,. ,. ,. ,. ,. ,. ,. ,. ,. 
279601658_17,4747324720,103695142,279601658,Jefferson Street,"Essex,NJ",residential,. ,. ,. ,. ,. ,. ,. ,. ,. ,. 
351200119_1,3569385594,3569385595,351200119,Carmen Court,. ,residential,. ,. ,. ,. ,. ,. ,. ,. ,. ,. 
351200119_2,3569385595,3569385596,351200119,Carmen Court,. ,residential,. ,. ,. ,. ,. ,. ,. ,. ,. ,. 
351200119_3,3569385596,3569385597,351200119,Carmen Court,. ,residential,. ,. ,. ,. ,. ,. ,. ,. ,. ,. 
351200119_4,3569385597,3569385598,351200119,Carmen Court,. ,residential,. ,. ,. ,. ,. ,. ,. ,. ,. ,. 
351200119_5,3569385598,3569385599,351200119,Carmen Court,. ,residential,. ,. ,. ,. ,. ,. ,. ,. ,. ,. 
351200119_6,3569385599,3569385600,351200119,Carmen Court,. ,residential,. ,. ,. ,. ,. ,. ,. ,. ,. ,. 
351200119_7,3569385600,3569385601,351200119,Carmen Court,. ,residential,. ,. ,. ,. ,. ,. ,. ,. ,. ,. 
351200119_8,3569385601,3569385602,351200119,Carmen Court,. ,residential,. ,. ,. ,. ,. ,. ,. ,. ,. ,. 
359183802_1,3639396130,6564404204,359183802,Valsumo Lane,. ,residential,. ,. ,yes,. ,. ,. ,. ,. ,. ,. 
359183802_2,6564404204,6564404203,359183802,Valsumo Lane,. ,residential,. ,. ,yes,. ,. ,. ,. ,. ,. ,. 
385346395_1,3886977193,3886977207,385346395,Rome Street,"Essex,NJ",residential,. ,. ,. ,. ,. ,. ,. ,. ,. ,. 
385346395_2,3886977207,3886977205,385346395,Rome Street,"Essex,NJ",residential,. ,. ,. ,. ,. ,. ,. ,. ,. ,. 
385346395_3,3886977205,3886977196,385346395,Rome Street,"Essex,NJ",residential,. ,. ,. ,. ,. ,. ,. ,. ,. ,. 
385346395_4,3886977196,3886977210,385346395,Rome Street,"Essex,NJ",residential,. ,. ,. ,. ,. ,. ,. ,. ,. ,. 
385346395_5,3886977210,3886977201,385346395,Rome Street,"Essex,NJ",residential,. ,. ,. ,. ,. ,. ,. ,. ,. ,. 
385346395_6,3886977201,3886977209,385346395,Rome Street,"Essex,NJ",residential,. ,. ,. ,. ,. ,. ,. ,. ,. ,. 
385346395_7,3886977209,3886977195,385346395,Rome Street,"Essex,NJ",residential,. ,. ,. ,. ,. ,. ,. ,. ,. ,. 
385346395_8,3886977195,3886977204,385346395,Rome Street,"Essex,NJ",residential,. ,. ,. ,. ,. ,. ,. ,. ,. ,. 
385346395_9,3886977204,6902828781,385346395,Rome Street,"Essex,NJ",residential,. ,. ,. ,. ,. ,. ,. ,. ,. ,. 
385346395_10,6902828781,3886977198,385346395,Rome Street,"Essex,NJ",residential,. ,. ,. ,. ,. ,. ,. ,. ,. ,. 
385346395_11,3886977198,6902837290,385346395,Rome Street,"Essex,NJ",residential,. ,. ,. ,. ,. ,. ,. ,. ,. ,. 
385346395_12,6902837290,3886977200,385346395,Rome Street,"Essex,NJ",residential,. ,. ,. ,. ,. ,. ,. ,. ,. ,. 
385346395_13,3886977200,3886977203,385346395,Rome Street,"Essex,NJ",residential,. ,. ,. ,. ,. ,. ,. ,. ,. ,. 
385346395_14,3886977203,103714393,385346395,Rome Street,"Essex,NJ",residential,. ,. ,. ,. ,. ,. ,. ,. ,. ,. 
385346397_1,103708571,103690821,385346397,Hawkins Street,"Essex,NJ",residential,. ,. ,. ,. ,. ,. ,. ,. ,. ,. 
385346397_2,103690821,103708575,385346397,Hawkins Street,"Essex,NJ",residential,. ,. ,. ,. ,. ,. ,. ,. ,. ,. 
385346397_3,103708575,103708577,385346397,Hawkins Street,"Essex,NJ",residential,. ,. ,. ,. ,. ,. ,. ,. ,. ,. 
385346397_4,103708577,103708579,385346397,Hawkins Street,"Essex,NJ",residential,. ,. ,. ,. ,. ,. ,. ,. ,. ,. 
385346397_5,103708579,103708581,385346397,Hawkins Street,"Essex,NJ",residential,. ,. ,. ,. ,. ,. ,. ,. ,. ,. 
385346397_6,103708581,103708583,385346397,Hawkins Street,"Essex,NJ",residential,. ,. ,. ,. ,. ,. ,. ,. ,. ,. 
385346397_7,103708583,1051397710,385346397,Hawkins Street,"Essex,NJ",residential,. ,. ,. ,. ,. ,. ,. ,. ,. ,. 
385346397_8,1051397710,103708585,385346397,Hawkins Street,"Essex,NJ",residential,. ,. ,. ,. ,. ,. ,. ,. ,. ,. 
385346397_9,103708585,103708587,385346397,Hawkins Street,"Essex,NJ",residential,. ,. ,. ,. ,. ,. ,. ,. ,. ,. 
385346397_10,103708587,103687369,385346397,Hawkins Street,"Essex,NJ",residential,. ,. ,. ,. ,. ,. ,. ,. ,. ,. 
385346397_11,103687369,1051398052,385346397,Hawkins Street,"Essex,NJ",residential,. ,. ,. ,. ,. ,. ,. ,. ,. ,. 
385346397_12,1051398052,103708589,385346397,Hawkins Street,"Essex,NJ",residential,. ,. ,. ,. ,. ,. ,. ,. ,. ,. 
385346397_13,103708589,3886977194,385346397,Hawkins Street,"Essex,NJ",residential,. ,. ,. ,. ,. ,. ,. ,. ,. ,. 
385346397_14,3886977194,3886977202,385346397,Hawkins Street,"Essex,NJ",residential,. ,. ,. ,. ,. ,. ,. ,. ,. ,. 
385346397_15,3886977202,3886977205,385346397,Hawkins Street,"Essex,NJ",residential,. ,. ,. ,. ,. ,. ,. ,. ,. ,. 
420823905_1,4207244051,103732252,420823905,Raymond Boulevard,"Essex,NJ",trunk,3,left||through,yes,. ,. ,. ,. ,. ,. ,. 
420823908_1,103767932,4207244052,420823908,Raymond Boulevard,"Essex,NJ",trunk,2,. ,yes,. ,. ,. ,. ,. ,. ,. 
420823909_1,4207244050,6888277583,420823909,Raymond Boulevard,"Essex,NJ",trunk,4,left|||,yes,. ,. ,. ,. ,. ,. ,. 
420823909_2,6888277583,747626718,420823909,Raymond Boulevard,"Essex,NJ",trunk,4,left|||,yes,. ,. ,. ,. ,. ,. ,. 
420823910_1,747626718,103751051,420823910,Raymond Boulevard,"Essex,NJ",trunk,4,left|||,yes,. ,. ,. ,. ,. ,. ,. 
420823911_1,4207244054,103741668,420823911,Raymond Boulevard,"Essex,NJ",trunk,3,left||,yes,. ,. ,. ,. ,. ,. ,. 
420823913_1,4207244053,103767932,420823913,Raymond Boulevard,"Essex,NJ",trunk,3,left||,yes,. ,. ,. ,. ,. ,. ,. 
420823915_1,103741668,4207244053,420823915,Raymond Boulevard,"Essex,NJ",trunk,2,. ,yes,. ,. ,. ,. ,. ,. ,. 
420823916_1,4207244052,103769238,420823916,Raymond Boulevard,"Essex,NJ",trunk,3,left||,yes,. ,. ,. ,. ,. ,. ,. 
420823917_1,103728497,103769236,420823917,Raymond Boulevard,"Essex,NJ",trunk,2,. ,yes,. ,. ,. ,. ,. ,. ,. 
420823917_2,103769236,4207244054,420823917,Raymond Boulevard,"Essex,NJ",trunk,2,. ,yes,. ,. ,. ,. ,. ,. ,. 
420823919_1,103769238,103769240,420823919,Raymond Boulevard,"Essex,NJ",trunk,3,. ,yes,. ,. ,. ,. ,. ,. ,. 
420823919_2,103769240,103769243,420823919,Raymond Boulevard,"Essex,NJ",trunk,3,. ,yes,. ,. ,. ,. ,. ,. ,. 
420823933_1,103769249,103769255,420823933,Raymond Boulevard,"Essex,NJ",trunk,2,. ,yes,. ,. ,. ,. ,. ,. ,. 
420823933_2,103769255,103753909,420823933,Raymond Boulevard,"Essex,NJ",trunk,2,. ,yes,. ,. ,. ,. ,. ,. ,. 
420823933_3,103753909,4207244051,420823933,Raymond Boulevard,"Essex,NJ",trunk,2,. ,yes,. ,. ,. ,. ,. ,. ,. 
420826866_1,4207258432,5568167651,420826866,Market Street,"Essex,NJ",trunk,1,left;through,yes,. ,. ,. ,. ,. ,. ,. 
420826866_2,5568167651,5568167648,420826866,Market Street,"Essex,NJ",trunk,1,left;through,yes,. ,. ,. ,. ,. ,. ,. 
420826866_3,5568167648,5568167650,420826866,Market Street,"Essex,NJ",trunk,1,left;through,yes,. ,. ,. ,. ,. ,. ,. 
420826866_4,5568167650,103686165,420826866,Market Street,"Essex,NJ",trunk,1,left;through,yes,. ,. ,. ,. ,. ,. ,. 
421831217_1,103712538,103712539,421831217,Wilson Avenue,"Essex,NJ",secondary,. ,. ,. ,. ,. ,. ,. ,. ,. ,. 
421831217_2,103712539,103704292,421831217,Wilson Avenue,"Essex,NJ",secondary,. ,. ,. ,. ,. ,. ,. ,. ,. ,. 
421831217_3,103704292,103712541,421831217,Wilson Avenue,"Essex,NJ",secondary,. ,. ,. ,. ,. ,. ,. ,. ,. ,. 
421831217_4,103712541,103712543,421831217,Wilson Avenue,"Essex,NJ",secondary,. ,. ,. ,. ,. ,. ,. ,. ,. ,. 
421831217_5,103712543,103712545,421831217,Wilson Avenue,"Essex,NJ",secondary,. ,. ,. ,. ,. ,. ,. ,. ,. ,. 
421831217_6,103712545,103712547,421831217,Wilson Avenue,"Essex,NJ",secondary,. ,. ,. ,. ,. ,. ,. ,. ,. ,. 
421831217_7,103712547,103712549,421831217,Wilson Avenue,"Essex,NJ",secondary,. ,. ,. ,. ,. ,. ,. ,. ,. ,. 
421831217_8,103712549,103712551,421831217,Wilson Avenue,"Essex,NJ",secondary,. ,. ,. ,. ,. ,. ,. ,. ,. ,. 
421831217_9,103712551,103712553,421831217,Wilson Avenue,"Essex,NJ",secondary,. ,. ,. ,. ,. ,. ,. ,. ,. ,. 
421831217_10,103712553,103707732,421831217,Wilson Avenue,"Essex,NJ",secondary,. ,. ,. ,. ,. ,. ,. ,. ,. ,. 
421831217_11,103707732,4215643365,421831217,Wilson Avenue,"Essex,NJ",secondary,. ,. ,. ,. ,. ,. ,. ,. ,. ,. 
421831218_1,4215643365,103712555,421831218,Wilson Avenue,"Essex,NJ",secondary,. ,left;through,. ,. ,. ,. ,. ,. ,. ,. 
435220747_1,103747437,103692287,435220747,New Jersey Railroad Avenue,"Essex,NJ",residential,. ,. ,yes,. ,. ,. ,. ,. ,. ,. 
435220747_2,103692287,103747435,435220747,New Jersey Railroad Avenue,"Essex,NJ",residential,. ,. ,yes,. ,. ,. ,. ,. ,. ,. 
435220747_3,103747435,103744859,435220747,New Jersey Railroad Avenue,"Essex,NJ",residential,. ,. ,yes,. ,. ,. ,. ,. ,. ,. 
435220747_4,103744859,103725546,435220747,New Jersey Railroad Avenue,"Essex,NJ",residential,. ,. ,yes,. ,. ,. ,. ,. ,. ,. 
435220747_5,103725546,103692127,435220747,New Jersey Railroad Avenue,"Essex,NJ",residential,. ,. ,yes,. ,. ,. ,. ,. ,. ,. 
435220747_6,103692127,103706505,435220747,New Jersey Railroad Avenue,"Essex,NJ",residential,. ,. ,yes,. ,. ,. ,. ,. ,. ,. 
435220747_7,103706505,103747433,435220747,New Jersey Railroad Avenue,"Essex,NJ",residential,. ,. ,yes,. ,. ,. ,. ,. ,. ,. 
435220747_8,103747433,103728461,435220747,New Jersey Railroad Avenue,"Essex,NJ",residential,. ,. ,yes,. ,. ,. ,. ,. ,. ,. 
435220747_9,103728461,103729985,435220747,New Jersey Railroad Avenue,"Essex,NJ",residential,. ,. ,yes,. ,. ,. ,. ,. ,. ,. 
435220747_10,103729985,103737203,435220747,New Jersey Railroad Avenue,"Essex,NJ",residential,. ,. ,yes,. ,. ,. ,. ,. ,. ,. 
435220747_11,103737203,103702596,435220747,New Jersey Railroad Avenue,"Essex,NJ",residential,. ,. ,yes,. ,. ,. ,. ,. ,. ,. 
435677591_1,103769567,103717324,435677591,Warwick Street,"Essex,NJ",residential,2,. ,yes,. ,. ,. ,. ,. ,. ,. 
492430533_1,4844515123,4844515122,492430533,Ferry Street,"Essex,NJ",trunk,2,. ,yes,. ,. ,. ,. ,. ,. ,. 
492430534_1,103686165,103741672,492430534,Ferry Street,"Essex,NJ",trunk,2,. ,yes,. ,. ,. ,. ,. ,. ,. 
492430534_2,103741672,103750155,492430534,Ferry Street,"Essex,NJ",trunk,2,. ,yes,. ,. ,. ,. ,. ,. ,. 
492430534_3,103750155,103728501,492430534,Ferry Street,"Essex,NJ",trunk,2,. ,yes,. ,. ,. ,. ,. ,. ,. 
492430534_4,103728501,4844515123,492430534,Ferry Street,"Essex,NJ",trunk,2,. ,yes,. ,. ,. ,. ,. ,. ,. 
572281232_1,103756053,6442361048,572281232,Niagara Street,"Essex,NJ",residential,. ,. ,. ,. ,. ,. ,. ,. ,. ,. 
572281233_1,103750135,6339539091,572281233,Niagara Street,"Essex,NJ",residential,. ,. ,. ,. ,. ,. ,. ,. ,. ,. 
572281233_2,6339539091,103704295,572281233,Niagara Street,"Essex,NJ",residential,. ,. ,. ,. ,. ,. ,. ,. ,. ,. 
572281233_3,103704295,6339539086,572281233,Niagara Street,"Essex,NJ",residential,. ,. ,. ,. ,. ,. ,. ,. ,. ,. 
572281233_4,6339539086,103756045,572281233,Niagara Street,"Essex,NJ",residential,. ,. ,. ,. ,. ,. ,. ,. ,. ,. 
572281233_5,103756045,6339535684,572281233,Niagara Street,"Essex,NJ",residential,. ,. ,. ,. ,. ,. ,. ,. ,. ,. 
572281233_6,6339535684,103716452,572281233,Niagara Street,"Essex,NJ",residential,. ,. ,. ,. ,. ,. ,. ,. ,. ,. 
572281686_1,103712545,103717327,572281686,Lang Street,"Essex,NJ",residential,. ,. ,yes,. ,. ,. ,. ,. ,. ,. 
572292158_1,103695859,103752396,572292158,Fleming Avenue,"Essex,NJ",residential,. ,. ,. ,. ,. ,. ,. ,. ,. ,. 
572292159_1,103752396,4363410291,572292159,Mott Street,"Essex,NJ",residential,. ,. ,yes,. ,. ,. ,. ,. ,. ,. 
572292159_2,4363410291,103686163,572292159,Mott Street,"Essex,NJ",residential,. ,. ,yes,. ,. ,. ,. ,. ,. ,. 
572292160_1,103741670,103741672,572292160,Oxford Street,"Essex,NJ",residential,. ,. ,. ,. ,. ,. ,. ,. ,. ,. 
572293635_1,103686123,760901310,572293635,Prospect Street,"Essex,NJ",residential,. ,. ,yes,. ,. ,. ,. ,. ,. ,. 
572293635_2,760901310,652442740,572293635,Prospect Street,"Essex,NJ",residential,. ,. ,yes,. ,. ,. ,. ,. ,. ,. 
579737149_1,103686125,103686129,579737149,Market Street,"Essex,NJ",trunk,2,. ,yes,. ,. ,. ,. ,. ,. ,. 
579737149_2,103686129,103686131,579737149,Market Street,"Essex,NJ",trunk,2,. ,yes,. ,. ,. ,. ,. ,. ,. 
579737149_3,103686131,103686135,579737149,Market Street,"Essex,NJ",trunk,2,. ,yes,. ,. ,. ,. ,. ,. ,. 
579737149_4,103686135,103686137,579737149,Market Street,"Essex,NJ",trunk,2,. ,yes,. ,. ,. ,. ,. ,. ,. 
579737149_5,103686137,103686139,579737149,Market Street,"Essex,NJ",trunk,2,. ,yes,. ,. ,. ,. ,. ,. ,. 
579737149_6,103686139,6888283485,579737149,Market Street,"Essex,NJ",trunk,2,. ,yes,. ,. ,. ,. ,. ,. ,. 
579737149_7,6888283485,6888277584,579737149,Market Street,"Essex,NJ",trunk,2,. ,yes,. ,. ,. ,. ,. ,. ,. 
579737149_8,6888277584,103686141,579737149,Market Street,"Essex,NJ",trunk,2,. ,yes,. ,. ,. ,. ,. ,. ,. 
579737149_9,103686141,6888283489,579737149,Market Street,"Essex,NJ",trunk,2,. ,yes,. ,. ,. ,. ,. ,. ,. 
579737149_10,6888283489,103686143,579737149,Market Street,"Essex,NJ",trunk,2,. ,yes,. ,. ,. ,. ,. ,. ,. 
579737149_11,103686143,6888283492,579737149,Market Street,"Essex,NJ",trunk,2,. ,yes,. ,. ,. ,. ,. ,. ,. 
579737149_12,6888283492,103684560,579737149,Market Street,"Essex,NJ",trunk,2,. ,yes,. ,. ,. ,. ,. ,. ,. 
579737150_1,747626711,440154379,579737150,Jackson Street,"Essex,NJ",primary,. ,. ,. ,. ,. ,. ,. ,. ,. ,. 
579737151_1,103696786,103686121,579737151,Union Street,"Essex,NJ",residential,. ,. ,yes,. ,. ,. ,. ,. ,. ,. 
579737152_1,103716586,103696786,579737152,Ferry Street,"Essex,NJ",secondary,. ,. ,. ,. ,. ,. ,. ,. ,. ,. 
581988732_1,103706513,103717327,581988732,Lang Street,"Essex,NJ",residential,. ,. ,. ,. ,. ,. ,. ,. ,. ,. 
582118673_1,103712536,103750121,582118673,Ferry Street,"Essex,NJ",secondary,. ,. ,. ,. ,. ,. ,. ,. ,. ,. 
582118673_2,103750121,103750123,582118673,Ferry Street,"Essex,NJ",secondary,. ,. ,. ,. ,. ,. ,. ,. ,. ,. 
582118674_1,103712538,103750123,582118674,Merchant Street,"Essex,NJ",secondary,. ,. ,yes,. ,. ,. ,. ,. ,. ,. 
582118675_1,103712536,103712538,582118675,Wilson Avenue,"Essex,NJ",secondary,. ,. ,yes,. ,. ,. ,. ,. ,. ,. 
582118683_1,103745335,6862408065,582118683,Avenue L,"Essex,NJ",tertiary,. ,. ,. ,. ,. ,. ,. ,. ,. ,. 
582118683_2,6862408065,103776506,582118683,Avenue L,"Essex,NJ",tertiary,. ,. ,. ,. ,. ,. ,. ,. ,. ,. 
582118683_3,103776506,103691031,582118683,Avenue L,"Essex,NJ",tertiary,. ,. ,. ,. ,. ,. ,. ,. ,. ,. 
582118683_4,103691031,103776507,582118683,Avenue L,"Essex,NJ",tertiary,. ,. ,. ,. ,. ,. ,. ,. ,. ,. 
582118683_5,103776507,103767053,582118683,Avenue L,"Essex,NJ",tertiary,. ,. ,. ,. ,. ,. ,. ,. ,. ,. 
605256074_1,103750109,6861858973,605256074,Prospect Street,"Essex,NJ",residential,. ,. ,no,. ,. ,. ,. ,. ,. ,. 
605256074_2,6861858973,103787248,605256074,Prospect Street,"Essex,NJ",residential,. ,. ,no,. ,. ,. ,. ,. ,. ,. 
605256074_3,103787248,6861858976,605256074,Prospect Street,"Essex,NJ",residential,. ,. ,no,. ,. ,. ,. ,. ,. ,. 
605256074_4,6861858976,103686123,605256074,Prospect Street,"Essex,NJ",residential,. ,. ,no,. ,. ,. ,. ,. ,. ,. 
605256075_1,103750109,103739494,605256075,Ferry Street,"Essex,NJ",secondary,. ,. ,. ,. ,. ,. ,. ,. ,. ,. 
605256075_2,103739494,103695154,605256075,Ferry Street,"Essex,NJ",secondary,. ,. ,. ,. ,. ,. ,. ,. ,. ,. 
605256075_3,103695154,103750111,605256075,Ferry Street,"Essex,NJ",secondary,. ,. ,. ,. ,. ,. ,. ,. ,. ,. 
605256075_4,103750111,103750113,605256075,Ferry Street,"Essex,NJ",secondary,. ,. ,. ,. ,. ,. ,. ,. ,. ,. 
605256075_5,103750113,103700479,605256075,Ferry Street,"Essex,NJ",secondary,. ,. ,. ,. ,. ,. ,. ,. ,. ,. 
605256075_6,103700479,103741178,605256075,Ferry Street,"Essex,NJ",secondary,. ,. ,. ,. ,. ,. ,. ,. ,. ,. 
605256075_7,103741178,103684572,605256075,Ferry Street,"Essex,NJ",secondary,. ,. ,. ,. ,. ,. ,. ,. ,. ,. 
605256075_8,103684572,103750117,605256075,Ferry Street,"Essex,NJ",secondary,. ,. ,. ,. ,. ,. ,. ,. ,. ,. 
605256075_9,103750117,103750119,605256075,Ferry Street,"Essex,NJ",secondary,. ,. ,. ,. ,. ,. ,. ,. ,. ,. 
605256075_10,103750119,103712536,605256075,Ferry Street,"Essex,NJ",secondary,. ,. ,. ,. ,. ,. ,. ,. ,. ,. 
645706698_1,6069012320,6069012321,645706698,Empty Lot,. ,. ,. ,. ,. ,. ,. ,. ,. ,. ,. ,. 
645706698_2,6069012321,6069012322,645706698,Empty Lot,. ,. ,. ,. ,. ,. ,. ,. ,. ,. ,. ,. 
645706698_3,6069012322,6069012323,645706698,Empty Lot,. ,. ,. ,. ,. ,. ,. ,. ,. ,. ,. ,. 
645706698_4,6069012323,6069012320,645706698,Empty Lot,. ,. ,. ,. ,. ,. ,. ,. ,. ,. ,. ,. 
687304853_1,103756057,6902858491,687304853,Paris Street,"Essex,NJ",residential,. ,. ,. ,. ,. ,. ,. ,. ,. ,. 
687304853_2,6902858491,103745333,687304853,Paris Street,"Essex,NJ",residential,. ,. ,. ,. ,. ,. ,. ,. ,. ,. 
687304853_3,103745333,103767053,687304853,Paris Street,"Essex,NJ",residential,. ,. ,. ,. ,. ,. ,. ,. ,. ,. 
699046191_1,3639396122,103750143,699046191,Ferry Street,"Essex,NJ",tertiary,. ,. ,. ,. ,. ,. ,. ,. ,. ,. 
699046192_1,103750143,103750145,699046192,Ferry Street,"Essex,NJ",tertiary,. ,. ,. ,. ,. ,. ,. ,. ,. ,. 
699046192_2,103750145,103750147,699046192,Ferry Street,"Essex,NJ",tertiary,. ,. ,. ,. ,. ,. ,. ,. ,. ,. 
699046192_3,103750147,103750149,699046192,Ferry Street,"Essex,NJ",tertiary,. ,. ,. ,. ,. ,. ,. ,. ,. ,. 
699046193_1,6564404203,3639396129,699046193,Valsumo Lane,. ,residential,. ,. ,. ,. ,. ,. ,. ,. ,. ,. 
699046193_2,3639396129,3639396125,699046193,Valsumo Lane,. ,residential,. ,. ,. ,. ,. ,. ,. ,. ,. ,. 
699046193_3,3639396125,3639396122,699046193,Valsumo Lane,. ,residential,. ,. ,. ,. ,. ,. ,. ,. ,. ,. 
