Node ID,Lat,Lon,Is Intersection,Type
64810350,42.6490442,-71.3240160,False,0
64810588,42.6534350,-71.3022370,False,0
64810650,42.6560032,-71.3037719,False,0
64810659,42.6556984,-71.3038276,False,0
64810662,42.6525672,-71.3175853,True,0
64810801,42.6488650,-71.3146189,False,0
64810902,42.6544320,-71.3126950,False,0
64810908,42.6532213,-71.3065356,True,0
64810966,42.6498320,-71.2997220,True,0
64810984,42.6469294,-71.3178271,True,0
64811093,42.6504880,-71.3035940,True,0
64811141,42.6491280,-71.3019970,False,0
64811248,42.6510880,-71.3053690,False,0
64811338,42.6544970,-71.3063070,False,0
64811348,42.6440785,-71.3194166,False,0
64811360,42.6520470,-71.3054590,False,0
64811413,42.6472250,-71.2961700,False,0
64811434,42.6535550,-71.3110590,True,0
64811657,42.6542500,-71.3066720,False,0
64811725,42.6489362,-71.3223266,True,0
64812014,42.6482413,-71.2991238,False,0
64812041,42.6455510,-71.3082098,False,0
64812082,42.6429830,-71.3022610,False,0
64812088,42.6492299,-71.3127691,False,0
64812123,42.6529851,-71.3244921,False,0
64812248,42.6533850,-71.3014790,True,0
64812275,42.6460769,-71.3014595,False,0
64812373,42.6542270,-71.3063570,True,0
64812467,42.6496507,-71.3255563,True,1
64812557,42.6568450,-71.3058870,False,0
64812617,42.6486317,-71.2993313,False,0
64812624,42.6541330,-71.3009570,True,0
64812675,42.6468493,-71.3178689,True,2
64812687,42.6514692,-71.3088984,False,0
64812710,42.6465495,-71.3172714,True,2
64812738,42.6494560,-71.3241260,False,0
64812806,42.6529794,-71.3051126,True,0
64812842,42.6496270,-71.3063909,False,0
64812895,42.6439883,-71.3204120,True,1
64812920,42.6491171,-71.3134887,False,0
64813003,42.6485988,-71.3159942,True,4
64813105,42.6508582,-71.3143623,False,0
64813314,42.6544410,-71.3125270,False,0
64813357,42.6475789,-71.3095110,True,0
64813372,42.6446240,-71.3034970,True,0
64813474,42.6538860,-71.3073410,True,0
64813517,42.6538570,-71.3239948,False,0
64813590,42.6459150,-71.2999140,False,0
64813738,42.6479390,-71.3192760,False,0
64813755,42.6538246,-71.3051018,True,0
64813792,42.6520004,-71.3094717,False,0
64813798,42.6487295,-71.3162477,True,0
64813860,42.6439043,-71.3155402,True,0
64813870,42.6473786,-71.3171126,True,0
64813936,42.6539435,-71.3163593,True,0
64814135,42.6491370,-71.2999040,False,0
64814200,42.6486950,-71.2906690,False,0
64814408,42.6490812,-71.3226015,True,0
64814501,42.6510323,-71.2995784,True,0
64814525,42.6467352,-71.3063733,True,0
64814691,42.6515330,-71.3035990,False,0
64814952,42.6556050,-71.3139070,False,0
64815042,42.6445558,-71.3020137,False,0
64815088,42.6482380,-71.3152462,False,0
64815121,42.6466152,-71.3103607,True,0
64815212,42.6512540,-71.3088440,False,0
64815277,42.6446180,-71.3026200,False,0
64815287,42.6523188,-71.3003814,True,0
64815315,42.6528120,-71.3182210,True,0
64815402,42.6476690,-71.3196830,False,0
64815459,42.6458870,-71.2939620,False,0
64815578,42.6499048,-71.3251057,False,0
64815642,42.6491430,-71.3002670,False,0
64815655,42.6532353,-71.3103283,False,0
64815663,42.6541020,-71.3002260,False,0
64815764,42.6551420,-71.3068300,False,0
64815819,42.6478949,-71.2996039,False,0
64816103,42.6446190,-71.3034090,False,0
64816146,42.6546490,-71.3129130,False,0
64816188,42.6460860,-71.3108273,False,0
64816331,42.6497213,-71.3238941,True,0
64816427,42.6459340,-71.3025520,True,0
64816477,42.6535339,-71.3240643,False,0
64816663,42.6491520,-71.3002020,False,0
64816776,42.6480942,-71.2997290,False,0
64816796,42.6443719,-71.3223840,True,0
64816825,42.6536940,-71.3023090,False,0
64816908,42.6485333,-71.3205511,True,0
64816943,42.6432820,-71.3023750,False,0
64817025,42.6478155,-71.2979429,False,0
64817046,42.6464444,-71.3151741,True,0
64817060,42.6477353,-71.3098410,False,0
64817122,42.6499680,-71.3070679,False,0
64817259,42.6459236,-71.3128009,True,1
64817312,42.6526519,-71.3175150,True,2
64817323,42.6520910,-71.3086130,False,0
64817415,42.6527763,-71.3043618,True,0
64817539,42.6527601,-71.3048439,False,0
64817574,42.6460671,-71.3143547,False,0
64817580,42.6449192,-71.3188717,True,0
64817609,42.6532440,-71.3083268,True,0
64817863,42.6488342,-71.3026295,True,0
64818126,42.6511180,-71.3231800,False,0
64818229,42.6547288,-71.3238389,False,0
64818508,42.6438570,-71.3025720,False,0
64818550,42.6473095,-71.3234586,True,0
64818554,42.6494462,-71.3128961,False,0
64818698,42.6546806,-71.3237327,False,0
64818825,42.6457467,-71.3106008,True,1
64818837,42.6538010,-71.3067660,True,0
64818901,42.6532339,-71.3242383,False,0
64818971,42.6485853,-71.3014154,False,0
64819125,42.6517840,-71.3016980,True,0
64819138,42.6523550,-71.3099350,False,0
64819199,42.6501807,-71.3193782,True,1
64819297,42.6446689,-71.3205184,True,4
64819302,42.6526578,-71.3249132,False,0
64819433,42.6518481,-71.3026230,True,0
64819715,42.6538383,-71.3082144,False,0
64819780,42.6527600,-71.3108940,False,0
64819788,42.6537010,-71.3014820,False,0
64819835,42.6528110,-71.3181340,False,0
64819873,42.6486694,-71.3014535,False,0
64819889,42.6527080,-71.3075411,True,0
64820055,42.6482056,-71.2989393,False,0
64820081,42.6514370,-71.2960550,False,0
64820100,42.6481761,-71.3148992,False,0
64820133,42.6484479,-71.2996375,True,0
64820147,42.6443953,-71.3172357,True,0
64820194,42.6524921,-71.3253357,False,1
64820278,42.6521338,-71.3067399,True,0
64820307,42.6547202,-71.3025126,False,0
64820323,42.6535177,-71.3042263,True,0
64820501,42.6489190,-71.3122430,True,0
64820530,42.6511255,-71.3210810,False,0
64820534,42.6548320,-71.3025530,False,0
64820607,42.6539650,-71.3079090,False,0
64820710,42.6527290,-71.3104220,False,0
64820874,42.6497443,-71.3066636,False,0
64820931,42.6456369,-71.3092580,True,0
64820995,42.6468020,-71.3178720,False,0
64821093,42.6487930,-71.2983180,False,0
64821097,42.6444099,-71.3171335,True,0
64821108,42.6509072,-71.3143523,False,0
64821156,42.6454537,-71.3170129,True,0
64821410,42.6469949,-71.3147109,True,0
64821537,42.6459981,-71.3136593,True,0
64821621,42.6572710,-71.3034180,False,0
64821747,42.6555393,-71.3144377,True,0
64821821,42.6498450,-71.2999020,False,0
64821847,42.6519300,-71.3089380,False,0
64822023,42.6479760,-71.3106490,True,0
64822049,42.6489140,-71.3013960,False,0
64822092,42.6434494,-71.3178356,False,0
64822195,42.6491140,-71.3004280,False,0
64822379,42.6490902,-71.3159118,True,2
64822667,42.6535050,-71.3036440,True,0
64822713,42.6499318,-71.3068213,False,0
64822773,42.6456682,-71.3180769,False,0
64822798,42.6527810,-71.3180590,False,0
64823171,42.6540140,-71.3022940,True,0
64823224,42.6453401,-71.3009436,True,0
64823327,42.6445106,-71.3107728,True,1
64823421,42.6493185,-71.3135101,False,0
64823479,42.6494491,-71.3133947,False,0
64823858,42.6461850,-71.2921620,False,0
64823881,42.6498515,-71.3251821,False,0
64823995,42.6433504,-71.3184992,False,0
64824045,42.6479811,-71.2983802,False,0
64824092,42.6460410,-71.3141173,False,0
64824100,42.6461470,-71.3050830,True,0
64824408,42.6490594,-71.3134381,False,0
64824685,42.6481722,-71.3242279,True,0
64824700,42.6451560,-71.3252960,False,0
64824717,42.6483825,-71.3157320,False,0
64824773,42.6442940,-71.3163523,True,0
64825221,42.6436780,-71.3084800,False,0
64825239,42.6460960,-71.2947560,False,0
64825350,42.6481465,-71.3144828,False,0
64825360,42.6497919,-71.3252773,False,0
64825379,42.6429906,-71.3216817,False,0
64825536,42.6494226,-71.3056030,False,0
64825562,42.6472301,-71.3204976,False,0
64825601,42.6461094,-71.3223686,False,0
64825608,42.6471646,-71.3258701,True,0
64825733,42.6528610,-71.3248421,False,0
64826112,42.6486320,-71.2979510,False,0
64826246,42.6452732,-71.3124049,True,0
64826342,42.6524102,-71.3252612,False,1
64826349,42.6484570,-71.2976480,False,0
64826397,42.6446861,-71.3047235,False,0
64826553,42.6452581,-71.3005880,True,0
64826689,42.6496560,-71.3019220,False,0
64826834,42.6487520,-71.3046420,True,0
64826857,42.6526370,-71.3053420,False,0
64826935,42.6541280,-71.3007740,False,0
64826960,42.6546277,-71.3238991,False,0
64827226,42.6443432,-71.3005526,True,0
64827749,42.6452169,-71.3066236,True,0
64828103,42.6499790,-71.3018780,True,0
64828137,42.6513868,-71.3226642,True,0
64828221,42.6501722,-71.3046433,True,0
64828593,42.6426260,-71.3020920,False,0
64828629,42.6493844,-71.3128254,False,0
64828836,42.6513080,-71.3032230,True,0
64828898,42.6454130,-71.3131560,False,0
64829096,42.6423320,-71.3182546,False,0
64829109,42.6476786,-71.3193260,True,2
64829118,42.6502438,-71.3072955,False,0
64829122,42.6472790,-71.2970117,False,0
64829442,42.6479563,-71.2996595,False,0
64829483,42.6499248,-71.3049213,False,0
64829844,42.6450420,-71.3256110,False,0
64830012,42.6438358,-71.3216025,True,0
64830088,42.6537520,-71.3064460,True,0
64830260,42.6446480,-71.3210490,False,0
64830324,42.6514026,-71.3222887,False,0
64830510,42.6470329,-71.3261685,False,0
64830673,42.6485830,-71.2978560,False,0
64830734,42.6445200,-71.3017720,True,0
64830876,42.6456681,-71.3139765,False,0
64831002,42.6481697,-71.3123471,False,0
64831548,42.6499780,-71.3143710,False,0
64831714,42.6481394,-71.3207395,True,2
64831940,42.6449910,-71.3257980,False,0
64831956,42.6434712,-71.3237511,False,0
64832012,42.6540895,-71.3050524,True,0
64832052,42.6487340,-71.3024973,False,0
64832247,42.6546990,-71.3073630,False,0
64832270,42.6499010,-71.3007300,False,0
64832476,42.6451053,-71.3061364,False,0
64832625,42.6422070,-71.3006170,False,0
64832640,42.6492941,-71.3238010,False,0
64832677,42.6479438,-71.3202576,False,0
64833169,42.6460400,-71.3252260,False,0
64833201,42.6503457,-71.3216284,True,0
64833280,42.6486830,-71.2980620,False,0
64833330,42.6540850,-71.3016310,False,0
64833407,42.6531503,-71.3243102,False,0
64833707,42.6548209,-71.3237760,False,0
64834382,42.6529910,-71.3065770,False,0
64834649,42.6540860,-71.3081000,True,0
64834666,42.6488281,-71.3038608,False,0
64834831,42.6506480,-71.3069480,False,0
64834842,42.6494357,-71.3232799,True,0
64834995,42.6522680,-71.3098230,False,0
64835141,42.6486845,-71.3020509,False,0
64835170,42.6450206,-71.3035877,True,0
64835258,42.6512660,-71.3218541,False,0
64835500,42.6513350,-71.3080400,True,0
64836419,42.6504330,-71.3018400,False,0
64837053,42.6497963,-71.3186187,True,0
64837083,42.6527785,-71.3075292,True,0
64837093,42.6509864,-71.3043800,True,0
64837166,42.6433900,-71.3007710,False,0
64837193,42.6445563,-71.3113534,True,0
64837346,42.6541892,-71.3240661,False,0
64837359,42.6501425,-71.3071596,False,0
64837712,42.6552567,-71.3234266,False,0
64837835,42.6479978,-71.2982017,False,0
64837853,42.6487500,-71.3019420,False,0
64837862,42.6532562,-71.3243763,False,0
64837881,42.6459060,-71.3026730,False,0
64837939,42.6523940,-71.3056740,False,0
64837960,42.6460660,-71.3015654,False,0
64838127,42.6492790,-71.3019830,False,0
64838213,42.6479865,-71.3167620,True,0
64838271,42.6485574,-71.2995039,False,0
64838283,42.6527023,-71.3050205,False,0
64838304,42.6456310,-71.3129610,False,0
64838325,42.6477677,-71.2976687,False,0
64838417,42.6534618,-71.3240955,False,0
64838445,42.6459050,-71.2936310,False,0
64838485,42.6510623,-71.3211521,False,0
64838728,42.6459800,-71.2944660,False,0
64838873,42.6489854,-71.3204397,True,4
64839279,42.6459220,-71.2934710,False,0
64839382,42.6455440,-71.3037810,True,0
64839520,42.6444113,-71.3165957,False,0
64839557,42.6548576,-71.3236080,False,0
64839714,42.6486850,-71.3225740,False,0
64839804,42.6552750,-71.3133590,False,0
64840015,42.6448455,-71.3053747,True,0
64840096,42.6519155,-71.3093745,False,0
64840302,42.6447916,-71.3052211,False,0
64840621,42.6432040,-71.2993550,False,0
64840632,42.6470375,-71.3070318,True,0
64840817,42.6418130,-71.3017050,False,0
64840944,42.6444170,-71.3256260,False,0
64841089,42.6564290,-71.3127550,False,0
64841117,42.6431850,-71.3007820,False,0
64841359,42.6509432,-71.3143643,True,0
64841687,42.6540950,-71.2998880,False,0
64841836,42.6531320,-71.3113300,False,0
64842126,42.6419250,-71.3003330,False,1
64842299,42.6486279,-71.3162470,True,4
64842608,42.6492507,-71.3135259,False,0
64842870,42.6497613,-71.3253350,False,0
64843053,42.6506960,-71.3035010,True,0
64843265,42.6510133,-71.3165415,True,3
64843358,42.6446380,-71.3148900,False,0
64843721,42.6433420,-71.3169666,False,0
64844568,42.6460800,-71.3240490,False,0
64844678,42.6512180,-71.3186040,False,0
64844899,42.6484732,-71.3177645,False,0
64844930,42.6489290,-71.2987390,False,0
64845142,42.6478057,-71.3196659,True,0
64845298,42.6474822,-71.3196393,False,0
64845574,42.6469321,-71.3061665,True,0
64845600,42.6445710,-71.3249870,False,0
64845630,42.6488199,-71.3184799,True,0
64845785,42.6487710,-71.3020900,False,0
64845904,42.6500227,-71.3249481,False,0
64846020,42.6528935,-71.3246094,False,0
64846641,42.6490595,-71.3250460,False,0
64846981,42.6505786,-71.3018247,True,0
64846998,42.6510094,-71.3144319,True,0
64847011,42.6548550,-71.3071760,True,0
64847076,42.6500490,-71.3071929,False,0
64847121,42.6559018,-71.3139720,False,1
64847537,42.6509385,-71.3206780,True,4
64847706,42.6540780,-71.2993840,False,0
64848033,42.6474632,-71.3218409,True,0
64848104,42.6470050,-71.2959340,False,0
64848117,42.6502453,-71.3149046,True,4
64848454,42.6520470,-71.3219280,False,0
64848611,42.6530590,-71.3024810,True,0
64848713,42.6444488,-71.3167647,True,0
64848771,42.6557720,-71.3060590,True,0
64848813,42.6523800,-71.3210790,True,0
64848925,42.6556937,-71.3230712,False,0
64848967,42.6486787,-71.3218384,True,0
64849062,42.6440419,-71.3158361,True,2
64849423,42.6496900,-71.3065459,False,0
64849479,42.6512848,-71.3219802,False,0
64849505,42.6482820,-71.3210590,True,0
64849628,42.6442910,-71.3180458,True,0
64849754,42.6511649,-71.3214257,False,0
64849793,42.6453320,-71.3020000,True,0
64849871,42.6533078,-71.3241841,False,0
64849976,42.6516260,-71.3077340,False,0
64850083,42.6531550,-71.3009530,False,0
64850494,42.6525730,-71.3054170,False,0
64850525,42.6484809,-71.3157354,False,0
64850685,42.6539100,-71.3119870,False,0
64850739,42.6468755,-71.3265373,False,0
64850901,42.6497173,-71.3254176,False,0
64851035,42.6526780,-71.3053110,False,0
64851081,42.6482368,-71.3145807,False,0
64851339,42.6476247,-71.3055642,True,0
64851384,42.6536580,-71.3118940,False,0
64851392,42.6528052,-71.3084108,True,0
64851507,42.6481036,-71.3131130,True,1
64851606,42.6512409,-71.3213921,False,0
64852142,42.6495237,-71.3051884,True,4
64852177,42.6426230,-71.3009640,False,0
64852194,42.6542450,-71.3117440,False,0
64852326,42.6489240,-71.3019070,False,0
64852599,42.6445240,-71.3139260,False,0
64852855,42.6442066,-71.3187019,True,0
64853096,42.6480809,-71.3206109,False,0
64853106,42.6523600,-71.3009480,True,0
64853170,42.6552530,-71.3113460,False,0
64853278,42.6516491,-71.2995047,True,0
64853401,42.6466594,-71.3131893,True,4
64853448,42.6528820,-71.3110400,False,0
64853514,42.6507245,-71.3204540,False,0
64853732,42.6532107,-71.3091637,True,0
64853799,42.6526090,-71.3053660,True,0
64853814,42.6533880,-71.3113380,False,0
64853928,42.6545094,-71.3238269,False,0
64854128,42.6494955,-71.3132921,False,0
64854133,42.6446493,-71.3215273,False,0
64854346,42.6489640,-71.2988550,False,0
64854460,42.6472553,-71.3184840,True,0
64854488,42.6458380,-71.3091400,False,0
64854699,42.6474963,-71.2972026,False,0
64854837,42.6496118,-71.3178107,True,0
64855170,42.6455660,-71.3083720,True,1
64855234,42.6481249,-71.2985898,False,0
64855682,42.6531323,-71.3074692,True,0
64856033,42.6534510,-71.3242320,False,0
64856103,42.6488649,-71.3041321,False,0
64856305,42.6500990,-71.3037700,True,0
64856460,42.6513720,-71.3087858,False,0
64856523,42.6464381,-71.3086013,True,0
64856555,42.6515346,-71.2976425,False,0
64857011,42.6517071,-71.3004471,True,0
64857152,42.6461370,-71.2948370,False,0
64857540,42.6445180,-71.3251850,False,0
64857791,42.6498673,-71.3066983,False,0
64857969,42.6564170,-71.3059550,False,0
64858015,42.6451250,-71.3214830,True,0
64858127,42.6513252,-71.3229411,False,0
64858155,42.6513992,-71.3225254,False,0
64858166,42.6440980,-71.3025980,False,0
64858747,42.6535190,-71.3009650,False,0
64859016,42.6493102,-71.3127819,False,0
64859183,42.6490580,-71.2993540,False,0
64859362,42.6499980,-71.3021610,False,0
64859387,42.6512448,-71.3231235,False,0
64859465,42.6542711,-71.3239199,False,0
64859494,42.6508260,-71.3188370,False,0
64859760,42.6508550,-71.3083000,False,0
64859792,42.6523280,-71.3057760,True,0
64859940,42.6447453,-71.3132899,True,0
64859945,42.6489000,-71.3018560,False,0
64860066,42.6530300,-71.3019510,False,0
64860295,42.6477390,-71.3244293,True,0
64860777,42.6464469,-71.3192933,False,0
64861011,42.6497445,-71.3064361,False,0
64861154,42.6540380,-71.3020410,False,0
64861519,42.6536650,-71.3111680,False,0
64861700,42.6446004,-71.3210028,True,4
64861748,42.6478405,-71.2995360,True,0
64861843,42.6459079,-71.3125767,False,0
64861986,42.6541540,-71.3082100,False,0
64862007,42.6498273,-71.3231770,False,0
64862333,42.6507410,-71.3188970,False,0
64862462,42.6545290,-71.3087040,True,0
64862491,42.6528010,-71.3182870,False,0
64862682,42.6487350,-71.2981770,False,0
64863004,42.6476620,-71.2909980,False,0
64863049,42.6469690,-71.3231560,True,0
64863063,42.6463880,-71.3172710,False,0
64863154,42.6498160,-71.3152650,False,0
64863170,42.6524670,-71.3027350,True,0
64863484,42.6543728,-71.3240137,False,0
64863706,42.6498800,-71.3069209,False,0
64864135,42.6480075,-71.3204406,False,0
64864375,42.6435364,-71.3147869,False,1
64864450,42.6440070,-71.3050820,False,0
64864475,42.6466650,-71.3255750,False,0
64864629,42.6560369,-71.3046771,False,0
64864995,42.6535635,-71.3073959,True,0
64865277,42.6442162,-71.2997777,True,0
64865551,42.6503114,-71.3192654,True,2
64865811,42.6511860,-71.3017620,True,0
64865855,42.6498050,-71.3067879,False,0
64866085,42.6482970,-71.3235607,True,0
64866232,42.6491605,-71.3191827,True,0
64866283,42.6500064,-71.3247771,False,3
64866514,42.6531990,-71.3036800,False,0
64866574,42.6557830,-71.3138600,False,0
64866678,42.6463815,-71.3132178,False,0
64866708,42.6509850,-71.3221890,False,0
64866804,42.6544376,-71.3238594,False,0
64866813,42.6532290,-71.3114390,False,0
64866902,42.6523720,-71.3027760,False,0
64867023,42.6513960,-71.3185187,True,0
64867051,42.6479710,-71.3203427,False,0
64867115,42.6511171,-71.3212936,False,0
64867134,42.6512818,-71.3215403,False,0
64867242,42.6459054,-71.3125341,True,0
64867483,42.6490850,-71.3005710,False,0
64867852,42.6535532,-71.3241793,False,0
64868496,42.6481352,-71.3141978,True,0
64868711,42.6544125,-71.3040627,False,0
64868740,42.6480469,-71.3205285,False,0
64868851,42.6503433,-71.3244968,False,0
64868864,42.6540930,-71.2998040,False,0
64869750,42.6491822,-71.3135186,False,0
64869823,42.6482013,-71.3150581,True,0
64869979,42.6533217,-71.3074371,True,0
64870112,42.6488900,-71.3017940,False,0
64870400,42.6513030,-71.3226300,True,4
64870473,42.6513720,-71.3219748,False,0
64870904,42.6521929,-71.3085255,True,0
64870942,42.6513533,-71.3218629,False,0
64871074,42.6481180,-71.2972140,False,0
64871227,42.6432630,-71.3169806,False,0
64871263,42.6512833,-71.3227319,False,0
64871764,42.6422380,-71.3019180,False,0
64872031,42.6486533,-71.2992354,True,0
64872254,42.6534430,-71.3064990,True,0
64872322,42.6489076,-71.3172920,False,0
64872329,42.6510550,-71.2998980,False,0
64872363,42.6444286,-71.3170141,False,0
64872448,42.6511950,-71.3212493,False,0
64872617,42.6488691,-71.3222032,False,0
64872631,42.6434820,-71.3014880,False,0
64873175,42.6530800,-71.3052406,True,0
64873295,42.6489976,-71.3129565,False,0
64873450,42.6525770,-71.3009290,False,0
64873564,42.6488680,-71.2905770,False,0
64873587,42.6478827,-71.2981080,False,0
64873664,42.6507710,-71.3237850,False,0
64873731,42.6487229,-71.3017748,False,0
64873918,42.6512039,-71.3215739,False,0
64874004,42.6481674,-71.2997413,True,0
64874264,42.6474690,-71.3077140,True,0
64874346,42.6457510,-71.3250620,False,0
64874357,42.6495323,-71.3178733,True,1
64874592,42.6482338,-71.3141964,True,0
64874664,42.6561450,-71.3046273,False,0
64874820,42.6521606,-71.3096528,False,0
64874956,42.6546180,-71.3126980,False,0
64875105,42.6501200,-71.3111870,True,0
64875226,42.6512986,-71.3221069,False,0
64875285,42.6493090,-71.2901760,False,0
64875503,42.6455300,-71.3218550,True,0
64875726,42.6559500,-71.3227050,False,0
64875740,42.6481220,-71.3113540,False,0
64876006,42.6504327,-71.3050375,True,0
64876138,42.6541320,-71.3010810,False,0
64876150,42.6539210,-71.3240964,False,0
64876551,42.6465022,-71.2958966,True,0
64876617,42.6469886,-71.3082850,True,2
64876678,42.6512961,-71.3230276,True,4
64877553,42.6471481,-71.3059735,True,0
64877769,42.6474390,-71.2964220,False,0
64878539,42.6517846,-71.3160422,False,0
64878866,42.6450310,-71.3007710,False,0
64878946,42.6455253,-71.3149195,True,0
64878972,42.6457810,-71.3128540,False,0
64879036,42.6548130,-71.3062430,False,0
64879419,42.6460237,-71.3139517,False,0
64879497,42.6514660,-71.2965266,False,0
64879521,42.6488069,-71.3248124,True,0
64879581,42.6453843,-71.3175010,True,0
64879605,42.6534100,-71.3116310,False,0
64879677,42.6564270,-71.3118430,False,0
64879965,42.6453160,-71.3008045,False,0
64880098,42.6433410,-71.3014430,False,0
64880188,42.6547020,-71.3111140,False,0
64880374,42.6492780,-71.3051655,False,0
64880526,42.6566130,-71.3128370,False,0
64880642,42.6533512,-71.3242981,False,0
64880692,42.6550622,-71.3026226,False,0
64880724,42.6500699,-71.3070523,False,0
64880729,42.6524010,-71.3016220,True,0
64880840,42.6464067,-71.3056660,False,0
64881051,42.6487960,-71.2906150,False,0
64881475,42.6507260,-71.3224130,True,0
64881546,42.6463030,-71.3133619,False,0
64881817,42.6460783,-71.3013530,True,0
64882163,42.6501003,-71.3146355,True,0
64882292,42.6505440,-71.3236827,False,0
64882299,42.6474911,-71.3250594,True,0
64882408,42.6463680,-71.3055706,False,0
64882620,42.6538900,-71.3056380,False,0
64882820,42.6460987,-71.3191666,False,0
64882865,42.6446799,-71.3129137,True,0
64883030,42.6501685,-71.3147741,True,0
64883054,42.6538840,-71.3121260,False,0
64883114,42.6481579,-71.3147322,False,0
64883211,42.6451430,-71.3214980,False,0
64883474,42.6425140,-71.3008730,False,0
64883695,42.6536010,-71.3060940,False,0
64883709,42.6564260,-71.3224590,False,0
64883806,42.6493460,-71.3019720,True,0
64883824,42.6558092,-71.3140990,False,1
64883861,42.6517859,-71.3182738,True,0
64883899,42.6498609,-71.3242229,False,0
64884024,42.6440820,-71.3241160,True,0
64884034,42.6459598,-71.3090284,True,0
64884075,42.6515100,-71.3031310,False,0
64884382,42.6529630,-71.3009450,True,0
64884669,42.6451482,-71.3062786,False,0
64884968,42.6462720,-71.3067974,True,0
64885195,42.6465801,-71.3074383,True,0
64885337,42.6523900,-71.3209960,True,0
64885514,42.6528950,-71.3103930,False,0
64885623,42.6463010,-71.2951020,False,0
64885674,42.6444650,-71.3254030,False,0
64885689,42.6501475,-71.3247778,False,0
64885788,42.6490520,-71.3269480,False,0
64886123,42.6491850,-71.3218910,False,0
64886223,42.6478516,-71.2978439,False,0
64886433,42.6469172,-71.2963968,False,0
64886903,42.6444464,-71.3168310,True,0
64886923,42.6537821,-71.3240011,False,0
64887000,42.6483838,-71.3154524,False,0
64887171,42.6479066,-71.3102448,True,0
64887307,42.6502019,-71.3148417,True,2
64887382,42.6491330,-71.3003380,False,0
64887545,42.6487130,-71.3022856,True,0
64887679,42.6545000,-71.3063060,False,0
64887989,42.6436960,-71.3025240,False,0
64888011,42.6521700,-71.3216900,False,0
64888129,42.6512430,-71.3027400,True,0
64888219,42.6464710,-71.3254670,False,0
64888312,42.6530644,-71.3243973,False,0
64888355,42.6453180,-71.3248200,True,0
64888511,42.6500666,-71.3248857,True,0
64888579,42.6522700,-71.3214770,True,0
64888595,42.6446170,-71.3033650,False,0
64888607,42.6526575,-71.3066386,True,0
64888706,42.6445840,-71.3026210,True,0
64888831,42.6466309,-71.3271495,False,0
64888982,42.6485071,-71.3233213,False,0
64889107,42.6490627,-71.3128534,False,0
64889468,42.6446530,-71.3244460,False,0
64889575,42.6565240,-71.3118840,False,0
64889709,42.6488910,-71.3015430,False,0
64889788,42.6507310,-71.3034850,False,0
64889953,42.6478979,-71.3200712,False,0
64889990,42.6490753,-71.3159293,True,0
64890140,42.6459160,-71.2999180,False,0
64890277,42.6456630,-71.3034410,False,0
64890474,42.6460833,-71.3129648,False,0
64890550,42.6509888,-71.3209958,False,0
64890625,42.6518930,-71.3067840,False,0
64890743,42.6526420,-71.3251211,False,0
64890757,42.6458900,-71.2937730,False,0
64890786,42.6537380,-71.3117880,False,0
64890820,42.6457867,-71.3072268,True,0
64890832,42.6547750,-71.3111440,False,0
64890847,42.6435734,-71.3033641,False,0
64890916,42.6460573,-71.3142487,False,0
64890927,42.6468647,-71.2964486,False,0
64890992,42.6495341,-71.3199535,True,0
64891020,42.6422240,-71.3181786,False,0
64891058,42.6529506,-71.3094798,True,0
64891349,42.6478422,-71.3198281,False,0
64891370,42.6530719,-71.3083594,True,0
64891472,42.6443849,-71.3173168,False,0
64891504,42.6540880,-71.2985830,False,0
64891637,42.6520923,-71.3250348,True,0
64891660,42.6481845,-71.3128218,False,0
64891666,42.6464250,-71.3243120,False,0
64891688,42.6449250,-71.3261180,False,0
64891699,42.6462070,-71.2949630,False,0
64891907,42.6480232,-71.2997016,False,0
64891915,42.6536181,-71.3240354,False,0
64891971,42.6522500,-71.3047740,False,0
64892064,42.6536090,-71.3116270,False,0
64892072,42.6532760,-71.3111890,False,0
64892513,42.6481645,-71.2987443,False,0
64892521,42.6429770,-71.3027210,False,0
64892607,42.6430135,-71.3195419,False,0
64892687,42.6446270,-71.3247850,False,0
64892695,42.6484250,-71.3238910,False,0
64892906,42.6459360,-71.2943320,False,0
64892994,42.6460180,-71.3229510,False,0
64893023,42.6465220,-71.2953780,False,0
64893078,42.6525575,-71.3198946,True,0
64893127,42.6486261,-71.3016400,False,0
64893172,42.6518843,-71.3088671,True,0
64893841,42.6517232,-71.3076995,True,0
64893886,42.6435718,-71.3170146,False,0
64893984,42.6530000,-71.3014310,False,0
64894001,42.6513630,-71.3050260,True,0
64894016,42.6476620,-71.2966700,False,0
64894029,42.6458860,-71.2940450,False,0
64894043,42.6486593,-71.3018478,False,0
64894092,42.6470951,-71.3099369,True,0
64894101,42.6538731,-71.3164380,False,0
64894294,42.6465288,-71.3059606,True,0
64894323,42.6457100,-71.3128900,False,0
64894340,42.6540163,-71.3104661,True,0
64894364,42.6564440,-71.3223000,False,0
64894505,42.6481440,-71.3115450,False,0
64894526,42.6471700,-71.3237320,False,0
64894624,42.6487461,-71.3026556,False,0
64894658,42.6466920,-71.3229040,False,0
64894787,42.6541010,-71.3001900,True,0
64894933,42.6540780,-71.2992140,True,0
64895016,42.6483520,-71.3239890,False,0
64895079,42.6529200,-71.3106900,False,0
64895168,42.6426252,-71.3217157,False,0
64895486,42.6516400,-71.3093690,False,0
64895666,42.6523580,-71.3212020,False,0
64895677,42.6461300,-71.3079630,False,0
64895832,42.6474546,-71.3172716,True,0
64895860,42.6509822,-71.3143943,False,0
64896001,42.6483510,-71.2975000,False,0
64896077,42.6477687,-71.3195334,True,2
64896198,42.6478709,-71.3199459,True,0
64896413,42.6452980,-71.3226060,False,0
64896682,42.6523080,-71.3213790,False,0
64896728,42.6446370,-71.3138280,False,0
64896879,42.6422925,-71.3217467,False,0
64897064,42.6512379,-71.3217086,False,0
64897138,42.6528126,-71.3247094,False,0
64897169,42.6548680,-71.3129460,False,0
64897241,42.6525390,-71.3105920,False,0
64897523,42.6491050,-71.3019980,True,0
64897586,42.6536485,-71.3241425,False,0
64897647,42.6442859,-71.3002074,False,0
64897650,42.6518332,-71.3222664,True,0
64897685,42.6445860,-71.3187931,False,0
64897722,42.6491170,-71.3217270,False,0
64898435,42.6424502,-71.3190331,False,0
64898567,42.6443798,-71.3165266,False,0
64898575,42.6518730,-71.3029820,True,1
64898610,42.6549910,-71.3132730,False,0
64898625,42.6539190,-71.3026520,False,0
64898777,42.6420620,-71.2988840,False,0
64898882,42.6552046,-71.3048445,False,0
64898943,42.6489719,-71.3042484,False,2
64899033,42.6515120,-71.3068530,True,0
64899165,42.6459099,-71.3109762,False,0
64899220,42.6458857,-71.3122666,True,0
64899252,42.6459620,-71.2932130,False,0
64899375,42.6495906,-71.3139806,False,0
64899415,42.6515920,-71.2985763,False,0
64899437,42.6447260,-71.3244880,True,0
64899451,42.6489793,-71.3132879,False,0
64899467,42.6490226,-71.3044264,True,1
64899589,42.6490980,-71.2995780,False,0
64899647,42.6504220,-71.3077060,False,0
64899657,42.6522460,-71.3097950,False,0
64899697,42.6411067,-71.3175738,False,0
64899731,42.6446940,-71.3224900,False,0
64899745,42.6544639,-71.3239786,False,0
64899792,42.6413160,-71.3178502,False,0
64899916,42.6513158,-71.3225019,False,0
64900119,42.6473019,-71.2969189,False,0
64900202,42.6451307,-71.3106791,True,0
64900214,42.6541720,-71.3124230,False,0
64900342,42.6467520,-71.2956360,False,0
64900346,42.6457560,-71.3091960,False,0
64900387,42.6485290,-71.2977550,False,0
64900543,42.6543970,-71.3118550,False,0
64900631,42.6508980,-71.3187880,False,0
64900692,42.6447210,-71.3008830,False,0
64900695,42.6481766,-71.3208259,True,0
64900711,42.6431930,-71.3170166,False,0
64900714,42.6449580,-71.3259530,False,0
64900738,42.6483136,-71.2997192,False,0
64900791,42.6448870,-71.3263971,False,0
64900810,42.6537012,-71.3240144,False,0
64900879,42.6460340,-71.2927010,False,0
64900945,42.6540129,-71.3239750,False,0
64901073,42.6531410,-71.3024450,False,0
64901124,42.6496956,-71.3138025,True,0
64901157,42.6492115,-71.3243346,True,0
64901228,42.6482412,-71.2997380,False,0
64901247,42.6494906,-71.3129880,True,0
64901344,42.6480001,-71.3107883,False,0
64901376,42.6457440,-71.3032320,False,0
64901579,42.6489458,-71.3041161,False,0
64901611,42.6545920,-71.3087880,False,0
64901624,42.6538405,-71.3241012,False,0
64901736,42.6540970,-71.2982750,False,0
64901878,42.6501590,-71.3073550,False,0
64902272,42.6516520,-71.3054680,True,0
64902428,42.6529890,-71.3111590,False,0
64902447,42.6546170,-71.3110730,False,0
64902597,42.6489080,-71.2986710,False,0
64902616,42.6546000,-71.3110630,False,0
64902621,42.6567860,-71.3129080,False,0
64902659,42.6481288,-71.3140268,False,0
64902762,42.6465460,-71.3047010,True,0
64903017,42.6491673,-71.3048651,False,0
64903295,42.6540780,-71.2990490,False,0
64903814,42.6539060,-71.3074990,False,0
64903829,42.6497902,-71.3221184,True,0
64903907,42.6499425,-71.3038423,False,0
64903983,42.6477480,-71.3223690,True,0
64904019,42.6488400,-71.2984510,False,0
64904382,42.6494944,-71.3040870,True,0
64904455,42.6453420,-71.3014434,False,0
64904517,42.6513237,-71.3217160,False,0
64904604,42.6502546,-71.3193143,True,1
64904664,42.6490125,-71.3133697,False,0
64904806,42.6443923,-71.3009110,True,0
64904838,42.6541898,-71.3239422,False,0
64904859,42.6486104,-71.3196702,True,0
64904950,42.6457807,-71.3110110,True,0
64905052,42.6513084,-71.3222270,False,0
64905147,42.6444404,-71.3166929,False,0
64905220,42.6488840,-71.2985940,False,0
64905268,42.6504375,-71.3121150,False,0
64905345,42.6527554,-71.3185932,True,0
64905401,42.6481590,-71.3118760,False,0
64905450,42.6479239,-71.3166309,True,0
64905542,42.6513168,-71.3223846,False,0
64905774,42.6476799,-71.2975061,False,0
64905818,42.6419742,-71.3217763,False,3
64905841,42.6490605,-71.3203748,False,3
64905893,42.6482761,-71.3189701,True,1
64905906,42.6489000,-71.3014890,False,0
64905930,42.6489993,-71.3169906,False,0
64905951,42.6493066,-71.3230294,True,0
64906057,42.6490395,-71.3232348,False,0
64906223,42.6473949,-71.2970508,False,0
64906416,42.6537424,-71.3241170,False,0
64906608,42.6437614,-71.3260530,False,0
64906741,42.6539357,-71.3041499,True,0
64907072,42.6490010,-71.3019810,False,0
64907187,42.6466367,-71.3172229,True,0
64907419,42.6541096,-71.3239597,False,0
64907466,42.6498340,-71.2997480,False,0
64907480,42.6501201,-71.3146756,True,0
64907837,42.6510451,-71.3083814,False,0
64907846,42.6516635,-71.3091069,False,0
64907940,42.6478830,-71.2969260,False,0
64907949,42.6488330,-71.3161510,True,0
64908113,42.6510690,-71.3186840,False,0
64908178,42.6490250,-71.2991440,False,0
64908234,42.6560709,-71.3227554,False,0
64908280,42.6439950,-71.3025960,False,0
64908803,42.6439969,-71.3084566,True,0
64908857,42.6528950,-71.3025510,True,0
64908867,42.6457419,-71.3175969,True,0
64909108,42.6513893,-71.3221411,False,0
64909341,42.6542630,-71.3023550,False,0
64909348,42.6494541,-71.3179323,True,1
64909454,42.6467460,-71.3178660,True,0
64909520,42.6453390,-71.3025960,True,0
64909589,42.6528773,-71.3047302,True,4
64909602,42.6485995,-71.2994215,False,0
64909632,42.6434270,-71.3169786,False,0
64909643,42.6531240,-71.3106340,False,0
64909659,42.6475919,-71.2973561,False,0
64909685,42.6446160,-71.3017990,False,0
64909794,42.6484444,-71.3158849,False,0
64909838,42.6483364,-71.3156002,False,0
64909886,42.6484801,-71.3177787,True,0
64910241,42.6449998,-71.3182184,True,0
64910317,42.6549205,-71.3236986,False,0
64910434,42.6534770,-71.3023620,True,0
64910508,42.6517804,-71.3092337,False,0
64910569,42.6481022,-71.2988072,False,0
64910689,42.6454262,-71.3074343,True,1
64910720,42.6452507,-71.3143402,True,0
64910736,42.6468720,-71.3177086,True,0
64910939,42.6477451,-71.2977814,False,0
64911064,42.6448193,-71.3134440,True,0
64911151,42.6501605,-71.3228909,True,0
64911202,42.6483831,-71.2996854,False,0
64911211,42.6446536,-71.3126085,True,2
64911221,42.6466350,-71.2955040,False,0
64911378,42.6446150,-71.3008910,False,0
64911456,42.6526470,-71.3107430,False,0
64911500,42.6515521,-71.3089889,False,0
64911513,42.6488514,-71.3174443,False,0
64911561,42.6486310,-71.3207580,False,0
64911604,42.6497860,-71.3065255,False,0
64911658,42.6475290,-71.3219700,False,0
64911687,42.6485065,-71.2995765,False,0
64912174,42.6546041,-71.3237779,False,0
64912376,42.6543220,-71.3124100,False,0
64912456,42.6486958,-71.3016090,False,0
64912506,42.6540568,-71.3240891,False,0
64912573,42.6460895,-71.3144355,True,0
64912968,42.6549633,-71.3235186,False,0
64913066,42.6453295,-71.3008858,False,0
64913171,42.6506830,-71.3070040,True,0
64913197,42.6495151,-71.3131092,False,0
64913215,42.6453488,-71.3011495,False,0
64913261,42.6497740,-71.2987950,False,0
64913301,42.6470950,-71.3238930,True,4
64913478,42.6550670,-71.3069200,False,0
64913558,42.6493173,-71.3052883,True,1
64913750,42.6511644,-71.3231041,False,0
64913917,42.6479411,-71.3103867,True,2
64914040,42.6448905,-71.3008537,False,0
64914253,42.6429590,-71.3012460,False,0
64914295,42.6509650,-71.3187410,False,0
64914485,42.6457298,-71.2994349,False,1
64914617,42.6459850,-71.3001270,False,0
64914637,42.6543483,-71.3238944,False,0
64914739,42.6491500,-71.3001260,False,0
64914785,42.6452760,-71.3069040,True,4
64915352,42.6542935,-71.3240393,False,0
64915509,42.6497559,-71.3039404,True,0
64915564,42.6453459,-71.3010065,False,0
64915629,42.6430830,-71.3013230,False,0
64916161,42.6485590,-71.3266520,False,0
64916374,42.6540580,-71.3121380,False,0
64916484,42.6534930,-71.3114840,False,0
64916820,42.6523340,-71.3213050,False,0
64916982,42.6541000,-71.3009610,False,0
64917282,42.6533629,-71.3101681,True,0
64917484,42.6489620,-71.3131975,True,0
64917620,42.6521045,-71.3179947,True,0
64917704,42.6444395,-71.3169202,False,0
64917770,42.6431340,-71.3013490,False,0
64917877,42.6422742,-71.3182266,False,0
64918003,42.6489590,-71.3019530,False,0
64918013,42.6562810,-71.3126900,False,0
64918201,42.6464020,-71.2952320,False,0
64918244,42.6480631,-71.2983933,False,0
64918261,42.6530700,-71.3112520,False,0
64918312,42.6473813,-71.2971552,False,0
64918341,42.6556740,-71.3060750,False,0
64918346,42.6535049,-71.3082775,True,0
64918864,42.6435280,-71.3024730,False,0
64918916,42.6460170,-71.3002730,False,0
64919102,42.6495709,-71.3235627,True,0
64919154,42.6503536,-71.3074480,False,0
64919203,42.6531618,-71.3244586,True,4
64919296,42.6468810,-71.3237140,False,0
64919375,42.6533270,-71.3056620,False,0
64919511,42.6510690,-71.3061180,True,0
64919544,42.6498294,-71.3066203,False,0
64919628,42.6480296,-71.3109389,True,0
64919796,42.6545290,-71.3109910,False,0
64919807,42.6499418,-71.3245330,False,0
64919883,42.6525126,-71.3040102,True,0
64920018,42.6482906,-71.3150219,True,4
64920540,42.6530262,-71.3246249,False,0
64920621,42.6460636,-71.3011169,False,0
64920718,42.6491470,-71.3000370,False,0
64920810,42.6496218,-71.3128901,False,0
64920837,42.6512083,-71.3230075,False,0
64920968,42.6496020,-71.3116400,False,0
64921091,42.6514056,-71.3223960,False,0
64921134,42.6488870,-71.3015910,False,0
64921161,42.6498126,-71.3240978,False,0
64921294,42.6475814,-71.3196723,False,0
64921414,42.6461769,-71.3146370,True,0
64921600,42.6511832,-71.3232241,False,0
64921840,42.6449510,-71.3237860,False,0
64921983,42.6488870,-71.3017230,False,0
64922067,42.6467764,-71.3175113,True,0
64922245,42.6436080,-71.3007370,False,0
64922254,42.6547638,-71.3236778,False,0
64922421,42.6460490,-71.2946330,False,0
64922683,42.6456990,-71.3237780,True,0
64922782,42.6520810,-71.3061600,True,0
64922786,42.6511496,-71.3085195,False,0
64922807,42.6506185,-71.3240824,True,2
64922873,42.6512601,-71.3228492,False,0
64923373,42.6507492,-71.3118817,False,0
64923510,42.6491503,-71.3127882,True,0
64923520,42.6462560,-71.2920340,False,0
64923557,42.6421185,-71.3179865,True,0
64923666,42.6489353,-71.3044951,True,1
64923770,42.6445144,-71.3215398,True,0
64923880,42.6479406,-71.3240241,True,0
64924033,42.6490620,-71.3020000,False,0
64924120,42.6494175,-71.3134372,False,0
64924147,42.6504263,-71.2996509,True,0
64924150,42.6538207,-71.3164884,False,0
64924285,42.6496939,-71.3230581,True,4
64924342,42.6515366,-71.3184456,False,0
64924395,42.6458556,-71.3119054,True,0
64924420,42.6449450,-71.3084091,True,0
64924504,42.6440240,-71.3033910,True,0
64924733,42.6464500,-71.3172820,False,0
64924997,42.6473525,-71.3170570,True,0
64925021,42.6533805,-71.3241385,False,0
64925041,42.6488865,-71.3202474,True,0
64925366,42.6480627,-71.2986563,False,0
64925408,42.6446991,-71.3048736,True,2
64925580,42.6546460,-71.3110890,False,0
64925604,42.6453640,-71.3036810,False,0
64925641,42.6537750,-71.3009610,False,0
64925840,42.6449620,-71.3008110,True,4
64925860,42.6447191,-71.3049790,True,0
64925895,42.6554970,-71.3123410,False,0
64925995,42.6541710,-71.3122570,False,0
64926089,42.6417824,-71.3184122,False,3
64926113,42.6525740,-71.3099320,True,0
64926200,42.6474925,-71.3173499,True,0
64926214,42.6508012,-71.3144023,False,0
64926475,42.6541010,-71.3014740,True,0
64926524,42.6449019,-71.3136044,True,1
64926627,42.6419449,-71.3185695,False,0
64926747,42.6510411,-71.3208912,False,0
64926961,42.6491420,-71.2999420,False,0
64927029,42.6543300,-71.3023790,False,0
64927238,42.6486634,-71.3163107,True,0
64927242,42.6489293,-71.3039541,True,0
64927323,42.6526000,-71.3099720,False,0
64927402,42.6432430,-71.3014070,False,0
64927498,42.6477388,-71.3194475,True,0
64927612,42.6547520,-71.3120130,False,0
64927719,42.6531040,-71.3109410,False,0
64927856,42.6478742,-71.3101416,False,0
64927872,42.6454810,-71.3037320,False,0
64928096,42.6449853,-71.3057949,True,0
64928146,42.6446540,-71.3247050,False,0
64928156,42.6487630,-71.3234680,False,0
64928171,42.6516770,-71.3077110,False,0
64928749,42.6443170,-71.3262229,False,0
64928816,42.6513632,-71.3227990,False,0
64928836,42.6500018,-71.3069433,False,0
64928851,42.6443620,-71.3084435,True,1
64929111,42.6489910,-71.2989930,False,0
64929159,42.6450980,-71.3007200,False,0
64929206,42.6444780,-71.3015070,False,0
64929239,42.6549705,-71.3092769,True,0
64929242,42.6480227,-71.2985208,False,0
64929417,42.6493036,-71.3211035,False,0
64929476,42.6499684,-71.3246410,False,0
64929491,42.6507610,-71.3079992,False,0
64929596,42.6447038,-71.3131665,False,0
64929711,42.6541160,-71.3013280,False,0
64929907,42.6482837,-71.3154239,False,0
64929931,42.6493717,-71.3041620,True,0
64930071,42.6447364,-71.3050548,False,0
64930119,42.6545451,-71.3239419,False,0
64930144,42.6550620,-71.3069270,False,0
64930176,42.6459460,-71.3000280,True,0
64930282,42.6553340,-71.3061420,False,0
64930459,42.6479371,-71.2982541,False,0
64930476,42.6469312,-71.3081736,True,1
64930493,42.6431735,-71.3196859,False,0
64930589,42.6488890,-71.3016440,False,0
64930591,42.6461440,-71.2922360,False,0
64930630,42.6470840,-71.2912920,False,0
64930643,42.6456294,-71.3151414,True,0
64930674,42.6458390,-71.2997210,True,0
64930709,42.6459030,-71.2941990,False,0
64930886,42.6456026,-71.3088179,False,0
64931262,42.6472450,-71.3259150,False,0
64931316,42.6566119,-71.3223007,False,0
64931467,42.6516830,-71.3068220,True,0
64931720,42.6436236,-71.3200921,False,0
64931789,42.6458390,-71.3029380,True,0
64932001,42.6451192,-71.3174300,True,0
64932023,42.6512818,-71.3086805,False,0
64932044,42.6481322,-71.2989419,False,0
64932105,42.6489635,-71.3130842,True,0
64932187,42.6537410,-71.3063860,False,0
64932206,42.6523611,-71.3084938,True,0
64932623,42.6498895,-71.3243285,True,0
64932630,42.6508320,-71.3056930,False,0
64932655,42.6530030,-71.3014760,True,0
64932692,42.6479243,-71.2980174,False,0
240169159,42.6579107,-71.3196275,False,0
240178165,42.6573068,-71.3204176,False,0
240180384,42.6583642,-71.3191302,False,0
240182449,42.6571169,-71.3208362,False,0
240187713,42.6586515,-71.3185376,False,0
327267731,42.6454031,-71.2941214,False,0
327275900,42.6478821,-71.3028426,False,0
327278945,42.6453856,-71.2940545,False,0
327284080,42.6463892,-71.2965637,False,0
327286462,42.6481581,-71.3007363,True,0
327291051,42.6452208,-71.2940848,False,0
327296666,42.6466700,-71.2971599,False,0
327298940,42.6476524,-71.2989775,False,0
327638631,42.6452560,-71.2942414,False,0
327645344,42.6477312,-71.2987043,False,0
327647262,42.6477354,-71.2983283,False,0
327648903,42.6456124,-71.2950850,False,0
327655731,42.6476470,-71.2980208,False,0
327658091,42.6456554,-71.2952089,False,0
327660167,42.6467468,-71.2973533,False,0
327667855,42.6472792,-71.2974301,False,0
327669243,42.6458288,-71.2955495,False,0
327670361,42.6471395,-71.2986544,False,0
327675620,42.6459642,-71.2950904,False,0
327676115,42.6460466,-71.2959133,False,0
327679676,42.6472097,-71.2991807,False,0
328280547,42.6463069,-71.3059471,True,0
328282225,42.6463784,-71.3059256,True,0
328291626,42.6465768,-71.3063726,False,0
328294527,42.6458319,-71.3063593,True,0
328307652,42.6460622,-71.3068199,False,0
328320257,42.6462341,-71.3059871,True,0
328321553,42.6447518,-71.3100012,False,0
328584887,42.6464452,-71.3059294,True,0
328584913,42.6447335,-71.3097685,False,0
328602253,42.6449856,-71.3097318,False,0
328603319,42.6450039,-71.3099645,False,0
328642841,42.6449396,-71.3182694,False,0
328648681,42.6449041,-71.3185309,False,0
328651963,42.6534952,-71.3047765,False,0
328655161,42.6445904,-71.3184464,False,0
328661386,42.6446239,-71.3181882,False,0
328666043,42.6535543,-71.3051588,False,0
328678439,42.6534215,-71.3042440,False,0
328713046,42.6505382,-71.3307335,False,0
328714003,42.6578635,-71.3209978,False,0
328714349,42.6446876,-71.3209502,False,0
328714649,42.6515569,-71.3275395,False,0
328721122,42.6512167,-71.3300251,False,0
328723271,42.6515806,-71.3271537,False,0
328724032,42.6542384,-71.3238297,False,0
328728841,42.6550864,-71.3232997,False,0
328730906,42.6563086,-71.3222861,False,0
328731282,42.6507249,-71.3306598,False,0
328731501,42.6517021,-71.3265944,False,0
328732010,42.6480045,-71.3013044,True,0
328734166,42.6539787,-71.3238737,False,0
328735090,42.6448567,-71.3197949,False,0
328737487,42.6567520,-71.3211380,False,0
328739227,42.6513566,-71.3298413,False,0
328739795,42.6506988,-71.3306457,False,0
328740264,42.6568268,-71.3218541,False,0
328741430,42.6516468,-71.3268125,False,0
328745514,42.6518259,-71.3261173,False,0
328745936,42.6469308,-71.3229948,True,0
328746170,42.6580146,-71.3208523,False,0
328746715,42.6515707,-71.3279301,False,0
328747954,42.6518650,-71.3259849,False,0
328749592,42.6581032,-71.3194817,False,0
328749856,42.6516178,-71.3286065,False,0
328750082,42.6586477,-71.3201223,False,0
328751442,42.6547122,-71.3236076,False,0
328752894,42.6476622,-71.3223406,True,0
328754072,42.6516054,-71.3291887,False,0
328755638,42.6515879,-71.3282337,False,0
328757261,42.6530314,-71.3242798,False,0
328757427,42.6516171,-71.3290635,False,0
328757515,42.6470999,-71.3212237,False,0
328760818,42.6512891,-71.3299393,False,0
328762597,42.6548443,-71.3234974,False,0
328762934,42.6543506,-71.3237931,False,0
328763058,42.6515936,-71.3284350,False,0
328763666,42.6511456,-71.3301294,False,0
328764495,42.6481919,-71.3012038,True,0
328765411,42.6521326,-71.3254724,False,0
328765622,42.6540871,-71.3238656,False,0
328767029,42.6516268,-71.3287221,False,0
328767138,42.6516247,-71.3289613,False,0
328767557,42.6554562,-71.3229943,False,0
328767692,42.6552574,-71.3231573,False,0
328767755,42.6582502,-71.3206579,False,0
328768106,42.6563959,-71.3222183,False,0
328768423,42.6559495,-71.3225911,False,0
328768648,42.6519819,-71.3256885,False,0
328769068,42.6545745,-71.3236889,False,0
328769358,42.6515444,-71.3294490,False,0
328769968,42.6557255,-71.3227682,False,0
328770240,42.6524960,-71.3249656,False,0
328771658,42.6521915,-71.3253327,False,0
328771768,42.6590007,-71.3188278,False,0
328773057,42.6589225,-71.3193048,False,0
328773165,42.6581037,-71.3207772,False,0
328774351,42.6583934,-71.3205016,False,0
328775115,42.6537610,-71.3238884,False,0
328776292,42.6517549,-71.3263208,False,0
328778148,42.6516291,-71.3288750,False,0
328778245,42.6571487,-71.3215935,False,0
328778897,42.6535499,-71.3239419,False,0
328779737,42.6579028,-71.3209498,False,0
328781029,42.6588260,-71.3197097,False,0
328781971,42.6565923,-71.3220445,False,0
328782191,42.6514674,-71.3296576,False,0
328785423,42.6526505,-71.3247680,False,0
328786043,42.6566612,-71.3211983,False,0
328803723,42.6502757,-71.3213576,False,0
328823830,42.6500782,-71.3209459,False,0
328825461,42.6505021,-71.3307744,False,0
328850043,42.6502949,-71.3310273,False,0
329027887,42.6503879,-71.3206709,False,0
329035698,42.6505882,-71.3210742,False,0
358278846,42.6421158,-71.2990782,False,0
390664105,42.6506170,-71.3135219,False,0
390664108,42.6501618,-71.3139376,False,0
390664112,42.6501036,-71.3138162,False,0
390664116,42.6500079,-71.3137693,False,0
390664119,42.6499275,-71.3136801,False,0
390664122,42.6498830,-71.3136131,False,0
390664125,42.6498308,-71.3134843,False,0
390664132,42.6497070,-71.3135306,False,0
390664186,42.6507392,-71.3127333,False,0
390664192,42.6508121,-71.3128889,False,0
390664194,42.6508319,-71.3129882,False,0
390664197,42.6508379,-71.3131678,False,0
390664199,42.6508937,-71.3132845,False,0
1070524730,42.6463534,-71.3133200,True,2
1070524733,42.6482007,-71.3131120,True,1
1133148012,42.6537042,-71.3204151,False,0
1133148029,42.6518341,-71.3215738,False,0
1133148033,42.6541540,-71.3185724,False,0
1133148034,42.6485801,-71.3159540,False,0
1133148037,42.6502594,-71.3108813,False,0
1133148040,42.6518755,-71.3215309,False,0
1133148046,42.6538157,-71.3202891,False,0
1133148048,42.6507496,-71.3251479,False,0
1133148069,42.6485219,-71.3106947,False,0
1133148070,42.6537950,-71.3203414,False,0
1133148072,42.6504019,-71.3109817,False,0
1133148078,42.6507293,-71.3114242,False,0
1133148082,42.6517828,-71.3222202,False,0
1133148114,42.6539168,-71.3166218,False,0
1133148119,42.6519170,-71.3215067,False,0
1133148131,42.6517774,-71.3129914,True,0
1133148133,42.6521856,-71.3216567,True,0
1133148135,42.6517668,-71.3230593,True,0
1133148140,42.6520388,-71.3214945,True,0
1133148142,42.6502382,-71.3108986,False,0
1133148160,42.6540337,-71.3164280,False,0
1133148175,42.6539568,-71.3194549,False,0
1133148188,42.6526548,-71.3219359,False,0
1133148189,42.6540322,-71.3187119,False,0
1133148192,42.6539903,-71.3164776,False,0
1133148194,42.6502618,-71.3112178,False,0
1133148207,42.6475671,-71.3080999,False,0
1133148216,42.6539804,-71.3169309,False,0
1133148229,42.6512709,-71.3138678,False,0
1133148231,42.6499068,-71.3175391,True,2
1133148237,42.6483902,-71.3071116,True,0
1133148239,42.6480721,-71.3063631,False,0
1133148240,42.6472762,-71.3078772,True,0
1133148242,42.6539192,-71.3168048,False,0
1133148245,42.6491575,-71.3120324,True,0
1133148248,42.6535148,-71.3206082,False,0
1133148249,42.6502243,-71.3109227,False,0
1133148251,42.6478913,-71.3165633,True,2
1133148255,42.6534774,-71.3207987,False,0
1133148260,42.6523410,-71.3212751,True,2
1133148262,42.6520662,-71.3148080,True,0
1133148263,42.6535444,-71.3205385,False,0
1133148270,42.6517720,-71.3217468,True,0
1133148274,42.6476065,-71.3054243,False,0
1133148275,42.6528005,-71.3145639,True,0
1133148277,42.6542458,-71.3172447,False,0
1133148278,42.6543217,-71.3176336,False,0
1133148283,42.6517802,-71.3230131,True,0
1133148284,42.6525443,-71.3217428,False,0
1133148291,42.6474490,-71.3050702,True,0
1133148304,42.6483461,-71.3105635,True,0
1133148306,42.6530749,-71.3215818,False,0
1133148321,42.6467385,-71.3028108,False,0
1133148322,42.6533274,-71.3213056,False,0
1133148325,42.6518706,-71.3150426,True,0
1133148326,42.6503762,-71.3111695,False,0
1133148333,42.6527377,-71.3220412,False,0
1133148335,42.6503506,-71.3112500,False,0
1133148337,42.6537456,-71.3203936,False,0
1133148341,42.6518104,-71.3221719,True,0
1133148342,42.6472277,-71.3043756,True,0
1133148346,42.6518873,-71.3131744,True,0
1133148347,42.6527954,-71.3220567,False,0
1133148350,42.6540317,-71.3169845,False,0
1133148351,42.6539469,-71.3165420,False,0
1133148353,42.6541303,-71.3170811,False,0
1133148356,42.6543162,-71.3174908,False,0
1133148359,42.6506138,-71.3190070,True,2
1133148364,42.6502480,-71.3110059,False,0
1133148370,42.6533694,-71.3212218,False,0
1133148375,42.6519801,-71.3214906,False,0
1133148376,42.6539390,-71.3168799,True,0
1133148378,42.6535701,-71.3205036,False,0
1133148380,42.6519679,-71.3220641,False,0
1133148390,42.6525226,-71.3216730,False,0
1133148394,42.6542876,-71.3173580,False,0
1133148404,42.6479912,-71.3073180,False,0
1133148406,42.6513734,-71.3239509,False,0
1133148407,42.6539301,-71.3195233,False,0
1133148410,42.6533531,-71.3153840,False,0
1133148417,42.6503309,-71.3110756,False,0
1133148421,42.6502855,-71.3110461,False,0
1133148429,42.6532064,-71.3214699,False,0
1133148434,42.6499856,-71.3104936,False,0
1133148437,42.6496716,-71.3153969,True,0
1133148442,42.6509188,-71.3115852,False,0
1133148445,42.6516901,-71.3231858,False,0
1133148449,42.6538966,-71.3195997,False,0
1133148450,42.6514805,-71.3144311,False,0
1133148456,42.6524713,-71.3140636,False,0
1133148458,42.6501277,-71.3104989,False,0
1133148460,42.6531321,-71.3215201,False,0
1133148464,42.6533975,-71.3210750,False,0
1133148465,42.6504351,-71.3109516,True,0
1133148469,42.6452067,-71.3065748,True,2
1133148472,42.6528954,-71.3220003,False,0
1133148476,42.6520708,-71.3215067,False,0
1133148477,42.6540519,-71.3186723,False,0
1133148488,42.6508083,-71.3114189,False,0
1133148493,42.6528988,-71.3164987,False,0
1133148496,42.6439354,-71.3084625,False,0
1133148499,42.6503190,-71.3108905,False,0
1133148503,42.6467676,-71.3063342,False,0
1133148505,42.6478630,-71.3074199,False,0
1133148510,42.6539113,-71.3166868,False,0
1133148516,42.6473490,-71.3087980,False,0
1133148518,42.6503684,-71.3111185,False,0
1133148526,42.6526232,-71.3218528,False,0
1133148529,42.6490071,-71.3084987,True,0
1133148535,42.6530952,-71.3149897,False,0
1133148537,42.6502973,-71.3112419,False,0
1133148540,42.6477370,-71.3084489,False,0
1133148552,42.6522134,-71.3168277,True,0
1133148556,42.6485058,-71.3160237,False,0
1133148559,42.6474321,-71.3078225,False,0
1133148562,42.6526728,-71.3191365,True,2
1133148563,42.6516162,-71.3234253,False,0
1133148566,42.6480043,-71.3108147,True,0
1133148568,42.6503210,-71.3112526,False,0
1133148572,42.6525107,-71.3215067,False,0
1133148578,42.6540889,-71.3170248,False,0
1133148579,42.6484351,-71.3105848,False,0
1133148582,42.6528348,-71.3220506,True,0
1133148583,42.6526521,-71.3165564,False,0
1133148590,42.6541816,-71.3185402,False,0
1133148592,42.6540810,-71.3186260,False,0
1133148599,42.6529270,-71.3219359,False,0
1133148606,42.6476143,-71.3075797,True,0
1133148611,42.6534340,-71.3209086,False,0
1133148614,42.6540229,-71.3189225,False,0
1133148621,42.6530272,-71.3216416,False,0
1133148623,42.6529744,-71.3217542,False,0
1133148625,42.6503743,-71.3112178,False,0
1133148628,42.6518045,-71.3216274,False,0
1133148640,42.6471553,-71.3079796,True,0
1133148641,42.6477920,-71.3074120,True,0
1133148651,42.6532742,-71.3213887,False,0
1133148652,42.6531706,-71.3162681,True,0
1133148659,42.6540139,-71.3188487,False,0
1133148665,42.6521983,-71.3214982,True,0
1133148667,42.6528194,-71.3165381,False,0
1133148669,42.6492458,-71.3090695,False,0
1133148670,42.6517025,-71.3231449,False,0
1133148673,42.6524871,-71.3213941,False,0
1133148680,42.6520215,-71.3214880,False,0
1133148684,42.6541836,-71.3171428,False,0
1133148690,42.6525798,-71.3217884,False,0
1133148694,42.6525438,-71.3165282,True,0
1133148699,42.6494753,-71.3133460,False,0
1133148703,42.6538793,-71.3196633,False,0
1133148711,42.6529467,-71.3218527,False,0
1133148721,42.6527002,-71.3220057,True,0
1133148733,42.6505361,-71.3120306,True,0
1133148740,42.6541224,-71.3185965,False,0
1133148748,42.6470441,-71.3081715,False,0
1133148750,42.6474487,-71.3077311,True,0
1133148774,42.6520638,-71.3134657,True,0
1133148785,42.6541974,-71.3184919,False,0
1133148790,42.6516872,-71.3231992,True,0
1133148794,42.6538808,-71.3198465,False,0
1133148806,42.6527395,-71.3165571,False,0
1133148809,42.6521399,-71.3214987,False,0
1133148818,42.6535977,-71.3204768,False,0
1133148832,42.6537733,-71.3203775,False,0
1133148835,42.6509109,-71.3116979,False,0
1133148843,42.6502909,-71.3108813,False,0
1133148852,42.6535091,-71.3206341,True,0
1133148858,42.6543084,-71.3177799,False,0
1133148861,42.6517830,-71.3217036,False,0
1133148862,42.6536332,-71.3204553,False,0
1133148877,42.6489657,-71.3084070,True,0
1133148886,42.6444490,-71.3100040,True,0
1133148887,42.6524595,-71.3213190,False,0
1133148888,42.6476313,-71.3082317,False,0
1133148898,42.6517807,-71.3217930,True,0
1133148901,42.6540268,-71.3189708,False,0
1133148905,42.6540194,-71.3187689,False,0
1133148907,42.6502224,-71.3109657,False,0
1133148908,42.6538720,-71.3197486,False,0
1134195696,42.6464317,-71.3057490,True,0
1134195729,42.6571464,-71.3163248,False,0
1134195739,42.6482496,-71.3036863,False,0
1134195773,42.6556384,-71.3146484,False,0
1134195774,42.6481608,-71.3032920,False,0
1134195777,42.6458407,-71.2915841,False,0
1134195812,42.6453613,-71.2939525,False,0
1134195827,42.6456494,-71.2918658,False,0
1134195854,42.6585686,-71.3175130,False,0
1134195857,42.6513725,-71.3094986,False,0
1134195863,42.6522445,-71.3106117,False,0
1134195872,42.6471705,-71.2981609,False,0
1134195892,42.6455882,-71.2923137,False,0
1134195894,42.6528422,-71.3113735,False,0
1134195898,42.6579965,-71.3174379,False,0
1134195902,42.6468390,-71.2972650,False,0
1134195916,42.6480859,-71.3028548,False,0
1134195939,42.6482871,-71.3037989,False,0
1134195948,42.6464977,-71.2963853,False,0
1134195952,42.6577480,-71.3171349,False,0
1134195956,42.6459157,-71.2914607,False,0
1134195961,42.6457599,-71.2917236,False,0
1134195970,42.6550496,-71.3139597,False,0
1134196006,42.6496720,-71.3071114,False,0
1134196016,42.6454698,-71.2930379,False,0
1134196023,42.6484114,-71.3040054,False,0
1134196062,42.6516152,-71.3098285,False,0
1134196065,42.6453495,-71.2938130,False,0
1134196075,42.6454540,-71.2944621,False,0
1134196100,42.6457066,-71.2917907,False,0
1134196104,42.6459690,-71.2914232,False,0
1134196107,42.6458013,-71.2952319,False,0
1134196110,42.6490841,-71.3055665,False,0
1134196113,42.6565941,-71.3155738,False,0
1134196117,42.6562686,-71.3151554,False,0
1134196122,42.6565438,-71.3155136,False,0
1134196153,42.6472435,-71.2985740,False,0
1134196157,42.6453495,-71.2938747,False,0
1134196164,42.6473244,-71.2990192,False,0
1134196167,42.6482200,-71.3035200,False,0
1134241386,42.6522071,-71.3244975,True,0
1134241394,42.6517514,-71.3250956,True,0
1134241434,42.6516547,-71.3252995,True,0
1134241520,42.6516232,-71.3254309,True,0
1134241555,42.6529843,-71.3238564,True,0
1134241570,42.6516449,-71.3255006,True,0
1134241652,42.6513687,-71.3273540,True,0
1134241667,42.6506072,-71.3304519,True,0
1134241691,42.6515068,-71.3261953,True,0
1134241751,42.6556611,-71.3222096,True,0
1134241767,42.6565409,-71.3212761,False,0
1134241777,42.6514101,-71.3281533,True,0
1134241782,42.6559748,-71.3218207,False,0
1134241792,42.6514989,-71.3261202,True,0
1134241806,42.6561326,-71.3216302,False,0
1134241821,42.6514535,-71.3291376,True,0
1134241838,42.6551226,-71.3226253,True,0
1134241855,42.6505263,-71.3305887,True,0
1134241863,42.6514062,-71.3269464,True,0
1134241877,42.6556651,-71.3222471,True,0
1134241883,42.6533315,-71.3235185,True,0
1134241886,42.6505421,-71.3305270,True,0
1134241890,42.6546374,-71.3231564,True,0
1134241891,42.6539016,-71.3235078,True,0
1134241892,42.6569847,-71.3209730,False,0
1134241895,42.6513430,-71.3295077,True,0
1134241899,42.6516271,-71.3253853,True,0
1134241905,42.6517159,-71.3251466,True,0
1134241913,42.6555388,-71.3223812,True,0
1134241914,42.6556375,-71.3221237,True,0
1134241915,42.6554264,-71.3224402,True,0
1134241920,42.6537202,-71.3235399,True,0
1134241921,42.6502442,-71.3309776,True,0
1134241927,42.6536057,-71.3236043,True,0
1134241931,42.6515581,-71.3259003,True,0
1134241940,42.6561878,-71.3215551,False,0
1134241942,42.6547399,-71.3230759,True,0
1134241965,42.6514673,-71.3285718,True,0
1134241967,42.6533947,-71.3235158,True,0
1134241970,42.6563683,-71.3214089,False,0
1134241975,42.6556138,-71.3223249,True,0
1134241979,42.6515127,-71.3288855,True,0
1134241983,42.6564413,-71.3213485,False,0
1134241987,42.6541739,-71.3234729,True,0
1134241990,42.6559018,-71.3219011,False,0
1134241995,42.6514417,-71.3264716,True,0
1134241996,42.6526963,-71.3239932,True,0
1134241998,42.6528877,-71.3238967,True,0
1134242002,42.6525444,-71.3241220,True,0
1134242007,42.6516626,-71.3252163,True,0
1134242009,42.6532526,-71.3236150,True,0
1134242024,42.6518895,-71.3249562,True,0
1134242032,42.6531500,-71.3237331,True,0
1134242034,42.6505697,-71.3304733,True,0
1134242044,42.6516192,-71.3256535,True,0
1134242046,42.6513430,-71.3276276,True,0
1134242048,42.6513746,-71.3279441,True,0
1134242049,42.6532862,-71.3235775,True,0
1134242050,42.6553179,-71.3224993,True,0
1134242054,42.6544993,-71.3232771,True,0
1134242059,42.6520138,-71.3247416,True,0
1134242063,42.6514180,-71.3267130,True,0
1134242073,42.6510432,-71.3300334,True,0
1134242081,42.6540417,-71.3234917,True,0
1134242089,42.6528029,-71.3239208,True,0
1134242090,42.6534933,-71.3235614,True,0
1134242091,42.6549155,-71.3227836,True,0
1134242093,42.6508775,-71.3302346,True,0
1134242101,42.6542311,-71.3234327,True,0
1134242104,42.6543494,-71.3233737,True,0
1134242105,42.6505204,-71.3306825,True,0
1134242106,42.6565991,-71.3212506,False,0
1134242113,42.6511596,-71.3298913,True,0
1134242117,42.6512562,-71.3297196,True,0
1134242131,42.6564768,-71.3212667,False,0
1134242132,42.6547912,-71.3229284,True,0
1134242134,42.6506506,-71.3304680,True,0
1134242140,42.6568516,-71.3210629,False,0
1134242149,42.6513549,-71.3278181,True,0
1134242151,42.6518145,-71.3250715,True,0
1134242156,42.6561050,-71.3217026,False,0
1134242157,42.6523708,-71.3243071,True,0
1134702127,42.6465832,-71.3060752,False,0
1134702130,42.6481493,-71.3107047,False,0
1134702153,42.6530200,-71.3184031,False,0
1134702161,42.6531159,-71.3186207,False,0
1134702183,42.6452129,-71.3066063,False,0
1134702185,42.6529699,-71.3184430,False,0
1134702194,42.6535938,-71.3168699,True,0
1134702198,42.6448490,-71.3135006,False,0
1134702209,42.6543109,-71.3175827,True,0
1134702242,42.6479948,-71.3107510,False,0
1134702249,42.6467611,-71.3063454,False,0
1134702269,42.6530903,-71.3184953,False,0
1134702302,42.6482905,-71.3130752,False,0
1134702310,42.6543005,-71.3174815,True,0
1134702319,42.6529270,-71.3180545,False,0
1134702329,42.6537107,-71.3187891,False,0
1134702338,42.6537575,-71.3183733,True,0
1134702341,42.6529312,-71.3181644,False,0
1134702343,42.6528711,-71.3179519,False,0
1134702363,42.6529387,-71.3182587,False,0
1134702365,42.6532959,-71.3171268,True,0
1134702373,42.6529152,-71.3183368,False,0
1134702375,42.6529519,-71.3174251,False,0
1134702448,42.6480865,-71.3127251,True,0
1134702457,42.6541851,-71.3171791,True,0
1134702470,42.6540209,-71.3170101,True,0
1134702480,42.6541245,-71.3170999,True,0
1134702485,42.6542325,-71.3172562,True,0
1134702487,42.6542739,-71.3173695,True,0
1134702491,42.6537554,-71.3183874,False,0
1134702515,42.6541881,-71.3184806,True,0
1134702536,42.6483721,-71.3149801,False,0
1134702539,42.6529285,-71.3179643,False,0
1134702552,42.6480379,-71.3107919,False,0
1136463395,42.6510186,-71.3135974,True,0
1136463560,42.6502371,-71.3142228,True,0
1136523739,42.6455705,-71.3067252,True,0
1136523751,42.6466563,-71.3062158,False,0
1136523765,42.6451924,-71.3064999,True,0
1136523771,42.6463325,-71.3067408,True,2
1136523791,42.6452915,-71.3069666,True,0
1141489288,42.6513250,-71.3136615,False,0
1141489311,42.6512540,-71.3137741,False,0
1141489350,42.6503939,-71.3141443,True,0
1141489411,42.6501769,-71.3145895,True,0
1141489595,42.6508871,-71.3137473,True,0
1141489617,42.6516091,-71.3131465,False,0
1141489792,42.6509421,-71.3136598,True,0
1141489815,42.6511632,-71.3135757,False,0
1141489819,42.6504254,-71.3141550,True,0
1141489820,42.6508200,-71.3135917,True,0
1141489822,42.6508792,-71.3135435,True,0
1141489895,42.6501887,-71.3142677,True,0
1141489901,42.6503584,-71.3140906,True,0
1141489984,42.6508831,-71.3138010,True,0
1141490059,42.6510843,-71.3135435,False,0
1141490075,42.6505004,-71.3141228,True,0
1141490096,42.6504531,-71.3141550,True,0
1156916605,42.6447408,-71.3132793,True,2
1230215084,42.6533038,-71.3240592,False,0
1236794922,42.6459618,-71.3076024,False,0
1236794932,42.6455062,-71.3078277,False,0
1236887897,42.6514358,-71.3142163,False,0
1236887926,42.6499896,-71.3176364,True,0
1236887930,42.6517369,-71.3149763,False,0
1236927124,42.6530523,-71.3216081,True,0
1236927140,42.6524780,-71.3213694,True,0
1236927144,42.6529068,-71.3219770,True,0
1236927176,42.6527737,-71.3184728,True,2
1236927182,42.6524357,-71.3213102,True,0
1237892998,42.6483231,-71.3130777,True,2
1237893002,42.6454427,-71.3170903,True,2
1237893015,42.6468067,-71.3062783,True,0
1237893042,42.6486979,-71.3161846,True,0
1237893051,42.6445001,-71.3161504,False,0
1237893055,42.6454003,-71.3173884,True,2
1237893061,42.6463800,-71.3166936,False,0
1237893077,42.6485391,-71.3160747,True,0
1237893078,42.6462842,-71.3192390,True,0
1237893083,42.6471241,-71.3207105,True,0
1237893118,42.6469138,-71.3194494,False,0
1244392504,42.6482795,-71.3068446,False,0
1413783988,42.6460736,-71.3143855,True,2
1413784008,42.6451527,-71.3150232,False,0
1413784012,42.6448831,-71.3147704,False,0
1413784021,42.6447908,-71.3153324,False,0
1413784049,42.6446307,-71.3149860,False,0
1413784054,42.6460099,-71.3137965,True,2
1413784113,42.6449632,-71.3149438,False,0
1413784171,42.6450728,-71.3148502,False,0
1468848431,42.6494334,-71.3051997,False,0
1468848438,42.6492135,-71.3053561,True,1
1468848456,42.6492557,-71.3042445,False,0
1468848464,42.6487969,-71.3022788,False,0
1468854868,42.6474648,-71.2972829,False,0
1468854869,42.6476810,-71.2976544,False,0
1468854870,42.6475455,-71.2974123,False,0
1468854872,42.6476155,-71.2975341,False,0
1481657590,42.6411419,-71.3176267,False,0
1490509346,42.6436780,-71.3051456,False,0
1490509350,42.6429611,-71.3028831,False,0
1490509355,42.6443278,-71.3055452,True,0
1490509357,42.6431471,-71.3034029,False,0
1490509359,42.6435101,-71.3048841,False,0
1490509363,42.6435181,-71.3041451,False,0
1490509365,42.6438752,-71.3053172,False,0
1490509367,42.6429934,-71.3032198,False,0
1607236773,42.6472732,-71.3079654,False,0
1607236775,42.6472165,-71.3080164,False,0
1758033199,42.6499153,-71.3042095,True,0
1758033204,42.6500953,-71.3045134,True,0
2726077346,42.6484967,-71.3106505,True,0
2726077347,42.6491767,-71.3100311,False,0
2726077349,42.6492620,-71.3099533,True,0
2726077350,42.6494117,-71.3098170,True,0
2726077351,42.6487749,-71.3103971,False,0
2726077352,42.6486358,-71.3105238,False,0
2726077354,42.6485585,-71.3105942,False,0
2726077355,42.6485336,-71.3147799,False,0
2726077356,42.6487171,-71.3146028,True,0
2726077358,42.6491531,-71.3143561,False,0
2726077359,42.6493148,-71.3142005,False,0
2726077360,42.6495560,-71.3139256,True,0
2726077362,42.6508457,-71.3130525,False,0
2726077363,42.6507344,-71.3134253,False,0
2726077365,42.6503186,-71.3137847,False,0
2726077366,42.6503225,-71.3137934,False,0
2726399982,42.6463230,-71.3131883,False,0
2889179404,42.6516485,-71.3158197,True,2
2889179405,42.6517000,-71.3159278,True,0
2967382710,42.6447677,-71.3198800,True,4
2967382712,42.6440735,-71.3197318,True,0
3278641439,42.6448123,-71.3008760,False,0
3563826113,42.6506988,-71.3239302,True,1
3590034003,42.6511280,-71.3077110,True,0
3590034004,42.6514499,-71.3073181,False,0
3651307665,42.6450619,-71.3060063,True,0
4528417418,42.6535648,-71.3157068,False,0
4557444540,42.6474392,-71.3077392,False,0
4568862756,42.6514786,-71.3125502,True,0
4568876130,42.6519299,-71.3132558,True,0
4568884850,42.6520091,-71.3148603,True,2
4568998232,42.6429563,-71.3030400,False,0
4568998233,42.6433043,-71.3035670,False,0
4568998234,42.6434160,-71.3038258,False,0
4568998235,42.6441916,-71.3054766,True,0
4568998236,42.6442311,-71.3050800,True,0
4568998237,42.6443158,-71.3050672,True,0
4568998238,42.6443746,-71.3050570,False,0
4568998239,42.6446259,-71.3050083,True,0
4643162382,42.6519362,-71.3131106,False,0
4643162383,42.6522718,-71.3136852,False,0
4643162384,42.6514990,-71.3143647,False,0
4643162385,42.6514749,-71.3142013,False,0
4806713293,42.6483004,-71.3011636,False,0
4806713294,42.6482747,-71.3010455,True,0
4806713295,42.6481702,-71.3010831,True,0
4806713297,42.6483056,-71.3027029,False,0
4806713301,42.6477927,-71.3013779,True,0
5008373149,42.6437727,-71.3259785,False,2
5008373154,42.6443303,-71.3261497,False,2
5008373172,42.6448980,-71.3263194,False,2
5008376308,42.6466566,-71.3270812,False,2
5362535018,42.6481268,-71.3017673,False,0
5362544621,42.6472849,-71.2999016,False,0
5362544622,42.6478847,-71.3008319,True,0
5362544623,42.6481865,-71.3019932,False,0
5387121577,42.6586180,-71.3187200,False,0
5387121578,42.6585332,-71.3188756,False,0
5387121579,42.6587718,-71.3184866,False,0
5387121580,42.6589987,-71.3186529,False,0
5387714793,42.6507896,-71.3242069,True,0
5458718873,42.6438920,-71.3155161,False,0
5458718890,42.6458343,-71.3171181,True,0
5458718891,42.6454178,-71.3170031,True,0
5458718894,42.6450968,-71.3169145,True,0
5458718895,42.6491175,-71.3120677,True,0
5458718907,42.6498594,-71.3126756,True,0
5458718908,42.6496247,-71.3138323,False,0
5458718909,42.6495758,-71.3138739,False,0
5458718910,42.6496099,-71.3139229,False,0
5458718911,42.6496538,-71.3138759,False,0
5458718912,42.6496636,-71.3138397,True,0
5458718913,42.6494826,-71.3137961,False,0
5458718914,42.6487685,-71.3144553,False,0
5458718925,42.6483315,-71.3141884,True,0
5458718928,42.6512321,-71.3149463,True,0
5458718931,42.6505587,-71.3155343,True,0
5458718933,42.6512778,-71.3150421,True,0
5458718937,42.6513124,-71.3151148,True,0
5458718938,42.6506351,-71.3156947,True,0
5458718941,42.6506992,-71.3158292,True,0
5458718945,42.6503063,-71.3171697,True,0
5458718947,42.6475346,-71.3158455,True,0
5458718951,42.6471863,-71.3151132,True,0
5458718956,42.6469112,-71.3131763,True,0
5458718969,42.6470481,-71.3164186,True,0
5458718973,42.6469781,-71.3162805,True,0
5458718974,42.6475149,-71.3158041,True,0
5458718978,42.6468045,-71.3159211,True,0
5458718979,42.6471079,-71.3149484,True,0
5458790457,42.6499666,-71.3113211,True,0
5458790462,42.6503901,-71.3121673,True,0
5458790483,42.6440204,-71.3037415,True,0
5458790486,42.6440181,-71.3039775,True,0
5458790492,42.6445593,-71.3050162,True,0
5458790502,42.6452252,-71.3118235,True,0
5458790503,42.6451992,-71.3115086,True,0
5458790504,42.6454986,-71.3114643,True,0
5458790505,42.6451811,-71.3112890,True,0
5458790506,42.6454840,-71.3112454,True,0
5458790510,42.6454275,-71.3106405,True,0
5458790511,42.6455538,-71.3121643,True,0
5458790512,42.6443670,-71.3089468,True,0
5458790515,42.6450027,-71.3091287,True,0
5458790520,42.6488141,-71.3113097,True,0
5458791724,42.6490993,-71.3101016,True,0
5458791732,42.6468264,-71.3101746,True,0
5458791733,42.6462850,-71.3096641,True,0
5458791736,42.6467532,-71.3092298,True,0
5458791737,42.6465250,-71.3087565,True,0
5458791740,42.6467076,-71.3091356,True,0
5458846499,42.6458086,-71.3001399,True,0
5458846503,42.6454261,-71.3004512,True,0
5466133284,42.6482092,-71.3236888,True,0
5466133285,42.6490367,-71.3245363,True,0
5466133304,42.6484512,-71.3238582,True,0
5466133308,42.6484934,-71.3238054,True,0
5466133319,42.6490649,-71.3245110,True,4
5466133523,42.6491035,-71.3244634,True,0
5466133525,42.6493097,-71.3252623,False,0
5472226846,42.6564738,-71.3127750,False,0
5472226850,42.6555141,-71.3123486,False,0
5472226871,42.6501159,-71.3211542,True,0
5472226873,42.6498951,-71.3206986,True,0
5472226884,42.6531235,-71.3163104,True,0
5472226895,42.6531535,-71.3162834,True,0
5472226918,42.6511844,-71.3186221,True,0
5472227123,42.6506947,-71.3189332,True,0
5472227139,42.6502372,-71.3230511,True,4
5472227145,42.6511437,-71.3220540,True,0
5472255550,42.6506753,-71.3032060,True,0
5472255552,42.6510380,-71.3033456,True,0
5472255554,42.6518163,-71.3021636,True,0
5472255555,42.6516323,-71.3037618,True,0
5472255556,42.6517698,-71.3030244,True,0
5472255558,42.6515725,-71.3031054,True,0
5472255561,42.6520477,-71.3032642,True,0
5472255562,42.6504862,-71.3051180,True,0
5472255565,42.6506963,-71.3054767,True,0
5472255574,42.6525491,-71.3026997,True,0
5472255575,42.6521814,-71.3028547,True,0
5472255579,42.6522438,-71.3035810,True,0
5472255591,42.6557500,-71.3060626,False,0
5472305990,42.6512741,-71.2995495,False,0
5472305991,42.6520938,-71.3004056,True,0
5472305994,42.6518235,-71.2994837,True,0
5472305995,42.6518806,-71.3004285,True,0
5545122078,42.6528141,-71.3047678,False,0
5582894744,42.6448170,-71.3107291,False,0
5582894747,42.6449696,-71.3126652,False,0
5582894894,42.6481525,-71.3117310,True,2
5582894895,42.6480666,-71.3117413,True,2
5582894905,42.6483148,-71.3141913,False,0
5582942253,42.6483879,-71.3149605,False,0
5582963128,42.6435999,-71.3147287,False,2
5582963129,42.6448387,-71.3136631,True,2
5582963130,42.6449480,-71.3137017,True,2
5582963131,42.6449601,-71.3135622,True,2
5582963132,42.6458384,-71.3128232,True,2
5582963133,42.6459113,-71.3126337,True,2
5582963134,42.6459398,-71.3130213,True,2
5582963137,42.6464551,-71.3132394,False,0
5582963138,42.6462736,-71.3131517,False,0
5582963139,42.6460731,-71.3135695,True,2
5582963140,42.6459065,-71.3137740,True,2
5582963141,42.6479882,-71.3131186,True,2
5582963142,42.6481173,-71.3133100,True,2
5582963143,42.6482170,-71.3133075,True,2
5582963144,42.6481864,-71.3129205,True,2
5582963145,42.6480916,-71.3128985,True,2
5582963146,42.6475063,-71.3093602,True,2
5582963147,42.6474634,-71.3096129,True,2
5582963148,42.6471882,-71.3098555,True,2
5582963149,42.6470594,-71.3098631,True,2
5582963150,42.6470070,-71.3100153,True,2
5582963151,42.6468378,-71.3082578,True,2
5582963152,42.6468773,-71.3080692,True,2
5582963153,42.6470062,-71.3081057,True,2
5582963154,42.6463123,-71.3068860,True,2
5582963155,42.6462050,-71.3068602,True,2
5582963156,42.6458367,-71.3073306,True,2
5582963157,42.6455326,-71.3074347,True,2
5582963158,42.6454578,-71.3075718,True,2
5582963159,42.6453311,-71.3074340,True,2
5582963160,42.6453974,-71.3073125,True,2
5582963161,42.6456249,-71.3090972,True,2
5582963162,42.6457322,-71.3092078,True,2
5582963163,42.6457392,-71.3105164,True,2
5582963164,42.6456672,-71.3106109,True,2
5582963165,42.6458576,-71.3109892,True,2
5582963166,42.6457944,-71.3111563,True,2
5582963167,42.6458437,-71.3117934,True,2
5582963168,42.6457529,-71.3119935,True,2
5582963169,42.6451211,-71.3105608,True,2
5582963170,42.6451372,-71.3107560,True,2
5582963171,42.6449500,-71.3084907,True,2
5582963172,42.6450278,-71.3059127,True,2
5582963173,42.6446520,-71.3050001,False,2
5582963174,42.6446605,-71.3039202,False,0
5582963175,42.6445880,-71.3027118,False,2
5582963176,42.6446648,-71.3026184,False,2
5582963177,42.6445306,-71.3026185,False,2
5582963178,42.6445409,-71.3018632,False,2
5582963179,42.6445994,-71.3017943,False,2
5582963180,42.6444919,-71.3015945,False,2
5582963181,42.6444623,-71.3017562,False,2
5582963182,42.6442723,-71.3005704,False,2
5582963183,42.6441414,-71.2997464,False,2
5582963187,42.6441820,-71.2995941,False,0
5582963208,42.6457700,-71.2995289,False,2
5582993277,42.6488915,-71.3042954,False,2
5582993278,42.6488177,-71.3045881,False,2
5582993279,42.6489715,-71.3046438,True,2
5582993280,42.6490691,-71.3045724,True,2
5582993281,42.6491198,-71.3043492,False,2
5582993287,42.6493950,-71.3052262,False,2
5582993288,42.6493600,-71.3054214,False,2
5582993289,42.6492623,-71.3054807,False,2
5582993290,42.6527914,-71.3105096,True,0
5582993296,42.6526226,-71.3107089,True,0
5582993300,42.6521679,-71.3100685,True,0
5582993307,42.6523170,-71.3098861,True,0
5582993308,42.6557004,-71.3139981,False,2
5582993309,42.6558046,-71.3138799,False,2
5582993314,42.6525093,-71.3251137,False,2
5582993315,42.6525917,-71.3251888,False,2
5584601872,42.6501475,-71.3146343,False,0
5584693664,42.6442445,-71.3084521,True,2
5584693665,42.6443372,-71.3085623,True,2
5584693666,42.6444521,-71.3084373,True,2
5584693667,42.6443862,-71.3083279,True,2
5584693668,42.6454799,-71.3083790,True,2
5584693670,42.6444244,-71.3096870,True,2
5584693671,42.6445012,-71.3106780,True,2
5584693672,42.6445222,-71.3108895,True,2
5584693674,42.6445970,-71.3107707,True,2
5584693676,42.6446854,-71.3129780,True,2
5584693677,42.6452292,-71.3142949,True,2
5584693678,42.6451882,-71.3143993,True,2
5584693679,42.6452776,-71.3143970,True,2
5584693680,42.6453038,-71.3143018,True,2
5584693681,42.6454852,-71.3148349,True,2
5584693682,42.6455879,-71.3148689,True,2
5584693683,42.6455641,-71.3152015,True,2
5584693684,42.6456662,-71.3152199,True,2
5584693685,42.6456935,-71.3150818,True,2
5584693686,42.6465890,-71.3171244,True,2
5584693687,42.6468445,-71.3174642,True,2
5584693688,42.6469646,-71.3178997,True,2
5584693689,42.6477945,-71.3194004,True,2
5584693690,42.6477291,-71.3196761,True,2
5584693691,42.6479190,-71.3201612,True,2
5584693692,42.6482228,-71.3207873,True,2
5584693693,42.6482455,-71.3210928,True,2
5584693695,42.6492668,-71.3230584,True,2
5584693696,42.6495195,-71.3234450,True,0
5584693703,42.6493643,-71.3231375,True,0
5584693705,42.6495526,-71.3235204,True,2
5584693706,42.6495223,-71.3236073,True,2
5584693707,42.6496802,-71.3239278,True,2
5584693708,42.6498433,-71.3241719,True,2
5584693710,42.6499107,-71.3244157,True,0
5584693716,42.6500187,-71.3248059,True,2
5584744996,42.6489956,-71.3269140,False,2
5584744999,42.6495417,-71.3254627,False,2
5584745000,42.6497034,-71.3254466,False,2
5584745001,42.6506017,-71.3237934,True,2
5584745002,42.6507911,-71.3240495,True,2
5584745003,42.6508264,-71.3240822,True,0
5584745004,42.6507847,-71.3237625,True,2
5584745005,42.6502509,-71.3195170,True,2
5584745006,42.6503178,-71.3194494,True,2
5584745007,42.6501975,-71.3191923,True,2
5584745008,42.6501203,-71.3192588,True,2
5584745009,42.6500845,-71.3194638,True,2
5584745010,42.6495658,-71.3179391,True,2
5584745011,42.6494914,-71.3180081,True,2
5584745012,42.6495964,-71.3178248,True,2
5584745013,42.6494860,-71.3177738,True,2
5584745014,42.6494097,-71.3178379,True,2
5584745015,42.6493706,-71.3179954,True,2
5584745019,42.6482918,-71.3131813,False,0
5584745020,42.6483243,-71.3131820,True,2
5584746821,42.6488755,-71.3130794,True,2
5584746822,42.6488711,-71.3131918,True,2
5584746823,42.6491185,-71.3126829,True,2
5584746824,42.6496825,-71.3128376,True,2
5584746825,42.6498145,-71.3127165,True,2
5584746826,42.6495547,-71.3134754,True,2
5584918566,42.6463844,-71.3085087,True,2
5584918567,42.6463817,-71.3086503,True,2
5584918568,42.6465038,-71.3087145,True,2
5584918569,42.6465211,-71.3085294,True,2
5584918570,42.6460419,-71.3089551,True,2
5584918571,42.6460038,-71.3091044,True,2
5584918573,42.6465414,-71.3104258,True,2
5584918574,42.6465817,-71.3102880,True,2
5584918575,42.6466964,-71.3102890,True,2
5584918576,42.6445259,-71.3167812,True,2
5584918577,42.6444732,-71.3172568,True,2
5584918578,42.6443348,-71.3172193,True,2
5586930773,42.6417358,-71.3183598,False,2
5586930776,42.6418533,-71.3184896,False,2
5586930780,42.6432708,-71.3197755,False,2
5586930782,42.6440062,-71.3202711,False,2
5586930783,42.6440730,-71.3204884,True,2
5586930784,42.6439707,-71.3205504,True,2
5586930785,42.6438913,-71.3203262,True,2
5586930786,42.6445889,-71.3211265,True,2
5586930787,42.6446879,-71.3210855,True,2
5586930788,42.6446102,-71.3208974,True,2
5586930789,42.6478915,-71.3239778,True,2
5586930790,42.6479792,-71.3240605,True,2
5586930791,42.6479875,-71.3239671,True,2
5586930792,42.6488436,-71.3247529,True,2
5588724179,42.6460083,-71.3145060,True,2
5588724180,42.6461021,-71.3147048,True,2
5588724181,42.6462115,-71.3147149,True,2
5588724182,42.6464042,-71.3151004,True,2
5588724183,42.6465120,-71.3151176,True,2
5588724184,42.6482341,-71.3188810,True,2
5588724185,42.6482090,-71.3190281,True,2
5588724186,42.6483210,-71.3190653,True,2
5588724187,42.6483361,-71.3189183,True,2
5588724188,42.6488315,-71.3202945,True,2
5588724189,42.6490391,-71.3203938,True,2
5588724190,42.6498447,-71.3220715,True,2
5588724191,42.6498195,-71.3221797,True,2
5665118687,42.6464548,-71.3204866,False,0
5665118688,42.6463987,-71.3207054,False,0
5665118689,42.6463578,-71.3208417,False,0
5665118690,42.6462830,-71.3209976,False,0
5665118691,42.6462339,-71.3210778,False,0
5665118692,42.6461226,-71.3211948,False,0
5665118693,42.6459496,-71.3213715,False,0
5665118694,42.6460638,-71.3215423,False,0
5665118695,42.6461346,-71.3216085,False,0
5665118696,42.6461869,-71.3216179,False,0
5665118697,42.6462566,-71.3216106,False,0
5665118698,42.6469279,-71.3214867,False,0
5665118700,42.6471045,-71.3213297,True,0
5675046479,42.6462204,-71.3224662,True,0
5839019916,42.6571580,-71.3035608,False,0
5839019917,42.6571918,-71.3035525,False,0
5839019918,42.6572146,-71.3035359,False,0
5839019919,42.6572314,-71.3035152,False,0
5839019920,42.6572543,-71.3034737,False,0
5839019921,42.6559279,-71.3047096,False,0
5839019922,42.6523113,-71.3076092,True,0
5839019923,42.6522165,-71.3076253,True,0
5839019924,42.6524172,-71.3084832,True,0
5839019925,42.6538618,-71.3082181,False,0
5839019926,42.6538803,-71.3082259,False,0
5839019927,42.6538930,-71.3082354,False,0
5839019928,42.6539022,-71.3082495,False,0
5839019929,42.6539277,-71.3082924,True,0
5839019930,42.6521273,-71.3085738,False,0
5839019931,42.6522186,-71.3085183,False,0
5839019932,42.6521548,-71.3085479,False,0
5839019933,42.6515953,-71.3077570,False,0
5839019934,42.6534026,-71.3074233,True,0
5881624388,42.6517780,-71.3224824,True,0
5896322667,42.6497711,-71.3232252,False,0
5899057282,42.6514810,-71.3227715,True,0
5903401365,42.6495517,-71.3052151,False,0
5903401366,42.6494935,-71.3051809,False,0
5928726495,42.6442417,-71.3162544,True,0
6247871435,42.6532126,-71.3048349,False,0
6291830169,42.6431154,-71.3216701,False,0
6399361300,42.6501786,-71.3053179,False,0
6399361301,42.6504669,-71.3056894,False,0
6399361302,42.6506818,-71.3054519,True,0
6399361303,42.6509169,-71.3058453,True,0
6399361304,42.6507087,-71.3060832,False,0
6399813002,42.6502322,-71.3062907,True,0
6399813003,42.6499964,-71.3065488,False,0
6400481562,42.6484598,-71.3102700,False,0
6555068743,42.6454950,-71.3154501,True,0
6555068744,42.6454063,-71.3160672,True,0
6555068745,42.6456391,-71.3154887,True,0
6555068746,42.6455709,-71.3161113,True,0
6555130208,42.6476154,-71.3210433,True,0
6555130212,42.6478383,-71.3214705,True,0
6555130222,42.6471665,-71.3214593,True,0
6555130223,42.6480310,-71.3206333,True,0
6575502497,42.6529497,-71.3059889,False,0
6575502498,42.6530789,-71.3062316,False,0
6575502499,42.6531666,-71.3065454,True,0
6755518416,42.6448498,-71.3158353,True,0
6755612971,42.6462989,-71.3054182,True,0
6755612973,42.6463612,-71.3055557,True,0
6755612979,42.6462624,-71.3053376,True,0
6755612980,42.6466712,-71.3049670,True,0
6755612981,42.6463512,-71.3055336,True,0
6755612982,42.6467648,-71.3051659,True,0
6755612983,42.6468544,-71.3053564,True,0
6755635085,42.6469456,-71.3055501,True,0
6755635087,42.6470395,-71.3057495,True,0
6755635090,42.6460989,-71.3069510,True,0
6757010709,42.6425898,-71.2991017,False,0
6767317202,42.6522987,-71.3212590,True,0
6767317203,42.6513464,-71.3228620,False,0
6767317213,42.6522164,-71.3214525,False,0
6767317214,42.6522958,-71.3212828,False,0
6767317231,42.6526283,-71.3177345,True,2
6767317232,42.6525255,-71.3174835,True,2
6767317239,42.6524732,-71.3204491,True,2
6767317241,42.6518932,-71.3181901,True,2
6767317246,42.6516570,-71.3183710,True,2
6767317249,42.6517387,-71.3181555,True,2
6767317276,42.6525179,-71.3216070,True,0
6767317277,42.6528718,-71.3220225,True,0
6767435593,42.6524751,-71.3204548,False,0
6767435612,42.6525954,-71.3196450,True,2
6767435633,42.6514620,-71.3180522,True,0
6767435645,42.6505973,-71.3188695,True,0
6767435646,42.6506673,-71.3188098,True,0
6767435647,42.6508340,-71.3186583,True,0
6767435648,42.6508695,-71.3186529,True,0
6767435649,42.6509030,-71.3186570,True,0
6767435650,42.6511348,-71.3184504,True,0
6767435651,42.6514071,-71.3182090,True,0
6767435652,42.6514298,-71.3181742,True,0
6767435653,42.6514455,-71.3180897,True,0
6767435654,42.6514909,-71.3179864,True,0
6767435655,42.6515215,-71.3179435,True,0
6767435656,42.6514696,-71.3178322,True,0
6767435657,42.6505016,-71.3186905,True,0
6767435659,42.6509583,-71.3167968,True,0
6767435660,42.6509997,-71.3168049,True,0
6767435661,42.6514850,-71.3178188,True,0
6767435768,42.6524778,-71.3176623,True,2
6769096988,42.6504465,-71.3152988,True,0
6769096992,42.6481390,-71.3170751,True,0
6769096994,42.6484474,-71.3177112,True,0
6769097000,42.6480148,-71.3184282,True,0
6769097001,42.6480330,-71.3191893,True,0
6769097006,42.6478630,-71.3181147,True,0
6769500693,42.6540794,-71.2989854,False,0
6770748293,42.6513260,-71.3151433,True,2
6770748314,42.6517306,-71.3159923,True,2
6770748318,42.6516646,-71.3159588,True,2
6770748350,42.6499222,-71.3141494,True,0
6770748351,42.6496385,-71.3135601,False,0
6770748352,42.6507531,-71.3126937,False,0
6770748353,42.6507625,-71.3126448,False,0
6770748354,42.6507728,-71.3126072,False,0
6770748355,42.6507733,-71.3125878,False,0
6770748356,42.6517557,-71.3129385,False,0
6770748357,42.6517710,-71.3129190,False,0
6770748358,42.6507644,-71.3125408,False,0
6770748359,42.6518038,-71.3129745,False,0
6770748360,42.6507842,-71.3124436,False,0
6770748361,42.6506367,-71.3121425,False,0
6770748362,42.6510707,-71.3117409,False,0
6770748364,42.6508357,-71.3133357,False,0
6770748367,42.6507294,-71.3134199,False,0
6770748368,42.6504350,-71.3136841,False,0
6773882853,42.6546461,-71.3119659,False,0
6773918391,42.6482270,-71.3242868,True,0
6773918403,42.6486673,-71.3246896,True,0
6774390916,42.6505189,-71.3219856,True,0
6775473671,42.6494914,-71.3232320,True,2
6775473672,42.6521219,-71.3218022,True,0
6775477318,42.6502713,-71.3246027,True,0
6775477335,42.6491065,-71.3244597,True,2
6775477348,42.6482156,-71.3241723,True,2
6775477672,42.6512057,-71.3234800,False,0
6775477673,42.6512383,-71.3234274,False,0
6775477695,42.6520474,-71.3251432,True,0
6775477699,42.6507859,-71.3241825,True,0
6775477706,42.6499359,-71.3250627,True,0
6775477710,42.6504804,-71.3242996,True,0
6775477781,42.6521315,-71.3249317,True,0
6775477783,42.6508674,-71.3239800,True,0
6775477790,42.6510850,-71.3233070,True,4
6775477792,42.6497529,-71.3239610,True,0
6775477874,42.6511900,-71.3233398,False,0
6775477875,42.6511321,-71.3234334,False,0
6775477876,42.6512500,-71.3234085,False,0
6775477877,42.6511920,-71.3235020,False,0
6775980654,42.6514923,-71.3236577,False,0
6775980655,42.6515866,-71.3234279,False,0
6775980656,42.6515059,-71.3236788,True,0
6775980666,42.6538532,-71.3200477,False,0
6775980667,42.6528353,-71.3175391,False,0
6775980668,42.6528933,-71.3176669,False,0
6775980669,42.6529135,-71.3176736,False,0
6775980670,42.6529295,-71.3183250,False,0
6775980671,42.6530730,-71.3186026,False,0
6775980672,42.6537220,-71.3186972,False,0
6775980673,42.6537151,-71.3186958,False,0
6775980679,42.6538986,-71.3183961,True,0
6775980680,42.6539390,-71.3169698,True,0
6775980681,42.6543069,-71.3177115,True,0
6775980682,42.6542640,-71.3179871,True,0
6776018306,42.6516977,-71.3247465,True,0
6779291933,42.6532481,-71.3214337,False,0
6779688045,42.6528572,-71.3175874,False,0
6779688046,42.6528424,-71.3175547,False,0
6779688047,42.6530812,-71.3185519,False,0
6780002428,42.6513051,-71.3172164,True,0
6780002429,42.6520539,-71.3165677,True,0
6781065546,42.6541534,-71.3184705,True,0
6781080484,42.6484767,-71.3148834,False,0
6781080485,42.6484444,-71.3149250,False,0
6781080486,42.6484166,-71.3148868,False,0
6781080487,42.6484513,-71.3148415,False,0
6781080488,42.6484979,-71.3148241,True,0
6781080489,42.6484063,-71.3149376,True,0
6795982513,42.6517789,-71.3225089,True,0
6795982514,42.6518574,-71.3223886,False,0
6795982515,42.6518282,-71.3223510,True,0
6796149680,42.6530549,-71.3242607,False,0
6796926525,42.6450474,-71.3212842,True,0
6796926563,42.6459122,-71.3065199,True,0
6796926687,42.6503528,-71.3183841,True,0
6796926693,42.6476691,-71.3222820,True,0
6796926857,42.6455315,-71.3199511,True,0
6814124497,42.6480553,-71.3114606,False,0
6814124498,42.6480287,-71.3111521,False,0
6814124499,42.6480883,-71.3111246,False,0
6814124500,42.6482546,-71.3148361,False,0
6814124515,42.6446797,-71.3080314,False,0
6814613310,42.6416947,-71.3183182,False,0
6814911652,42.6490532,-71.3121245,True,2
6814911653,42.6498762,-71.3175724,True,0
6814924796,42.6502049,-71.3149364,True,2
6814924798,42.6502878,-71.3149659,True,2
6814924807,42.6503020,-71.3148582,True,2
6814924810,42.6503632,-71.3193154,True,0
6814924811,42.6506124,-71.3190944,True,0
6814924835,42.6483436,-71.3149947,True,2
6814924894,42.6480738,-71.3107638,True,2
6814924929,42.6497476,-71.3186619,True,2
6814925126,42.6510941,-71.3164717,True,2
6814925127,42.6509755,-71.3164093,True,2
6814925132,42.6509237,-71.3166189,True,2
6814925133,42.6510481,-71.3166600,True,2
6814925322,42.6493702,-71.3175412,False,0
6814925323,42.6483246,-71.3151922,False,0
6831227378,42.6516485,-71.3233320,False,0
6831839998,42.6517827,-71.3218120,False,0
6831840072,42.6518011,-71.3219856,False,0
6831840077,42.6506135,-71.3191113,True,0
6831848199,42.6555805,-71.3145010,True,0
6831848200,42.6539824,-71.3164190,True,0
6831848215,42.6508886,-71.3239808,True,0
6831848216,42.6514450,-71.3243949,True,0
6831848217,42.6520418,-71.3251573,True,0
6831848218,42.6521399,-71.3249105,True,0
6831848219,42.6520862,-71.3248924,True,0
6831848220,42.6508757,-71.3239615,True,0
6831848221,42.6507792,-71.3241991,True,0
6831848235,42.6522693,-71.3167734,True,2
6831848236,42.6511246,-71.3168256,False,0
6831860452,42.6476686,-71.3223309,True,0
6831860467,42.6469766,-71.3230122,True,0
6831860468,42.6470563,-71.3229766,True,0
6831860469,42.6464632,-71.3225649,False,0
6831860470,42.6447591,-71.3203944,False,0
6831860471,42.6460454,-71.3200832,False,0
6831860472,42.6460967,-71.3201167,False,0
6831860473,42.6461253,-71.3201744,False,0
6831860474,42.6462057,-71.3202133,False,0
6831860482,42.6464188,-71.3202931,False,0
6831870289,42.6476730,-71.3222937,True,0
6831870290,42.6476728,-71.3223192,True,0
6831870291,42.6476743,-71.3223065,True,0
6831870292,42.6474881,-71.3225254,False,0
6831890745,42.6509166,-71.3243033,True,0
6833162393,42.6460317,-71.3129226,True,2
6833162394,42.6459754,-71.3128775,False,0
6833162395,42.6459865,-71.3127826,False,0
6833162396,42.6465572,-71.3131570,False,0
6833162397,42.6464678,-71.3131441,False,0
6833162398,42.6463942,-71.3131225,False,0
6833162399,42.6463357,-71.3130930,False,0
6833162400,42.6462863,-71.3130564,False,0
6833162401,42.6460960,-71.3128695,False,0
6833162402,42.6460413,-71.3128159,True,2
6833162403,42.6460126,-71.3129085,False,0
6833162404,42.6465401,-71.3132375,True,0
6833162405,42.6464543,-71.3132738,False,0
6833173867,42.6459609,-71.3132520,True,4
6833196200,42.6481229,-71.3136385,True,4
6833196201,42.6475423,-71.3131459,True,4
6833457195,42.6514746,-71.3237525,False,0
6833457207,42.6518434,-71.3223702,True,0
6835478777,42.6503011,-71.3191862,True,0
6835478778,42.6505535,-71.3189718,True,0
6835478779,42.6505822,-71.3190315,True,0
6835478780,42.6503309,-71.3192482,True,0
6835478781,42.6503693,-71.3193282,False,0
6835478782,42.6502958,-71.3191752,False,0
6835478783,42.6505449,-71.3189540,False,0
6835478784,42.6506184,-71.3191070,False,0
6835478786,42.6505382,-71.3189600,True,0
6835478797,42.6512055,-71.3170009,True,2
6835712287,42.6478492,-71.3214597,True,0
6835712339,42.6473420,-71.3227792,True,0
6835990620,42.6517898,-71.3150119,True,2
6835990621,42.6503742,-71.3137366,False,0
6835990677,42.6525053,-71.3164474,True,2
6835990683,42.6513714,-71.3140802,True,0
6836038903,42.6519160,-71.3149461,False,0
6836038973,42.6554937,-71.3143675,False,0
6836038974,42.6538976,-71.3162887,False,0
6836038975,42.6555879,-71.3145123,False,0
6836038976,42.6539918,-71.3164334,False,0
6836038982,42.6539045,-71.3162994,True,0
6836038983,42.6555012,-71.3143790,True,0
6838171429,42.6501073,-71.3229365,True,2
6838171450,42.6499019,-71.3186059,True,4
6838171451,42.6495248,-71.3133904,False,0
6838171452,42.6495091,-71.3132346,True,0
6838171453,42.6493813,-71.3134723,True,0
6838171454,42.6495062,-71.3135104,True,2
6838171455,42.6495942,-71.3135783,True,0
6839014436,42.6485313,-71.3177416,True,2
6839014438,42.6488720,-71.3184340,True,2
6839014439,42.6492049,-71.3191434,True,2
6839014443,42.6502442,-71.3212998,True,0
6839014464,42.6507665,-71.3223780,True,0
6839264827,42.6495037,-71.3198908,True,2
6839264828,42.6495763,-71.3200406,True,2
6839264829,42.6486683,-71.3196208,True,2
6839264853,42.6455109,-71.3141149,True,0
6839264857,42.6458057,-71.3146809,True,0
6839284639,42.6472639,-71.3170929,True,2
6839284640,42.6473397,-71.3170308,True,0
6839284770,42.6486845,-71.3230980,True,0
6839284799,42.6476282,-71.3237371,False,0
6839284800,42.6478938,-71.3240813,True,2
6839284948,42.6470022,-71.3177884,True,2
6839284980,42.6478066,-71.3199794,True,2
6839285028,42.6477248,-71.3200329,False,0
6839285073,42.6474780,-71.3211695,True,0
6839285076,42.6476650,-71.3209941,True,0
6839285080,42.6477166,-71.3209427,True,0
6839285084,42.6478557,-71.3208044,True,0
6839285180,42.6490411,-71.3226489,True,2
6839285181,42.6473994,-71.3218292,True,0
6839285196,42.6474234,-71.3174118,True,2
6839285224,42.6477029,-71.3177842,True,0
6839285232,42.6475149,-71.3173960,True,0
6839285277,42.6491094,-71.3192282,True,2
6839285279,42.6494794,-71.3200021,True,2
6839285280,42.6502874,-71.3216801,True,2
6839285287,42.6487638,-71.3185299,True,2
6839285288,42.6487812,-71.3184000,True,2
6839285289,42.6488726,-71.3185887,True,2
6839285316,42.6495813,-71.3199115,True,2
6841814095,42.6445771,-71.3215340,True,2
6841814096,42.6442335,-71.3180316,True,2
6841814097,42.6457314,-71.3176653,True,2
6841814100,42.6442662,-71.3187174,True,2
6841814101,42.6442152,-71.3186349,True,2
6841814102,42.6441462,-71.3186861,True,2
6841814103,42.6443805,-71.3162670,True,2
6841816710,42.6443514,-71.3180608,True,2
6841816750,42.6435793,-71.3185520,False,0
6841816810,42.6431195,-71.3196360,False,0
6841816889,42.6440489,-71.3199338,True,0
6841816890,42.6442995,-71.3207104,True,0
6841816893,42.6472787,-71.3235191,True,2
6841816894,42.6458427,-71.3233629,False,0
6841816895,42.6462256,-71.3225626,True,0
6841816896,42.6462622,-71.3225031,True,0
6841816916,42.6471818,-71.3206344,False,0
6841816951,42.6447036,-71.3202940,True,4
6841816953,42.6447803,-71.3198148,True,2
6841816954,42.6448079,-71.3196876,False,0
6841816983,42.6440697,-71.3194915,True,2
6841816984,42.6441353,-71.3195045,True,2
6841816993,42.6441277,-71.3191532,False,0
6841816994,42.6441243,-71.3195823,False,0
6841816995,42.6441420,-71.3194371,False,0
6841816996,42.6440587,-71.3195857,False,0
6841816997,42.6441613,-71.3191649,False,0
6841816998,42.6440815,-71.3196643,True,4
6841816999,42.6441603,-71.3190376,True,4
6841817024,42.6450477,-71.3214902,True,2
6841817073,42.6449322,-71.3187367,False,3
6841817074,42.6451098,-71.3174942,True,2
6841817075,42.6451039,-71.3175284,False,0
6841817076,42.6449519,-71.3182081,True,2
6841817112,42.6459098,-71.3183740,False,0
6841817113,42.6457154,-71.3183016,False,0
6841817114,42.6456860,-71.3182549,False,0
6841817115,42.6456613,-71.3181377,False,0
6841817116,42.6457534,-71.3183351,False,0
6841817117,42.6456674,-71.3181987,False,0
6841817220,42.6464231,-71.3192854,True,0
6841817247,42.6468270,-71.3194204,True,0
6841817249,42.6448734,-71.3188626,True,2
6841817250,42.6449126,-71.3189467,True,2
6841817251,42.6449282,-71.3187690,True,2
6841817252,42.6450111,-71.3188925,True,2
6841817253,42.6461323,-71.3191797,True,2
6841817256,42.6440986,-71.3186737,False,0
6841817257,42.6442994,-71.3187260,False,0
6841817259,42.6449618,-71.3185041,False,0
6841817260,42.6447857,-71.3188436,False,0
6841817261,42.6450585,-71.3189027,False,0
6841817262,42.6454427,-71.3189949,False,0
6841817263,42.6458052,-71.3190814,False,0
6841817264,42.6472168,-71.3195474,False,0
6841817302,42.6449924,-71.3182828,True,0
6841817305,42.6450353,-71.3179730,True,0
6844988135,42.6514427,-71.3228246,True,0
6854200965,42.6450743,-71.3099952,False,0
6854201133,42.6444066,-71.3171566,True,2
6854201134,42.6485235,-71.3160509,True,2
6854201135,42.6485954,-71.3159868,True,2
6854201136,42.6473586,-71.3170701,True,2
6854457266,42.6466355,-71.3073938,True,2
6854457270,42.6454332,-71.3106988,True,2
6854457274,42.6447538,-71.3128503,True,2
6854479791,42.6467696,-71.3064482,True,2
6854479900,42.6459365,-71.3109591,True,0
6854479997,42.6450850,-71.3106864,True,2
6854479998,42.6451885,-71.3106716,True,2
6854480030,42.6452654,-71.3123108,True,2
6854480031,42.6455469,-71.3120770,True,2
6854480087,42.6455773,-71.3085103,True,2
6854480088,42.6455552,-71.3082556,True,2
6854480097,42.6457402,-71.3072679,True,0
6854480098,42.6455285,-71.3079824,False,0
6855790903,42.6496348,-71.3201612,True,0
6855790905,42.6497230,-71.3203434,True,0
6855790935,42.6454068,-71.3173429,True,0
6855790936,42.6454335,-71.3171549,True,0
6855790937,42.6445929,-71.3167754,False,0
6855795498,42.6450934,-71.3156179,True,0
6855795527,42.6459876,-71.3158789,True,0
6855795538,42.6454957,-71.3154503,False,0
6855795539,42.6456604,-71.3154944,False,0
6855795542,42.6439631,-71.3154881,True,2
6855795599,42.6439008,-71.3144673,True,4
6855795600,42.6438564,-71.3154422,False,0
6855795609,42.6496493,-71.3062102,False,0
6855795610,42.6491453,-71.3047994,True,4
6855795611,42.6491166,-71.3050944,True,0
6855795612,42.6490634,-71.3049515,False,0
6855795613,42.6491728,-71.3052450,False,0
6855857316,42.6494254,-71.3253598,False,0
6855857323,42.6470269,-71.3230975,True,2
6855857326,42.6488927,-71.3223695,True,2
6855857358,42.6487872,-71.3161938,True,2
6855857362,42.6482843,-71.3141932,True,2
6859169000,42.6465312,-71.3059657,True,2
6859169002,42.6467784,-71.3063188,True,2
6859169005,42.6471116,-71.3058982,True,2
6859169020,42.6465890,-71.3062484,False,0
6860871195,42.6457232,-71.3103195,False,0
6861478627,42.6517233,-71.3181222,False,3
6861478628,42.6525121,-71.3174554,False,3
6861478629,42.6526586,-71.3177990,False,3
6861925203,42.6469354,-71.3147610,True,2
6861931670,42.6519826,-71.3164515,False,0
6862134858,42.6435297,-71.3237844,False,2
6862135674,42.6425385,-71.3191096,False,0
6862135682,42.6421497,-71.3180433,False,2
6862135683,42.6422043,-71.3179025,False,2
6862135718,42.6434437,-71.3185202,False,2
6862135720,42.6432769,-71.3184829,False,2
6874256183,42.6472943,-71.3131609,True,0
6874256184,42.6473015,-71.3131606,True,0
6874258201,42.6439251,-71.3215947,False,3
6874258202,42.6437490,-71.3216111,False,3
6874258203,42.6438477,-71.3215157,True,2
6874258207,42.6441907,-71.3188096,False,0
6874258323,42.6453302,-71.3071188,False,0
6879210086,42.6532041,-71.3051169,False,0
6879210087,42.6530871,-71.3051272,False,0
6879210088,42.6531041,-71.3051359,False,0
6879210089,42.6530784,-71.3051145,False,0
6879210090,42.6530636,-71.3050897,False,0
6879210091,42.6530311,-71.3050266,False,0
6879210092,42.6529961,-71.3049341,False,0
6879210093,42.6529473,-71.3044419,False,0
6879210094,42.6529211,-71.3044855,False,0
6879210095,42.6529290,-71.3045707,False,0
6879210096,42.6535228,-71.3050535,False,0
6879210097,42.6531657,-71.3051245,False,0
6879210098,42.6529606,-71.3047846,False,0
6879210099,42.6529936,-71.3044151,False,0
6879210100,42.6531652,-71.3043775,False,0
6879999925,42.6457546,-71.3106962,False,0
6880266455,42.6495829,-71.3200542,False,3
6880266456,42.6494924,-71.3198676,False,3
6880266458,42.6522969,-71.3167482,False,3
6880266459,42.6516477,-71.3159736,False,3
6880266460,42.6502989,-71.3149892,False,3
6880266461,42.6501892,-71.3148160,False,3
6880291288,42.6513784,-71.3140950,True,0
6880291289,42.6511713,-71.3147865,False,0
6880291290,42.6511920,-71.3148623,False,0
6880311378,42.6517741,-71.3150122,False,0
6880311379,42.6517463,-71.3149934,False,0
6880311380,42.6517591,-71.3150058,False,0
6881008127,42.6540965,-71.2999624,True,0
6887759489,42.6510973,-71.3119778,False,0
6893120955,42.6435522,-71.3237979,False,3
6893120980,42.6437713,-71.3216090,False,2
6893120984,42.6420264,-71.3217714,False,2
6893145799,42.6438974,-71.3215973,True,2
6893145800,42.6444985,-71.3216239,True,2
6893145805,42.6446162,-71.3208587,False,3
6893145806,42.6445827,-71.3211602,False,3
6893145807,42.6449093,-71.3189751,False,3
6893145808,42.6448509,-71.3188577,False,3
6893145809,42.6477033,-71.3196791,False,3
6893145810,42.6478164,-71.3193818,False,3
6893145811,42.6488834,-71.3186109,False,3
6893145812,42.6487698,-71.3183764,False,3
6899379364,42.6465398,-71.3073529,True,4
6899379375,42.6417784,-71.2989025,False,0
6899379376,42.6442002,-71.2992015,False,0
6899379377,42.6444202,-71.2988770,False,0
6899379378,42.6443689,-71.2978175,False,0
6899379379,42.6442821,-71.2971282,False,0
6899379380,42.6441776,-71.2968734,False,0
6899379381,42.6439664,-71.2961438,False,0
6899379382,42.6436014,-71.2962914,False,0
6899379383,42.6422953,-71.2963021,False,0
6899379384,42.6408905,-71.2968573,False,0
6899446985,42.6407100,-71.2980053,False,0
6899446986,42.6408806,-71.2981340,False,0
6899446987,42.6411825,-71.2983459,False,0
6899446988,42.6417182,-71.2987483,False,0
6899446989,42.6417754,-71.2990326,False,0
6899446990,42.6420339,-71.3000223,False,0
6899446991,42.6426554,-71.3000585,False,0
6899446992,42.6430914,-71.3000679,False,0
6899446993,42.6432532,-71.3001873,False,0
6899446994,42.6442377,-71.3001698,False,0
6938603093,42.6521005,-71.3155507,True,2
6938603129,42.6524370,-71.3162943,True,0
6938603159,42.6496217,-71.3138348,False,0
6938603160,42.6496181,-71.3139141,False,0
6949731948,42.6509441,-71.3240221,True,0
7148024835,42.6505977,-71.3119876,True,0
7155680787,42.6468191,-71.3230196,True,0
