Node ID,Lat,Lon,Is Intersection,Type
68332568,42.6877160,-71.1041550,False,0
68332668,42.6935430,-71.0906810,True,0
68333277,42.6879940,-71.0976000,False,0
68333367,42.6851170,-71.0994190,False,0
68333415,42.6867300,-71.1006610,False,0
68333448,42.6868710,-71.0918820,False,0
68333903,42.6873240,-71.1037970,False,0
68334029,42.6895190,-71.1093160,True,0
68334100,42.6998120,-71.0785350,False,0
68334182,42.6893110,-71.0956860,False,0
68334357,42.6980920,-71.0827070,False,0
68334625,42.6867330,-71.0996880,False,0
68334776,42.6969530,-71.1109110,False,0
68334984,42.6955030,-71.0865460,False,0
68335313,42.6978740,-71.1109820,False,0
68335354,42.6863400,-71.0923540,False,0
68335406,42.6892070,-71.0955680,False,0
68335626,42.6958560,-71.1108020,False,0
68335761,42.6913133,-71.1104941,True,0
68335997,42.6908800,-71.1103750,False,0
68336505,42.6858370,-71.1049610,False,0
68336776,42.6946880,-71.0891080,True,0
68336984,42.6857560,-71.0994220,False,0
68337482,42.6896890,-71.0926835,False,0
68337800,42.6857128,-71.1106885,False,0
68338015,42.6891900,-71.1079470,False,0
68338719,42.6889540,-71.0963370,True,0
68338759,42.6929940,-71.1108020,False,0
68338957,42.6956120,-71.1138970,False,0
68339403,42.6872670,-71.1069060,False,0
68339581,42.6958550,-71.1140940,False,0
68339620,42.6872900,-71.1070250,False,0
68339772,42.6897072,-71.0924200,False,0
68339915,42.6951290,-71.1121500,False,0
68339928,42.6868200,-71.0971350,False,0
68340038,42.6861382,-71.1106155,False,0
68340135,42.6865800,-71.1021130,False,0
68340577,42.6947940,-71.1115660,False,0
68340896,42.6905970,-71.1101430,False,0
68341539,42.6889410,-71.1071590,False,0
68342129,42.6958020,-71.0875420,False,0
68342476,42.6960970,-71.0849450,False,0
68342590,42.6958420,-71.1140330,False,0
68342623,42.6882120,-71.0973240,False,0
68342714,42.6955320,-71.1138860,False,0
68343333,42.6991510,-71.1114070,False,0
68343527,42.6911084,-71.1103407,False,0
68343905,42.6984710,-71.0822110,False,0
68344142,42.6883120,-71.1050190,False,0
68344168,42.6870750,-71.0973320,False,0
68344543,42.6945110,-71.1120520,False,0
68344971,42.6997990,-71.1115820,False,0
68345131,42.6869840,-71.0985210,False,0
68345556,42.6792460,-71.0995930,False,0
68345952,42.6863750,-71.0943270,False,0
68346001,42.6952940,-71.0871850,True,0
68346035,42.6902280,-71.1100540,False,0
68347159,42.6981830,-71.0826010,False,0
68347223,42.6905090,-71.1102830,False,0
68347256,42.6862280,-71.0938270,False,0
68347306,42.6887760,-71.0964790,False,0
68347399,42.6865540,-71.0945230,False,0
68347405,42.6886100,-71.1059670,False,0
68347897,42.6891040,-71.0962160,False,0
68348077,42.6895960,-71.0932150,False,0
68348085,42.6862880,-71.0991940,False,0
68348399,42.6891710,-71.0955390,True,0
68348695,42.6867350,-71.0945900,False,0
68349183,42.6972700,-71.0835380,False,0
68349636,42.6821110,-71.0988120,False,0
68349649,42.6918720,-71.0928580,False,0
68350019,42.6866430,-71.0988650,False,0
68350206,42.6853710,-71.1074820,False,0
68350303,42.6801440,-71.0991270,False,0
68350710,42.6931220,-71.1107760,False,0
68350934,42.6811040,-71.0986650,False,0
68351305,42.6947450,-71.1126770,False,0
68351558,42.6868980,-71.1034730,False,0
68351832,42.7000940,-71.0782120,False,0
68352042,42.6803090,-71.0990540,False,0
68352171,42.6867130,-71.1008330,False,0
68352375,42.6945770,-71.1125790,False,0
68352398,42.6844350,-71.0971800,False,0
68352460,42.6875910,-71.1040310,False,0
68352578,42.6809770,-71.0987520,False,0
68352884,42.6979250,-71.0876390,False,0
68352911,42.6859660,-71.1043960,True,0
68353019,42.6945940,-71.1117200,False,0
68353229,42.6997930,-71.0785560,False,0
68353826,42.6929780,-71.0914230,False,0
68353923,42.6869780,-71.1035450,False,0
68354113,42.6979670,-71.0876180,False,0
68354546,42.6871200,-71.1050410,False,0
68354567,42.6908596,-71.1102161,False,0
68355103,42.6865610,-71.1017970,False,0
68355607,42.6891850,-71.0961540,False,0
68355786,42.7018570,-71.0771900,False,0
68356006,42.6866760,-71.1029010,False,0
68356042,42.6844510,-71.0980450,False,0
68356047,42.6808340,-71.0988200,False,0
68356222,42.6985120,-71.1111560,False,0
68356247,42.6866540,-71.1012260,True,0
68356448,42.6979930,-71.0875640,False,0
68356778,42.6860970,-71.1037640,False,0
68356894,42.6866070,-71.0989040,False,0
68356946,42.6874700,-71.1039170,False,0
68357160,42.6867040,-71.1030740,False,0
68357201,42.6845770,-71.0992820,False,0
68357396,42.6944620,-71.1123360,False,0
68357711,42.6952210,-71.1132250,False,0
68357788,42.6867970,-71.0987810,False,0
68357820,42.6896485,-71.0924449,False,0
68358197,42.6854756,-71.1107294,False,0
68358397,42.6896630,-71.1103000,False,0
68358445,42.6854110,-71.1070010,False,0
68358519,42.6941260,-71.0900490,False,0
68358656,42.6864730,-71.0944460,False,0
68358676,42.6979990,-71.0875050,False,0
68358794,42.6867860,-71.1033070,False,0
68358853,42.6923310,-71.1107860,True,0
68358902,42.6960280,-71.0875250,False,0
68358984,42.6920941,-71.1114054,False,0
68359609,42.6951350,-71.1130860,False,0
68359636,42.6890490,-71.1075310,False,0
68360110,42.6868350,-71.1034010,False,0
68360613,42.6867260,-71.0987770,False,0
68361211,42.6876360,-71.0979910,False,0
68361435,42.6815310,-71.0986050,False,0
68361982,42.7006450,-71.0776700,False,0
68362436,42.6870760,-71.1049690,False,0
68362468,42.6862380,-71.0925720,False,0
68362929,42.6993120,-71.0794580,False,0
68362980,42.6834730,-71.0990410,False,0
68363634,42.6944950,-71.0895570,True,0
68364025,42.6827040,-71.0990170,False,0
68364301,42.6942740,-71.1113980,False,0
68364474,42.6899470,-71.1102840,False,0
68364559,42.6926836,-71.1133990,False,0
68365213,42.6864770,-71.1019760,False,0
68365819,42.6989800,-71.0808130,False,0
68366085,42.6904120,-71.0947170,True,0
68366130,42.6935950,-71.0906100,False,0
68366192,42.6881300,-71.1046240,False,0
68366214,42.6996670,-71.1115290,False,0
68366458,42.6933840,-71.1167891,False,2
68366744,42.6853880,-71.1072270,False,0
68367118,42.6941890,-71.0899820,False,0
68367366,42.6978050,-71.0875470,False,0
68367871,42.6814100,-71.0985870,False,0
68368162,42.6996480,-71.0787650,False,0
68369084,42.6843000,-71.0992170,True,0
68369512,42.6874880,-71.0979660,False,0
68369604,42.6940540,-71.1106960,False,0
68369635,42.6969520,-71.0838340,False,0
68369772,42.6893740,-71.1102880,False,0
68370030,42.6866740,-71.1011190,False,0
68370124,42.6841070,-71.0991710,False,0
68370138,42.6990440,-71.0801530,False,0
68370236,42.6892640,-71.1081430,False,0
68370424,42.6887130,-71.0965580,False,0
68370577,42.6894950,-71.1063190,False,0
68370878,42.6896124,-71.0925125,False,0
68371038,42.6887030,-71.1074376,False,0
68371076,42.6912333,-71.1104193,False,0
68371341,42.6959100,-71.0875600,False,0
68371848,42.6846970,-71.0993150,False,0
68371886,42.6816760,-71.0986400,False,0
68372150,42.6957300,-71.1138270,False,0
68372334,42.6945670,-71.0894070,True,0
68372948,42.6972690,-71.1109390,False,0
68373095,42.6853590,-71.0968570,False,0
68373305,42.6929251,-71.1145921,False,0
68373561,42.6939120,-71.1107050,False,0
68373725,42.6971870,-71.1109370,False,0
68373781,42.6865550,-71.1016550,True,0
68373817,42.6875570,-71.0945720,False,0
68374032,42.6876170,-71.1072770,False,0
68374149,42.6984060,-71.1111090,False,0
68374294,42.6944160,-71.0896820,False,0
68374354,42.6990770,-71.0800240,False,0
68374492,42.6946230,-71.0892780,True,0
68374883,42.6809560,-71.0987620,False,0
68375418,42.6865810,-71.1015510,False,0
68375513,42.6887990,-71.1102640,True,0
68375578,42.6861430,-71.1035330,False,0
68375613,42.6894830,-71.1091140,True,0
68375659,42.6925251,-71.1126100,False,0
68376118,42.6918525,-71.1106752,False,0
68376236,42.6895030,-71.0957990,False,0
68376617,42.6838620,-71.0991030,False,0
68376744,42.6867490,-71.0989050,False,0
68377569,42.6880760,-71.1073310,False,0
68377709,42.6898010,-71.0925791,False,0
68377727,42.6982900,-71.0824770,False,0
68377742,42.6978500,-71.0874210,False,0
68378119,42.6850810,-71.1108250,False,0
68378217,42.6885150,-71.1056510,False,0
68378312,42.6844670,-71.0969580,False,0
68378521,42.6844780,-71.0977420,False,0
68378770,42.6911654,-71.1103707,False,0
68378863,42.6898750,-71.1098970,False,0
68379697,42.6865590,-71.1018800,False,0
68380043,42.6896400,-71.1061360,False,0
68380215,42.6873270,-71.0977060,False,0
68380612,42.6884660,-71.1074450,False,0
68381027,42.6895630,-71.0934990,False,0
68381049,42.6859450,-71.0969590,False,0
68381100,42.6901450,-71.1102740,False,0
68381422,42.6887120,-71.1063030,False,0
68381599,42.6844710,-71.0978900,False,0
68381612,42.6928810,-71.1108140,False,0
68381647,42.6924154,-71.1122535,False,0
68382010,42.6860170,-71.0993590,False,0
68382343,42.6842650,-71.0992080,False,0
68382428,42.6963190,-71.0874230,False,0
68382518,42.6957970,-71.0856750,False,0
68382601,42.6887250,-71.0952580,False,0
68382618,42.6948130,-71.1123370,False,0
68382656,42.6859362,-71.1106582,False,0
68382937,42.6849800,-71.0993890,False,0
68383190,42.6797160,-71.0993090,False,0
68383318,42.6862100,-71.1032250,False,0
68383506,42.6945150,-71.1125150,False,0
68384288,42.6872540,-71.1067850,False,0
68384337,42.6863370,-71.0991560,False,0
68384387,42.6943370,-71.0898040,False,0
68384614,42.6854320,-71.1068310,False,0
68384698,42.6806310,-71.0989110,False,0
68384757,42.6897514,-71.0926698,False,0
68385356,42.6989330,-71.0810100,False,0
68385638,42.6852261,-71.1096660,False,0
68385952,42.6904320,-71.1100940,False,0
68386328,42.6961990,-71.0874620,False,0
68386533,42.6855740,-71.1061040,False,0
68386623,42.6865970,-71.1022960,False,0
68386954,42.6976770,-71.1109550,False,0
68387118,42.6897661,-71.0924487,False,0
68387693,42.6907511,-71.1101845,False,0
68388040,42.6896250,-71.0956560,True,0
68388414,42.6890360,-71.1068110,False,0
68388552,42.6896330,-71.0924637,False,0
68388625,42.6979410,-71.0874050,False,0
68388694,42.6844510,-71.0970300,False,0
68388716,42.6978700,-71.0876320,False,0
68388937,42.6940400,-71.0901330,False,0
68389292,42.6989980,-71.0806620,False,0
68389311,42.6804500,-71.0989900,False,0
68389427,42.6793176,-71.0995483,False,0
68389793,42.6848250,-71.0993490,False,0
68390032,42.6828250,-71.0990230,False,0
68390562,42.6947520,-71.0889380,False,0
68390983,42.6794650,-71.0994260,False,0
68391077,42.6861640,-71.0929360,False,0
68391273,42.6865820,-71.0970580,False,0
68391374,42.6866230,-71.1025110,False,0
68391628,42.6996160,-71.0788270,False,0
68392031,42.6867330,-71.1005040,False,0
68392201,42.6963940,-71.0845140,False,0
68392444,42.6844950,-71.0969110,False,0
68392959,42.6849460,-71.1108530,False,0
68393122,42.6855310,-71.0994450,False,0
68393160,42.6919294,-71.1110284,False,0
68393360,42.6945790,-71.1119310,False,0
68393473,42.6862630,-71.0940220,False,0
68393502,42.6852420,-71.1094580,False,0
68393813,42.6846910,-71.0967500,False,0
68394603,42.7016450,-71.0772110,False,0
68394741,42.6854690,-71.1066180,False,0
68394753,42.6866400,-71.1012970,False,0
68395683,42.6874530,-71.1072270,False,0
68395724,42.6882860,-71.0949780,False,0
68396046,42.6971320,-71.0874060,False,0
68396163,42.6923530,-71.1107940,False,0
68396225,42.6892960,-71.0960350,False,0
68396317,42.6824760,-71.0989680,False,0
68397026,42.6906240,-71.1103000,False,0
68397042,42.6987200,-71.0817040,False,0
68397305,42.6863220,-71.0942190,False,0
68397435,42.6898410,-71.1058770,False,0
68397475,42.6849110,-71.1108560,False,0
68397766,42.6898290,-71.0943940,False,0
68397848,42.6853000,-71.1107660,False,0
68397969,42.6958230,-71.1139850,False,0
68398110,42.6861940,-71.0934940,False,0
68398309,42.6792780,-71.0995770,False,0
68398685,42.6864400,-71.0921960,False,0
68399299,42.6951920,-71.0874970,False,0
68399652,42.6957420,-71.1138480,True,0
68400087,42.6916815,-71.1107159,False,0
68400119,42.6868760,-71.0945890,False,0
68400610,42.6891850,-71.1102750,False,0
68400971,42.6825690,-71.0989900,False,0
68401150,42.6867340,-71.0998730,False,0
68401763,42.6948520,-71.0886310,False,0
68401927,42.6885980,-71.1074590,False,0
68401971,42.6995460,-71.1115020,False,0
68402030,42.7005860,-71.0777170,False,0
68402277,42.6896290,-71.0940490,False,0
68402309,42.6940110,-71.1109360,False,0
68402854,42.6874480,-71.0978940,False,0
68402972,42.6879510,-71.1043920,False,0
68404061,42.6839410,-71.0991220,False,0
68404225,42.6871050,-71.0945270,False,0
68404724,42.6973740,-71.0834330,False,0
68404804,42.6859970,-71.1042600,False,0
68404816,42.6823040,-71.0988970,False,0
68405061,42.6974680,-71.0874520,False,0
68405282,42.6954200,-71.1137430,False,0
68405657,42.6896020,-71.1095350,False,0
68406029,42.6870250,-71.0972910,False,0
68406052,42.6910105,-71.1102762,False,0
68406363,42.6907940,-71.0942510,False,0
68406433,42.6871670,-71.1052010,False,0
68406723,42.6882630,-71.1048910,False,0
68407012,42.6988380,-71.0813450,False,0
68407357,42.6990160,-71.0804110,False,0
68407399,42.6817940,-71.0986790,False,0
68407830,42.6979770,-71.1109990,False,0
68407979,42.6871480,-71.1051200,False,0
68408053,42.6952890,-71.1133360,False,0
68408143,42.6914743,-71.1105684,False,0
68408277,42.6792330,-71.0995940,False,0
68408393,42.6991540,-71.0798270,False,0
68408663,42.6966540,-71.1108780,False,0
68409109,42.7011630,-71.0773720,False,0
68409203,42.6926060,-71.0918980,False,0
68409705,42.6935780,-71.1107080,False,0
68409716,42.6916481,-71.1106881,True,0
68409833,42.6899860,-71.1099720,False,0
68409982,42.6870950,-71.1036340,False,0
68409996,42.6863290,-71.1026540,False,0
68410044,42.6951010,-71.1128220,False,0
68410124,42.6900060,-71.0952130,False,0
68410817,42.6849190,-71.0967730,False,0
68411083,42.6858880,-71.1047350,False,0
68411114,42.6870950,-71.0984290,False,0
68411171,42.6945400,-71.1118630,True,0
68411419,42.6813060,-71.0985950,False,0
68411473,42.6864332,-71.1105684,False,0
68411868,42.6976070,-71.0831990,False,0
68411928,42.6894530,-71.1089230,False,0
68411942,42.6956300,-71.0861770,False,0
68412463,42.6964330,-71.0873990,False,0
68412755,42.6850350,-71.1108420,False,0
68412838,42.6866900,-71.0970820,False,0
68413895,42.6945030,-71.1117980,False,0
68413978,42.6882410,-71.1048460,True,0
68414146,42.6979810,-71.0874460,False,0
68414652,42.6867010,-71.1009660,False,0
68415116,42.6944670,-71.1121640,False,0
68415289,42.6853550,-71.1077450,False,0
68415296,42.6869890,-71.1048830,False,0
68415413,42.6900990,-71.1100210,False,0
68415443,42.6866420,-71.0945670,False,0
68415470,42.6981820,-71.1110410,False,0
68415766,42.6943020,-71.1106810,False,0
68416294,42.6968710,-71.0873900,False,0
68416890,42.6799900,-71.0991960,False,0
68417274,42.6875260,-71.1072620,False,0
68417818,42.6869560,-71.0972320,False,0
68417953,42.6978870,-71.0829230,False,0
68418122,42.6864800,-71.0990290,False,0
68418734,42.6890020,-71.0963000,False,0
68418907,42.6861230,-71.0993170,False,0
68419147,42.6892930,-71.1065390,False,0
68419176,42.6860430,-71.1040440,False,0
68419356,42.6867420,-71.1001270,False,0
68419393,42.6867360,-71.0989970,False,0
68419588,42.6888850,-71.1069410,True,0
68419764,42.6894240,-71.1087100,False,0
68419913,42.6968010,-71.0840110,False,0
68419939,42.6981800,-71.0826050,False,0
68420243,42.6962280,-71.1108370,False,0
68420550,42.6940430,-71.1109920,True,0
68420575,42.6845699,-71.0968232,False,0
68421042,42.6890540,-71.0954460,False,0
68421206,42.6957010,-71.0874790,False,0
68421280,42.6867200,-71.0991250,False,0
68421457,42.6877180,-71.0979110,False,0
68421485,42.6795670,-71.0993690,False,0
68421748,42.6956480,-71.1107840,False,0
68421899,42.6883310,-71.1074100,False,0
68422806,42.6949119,-71.0884558,True,0
68422878,42.6854020,-71.0994510,False,0
68422916,42.6833460,-71.0990230,False,0
68422994,42.6893960,-71.1085600,False,0
68423366,42.6872540,-71.0983230,False,0
68423406,42.6871550,-71.0974490,False,0
68423517,42.6989030,-71.1113380,False,0
68423690,42.6844740,-71.0975940,False,0
68423927,42.6888057,-71.1073978,False,0
68424150,42.6897480,-71.0924332,False,0
68424469,42.6889772,-71.1073024,True,0
68425143,42.6998370,-71.1116090,False,0
68425693,42.6864000,-71.1023160,False,0
68426047,42.6867280,-71.0995000,False,0
68426156,42.6920217,-71.1112161,False,0
68426222,42.6978920,-71.0873920,False,0
68426325,42.6860770,-71.1038640,False,0
68427086,42.6882370,-71.1073760,False,0
68427116,42.6873800,-71.1071730,False,0
68427312,42.6930003,-71.1149612,False,0
68427363,42.6865880,-71.0920370,False,0
68427551,42.6866500,-71.1027280,False,0
68427728,42.6859000,-71.0993940,False,0
68427771,42.6812440,-71.0985980,False,0
68427917,42.6888560,-71.0964100,False,0
68428044,42.6859420,-71.1044950,False,0
68428190,42.6867340,-71.1031840,False,0
68428322,42.6954520,-71.1107620,False,0
68428627,42.6977970,-71.0874980,False,0
68428670,42.6924700,-71.0920770,False,0
68428918,42.6886497,-71.1074519,False,0
68428921,42.6819530,-71.0987460,False,0
68429087,42.6939470,-71.0902260,True,0
68429293,42.6858120,-71.1050680,False,0
68429965,42.6949520,-71.1127960,False,0
68429985,42.6843920,-71.0992400,False,0
68430222,42.6955580,-71.0863860,False,0
68430228,42.7001500,-71.0781490,False,0
68430508,42.6937240,-71.0904450,False,0
68430550,42.6987400,-71.1112690,False,0
68431012,42.6946290,-71.1106980,False,0
68431106,42.6873040,-71.0945120,False,0
68431121,42.6867312,-71.0919455,False,0
68431298,42.6888570,-71.1068320,False,0
68431544,42.6995010,-71.0790450,False,0
68431838,42.6953490,-71.1135520,False,0
68432222,42.6870430,-71.1049230,False,0
68432434,42.6857170,-71.1054910,False,0
68432471,42.6951950,-71.1107340,False,0
68432745,42.6895600,-71.0936850,False,0
68432950,42.6954640,-71.1138260,False,0
68433389,42.6885340,-71.1074620,False,0
68433451,42.7003470,-71.0779440,False,0
68433576,42.6933950,-71.1107190,False,0
68433641,42.6879080,-71.0947090,False,0
68434103,42.6798380,-71.0992540,False,0
68434188,42.6917671,-71.1107885,False,0
68434231,42.6992470,-71.1114280,False,0
68434259,42.6967680,-71.0840490,False,0
68434711,42.6865570,-71.1016920,False,0
68434850,42.6896870,-71.1096840,False,0
68435492,42.6844390,-71.0973480,False,0
68435521,42.6816890,-71.0986430,False,0
68435674,42.6866080,-71.1014570,False,0
68435996,42.6811710,-71.0986340,False,0
68436001,42.6950350,-71.1129390,False,0
68436244,42.6873250,-71.1071100,False,0
68436320,42.6938400,-71.0903230,False,0
68436403,42.6897691,-71.0926533,False,0
68436572,42.6902030,-71.0949730,True,0
68436741,42.6878980,-71.1073120,False,0
68436796,42.6867200,-71.0992810,False,0
68437104,42.6961910,-71.0848020,False,0
68437140,42.6895800,-71.0938540,False,0
68437384,42.6852590,-71.0994430,False,0
68437417,42.6897890,-71.1098190,False,0
68437793,42.6934015,-71.1169371,False,0
68438369,42.6882040,-71.1047640,False,0
68438375,42.6869420,-71.1048590,False,0
68438865,42.6982920,-71.1110720,False,0
68439030,42.6985870,-71.0820020,False,0
68439038,42.6896770,-71.0941510,False,0
68439051,42.6997500,-71.1115580,False,0
68439496,42.6960050,-71.0851320,False,0
68440041,42.6959970,-71.1108140,False,0
68440064,42.6861700,-71.0931880,False,0
68440206,42.6988270,-71.1113100,False,0
68440503,42.6871790,-71.1053550,False,0
68440772,42.6896865,-71.0924225,False,0
68440866,42.6891100,-71.1077350,False,0
68440924,42.6975700,-71.1109520,False,0
68441208,42.6872165,-71.0917872,False,0
68441915,42.6853036,-71.0968464,False,0
68442065,42.6994280,-71.1114740,False,0
68442205,42.6837670,-71.0990890,False,0
68442542,42.6852620,-71.1092260,False,0
68442599,42.6954830,-71.1134190,False,0
68442847,42.7009740,-71.0774600,False,0
68442994,42.6950210,-71.0880928,True,0
68444524,42.6903460,-71.1102720,False,0
68444793,42.6793660,-71.0995020,False,0
68444841,42.6862760,-71.1029170,False,0
68445372,42.6846260,-71.0967800,False,0
68445851,42.6895230,-71.1102960,False,0
68445884,42.6897550,-71.1102990,False,0
68445922,42.6918437,-71.1108967,False,0
68446121,42.6938770,-71.1107050,True,0
68446252,42.6947460,-71.1122240,False,0
68446298,42.7005250,-71.0777750,False,0
68446325,42.6848020,-71.0967500,False,0
68446485,42.6861840,-71.0927590,False,0
68447013,42.6867390,-71.1003310,False,0
68447503,42.6932830,-71.0910230,False,0
68447787,42.6894470,-71.0958630,True,0
68447984,42.6895530,-71.1094250,False,0
68448219,42.6868970,-71.0986030,True,0
68448619,42.6832740,-71.0990150,False,0
68449277,42.6931347,-71.1155804,False,0
68449523,42.6880620,-71.1045190,False,0
68449670,42.7019960,-71.0771950,False,0
68449898,42.6933057,-71.1163973,False,0
68450352,42.6913470,-71.0935350,False,0
68450432,42.7014060,-71.0772700,False,0
68450514,42.6875490,-71.0980770,True,0
68450536,42.6861820,-71.0992770,False,0
68450849,42.6978310,-71.0875910,False,0
68451103,42.6999900,-71.0783300,False,0
68451368,42.6844500,-71.0974380,False,0
68451818,42.6926344,-71.1108212,False,0
68451864,42.6965990,-71.0873890,False,0
68451913,42.6874240,-71.0981910,False,0
68452810,42.6831680,-71.0990100,False,0
68453074,42.6888839,-71.1073459,False,0
68453193,42.6944770,-71.1124360,False,0
68453307,42.6893380,-71.1083440,False,0
328282835,42.6903008,-71.1045624,False,0
328304321,42.6889416,-71.1037774,True,0
328308133,42.6901074,-71.1051050,False,0
328308920,42.6890164,-71.1035678,False,0
328317793,42.6901358,-71.1051550,False,0
328591110,42.6899944,-71.1056301,False,0
328712847,42.6981871,-71.1048471,False,0
328713813,42.6891365,-71.1015372,True,0
328714521,42.6948537,-71.1011509,True,0
328716792,42.6989334,-71.1103629,False,0
328718043,42.6888128,-71.1025009,True,0
328719599,42.6961196,-71.0991675,True,0
328721400,42.6957412,-71.0994232,True,0
328721776,42.6912429,-71.1064357,False,0
328721881,42.6985940,-71.1024792,False,0
328721923,42.6955955,-71.0997486,True,0
328724520,42.6911630,-71.0988854,True,0
328724566,42.7008274,-71.1106555,False,0
328724864,42.6981060,-71.1109530,False,0
328725734,42.6893157,-71.1011061,True,0
328725771,42.6909278,-71.0989159,True,0
328725936,42.6984763,-71.1110386,False,0
328726362,42.6909406,-71.1062115,False,0
328727669,42.6884689,-71.1028899,True,0
328731413,42.6973668,-71.0996489,True,0
328732375,42.6889693,-71.1021817,True,0
328732611,42.6984933,-71.1037421,False,0
328733013,42.6907005,-71.0990556,True,0
328733942,42.6987961,-71.1004380,True,0
328735827,42.6936273,-71.1005221,True,0
328738075,42.6899130,-71.0997525,True,0
328738581,42.6938442,-71.1098205,False,0
328740410,42.6897247,-71.0999694,True,0
328741242,42.6946949,-71.1106411,False,0
328742323,42.7013505,-71.1098578,False,0
328742750,42.6884847,-71.1027501,True,0
328742889,42.7013789,-71.1101739,False,0
328743337,42.6951124,-71.1012829,True,0
328745660,42.6916095,-71.0988390,True,0
328745803,42.6895513,-71.1006206,True,0
328745897,42.6888016,-71.1036339,True,0
328746450,42.6952160,-71.1012903,True,0
328746817,42.6959750,-71.0991831,True,0
328748683,42.6896133,-71.1001552,True,0
328748741,42.6921816,-71.1073249,False,0
328748863,42.6986505,-71.1003705,True,0
328749540,42.6890058,-71.1018330,True,0
328753380,42.6919622,-71.0994745,True,0
328753432,42.6939420,-71.1099706,False,0
328753555,42.6966073,-71.0993231,True,0
328754004,42.6906681,-71.0991095,True,0
328754080,42.6927352,-71.1079714,False,0
328755137,42.6979909,-71.0999904,True,0
328755263,42.6984444,-71.1042675,False,0
328755393,42.6886704,-71.1034323,True,0
328755451,42.6944230,-71.1010573,True,0
328755662,42.6923743,-71.0998623,True,0
328757644,42.6969362,-71.0995635,True,0
328757956,42.6918434,-71.0991029,True,0
328758502,42.6930798,-71.1001655,True,0
328758536,42.6961291,-71.1100063,True,0
328758567,42.6979565,-71.1051691,False,0
328758894,42.6991623,-71.1028531,False,0
328760024,42.6920823,-71.0998310,True,0
328760046,42.6889371,-71.1037726,False,0
328761283,42.6972992,-71.1108134,False,0
328761510,42.6999028,-71.1078250,False,0
328761680,42.6892461,-71.1013164,True,0
328761982,42.6987115,-71.1034324,False,0
328762766,42.6953948,-71.1001201,True,0
328763459,42.6914834,-71.0988389,True,0
328764311,42.6917296,-71.0989091,True,0
328765030,42.6954558,-71.1097605,True,0
328766183,42.6961188,-71.1107180,False,0
328769997,42.6983673,-71.1003239,True,0
328770148,42.6917774,-71.1069191,False,0
328770277,42.6991749,-71.1082490,False,0
328771083,42.6904053,-71.0994352,True,0
328771295,42.6983097,-71.1109895,False,0
328772890,42.6984240,-71.1040518,False,0
328773650,42.6971784,-71.0996257,True,0
328773962,42.6976926,-71.0998041,True,0
328774353,42.6929913,-71.1083529,False,0
328774578,42.6983158,-71.1046201,False,0
328775098,42.6959080,-71.0991599,True,0
328775992,42.6886005,-71.1027294,True,0
328776322,42.6985149,-71.1003780,True,0
328776533,42.7013391,-71.1102079,False,0
328776628,42.6991513,-71.1004101,True,0
328777452,42.6982036,-71.1001686,True,0
328777797,42.6918842,-71.1070316,False,0
328778025,42.6924748,-71.0999860,True,0
328778185,42.6903604,-71.1058384,False,0
328778525,42.6986666,-71.1068202,False,0
328779281,42.6920421,-71.0997850,True,0
328779360,42.6884934,-71.1030139,True,0
328780151,42.6993477,-71.1004318,True,0
328780631,42.6935692,-71.1093700,False,0
328780919,42.6944331,-71.1106182,False,0
328781056,42.6989874,-71.1031208,False,0
328781179,42.6900639,-71.0996283,True,0
328783256,42.6953677,-71.1010265,True,0
328783343,42.7000083,-71.1080052,False,0
328784378,42.6946971,-71.1010885,True,0
328786158,42.6947436,-71.1095188,True,0
1239453344,42.6978726,-71.1096442,True,0
1239453354,42.6974791,-71.1109481,False,0
1239453442,42.6979782,-71.1055652,False,0
1239453454,42.6982583,-71.1083253,False,0
1239453455,42.6982723,-71.1085066,False,0
1239453456,42.6982519,-71.1087761,False,0
1239453457,42.6981627,-71.1093112,False,0
1239453458,42.6980657,-71.1094133,False,0
1239453459,42.6980726,-71.1095906,False,0
1239453460,42.6977959,-71.1095960,False,0
1239453462,42.6978570,-71.1096200,False,0
1239454189,42.6921940,-71.1059540,False,0
1239454190,42.6921250,-71.1059070,False,0
1239454191,42.6917476,-71.1059622,False,0
1239454192,42.6947390,-71.1070313,True,0
1239454193,42.6915818,-71.1058467,False,0
1239454194,42.6914010,-71.1056760,False,0
1239454195,42.6910620,-71.1055859,False,0
1239454196,42.6908909,-71.1053278,False,0
1239454197,42.6909604,-71.1055066,False,0
1239454198,42.6908065,-71.1051754,False,0
1239454199,42.6906240,-71.1048900,False,0
1239454200,42.6904290,-71.1047171,False,0
1239454207,42.6924635,-71.1064391,True,0
1239454208,42.6934850,-71.1069520,False,0
1239454209,42.6936640,-71.1069620,False,0
1239454210,42.6941600,-71.1068577,False,0
1239454211,42.6943900,-71.1069040,False,0
1239454212,42.6946250,-71.1069670,False,0
1239454213,42.6961012,-71.1080184,False,0
1239454214,42.6961672,-71.1080665,False,0
1239454215,42.6957070,-71.1075780,False,0
1239454216,42.6965749,-71.1081257,False,0
1239454217,42.6964751,-71.1080672,False,0
1239454218,42.6966464,-71.1081766,False,0
1239454219,42.6968450,-71.1083990,False,0
1239454220,42.6976921,-71.1093681,False,0
1239454221,42.6971890,-71.1088573,False,0
1239454232,42.6928970,-71.1067790,False,0
1239454233,42.6975000,-71.1069500,False,0
1239454235,42.6975090,-71.1070540,False,0
1239454236,42.6975530,-71.1071690,False,0
1239454237,42.6973740,-71.1062200,False,0
1239454238,42.6963158,-71.1060229,False,0
1239454239,42.6976930,-71.1073890,False,0
1239454240,42.6978120,-71.1076150,False,0
1239454241,42.6979110,-71.1078460,False,0
1239454242,42.6973229,-71.1061559,False,0
1674078021,42.6857267,-71.1153833,False,0
1674078022,42.6864126,-71.1139864,False,0
1674078023,42.6864423,-71.1140616,False,0
1674078024,42.6863257,-71.1138299,False,0
1674078025,42.6861816,-71.1150904,False,0
1674078026,42.6859821,-71.1152528,False,0
1674078027,42.6852249,-71.1154204,False,0
1674078028,42.6864431,-71.1141981,False,0
1674078029,42.6862784,-71.1148138,False,0
1674078030,42.6860989,-71.1151745,False,0
1674078031,42.6862625,-71.1149437,False,0
1674078032,42.6854638,-71.1153748,False,0
1674078033,42.6863758,-71.1144672,False,0
1674078034,42.6862888,-71.1147212,False,0
1681055440,42.6929870,-71.1116158,False,0
1681055459,42.6932189,-71.1104609,False,0
1681055462,42.6916780,-71.1097276,False,0
1681055481,42.6913625,-71.1096417,False,0
1681055484,42.6919335,-71.1074461,False,0
1681055485,42.6923088,-71.1077642,False,0
1681055488,42.6916859,-71.1073672,False,0
1681055493,42.6914761,-71.1072637,False,0
1681055495,42.6912995,-71.1070668,False,0
1681055499,42.6933498,-71.1117017,False,0
1681055501,42.6919540,-71.1098992,False,0
1681055514,42.6928214,-71.1114871,False,0
1681055517,42.6895172,-71.1066591,False,0
1681055549,42.6921432,-71.1100816,False,0
1681055552,42.6934444,-71.1115729,False,0
1681055563,42.6904273,-71.1062444,False,0
1681055566,42.6902270,-71.1060368,False,0
1681055567,42.6894463,-71.1055970,False,0
1681055580,42.6896623,-71.1057616,False,0
1681055589,42.6933182,-71.1102425,False,0
1681055620,42.6925612,-71.1110365,False,0
1681055647,42.6896671,-71.1085045,False,0
1681055668,42.6895172,-71.1069917,False,0
1681055670,42.6910629,-71.1067557,False,0
1681055677,42.6907348,-71.1064805,False,0
1681055748,42.6893122,-71.1058350,False,0
1681055752,42.6893595,-71.1055970,False,0
1681055757,42.6901875,-71.1098778,False,0
1681055765,42.6895803,-71.1089765,False,0
1681055771,42.6895961,-71.1076247,False,0
1681055773,42.6931999,-71.1117446,False,0
1681055778,42.6896513,-71.1080860,False,0
1681055780,42.6899273,-71.1059403,False,0
1681055787,42.6934759,-71.1099850,False,0
1681055789,42.6935311,-71.1097383,False,0
1681055794,42.6896197,-71.1093091,False,0
1681055813,42.6910944,-71.1095881,False,0
1681055815,42.6923088,-71.1104035,False,0
1681055816,42.6934917,-71.1114764,False,0
1681055818,42.6933892,-71.1109828,False,0
1681055819,42.6934633,-71.1113084,False,0
1681055820,42.6904162,-71.1097597,False,0
1681055822,42.6931605,-71.1106288,False,0
1681055823,42.6908263,-71.1095988,False,0
1681055824,42.6906134,-71.1096203,False,0
1681055831,42.6935185,-71.1094309,False,0
1681055833,42.6931637,-71.1088730,False,0
1681055835,42.6928325,-71.1084117,False,0
1681055838,42.6926117,-71.1081434,False,0
1681055843,42.6925296,-71.1106610,False,0
1681055846,42.6926243,-71.1106931,False,0
1681055877,42.6926400,-71.1111974,False,0
1681055915,42.6897302,-71.1095559,False,0
1681055931,42.6898958,-71.1097276,False,0
1681055934,42.6933024,-71.1108004,False,0
1681055948,42.6897814,-71.1059872,False,0
1681055958,42.6900803,-71.1059118,False,0
1691291473,42.6863028,-71.1136774,False,0
1691291475,42.6858182,-71.1153432,False,0
1691291476,42.6853082,-71.1153861,False,0
1691291477,42.6858873,-71.1153031,False,0
1696387492,42.6894918,-71.1064373,False,0
1696387515,42.6895903,-71.1090605,False,0
1705193887,42.6892944,-71.1014252,False,0
1705193888,42.6900660,-71.1007660,False,0
1705193889,42.6895208,-71.1009584,False,0
1705193890,42.6898915,-71.1002291,False,0
1705193891,42.6899498,-71.1001283,False,0
1705193892,42.6903960,-71.1015100,False,0
1705193893,42.6902646,-71.0998731,False,0
1705193896,42.6919520,-71.1032190,False,0
1705193897,42.6910290,-71.1019620,False,0
1705193898,42.6912970,-71.1025550,False,0
1705193899,42.6906777,-71.0997005,False,0
1705193900,42.6898626,-71.1003301,False,0
1705193903,42.6909876,-71.0996046,False,0
1705193904,42.6887805,-71.1033286,False,0
1705193906,42.6911400,-71.1021210,False,0
1705193907,42.6900430,-71.1012220,False,0
1705193908,42.6935730,-71.1042780,False,0
1705193910,42.6913530,-71.1026490,False,0
1705193911,42.6917730,-71.1031480,False,0
1705193912,42.6908230,-71.1017530,False,0
1705193914,42.6932188,-71.1005079,False,0
1705193915,42.6901057,-71.1044706,True,0
1705193916,42.6936340,-71.1043440,False,0
1705193924,42.6928570,-71.1002333,False,0
1705193926,42.6901974,-71.1045256,False,0
1705193927,42.6939107,-71.1010001,False,0
1705193929,42.6901260,-71.1013350,False,0
1705193939,42.6900608,-71.1030909,False,0
1705193941,42.6937190,-71.1043790,False,0
1705193942,42.6954668,-71.1016612,False,0
1705193943,42.6945390,-71.1047600,False,0
1705193944,42.6903101,-71.1027049,False,0
1705193946,42.6901965,-71.1026899,True,0
1705193948,42.6901042,-71.1028978,False,0
1705193950,42.6938790,-71.1043940,False,0
1705193956,42.6900455,-71.1032023,False,0
1705193957,42.6903715,-71.1027245,True,0
1705193958,42.6950097,-71.1015338,False,0
1705193959,42.6916837,-71.0992716,True,0
1705193960,42.6955269,-71.1015224,False,0
1705193961,42.6901326,-71.1027477,False,0
1705193963,42.6905451,-71.1028415,False,0
1705193964,42.6955239,-71.1015588,False,0
1705193965,42.6954156,-71.1016801,False,0
1705193966,42.6943020,-71.1047180,False,0
1705193968,42.6907075,-71.1031177,False,0
1705193971,42.6906214,-71.1030118,False,0
1705193972,42.6955139,-71.1014329,False,0
1705193973,42.6972840,-71.1061070,False,0
1705193975,42.6949760,-71.1047700,False,0
1705193976,42.6939800,-71.1044370,False,0
1705193978,42.6944349,-71.1012597,False,0
1705193979,42.6934658,-71.1006897,False,0
1705193981,42.6947086,-71.1012355,False,0
1705193982,42.6909165,-71.1032464,False,0
1705193983,42.6910505,-71.1033323,False,0
1705193985,42.6888220,-71.1029790,False,0
1705193986,42.6954900,-71.1009709,False,0
1705193987,42.6947760,-71.1047250,False,0
1705193988,42.6916498,-71.1034825,False,0
1705193991,42.6955784,-71.1012494,True,0
1705193992,42.6959519,-71.0996095,False,0
1705193993,42.6950870,-71.1048460,False,0
1705193998,42.6956130,-71.1002081,False,0
1705194000,42.6955026,-71.1004565,False,0
1705194001,42.6916735,-71.1035415,False,0
1705194002,42.6917287,-71.1038419,False,0
1705194004,42.6952970,-71.1051910,False,0
1705194005,42.6917208,-71.1036863,False,0
1705194006,42.6917642,-71.1040136,False,0
1705194009,42.6960400,-71.1057700,False,0
1705194010,42.6957617,-71.0997778,False,0
1705194011,42.6918154,-71.1040887,False,0
1705194013,42.6919534,-71.1041638,False,0
1705194014,42.6899651,-71.1044572,False,0
1705194016,42.6941309,-71.1045995,False,0
1705194022,42.6962320,-71.1060030,False,0
1705194023,42.6952667,-71.1012021,True,0
1705194029,42.6922058,-71.1042550,False,0
1705194030,42.6922925,-71.1042657,False,0
1705194031,42.6921072,-71.1042550,False,0
1705194032,42.6928090,-71.1045983,False,0
1705194033,42.6924936,-71.1044803,False,0
1705194036,42.6896847,-71.1040977,False,0
1705194040,42.6930811,-71.1047699,False,0
1705194041,42.6889177,-71.1036475,False,0
1705194043,42.6923517,-71.1043462,False,0
1705194049,42.6936296,-71.1056119,False,0
1705194052,42.6941509,-71.1057760,False,0
1705194055,42.6972110,-71.1060700,False,0
1705194057,42.6888630,-71.1035630,True,0
1705194058,42.6934049,-71.1054821,False,0
1705194060,42.6942938,-71.1059214,False,0
1705194061,42.6944177,-71.1060950,False,0
1705194062,42.6929273,-71.1047109,False,0
1705194063,42.6904771,-71.0998078,False,0
1705194065,42.6926610,-71.1034180,False,0
1705194067,42.6944929,-71.1063320,False,0
1705194068,42.6926908,-71.1044803,False,0
1705194069,42.6891917,-71.1037932,False,0
1705194072,42.6920223,-71.1001991,False,0
1705194074,42.6925650,-71.1034170,False,0
1705194075,42.6925922,-71.1044803,False,0
1705194078,42.6945675,-71.1066046,False,0
1705194081,42.6920686,-71.1002414,False,0
1705194082,42.6924187,-71.1044373,False,0
1705194084,42.6919100,-71.0997733,False,0
1705194090,42.6922004,-71.1002415,False,0
1705194098,42.6934680,-71.1040390,False,0
1705194100,42.6898880,-71.1032403,False,0
1705194102,42.6966920,-71.1059400,False,0
1705194104,42.6923380,-71.1033140,False,0
1705194106,42.6931370,-71.1034100,False,0
1705194108,42.6917397,-71.1031233,False,0
1705194112,42.6924478,-71.1002072,False,0
1705194114,42.6897525,-71.1031671,False,0
1705194115,42.6931970,-71.1036650,False,0
1705194116,42.6930220,-71.1033420,False,0
1705194118,42.6894182,-71.1032081,False,0
1705194119,42.6931841,-71.1050744,False,0
1705194120,42.6951620,-71.1049460,False,0
1705194125,42.6932470,-71.1038050,False,0
1705194126,42.6895718,-71.1031685,False,0
1705194127,42.6892831,-71.1032724,False,0
1705194130,42.6892439,-71.1031867,False,0
1705194132,42.6930860,-71.1033550,False,0
1705194133,42.6891263,-71.1031231,False,0
1705194136,42.6889975,-71.1031326,False,0
1705194138,42.6889410,-71.1032035,False,0
1705194141,42.6887910,-71.1031670,False,0
1705194144,42.6888723,-71.1027439,False,0
1705194145,42.6892837,-71.1037977,True,0
1705194148,42.6897696,-71.1004680,True,0
1705194149,42.6892189,-71.1016438,False,0
1705194151,42.6889134,-71.1033752,False,0
1705194153,42.6890187,-71.1023693,False,0
1705194154,42.6900710,-71.1006720,False,0
1705194156,42.6893974,-71.1011971,False,0
1705194157,42.6891167,-71.1019383,True,0
1705215572,42.6925420,-71.1064970,False,0
1705215576,42.6970030,-71.0998960,False,0
1705215591,42.6979826,-71.1004938,False,0
1705215597,42.6975150,-71.1067290,False,0
1705215599,42.6975847,-71.1072189,False,0
1705215606,42.6983240,-71.1080092,False,0
1705215607,42.6978321,-71.1001217,False,0
1705215616,42.6962484,-71.0996609,False,0
1705215622,42.6980265,-71.1044554,False,0
1705215627,42.6976295,-71.1000391,False,0
1705215630,42.6966784,-71.0996724,False,0
1705215631,42.6983336,-71.1012449,False,0
1705215633,42.6979218,-71.1042582,True,0
1705215635,42.6980716,-71.1029169,False,0
1705215637,42.6983628,-71.1020867,False,0
1705215647,42.6978159,-71.1053131,False,0
1705215648,42.6980211,-71.1030252,False,0
1705215651,42.6980050,-71.1056097,False,0
1705215657,42.6984967,-71.1017234,False,0
1705215674,42.6977070,-71.1034470,False,0
1705215694,42.6930370,-71.1068620,False,0
1705215702,42.6978222,-71.1051963,False,0
1705215704,42.6979893,-71.1005977,False,0
1705215709,42.6961570,-71.0996420,True,0
1705215711,42.6979940,-71.1079850,False,0
1705215718,42.6979451,-71.1037591,False,0
1705215723,42.6963678,-71.0995047,False,0
1705215746,42.6977733,-71.1032290,False,0
1705215751,42.6983841,-71.1068984,False,0
1705215782,42.6983902,-71.1074044,False,0
1705215794,42.6978378,-71.1051320,False,0
1705215797,42.6976588,-71.1033515,False,0
1705215821,42.6979822,-71.1047717,False,0
1705215830,42.6982635,-71.1064539,False,0
1705233149,42.6981922,-71.1082126,True,0
1705272663,42.6896141,-71.1092615,False,0
1821872072,42.6899043,-71.1057953,True,0
1821872106,42.6894192,-71.1064015,True,0
1830396874,42.6912463,-71.1104782,False,0
2053701681,42.6944581,-71.0896145,True,0
2053701703,42.6946236,-71.0897666,False,0
2053701718,42.6972376,-71.0914248,False,0
2053701723,42.6947734,-71.0898954,False,0
2053701725,42.6958340,-71.0907054,False,0
2053701734,42.6964668,-71.0908626,False,0
2053701744,42.6966580,-71.0908621,False,0
2053701746,42.6961494,-71.0908932,False,0
2053701748,42.6971942,-71.0913277,False,0
2053701751,42.6970641,-71.0911453,False,0
2053701758,42.6951164,-71.0901743,False,0
2053701771,42.6968930,-71.0909828,False,0
2053701779,42.6955186,-71.0904694,False,0
3205202182,42.6978867,-71.1002114,False,0
3205202183,42.6962147,-71.1059885,True,0
3205202187,42.6952355,-71.1051110,True,0
3205202188,42.6979928,-71.1002812,False,0
3205202189,42.6979455,-71.1039478,False,0
3207151607,42.6957905,-71.0996863,False,0
3207154372,42.6922450,-71.1060190,False,0
3207154373,42.6929503,-71.1003088,False,0
3207154662,42.6880996,-71.1090957,False,0
3207154663,42.6881745,-71.1106031,False,0
3207154664,42.6892233,-71.1088704,False,0
3207154665,42.6882021,-71.1089563,False,0
3207154666,42.6880798,-71.1092758,True,0
3207154667,42.6880720,-71.1104744,False,0
3207154668,42.6880606,-71.1103185,True,0
3207154669,42.6880720,-71.1095088,False,0
3207154670,42.6888409,-71.1088168,False,0
3207154671,42.6881193,-71.1105441,False,0
3207154672,42.6880601,-71.1102545,False,0
3207154673,42.6881942,-71.1106943,False,0
3207154674,42.6885057,-71.1088168,False,0
3207154675,42.6894612,-71.1089754,False,0
3207154676,42.6880404,-71.1098038,False,0
3207154677,42.6881193,-71.1108767,False,0
3207154678,42.6880798,-71.1091869,False,0
3207154679,42.6869639,-71.1119925,False,0
3207154680,42.6880523,-71.1100761,False,0
3207154681,42.6873661,-71.1117136,False,0
3207154682,42.6880956,-71.1110484,False,0
3207154683,42.6877880,-71.1113005,False,0
3207154684,42.6867431,-71.1123519,False,0
3207154685,42.6865814,-71.1127221,False,0
3207154686,42.6881626,-71.1107641,False,0
3207154687,42.6864198,-71.1130869,False,0
3207154688,42.6863369,-71.1134624,False,0
3207154689,42.6863212,-71.1135589,False,0
3322435963,42.6889513,-71.1102683,False,0
3322435965,42.6896039,-71.1102983,False,0
3322444661,42.6899048,-71.1059251,False,0
3322444662,42.6893659,-71.1084334,False,0
3322444665,42.6889101,-71.1070388,True,0
3322444667,42.6895046,-71.1092352,False,0
3322444673,42.6888707,-71.1068852,False,0
3322444674,42.6883789,-71.1052273,True,0
4352746008,42.6900037,-71.1010128,True,0
4352746015,42.6905283,-71.1015853,True,0
4352746016,42.6930963,-71.1047761,True,0
4352746025,42.6957937,-71.1076581,True,0
4352746034,42.6891898,-71.1031400,False,0
4352746035,42.6893601,-71.1032764,False,0
4352746036,42.6894731,-71.1031585,False,0
4352746037,42.6948730,-71.1047330,False,0
4352746039,42.6969490,-71.1060370,False,0
4352746040,42.6965780,-71.1059510,False,0
4478209097,42.6944410,-71.0896424,True,0
4478209100,42.6952219,-71.0874054,False,0
4622875153,42.6904819,-71.0946317,False,0
4630813375,42.6930012,-71.0931811,False,0
4630813376,42.6918972,-71.0914216,False,0
4630813377,42.6910297,-71.0888681,False,0
4630813378,42.6919130,-71.0899410,False,0
4630813379,42.6939475,-71.0894475,False,0
4630813380,42.6957296,-71.0909924,False,0
4630813381,42.6941998,-71.0923013,False,0
5068016968,42.6967996,-71.1107730,True,0
5117546055,42.6955755,-71.1006580,False,0
5117546056,42.6958595,-71.0995818,False,0
5117546057,42.6965516,-71.0996072,False,0
5243217463,42.6979009,-71.1096629,False,0
5243217464,42.6981760,-71.1090922,False,0
5243217465,42.6983623,-71.1071724,False,0
5243217466,42.6980760,-71.1059643,False,0
5243217467,42.6980152,-71.1046474,False,0
5243217468,42.6977526,-71.1032939,False,0
5243217469,42.6978534,-71.1031289,False,0
5243217470,42.6984055,-71.1019798,False,0
5243217471,42.6984725,-71.1016263,False,0
5243217472,42.6977398,-71.1000690,False,0
5243217475,42.6899210,-71.1003150,False,0
5243217476,42.6899790,-71.1003060,False,0
5243217477,42.6900220,-71.1003560,False,0
5243217478,42.6900480,-71.1004350,False,0
5243217479,42.6900060,-71.1011440,False,0
5243217480,42.6902420,-71.1014440,False,0
5243217481,42.6920298,-71.1000762,False,0
5408874482,42.6851604,-71.1154662,False,0
5434299095,42.6891062,-71.1021177,False,0
5434299096,42.6892529,-71.1016073,False,0
5434299097,42.6892583,-71.1015247,False,0
5434299098,42.6893903,-71.1013022,False,0
5434299099,42.6894731,-71.1010589,False,0
5434299100,42.6895594,-71.1008234,False,0
5434299101,42.6895846,-71.1007992,False,0
5434299102,42.6896046,-71.1007050,False,0
5434299103,42.6896572,-71.1006056,False,0
5434299104,42.6901137,-71.0999768,False,0
5434299105,42.6908389,-71.0996274,False,0
5434299106,42.6911683,-71.0995027,False,0
5434299107,42.6912605,-71.0993976,False,0
5434299108,42.6915535,-71.0993849,False,0
5434299109,42.6916384,-71.0993452,False,0
5434299110,42.6917912,-71.0995029,False,0
5434299111,42.6918672,-71.0995926,False,0
5434299112,42.6919834,-71.0999176,False,0
5434299113,42.6921456,-71.1002183,False,0
5434299114,42.6921591,-71.1002026,False,0
5434299115,42.6921096,-71.1002368,False,0
5434299116,42.6922628,-71.1001980,False,0
5434299117,42.6923587,-71.1002167,False,0
5434299118,42.6924746,-71.1001953,False,0
5434299119,42.6925498,-71.1001967,False,0
5434299120,42.6926178,-71.1001861,False,0
5434300321,42.6927190,-71.1002575,False,0
5434300322,42.6926680,-71.1002094,False,0
5434300323,42.6927251,-71.1002108,False,0
5434300324,42.6927895,-71.1002168,False,0
5434300325,42.6928733,-71.1002808,False,0
5434300326,42.6929132,-71.1002797,False,0
5434300327,42.6929616,-71.1003395,False,0
5434300328,42.6929989,-71.1003394,False,0
5434300329,42.6930585,-71.1004210,False,0
5434300330,42.6930327,-71.1003627,False,0
5434300331,42.6930983,-71.1004383,False,0
5434300332,42.6931773,-71.1004967,False,0
5434300333,42.6932036,-71.1004905,False,0
5434300334,42.6932271,-71.1005279,False,0
5434300335,42.6932570,-71.1005281,False,0
5434300336,42.6933284,-71.1005699,False,0
5434300337,42.6933809,-71.1006268,False,0
5434300338,42.6934954,-71.1007382,False,0
5434300339,42.6935603,-71.1007488,False,0
5434300340,42.6936804,-71.1008361,False,0
5434300341,42.6937563,-71.1009021,False,0
5434300342,42.6938613,-71.1009404,False,0
5434300343,42.6939963,-71.1010442,False,0
5434300344,42.6940156,-71.1010760,False,0
5434300345,42.6940616,-71.1010925,False,0
5434300346,42.6941640,-71.1011565,False,0
5434300347,42.6941945,-71.1011973,False,0
5434300348,42.6942509,-71.1012116,False,0
5434300349,42.6942719,-71.1011918,False,0
5434300350,42.6942947,-71.1012240,False,0
5434300351,42.6943922,-71.1012495,False,0
5434300352,42.6944512,-71.1012899,False,0
5434300353,42.6944992,-71.1013048,False,0
5434300354,42.6945361,-71.1013117,False,0
5434300355,42.6945610,-71.1012892,False,0
5434300356,42.6945826,-71.1012872,False,0
5434300357,42.6945919,-71.1012481,False,0
5434300358,42.6946430,-71.1012558,False,0
5434300359,42.6946600,-71.1012253,False,0
5434300360,42.6947554,-71.1012566,False,0
5434300361,42.6948174,-71.1013213,False,0
5434300362,42.6948436,-71.1013799,False,0
5434300363,42.6949409,-71.1014356,False,0
5434300364,42.6951160,-71.1016067,False,0
5434300365,42.6950336,-71.1015704,False,0
5434300366,42.6951586,-71.1015877,False,0
5434300367,42.6952756,-71.1016568,False,0
5434300368,42.6952046,-71.1015980,False,0
5434300369,42.6954812,-71.1016027,False,0
5434300370,42.6955145,-71.1015872,False,0
5434300371,42.6955182,-71.1013613,False,0
5434300372,42.6955603,-71.1013270,False,0
5434300373,42.6955430,-71.1010193,False,0
5434300374,42.6955648,-71.1011073,False,0
5434300375,42.6955343,-71.1010616,False,0
5434300376,42.6955716,-71.1011783,False,0
5434300377,42.6954971,-71.1008046,False,0
5434300378,42.6955316,-71.1007514,False,0
5434300379,42.6955563,-71.1005665,False,0
5434300380,42.6955750,-71.1006109,False,0
5434300381,42.6955391,-71.1003850,False,0
5434300382,42.6955307,-71.1003298,False,0
5434300383,42.6955554,-71.1002350,False,0
5434300384,42.6956070,-71.1001328,False,0
5434300385,42.6956390,-71.1000140,False,0
5434300386,42.6956701,-71.0999734,False,0
5434300387,42.6956734,-71.0999045,False,0
5434300388,42.6957185,-71.0998459,False,0
5434300389,42.6957500,-71.0998269,False,0
5434300390,42.6957868,-71.0997579,False,0
5434300391,42.6958324,-71.0995905,False,0
5434300392,42.6958865,-71.0995672,False,0
5434300393,42.6959247,-71.0996041,False,0
5434300394,42.6960096,-71.0995982,False,0
5434300395,42.6960724,-71.0996197,False,0
5434300396,42.6961018,-71.0996031,False,0
5434300397,42.6962346,-71.0996221,False,0
5434300398,42.6962642,-71.0996397,False,0
5434300399,42.6963074,-71.0995941,False,0
5434300400,42.6967720,-71.0997632,False,0
5434300401,42.6970922,-71.0998677,False,0
5434300402,42.6972367,-71.0998613,False,0
5434300403,42.6973165,-71.0999376,False,0
5434300404,42.6972856,-71.0998725,False,0
5434300405,42.6973766,-71.0999501,False,0
5434300406,42.6974883,-71.0999100,False,0
5434300407,42.6974274,-71.0999470,False,0
5434300408,42.6975363,-71.0999787,False,0
5434300409,42.6978015,-71.1000294,False,0
5434300410,42.6979349,-71.1002425,False,0
5434300411,42.6981209,-71.1008238,False,0
5434300412,42.6981551,-71.1008804,False,0
5434300413,42.6982159,-71.1009088,False,0
5434300414,42.6982001,-71.1010038,False,0
5434300415,42.6982187,-71.1009458,False,0
5434300416,42.6982493,-71.1010506,False,0
5434300417,42.6982633,-71.1011452,False,0
5434300418,42.6982711,-71.1011813,False,0
5434300419,42.6984041,-71.1013994,False,0
5434300420,42.6983920,-71.1021520,False,0
5434300421,42.6983088,-71.1023564,False,0
5434300422,42.6983314,-71.1024404,False,0
5434300423,42.6982709,-71.1024439,False,0
5434300424,42.6983152,-71.1024578,False,0
5434300425,42.6982243,-71.1026059,False,0
5434300426,42.6982105,-71.1026668,False,0
5434300427,42.6981082,-71.1027961,False,0
5434300428,42.6980212,-71.1029706,True,0
5434300429,42.6981015,-71.1028571,False,0
5434300430,42.6979337,-71.1031166,False,0
5434300431,42.6979976,-71.1030962,False,0
5434300432,42.6980291,-71.1030592,False,0
5434300433,42.6977973,-71.1031726,False,0
5434300434,42.6977021,-71.1033034,False,0
5434300435,42.6977284,-71.1032811,False,0
5434300436,42.6978300,-71.1035803,False,0
5434300437,42.6978676,-71.1036318,False,0
5434300438,42.6978492,-71.1036561,False,0
5434300439,42.6979613,-71.1038983,False,0
5434300440,42.6979823,-71.1039626,False,0
5434300441,42.6979596,-71.1040636,False,0
5434300442,42.6979553,-71.1041830,False,0
5434300443,42.6979570,-71.1043732,False,0
5434300444,42.6978911,-71.1049426,False,0
5434300445,42.6979356,-71.1048493,False,0
5434300446,42.6979203,-71.1049123,False,0
5434300447,42.6978331,-71.1050658,False,0
5434300448,42.6978687,-71.1050142,False,0
5434300449,42.6978986,-71.1054005,False,0
5434300450,42.6979809,-71.1056595,False,0
5434300451,42.6980344,-71.1057256,False,0
5434300452,42.6980696,-71.1058172,False,0
5434300453,42.6980538,-71.1058692,False,0
5434300454,42.6981068,-71.1060022,False,0
5434300455,42.6981232,-71.1061194,False,0
5434300456,42.6980905,-71.1060701,False,0
5434300457,42.6980958,-71.1062034,False,0
5434300458,42.6982342,-71.1063081,False,0
5434300459,42.6982237,-71.1065301,False,0
5434300460,42.6983345,-71.1066968,False,0
5434300461,42.6982534,-71.1066064,False,0
5434300462,42.6983772,-71.1068157,False,0
5434300463,42.6983381,-71.1067584,False,0
5434300464,42.6983443,-71.1070230,False,0
5434300465,42.6983761,-71.1070499,False,0
5434300466,42.6983791,-71.1071181,False,0
5434300467,42.6983596,-71.1071377,False,0
5434300468,42.6983741,-71.1069695,False,0
5434300469,42.6983871,-71.1072328,False,0
5434300470,42.6984136,-71.1072947,False,0
5434300471,42.6983806,-71.1072759,False,0
5434300472,42.6983774,-71.1073474,False,0
5434300473,42.6984095,-71.1073255,False,0
5434300474,42.6983348,-71.1074999,False,0
5434300475,42.6983844,-71.1074540,False,0
5434300476,42.6983548,-71.1074582,False,0
5434300477,42.6983665,-71.1076637,False,0
5434300478,42.6983287,-71.1077199,False,0
5434300479,42.6983791,-71.1079212,False,0
5434300480,42.6982936,-71.1077413,False,0
5434300481,42.6983103,-71.1077079,False,0
5434300482,42.6982853,-71.1081269,False,0
5434300483,42.6982319,-71.1081511,False,0
5434300484,42.6982981,-71.1080596,False,0
5434300485,42.6981977,-71.1083058,False,0
5434300486,42.6982181,-71.1084463,False,0
5434300487,42.6982304,-71.1083782,False,0
5434300488,42.6982671,-71.1084698,False,0
5434300489,42.6982328,-71.1086508,False,0
5434300490,42.6982652,-71.1085883,False,0
5434300491,42.6982720,-71.1088440,False,0
5434300492,42.6982517,-71.1089308,False,0
5434300493,42.6981183,-71.1093958,False,0
5434300494,42.6979632,-71.1096990,False,0
5434300495,42.6980112,-71.1097094,False,0
5434300496,42.6979821,-71.1096830,False,0
5434300497,42.6980325,-71.1096411,False,0
5434300498,42.6977613,-71.1095363,False,0
5434300499,42.6976940,-71.1095224,False,0
5434300500,42.6976696,-71.1094928,False,0
5434300501,42.6976064,-71.1093024,False,0
5434300502,42.6975206,-71.1091624,False,0
5434300503,42.6974157,-71.1090271,False,0
5434300504,42.6973309,-71.1090430,False,0
5434300505,42.6969806,-71.1085479,False,0
5434300506,42.6971541,-71.1088330,False,0
5434300507,42.6970757,-71.1086599,False,0
5434300508,42.6970193,-71.1086200,False,0
5434300509,42.6969056,-71.1085165,False,0
5434300510,42.6968590,-71.1084716,False,0
5434300511,42.6968638,-71.1084313,False,0
5434300512,42.6968187,-71.1083374,False,0
5434300513,42.6967765,-71.1082896,False,0
5434300514,42.6967120,-71.1082580,False,0
5434300515,42.6965863,-71.1081685,False,0
5434300516,42.6964931,-71.1081164,False,0
5434300517,42.6965314,-71.1080986,False,0
5434300518,42.6963950,-71.1080468,False,0
5434300519,42.6964053,-71.1080852,False,0
5434300520,42.6962752,-71.1080969,False,0
5434300521,42.6961938,-71.1080521,False,0
5434300522,42.6951912,-71.1072839,False,0
5434300523,42.6950616,-71.1072559,False,0
5434300524,42.6939776,-71.1068845,False,0
5434300525,42.6938680,-71.1069277,False,0
5434300526,42.6926154,-71.1065128,False,0
5434300527,42.6926918,-71.1066309,False,0
5434300528,42.6923923,-71.1062158,False,0
5434300529,42.6924140,-71.1063413,False,0
5434300530,42.6922724,-71.1061511,False,0
5434300531,42.6918819,-71.1059266,False,0
5434300532,42.6911725,-71.1056412,False,0
5434300533,42.6907693,-71.1050726,False,0
5434300534,42.6904953,-71.1048018,False,0
5434300535,42.6905567,-71.1048133,False,0
5434300536,42.6903684,-71.1047077,False,0
5434300537,42.6903345,-71.1046391,False,0
5434300538,42.6898364,-71.1043766,False,0
5434300539,42.6894514,-71.1038951,False,0
5434300540,42.6890841,-71.1036766,False,0
5434300541,42.6887948,-71.1034789,False,0
5434300542,42.6889188,-71.1024876,False,0
5434314889,42.6899720,-71.1057080,False,0
5434314890,42.6899593,-71.1057284,True,0
5434314891,42.6899757,-71.1056804,True,0
5434481375,42.6896398,-71.1061738,False,0
5434481376,42.6897425,-71.1059362,False,0
5434481377,42.6894522,-71.1062759,False,0
5434481378,42.6897281,-71.1057638,False,0
5434481379,42.6897858,-71.1057542,False,0
5434481380,42.6898237,-71.1058171,False,0
5434481381,42.6897580,-71.1059105,False,0
5434481382,42.6898020,-71.1059645,False,0
5434481383,42.6898631,-71.1059077,False,0
5434481384,42.6898213,-71.1058490,False,0
5434481385,42.6893975,-71.1061215,False,0
5721524871,42.6919014,-71.1106866,False,0
5732982575,42.6887608,-71.1064809,True,0
5732982582,42.6894663,-71.1090078,True,0
5732982600,42.6892888,-71.1082105,True,0
5832680653,42.6897103,-71.0926852,False,0
5832680654,42.6897945,-71.0926068,False,0
5832680655,42.6898002,-71.0925212,False,0
5832680656,42.6897929,-71.0924938,False,0
5832680657,42.6896083,-71.0925403,False,0
5832680658,42.6896132,-71.0925961,False,0
5832680659,42.6896221,-71.0926217,False,0
5832680660,42.6896506,-71.0926625,False,0
5832680661,42.6896690,-71.0926758,False,0
5832680662,42.6896348,-71.0926442,False,0
5832680663,42.6896086,-71.0925685,False,0
5832680664,42.6896208,-71.0924866,False,0
5832680665,42.6896666,-71.0924309,False,0
5832680666,42.6897278,-71.0924235,False,0
5832680667,42.6897813,-71.0924693,False,0
5832680668,42.6898030,-71.0925501,False,0
5832680669,42.6897837,-71.0926320,False,0
5832680670,42.6897315,-71.0926806,False,0
5832680671,42.6872630,-71.0917574,False,0
5832680672,42.6871685,-71.0918077,False,0
5885132045,42.6987386,-71.0816475,False,0
5885132064,42.6994257,-71.0792095,False,0
5885132071,42.7010284,-71.0774347,False,0
5904593727,42.6853003,-71.1086153,True,0
6001782072,42.6880793,-71.1092106,True,0
6003745045,42.6955644,-71.1098000,True,0
6065291193,42.6934815,-71.0907619,True,0
6065291212,42.6923571,-71.0922244,True,0
6065291213,42.6921653,-71.0924749,True,0
6240820282,42.6978493,-71.0876102,False,0
6771596313,42.6943037,-71.0898441,True,0
6771884979,42.6889435,-71.0963448,True,0
6771975821,42.6887496,-71.0952721,True,0
6771975826,42.6884075,-71.0950555,True,0
6774453476,42.6805521,-71.0989454,False,0
6866688340,42.6989864,-71.0807595,False,0
6869136995,42.6822215,-71.0988645,False,0
6877151204,42.6853828,-71.1073054,False,0
6877632720,42.6862497,-71.0939798,True,0
6877632722,42.6864070,-71.0943659,True,0
6877632726,42.6858810,-71.0969479,False,0
6877632730,42.6858559,-71.0969435,False,0
6877632731,42.6864954,-71.0970445,True,0
6877632738,42.6866824,-71.0970803,True,0
6877632741,42.6870127,-71.0972805,True,0
6877632747,42.6878767,-71.0946968,False,0
6880678745,42.6952462,-71.1107396,True,0
6888241626,42.6860558,-71.1039765,True,0
6901348549,42.6877290,-71.1103620,False,0
6901348550,42.6873230,-71.1104025,False,0
6901348551,42.6869030,-71.1104684,False,0
6901348552,42.6867099,-71.1105101,True,0
6901348554,42.6879573,-71.1103296,False,0
6901348556,42.6881474,-71.1103118,False,0
6901348557,42.6885330,-71.1102770,False,0
6901348558,42.6886811,-71.1102698,False,0
7059359313,42.6856359,-71.0994343,False,0
