Node ID,Lat,Lon,Is Intersection,Type
64810297,42.6289840,-71.2995430,False,0
64810303,42.6300670,-71.3274240,False,0
64810328,42.6265930,-71.3162910,False,0
64810331,42.6311478,-71.3059350,True,0
64810368,42.6328058,-71.3242001,False,2
64810380,42.6328860,-71.3194040,True,0
64810394,42.6280054,-71.3187571,False,0
64810400,42.6316244,-71.3056343,False,0
64810427,42.6319000,-71.3198840,False,0
64810465,42.6352060,-71.3260100,False,0
64810526,42.6183690,-71.3044920,False,0
64810529,42.6303811,-71.3063895,True,0
64810552,42.6345240,-71.3189430,True,0
64810561,42.6286809,-71.3081561,False,0
64810564,42.6255805,-71.3208263,False,0
64810591,42.6317605,-71.3006185,True,0
64810623,42.6367330,-71.3176290,False,0
64810665,42.6306510,-71.3066600,False,0
64810765,42.6327485,-71.3068032,False,0
64810819,42.6319227,-71.3197418,True,1
64810841,42.6296045,-71.3081955,False,0
64810866,42.6314200,-71.3163560,True,0
64810887,42.6256523,-71.3207026,False,0
64810893,42.6289407,-71.3005704,False,0
64810917,42.6319433,-71.3087718,True,4
64810947,42.6362060,-71.3058010,False,0
64810960,42.6317380,-71.3021790,False,0
64810999,42.6198430,-71.3240630,False,0
64811017,42.6254500,-71.3251290,False,0
64811020,42.6323243,-71.3148477,False,0
64811078,42.6346480,-71.3177880,True,0
64811138,42.6309169,-71.3208050,True,0
64811251,42.6282544,-71.3061761,False,0
64811312,42.6275364,-71.3257832,False,0
64811317,42.6317420,-71.3055200,True,0
64811351,42.6288410,-71.3081710,True,0
64811399,42.6263707,-71.3249179,False,0
64811515,42.6277451,-71.3224765,False,0
64811532,42.6299945,-71.3196841,True,0
64811598,42.6307610,-71.3170390,False,0
64811644,42.6363440,-71.3238540,False,0
64811904,42.6320371,-71.3035415,False,0
64812031,42.6269990,-71.3193470,False,0
64812157,42.6250180,-71.3022530,False,0
64812280,42.6310721,-71.3083951,True,0
64812392,42.6326172,-71.3119821,False,0
64812419,42.6251690,-71.3151810,False,0
64812476,42.6358610,-71.3025030,False,0
64812633,42.6302020,-71.3252070,False,0
64812656,42.6216412,-71.3054882,False,0
64812847,42.6281500,-71.3051200,False,0
64812925,42.6371620,-71.3189840,False,0
64812929,42.6259390,-71.3130670,False,0
64813077,42.6334220,-71.3023060,True,0
64813149,42.6241380,-71.3214940,True,0
64813171,42.6298679,-71.3221369,True,0
64813332,42.6271280,-71.3136990,False,0
64813363,42.6359700,-71.3198870,False,0
64813442,42.6300050,-71.3285090,False,0
64813565,42.6254245,-71.3207095,True,0
64813581,42.6329180,-71.3415980,False,0
64813588,42.6312110,-71.3011040,False,0
64813608,42.6312644,-71.3260581,False,0
64813640,42.6172160,-71.3252430,False,0
64813678,42.6294226,-71.3065187,False,0
64813693,42.6225359,-71.3203783,False,0
64813730,42.6346805,-71.3106209,False,0
64813831,42.6342658,-71.3107504,True,4
64813844,42.6287720,-71.3236390,False,0
64813887,42.6348280,-71.3285460,False,0
64814022,42.6333860,-71.3399920,False,0
64814035,42.6367840,-71.3201920,True,0
64814044,42.6318330,-71.3212420,False,0
64814056,42.6288477,-71.3054279,False,0
64814226,42.6260110,-71.3171940,False,0
64814229,42.6301569,-71.3025073,True,0
64814260,42.6293460,-71.3283970,False,0
64814268,42.6235640,-71.3204718,False,0
64814296,42.6294625,-71.3081950,True,0
64814455,42.6338930,-71.3359360,False,0
64814461,42.6354060,-71.3050980,False,0
64814491,42.6299625,-71.3198745,False,0
64814507,42.6240830,-71.3214870,True,0
64814533,42.6249577,-71.3195316,False,0
64814579,42.6247510,-71.3018770,False,0
64814751,42.6309800,-71.3026110,False,0
64814880,42.6311280,-71.3284040,False,0
64814946,42.6224390,-71.3206440,False,0
64815038,42.6295174,-71.3238850,False,0
64815049,42.6296010,-71.3309540,False,0
64815064,42.6268399,-71.3137506,False,0
64815079,42.6187707,-71.3046106,False,0
64815107,42.6348940,-71.3279800,False,0
64815227,42.6314070,-71.3081526,False,0
64815230,42.6316200,-71.3089510,False,0
64815323,42.6275200,-71.3057800,False,0
64815394,42.6343069,-71.3143864,False,0
64815424,42.6342993,-71.3073738,True,0
64815426,42.6331833,-71.3078200,True,0
64815446,42.6281158,-71.3186770,True,0
64815506,42.6264852,-71.3202326,False,0
64815586,42.6285206,-71.3062980,True,0
64815646,42.6336225,-71.3125340,False,0
64815677,42.6341795,-71.3001221,False,0
64815691,42.6351298,-71.3097893,False,0
64815725,42.6325668,-71.3068594,False,0
64815825,42.6333700,-71.3401130,False,0
64815850,42.6312224,-71.3073597,False,0
64815889,42.6332920,-71.3251450,False,0
64815905,42.6259773,-71.3251936,True,0
64815963,42.6318420,-71.3011830,False,0
64816133,42.6276933,-71.3227488,False,0
64816152,42.6293260,-71.3154180,False,0
64816159,42.6319312,-71.3078201,False,0
64816167,42.6319682,-71.3080833,True,0
64816183,42.6280210,-71.3160670,False,0
64816221,42.6244670,-71.3124160,False,0
64816280,42.6287123,-71.3185073,True,0
64816297,42.6301440,-71.3261770,False,0
64816307,42.6258529,-71.3221938,True,0
64816316,42.6305820,-71.2991860,False,0
64816356,42.6313692,-71.3223710,True,0
64816448,42.6275491,-71.3173988,True,0
64816498,42.6275852,-71.3231406,False,0
64816506,42.6327260,-71.3194990,False,0
64816614,42.6288455,-71.3051866,False,0
64816687,42.6320952,-71.3088057,False,0
64816798,42.6337430,-71.3371140,False,0
64816967,42.6289012,-71.3180050,False,0
64816972,42.6292928,-71.3186732,False,0
64817058,42.6250927,-71.3202433,True,0
64817126,42.6314540,-71.3192980,False,0
64817146,42.6222808,-71.3203379,True,0
64817226,42.6318390,-71.3151550,False,0
64817229,42.6260610,-71.3131150,True,0
64817347,42.6288403,-71.3075440,False,0
64817374,42.6298470,-71.3031860,False,0
64817449,42.6297238,-71.3081972,False,0
64817494,42.6349160,-71.3065360,True,0
64817516,42.6307000,-71.3010650,False,0
64817648,42.6344899,-71.3137534,True,0
64817792,42.6312674,-71.3262196,False,0
64817839,42.6346950,-71.3295980,False,0
64817939,42.6229963,-71.3060134,False,0
64818009,42.6241570,-71.3200291,False,0
64818017,42.6307836,-71.3209415,False,0
64818021,42.6294350,-71.3031420,True,0
64818083,42.6247560,-71.3238710,False,0
64818098,42.6288460,-71.3259160,False,0
64818158,42.6276461,-71.3194113,False,0
64818197,42.6294924,-71.3024246,True,0
64818292,42.6229580,-71.3206340,False,0
64818298,42.6353520,-71.3253790,False,0
64818322,42.6306629,-71.3210383,False,0
64818354,42.6290113,-71.3185236,False,0
64818375,42.6231424,-71.3121452,False,0
64818388,42.6273866,-71.3195979,False,0
64818422,42.6316390,-71.3090150,False,0
64818432,42.6326093,-71.3049240,True,0
64818438,42.6330980,-71.3200460,False,0
64818544,42.6373579,-71.3184070,False,0
64818582,42.6360570,-71.3199010,False,0
64818628,42.6265560,-71.3180880,False,0
64818793,42.6354080,-71.3251390,True,1
64818853,42.6349077,-71.3114540,True,0
64818861,42.6252874,-71.3262711,False,0
64818917,42.6280700,-71.3276800,False,0
64818925,42.6325590,-71.3084780,False,0
64819024,42.6276640,-71.3228963,False,0
64819085,42.6289816,-71.3237028,True,0
64819120,42.6289966,-71.3201025,True,0
64819270,42.6342910,-71.3327820,False,0
64819360,42.6304460,-71.3081800,False,0
64819593,42.6304070,-71.3081750,False,0
64819679,42.6262407,-71.3199570,False,0
64819690,42.6352079,-71.3046152,False,0
64819734,42.6355860,-71.3172720,True,0
64819792,42.6334000,-71.3208460,False,0
64819797,42.6350940,-71.3044170,False,0
64819807,42.6271409,-71.3232619,False,0
64819908,42.6260350,-71.3148860,True,0
64819938,42.6309200,-71.2999620,False,0
64820009,42.6360401,-71.3125419,False,1
64820165,42.6313269,-71.3058884,False,0
64820201,42.6265402,-71.3230486,False,0
64820300,42.6294080,-71.3276460,False,0
64820361,42.6367110,-71.3249120,False,0
64820489,42.6292905,-71.3003250,True,0
64820546,42.6358590,-71.3198800,False,0
64820593,42.6336466,-71.3103705,False,0
64820599,42.6324530,-71.3089340,True,0
64820611,42.6287954,-71.3006144,False,0
64820694,42.6343120,-71.3208560,True,0
64820708,42.6256430,-71.3232164,True,0
64820730,42.6291550,-71.3156100,False,0
64820825,42.6291711,-71.3081892,False,0
64820836,42.6252630,-71.3025040,False,0
64820879,42.6340703,-71.3000765,False,0
64821011,42.6319180,-71.3210630,False,0
64821021,42.6290207,-71.3059189,False,0
64821146,42.6266161,-71.3230613,False,0
64821427,42.6319913,-71.3085673,False,0
64821505,42.6284312,-71.3187422,True,0
64821561,42.6331878,-71.3128285,True,0
64821709,42.6346680,-71.3049120,False,0
64821720,42.6277000,-71.3143700,True,0
64821980,42.6325682,-71.3089793,False,0
64822160,42.6271810,-71.3077401,True,0
64822168,42.6263270,-71.3031340,False,0
64822272,42.6301810,-71.3212592,True,0
64822327,42.6281872,-71.3080787,True,0
64822400,42.6266310,-71.3143220,False,0
64822437,42.6259428,-71.3062426,True,0
64822443,42.6288510,-71.3227080,True,0
64822481,42.6289973,-71.3057130,False,0
64822505,42.6320740,-71.3199150,False,0
64822565,42.6364950,-71.3211160,True,0
64822620,42.6311390,-71.3282220,False,0
64822723,42.6255317,-71.3209233,False,0
64822763,42.6287390,-71.3277550,False,0
64822790,42.6251910,-71.3206948,False,0
64822803,42.6328859,-71.3094897,False,0
64822902,42.6313110,-71.3174770,False,0
64823184,42.6335900,-71.3383340,False,0
64823190,42.6315220,-71.3211660,False,0
64823533,42.6322177,-71.3220959,True,0
64823569,42.6280930,-71.3162990,False,0
64823619,42.6281340,-71.3049860,False,0
64823643,42.6327200,-71.3219720,True,0
64823652,42.6359510,-71.3229080,False,0
64823711,42.6319310,-71.3150400,False,0
64823883,42.6370330,-71.3193950,True,0
64824089,42.6281680,-71.3052560,False,0
64824107,42.6298580,-71.3148780,False,0
64824171,42.6273280,-71.3176000,False,0
64824189,42.6310099,-71.3222831,False,0
64824246,42.6268275,-71.3136724,True,0
64824277,42.6353770,-71.3060930,False,0
64824291,42.6330819,-71.3094146,True,1
64824450,42.6311363,-71.2994306,False,0
64824459,42.6282840,-71.3228035,False,0
64824465,42.6253243,-71.3207472,False,0
64824554,42.6289585,-71.3043593,False,0
64824561,42.6262289,-71.3261277,False,0
64824601,42.6340000,-71.3351010,False,0
64824659,42.6281560,-71.3032300,True,0
64824667,42.6338131,-71.3109858,False,0
64824902,42.6307730,-71.3141270,False,0
64825047,42.6337826,-71.3107006,False,0
64825091,42.6353650,-71.3025070,False,0
64825184,42.6270330,-71.3114560,True,0
64825212,42.6188050,-71.3244370,False,0
64825275,42.6251815,-71.3206570,False,0
64825300,42.6252529,-71.3207128,False,0
64825308,42.6318990,-71.3199360,True,1
64825492,42.6253940,-71.3250996,True,0
64825568,42.6273250,-71.3319639,False,0
64825585,42.6327857,-71.3068287,False,0
64825684,42.6243702,-71.3236633,False,0
64825787,42.6312450,-71.3026030,False,0
64825880,42.6251085,-71.3206721,True,0
64826008,42.6323505,-71.3079927,False,0
64826135,42.6237952,-71.3122894,False,0
64826215,42.6361538,-71.3034204,False,0
64826795,42.6300380,-71.3278970,False,0
64826809,42.6344730,-71.3066000,False,0
64827031,42.6270340,-71.3084610,False,0
64827304,42.6243042,-71.3203079,False,0
64827346,42.6320073,-71.3084782,False,0
64827380,42.6300386,-71.3195080,True,0
64827500,42.6316841,-71.3055678,False,0
64827826,42.6268105,-71.3135413,False,0
64827977,42.6248437,-71.3196477,True,0
64828072,42.6278280,-71.3150580,False,0
64828092,42.6263436,-71.3194138,False,0
64828117,42.6266928,-71.3197853,False,0
64828144,42.6359750,-71.3050320,False,0
64828233,42.6256836,-71.3216093,True,0
64828390,42.6255573,-71.3208765,False,0
64828404,42.6322046,-71.3150094,False,0
64828476,42.6276801,-71.3233863,True,0
64828550,42.6299943,-71.3087143,False,0
64828782,42.6332320,-71.3249870,False,0
64828821,42.6319540,-71.3199600,False,0
64829027,42.6298866,-71.3226586,True,0
64829044,42.6378640,-71.3160516,True,1
64829051,42.6345500,-71.3038450,False,0
64829061,42.6295460,-71.3251370,False,0
64829100,42.6247960,-71.3247750,True,0
64829104,42.6364250,-71.3191020,False,0
64829200,42.6276212,-71.3230267,False,0
64829256,42.6314752,-71.3058086,False,0
64829342,42.6310222,-71.3224046,False,0
64829456,42.6319077,-71.3076163,False,0
64829494,42.6362440,-71.3057860,True,0
64829569,42.6266570,-71.3146870,True,0
64829583,42.6333130,-71.3404440,False,0
64829792,42.6326734,-71.3090358,True,0
64829817,42.6335838,-71.3090582,False,0
64829879,42.6318020,-71.3445680,False,0
64830003,42.6258420,-71.3184550,False,0
64830107,42.6256127,-71.3207580,False,0
64830352,42.6375223,-71.3178759,False,0
64830379,42.6328634,-71.3140525,True,0
64830475,42.6306200,-71.3067420,False,0
64830715,42.6326010,-71.3083130,False,0
64830806,42.6299684,-71.3087742,False,0
64831009,42.6345399,-71.3135674,False,0
64831097,42.6322582,-71.3040346,False,0
64831106,42.6299022,-71.3070499,True,0
64831148,42.6351006,-71.3089878,True,1
64831209,42.6348410,-71.3054020,False,0
64831290,42.6366640,-71.3176530,False,0
64831443,42.6335884,-71.3102902,False,0
64831673,42.6350790,-71.3029920,False,0
64831965,42.6312431,-71.3234069,False,0
64832001,42.6330506,-71.3132123,True,0
64832125,42.6361660,-71.3177340,False,0
64832165,42.6263968,-71.3247921,True,0
64832306,42.6197390,-71.3240880,False,0
64832459,42.6310630,-71.3226405,False,0
64832526,42.6358690,-71.3065060,True,0
64832656,42.6272340,-71.3176780,False,0
64832739,42.6195510,-71.3241570,False,0
64832754,42.6369430,-71.3065170,False,0
64832770,42.6325060,-71.3064100,False,0
64832853,42.6318750,-71.3208170,True,0
64833150,42.6264217,-71.3278349,False,0
64833159,42.6277460,-71.3171930,False,0
64833165,42.6290185,-71.3058038,False,0
64833436,42.6352860,-71.3118400,True,0
64833454,42.6251830,-71.3174560,False,0
64833575,42.6340838,-71.3148722,True,0
64834096,42.6268698,-71.3197062,False,0
64834101,42.6362910,-71.3177820,False,0
64834178,42.6357370,-71.3224920,False,0
64834234,42.6341380,-71.3060620,True,0
64834311,42.6272010,-71.3156804,False,0
64834520,42.6274187,-71.3194270,False,0
64834589,42.6322632,-71.3222409,True,0
64834607,42.6312613,-71.3059071,False,0
64834794,42.6248010,-71.3245380,False,0
64835060,42.6330215,-71.3137875,True,4
64835144,42.6331930,-71.3245030,False,0
64835242,42.6320130,-71.3199500,False,0
64835358,42.6259594,-71.3197681,False,0
64835597,42.6343220,-71.3179650,False,0
64835884,42.6334131,-71.3126468,False,0
64835912,42.6324794,-71.3069431,True,0
64835959,42.6289466,-71.3081792,True,0
64836078,42.6299410,-71.3291390,False,0
64836095,42.6343128,-71.3110226,True,0
64836306,42.6347777,-71.3104791,False,0
64836384,42.6256503,-71.3201303,False,0
64836520,42.6351480,-71.3175160,False,0
64836588,42.6334794,-71.3160308,False,0
64836664,42.6338250,-71.3364670,False,0
64836714,42.6361600,-71.3209260,False,0
64836879,42.6248870,-71.3247810,False,0
64836889,42.6271338,-71.3195814,False,0
64836945,42.6306040,-71.3068210,False,0
64837047,42.6346484,-71.3111791,True,0
64837079,42.6289061,-71.3196176,False,0
64837409,42.6377055,-71.3170669,False,0
64837440,42.6319190,-71.3098190,True,0
64837572,42.6309180,-71.2999730,True,0
64837813,42.6277026,-71.3058966,False,0
64837925,42.6334160,-71.3053710,False,0
64837975,42.6220930,-71.3239100,False,0
64838169,42.6281348,-71.3189734,False,0
64838182,42.6327835,-71.3141762,False,0
64838294,42.6287070,-71.3282110,False,0
64838410,42.6315020,-71.3211570,True,0
64838492,42.6261080,-71.3131330,False,0
64838499,42.6277210,-71.3226097,False,0
64838542,42.6268990,-71.3121590,False,0
64838742,42.6259370,-71.3030020,False,0
64838863,42.6324613,-71.3229269,True,0
64839018,42.6336930,-71.3115306,False,0
64839058,42.6330630,-71.3246910,True,0
64839389,42.6350970,-71.3116459,True,1
64839604,42.6317042,-71.3156234,False,0
64839747,42.6315691,-71.3000800,False,0
64839860,42.6270890,-71.3168710,True,0
64839880,42.6239852,-71.3008103,True,0
64839953,42.6290857,-71.3237345,False,0
64840090,42.6293650,-71.3186969,False,0
64840194,42.6298413,-71.3214057,True,0
64840365,42.6321691,-71.3147609,False,0
64840394,42.6355739,-71.3085123,True,0
64840852,42.6329010,-71.3244000,False,0
64841019,42.6368140,-71.3064720,False,0
64841265,42.6261091,-71.3197195,False,0
64841482,42.6321214,-71.3036578,False,0
64841629,42.6353700,-71.3025070,True,4
64841778,42.6308792,-71.3083090,False,0
64841859,42.6281140,-71.3046210,False,0
64841887,42.6265520,-71.3108660,False,0
64841925,42.6351165,-71.3039188,False,0
64842053,42.6332000,-71.3408240,False,0
64842256,42.6313601,-71.3156692,False,0
64842284,42.6262885,-71.3230410,False,0
64842393,42.6263928,-71.3276540,False,0
64842405,42.6339560,-71.3188580,False,0
64842528,42.6282017,-71.3221129,True,0
64842707,42.6310141,-71.3061149,True,0
64842732,42.6285480,-71.3299450,False,0
64842841,42.6254650,-71.3128310,True,0
64842881,42.6287270,-71.3279940,False,0
64843063,42.6204680,-71.3240010,False,0
64843393,42.6329730,-71.3021240,False,0
64843461,42.6235816,-71.3062449,False,0
64843632,42.6322850,-71.3193190,False,0
64843978,42.6252266,-71.3195935,False,0
64844024,42.6333460,-71.3402840,False,0
64844034,42.6362830,-71.3238600,False,0
64844120,42.6318230,-71.3008040,True,0
64844247,42.6269415,-71.3237251,False,0
64844290,42.6270529,-71.3232353,False,0
64844462,42.6275967,-71.3174781,False,0
64844742,42.6360970,-71.3223850,False,0
64844811,42.6266687,-71.2998002,False,0
64844886,42.6308610,-71.3191250,False,0
64845059,42.6283013,-71.3006511,True,0
64845175,42.6345009,-71.3137104,False,0
64845255,42.6202237,-71.3050540,False,0
64845361,42.6364050,-71.3177490,False,0
64845434,42.6319610,-71.3011910,True,0
64845464,42.6254589,-71.3201692,True,0
64845558,42.6361876,-71.3039780,False,0
64845626,42.6289974,-71.3192099,True,0
64845946,42.6322280,-71.3434310,False,0
64845991,42.6283630,-71.3316360,False,0
64846294,42.6251600,-71.3024220,False,0
64846305,42.6325920,-71.3213140,False,0
64846445,42.6302310,-71.3081720,False,0
64846618,42.6362750,-71.3249930,False,0
64846627,42.6344622,-71.3106916,True,0
64847039,42.6333980,-71.3243050,False,0
64847060,42.6331183,-71.3132638,True,0
64847283,42.6324760,-71.3206570,False,0
64847369,42.6272010,-71.3140760,True,0
64847446,42.6305862,-71.3252672,False,0
64847455,42.6288810,-71.3055293,False,0
64847460,42.6356420,-71.3040630,True,4
64847522,42.6331379,-71.3135637,False,0
64847564,42.6272414,-71.3232872,False,0
64847626,42.6230339,-71.3204256,False,0
64847750,42.6288696,-71.3077685,False,0
64847868,42.6345190,-71.3309890,False,0
64847903,42.6279480,-71.3080440,False,0
64847931,42.6307604,-71.3082599,False,0
64847971,42.6312630,-71.3182120,False,0
64848023,42.6366000,-71.3191570,False,0
64848170,42.6343699,-71.3141844,False,0
64848260,42.6311221,-71.3059577,True,0
64848298,42.6377256,-71.3221069,False,0
64848303,42.6292646,-71.3179829,False,0
64848392,42.6281190,-71.3043780,False,0
64848501,42.6268339,-71.3125807,False,0
64848546,42.6256760,-71.3129380,False,0
64848571,42.6339510,-71.3354860,False,0
64848638,42.6347520,-71.3179610,False,0
64848664,42.6206656,-71.3051882,False,0
64849003,42.6350250,-71.3231750,False,0
64849273,42.6312318,-71.3268544,False,0
64849322,42.6183860,-71.3246340,False,0
64849333,42.6360500,-71.3225530,True,0
64849396,42.6328722,-71.3091962,False,0
64849562,42.6268360,-71.3231430,False,0
64849592,42.6364670,-71.3064730,False,0
64849781,42.6223620,-71.3057755,False,0
64850030,42.6312617,-71.3263633,False,0
64850070,42.6343020,-71.3082280,False,0
64850458,42.6315779,-71.3056922,False,0
64851061,42.6273830,-71.3282260,False,0
64851139,42.6335272,-71.3127417,False,0
64851240,42.6337800,-71.3112646,False,0
64851402,42.6263159,-71.3252250,True,0
64851409,42.6272830,-71.3144930,True,0
64851636,42.6254634,-71.3207243,False,0
64851664,42.6274550,-71.3092440,False,0
64851699,42.6299682,-71.3197961,False,0
64851853,42.6222050,-71.3211530,False,0
64852019,42.6182384,-71.3247118,False,0
64852207,42.6251120,-71.3126570,False,0
64852792,42.6310110,-71.3304420,False,0
64852864,42.6319230,-71.3195490,False,0
64852875,42.6325140,-71.3135540,True,0
64852916,42.6341539,-71.3147394,False,0
64853061,42.6275240,-71.3123740,False,0
64853081,42.6338070,-71.3040850,True,0
64853367,42.6275497,-71.3193582,False,0
64853460,42.6249590,-71.3152540,False,0
64853499,42.6320002,-71.3083054,False,0
64853584,42.6349510,-71.3274680,False,0
64853592,42.6353290,-71.3190020,False,0
64853862,42.6287472,-71.3181495,True,0
64854183,42.6269550,-71.3088650,False,0
64854203,42.6337320,-71.3051380,True,0
64854241,42.6348970,-71.3176530,True,0
64854312,42.6320170,-71.3100440,False,0
64854429,42.6269480,-71.3119020,False,0
64854474,42.6343680,-71.3044930,False,0
64854751,42.6314187,-71.3082419,False,0
64854821,42.6369910,-71.3176270,False,0
64854846,42.6335982,-71.3237354,True,0
64855199,42.6307470,-71.2992300,False,0
64855222,42.6269760,-71.3145840,True,0
64855477,42.6249070,-71.3125438,True,0
64855517,42.6274777,-71.3171566,False,0
64855591,42.6283330,-71.3142080,False,0
64855689,42.6294680,-71.3264870,False,0
64855754,42.6340160,-71.3349760,False,0
64855831,42.6351560,-71.3047720,False,0
64855909,42.6282587,-71.3012664,True,0
64855980,42.6282650,-71.3166060,True,0
64856376,42.6289147,-71.3197160,False,0
64856478,42.6374271,-71.3181880,False,0
64856585,42.6338980,-71.3066420,False,0
64856960,42.6318420,-71.3194220,False,0
64856971,42.6303090,-71.2991330,False,0
64857020,42.6351440,-71.3025500,False,0
64857057,42.6311810,-71.3026190,False,0
64857261,42.6326480,-71.3082100,False,0
64857272,42.6375155,-71.3227849,False,0
64857292,42.6337867,-71.3103200,False,0
64857354,42.6260535,-71.3100738,True,0
64857381,42.6283622,-71.3184831,False,0
64857407,42.6267999,-71.3134292,False,0
64857445,42.6362950,-71.3217480,True,0
64857548,42.6281650,-71.3029580,True,0
64857751,42.6268226,-71.3136353,False,0
64857775,42.6273000,-71.3296770,False,0
64857995,42.6356747,-71.3098748,False,0
64858037,42.6271970,-71.3011820,True,0
64858176,42.6302929,-71.3004363,True,0
64858257,42.6332600,-71.3250510,False,2
64858326,42.6383935,-71.3237417,False,0
64858494,42.6249870,-71.3194658,False,0
64858741,42.6320284,-71.3221257,False,0
64858757,42.6312454,-71.3234897,True,0
64858950,42.6317530,-71.3210190,False,0
64859041,42.6369700,-71.3065290,False,0
64859113,42.6321050,-71.3213960,False,0
64859298,42.6306539,-71.3240977,True,0
64859332,42.6325590,-71.3145047,False,0
64859353,42.6271739,-71.3312636,False,0
64859706,42.6318770,-71.3205590,False,0
64859729,42.6320089,-71.3083939,False,0
64859737,42.6279420,-71.3294070,False,0
64859855,42.6167870,-71.3254660,False,1
64859876,42.6337012,-71.3104677,False,0
64859885,42.6333018,-71.3035900,True,0
64859896,42.6321621,-71.3037326,True,0
64860025,42.6299718,-71.3199648,False,0
64860050,42.6253128,-71.3213953,True,0
64860122,42.6278584,-71.3080206,False,0
64860165,42.6319770,-71.3099600,False,0
64860241,42.6320950,-71.3018260,False,0
64860337,42.6337800,-71.3208710,True,0
64860794,42.6250670,-71.3248580,False,0
64860813,42.6303050,-71.2991320,False,0
64860888,42.6324010,-71.3212850,False,0
64861070,42.6244291,-71.3200248,False,0
64861165,42.6328830,-71.3056470,True,0
64861268,42.6327390,-71.3139277,True,0
64861290,42.6283189,-71.3232532,False,0
64861533,42.6289057,-71.3195225,False,0
64861599,42.6336710,-71.3237507,False,0
64861830,42.6288050,-71.3266490,False,0
64861982,42.6266690,-71.3145720,False,0
64861990,42.6331260,-71.3207730,True,0
64862260,42.6377544,-71.3167330,False,0
64862517,42.6314641,-71.2998179,False,0
64862585,42.6266790,-71.3195000,False,0
64862592,42.6346560,-71.3055950,False,0
64862605,42.6363050,-71.3199950,False,0
64862653,42.6285050,-71.3304250,False,0
64862862,42.6290134,-71.3005255,False,0
64862872,42.6335000,-71.3208570,False,0
64862898,42.6304970,-71.3081900,False,0
64862990,42.6270562,-71.3191936,False,0
64863198,42.6351660,-71.3182170,False,0
64863228,42.6271200,-71.3177580,False,0
64863239,42.6363370,-71.3225990,False,0
64863286,42.6292175,-71.3066180,False,0
64863411,42.6369060,-71.3165510,False,0
64863452,42.6319290,-71.3195980,False,0
64863474,42.6263422,-71.3272682,False,0
64863537,42.6362360,-71.3219350,False,0
64863646,42.6264491,-71.3244573,False,0
64863678,42.6328270,-71.3107560,True,0
64863769,42.6346230,-71.3301670,False,0
64863913,42.6367240,-71.3192320,False,0
64864148,42.6280366,-71.3060642,False,0
64864166,42.6311523,-71.3162011,False,0
64864266,42.6281430,-71.3036310,True,0
64864652,42.6346200,-71.3036210,False,0
64864904,42.6330840,-71.3199780,False,0
64864913,42.6247730,-71.3240880,False,0
64865099,42.6240942,-71.3237169,False,0
64865134,42.6333003,-71.3081128,False,0
64865449,42.6318930,-71.3209640,False,0
64865459,42.6324180,-71.3018940,False,0
64865740,42.6340560,-71.3346510,False,0
64866339,42.6294853,-71.3068686,False,0
64866434,42.6283720,-71.3164850,False,0
64866767,42.6262559,-71.3196664,False,0
64866872,42.6262362,-71.3257189,False,0
64867144,42.6331040,-71.3201440,False,0
64867280,42.6314470,-71.3217100,False,0
64867348,42.6307278,-71.3209939,False,0
64867412,42.6337860,-71.3367750,False,0
64867457,42.6356580,-71.3241190,False,0
64867615,42.6282799,-71.3056325,False,0
64867641,42.6318611,-71.3068541,True,0
64867725,42.6215466,-71.3054550,False,0
64867784,42.6251730,-71.2996320,False,0
64867798,42.6264905,-71.3281989,False,0
64867909,42.6350080,-71.3181340,False,0
64867931,42.6251020,-71.3023650,False,0
64868165,42.6297990,-71.3024670,False,0
64868297,42.6282467,-71.3185798,False,0
64868555,42.6332191,-71.3130594,False,0
64868727,42.6273690,-71.3149930,False,0
64868896,42.6333097,-71.3133860,True,0
64868944,42.6288720,-71.3254700,False,0
64869068,42.6327380,-71.3420750,False,0
64869135,42.6339919,-71.3105069,False,0
64869173,42.6263674,-71.3274801,False,0
64869308,42.6271063,-71.3192991,False,0
64869424,42.6274029,-71.3167465,True,0
64869522,42.6368770,-71.3064900,False,0
64870045,42.6305399,-71.3260948,False,0
64870137,42.6356200,-71.3224880,True,0
64870583,42.6284109,-71.2992289,False,0
64870693,42.6320802,-71.3148707,False,0
64871095,42.6327840,-71.3188420,False,0
64871153,42.6289240,-71.3158690,False,0
64871279,42.6367540,-71.3202900,False,0
64871587,42.6280600,-71.3278400,False,0
64871817,42.6359130,-71.3068810,False,0
64871894,42.6269667,-71.3305866,False,0
64872016,42.6269090,-71.3303288,False,0
64872425,42.6324710,-71.3206590,False,0
64872663,42.6328800,-71.3187740,False,0
64872786,42.6371674,-71.3219746,False,0
64873150,42.6347950,-71.3028730,True,0
64873243,42.6347320,-71.3055430,False,0
64873392,42.6230000,-71.3238460,False,0
64873492,42.6248920,-71.2986400,False,0
64873621,42.6307961,-71.3101474,True,0
64873719,42.6337040,-71.3374170,False,0
64873758,42.6337670,-71.3227210,True,0
64873815,42.6309810,-71.2993290,False,0
64873936,42.6344934,-71.3040425,True,0
64873983,42.6200487,-71.3050011,False,0
64874035,42.6286726,-71.3219098,True,0
64874158,42.6294240,-71.3221691,False,0
64874303,42.6301944,-71.3019365,False,0
64874448,42.6332557,-71.3080213,False,0
64874548,42.6275096,-71.3172851,False,0
64874686,42.6255015,-71.3209909,True,0
64874714,42.6320480,-71.3100870,False,0
64874727,42.6252510,-71.2999310,False,0
64874772,42.6330070,-71.3245940,False,0
64874870,42.6350350,-71.3029740,True,0
64875138,42.6343879,-71.3141204,True,0
64875201,42.6237661,-71.3112857,False,0
64875322,42.6303300,-71.3081710,False,0
64875410,42.6274880,-71.3156040,False,0
64875474,42.6376600,-71.3173039,False,0
64875599,42.6365524,-71.3167434,True,0
64875703,42.6318510,-71.3154520,False,0
64875818,42.6252145,-71.3249703,False,0
64875890,42.6273073,-71.3318416,False,0
64875933,42.6308370,-71.3168940,False,0
64876017,42.6331200,-71.3181690,False,0
64876124,42.6335660,-71.3242180,False,0
64876181,42.6282700,-71.3324370,False,0
64876208,42.6321887,-71.3037978,False,0
64876437,42.6324405,-71.3146806,False,0
64876479,42.6276320,-71.3116620,True,0
64876697,42.6264463,-71.3243459,False,0
64876703,42.6276170,-71.3162260,False,0
64876717,42.6266520,-71.3004567,False,0
64876722,42.6252333,-71.3001717,True,4
64876882,42.6294600,-71.3226780,False,0
64876982,42.6294811,-71.3014014,True,0
64877022,42.6352510,-71.3225110,False,0
64877038,42.6232760,-71.3238290,False,0
64877094,42.6334738,-71.3237940,False,0
64877171,42.6267881,-71.3131596,False,0
64877184,42.6315152,-71.2999398,False,0
64877222,42.6267805,-71.3239334,True,0
64877236,42.6351930,-71.3061950,False,0
64877281,42.6369580,-71.3196270,False,0
64877566,42.6332362,-71.3133448,True,0
64877591,42.6338730,-71.3199070,True,0
64877680,42.6334090,-71.3053750,True,0
64877731,42.6306880,-71.3025750,True,0
64877757,42.6367560,-71.3064630,False,0
64877791,42.6289438,-71.3182935,True,0
64878372,42.6329663,-71.3171459,True,0
64878383,42.6345459,-71.3135454,True,0
64878519,42.6312318,-71.3252965,False,0
64878561,42.6330317,-71.3095003,True,1
64878629,42.6228860,-71.3206320,False,0
64878769,42.6327748,-71.3091077,False,0
64878845,42.6230060,-71.3206520,False,0
64878854,42.6274430,-71.3174990,False,0
64879258,42.6274469,-71.3190051,False,0
64879288,42.6273700,-71.3127130,False,0
64879351,42.6335812,-71.3099544,False,0
64879388,42.6283095,-71.3005512,True,0
64879471,42.6270034,-71.3307121,False,0
64879558,42.6274170,-71.3094430,False,0
64879936,42.6310690,-71.3191850,False,0
64879992,42.6358340,-71.3046210,True,0
64880233,42.6292910,-71.3226870,True,0
64880502,42.6273330,-71.3291260,False,0
64881004,42.6318720,-71.3207710,False,0
64881013,42.6353550,-71.3099058,False,0
64881020,42.6337473,-71.3113880,False,0
64881109,42.6274200,-71.3276040,False,0
64881193,42.6300280,-71.3280700,False,0
64881254,42.6353738,-71.3089794,True,0
64881411,42.6332110,-71.3183240,False,0
64881530,42.6287985,-71.3218555,True,0
64881705,42.6319296,-71.3221488,False,0
64881806,42.6354130,-71.3224910,False,0
64881942,42.6326935,-71.3068005,False,0
64881950,42.6331821,-71.3090734,True,0
64882212,42.6258180,-71.3149560,False,0
64882790,42.6298950,-71.3088920,False,0
64882830,42.6189290,-71.3243870,False,0
64882892,42.6197176,-71.3049016,False,0
64883050,42.6302820,-71.3081700,False,0
64883067,42.6326400,-71.3140922,False,0
64883086,42.6355040,-71.3247330,False,0
64883099,42.6351010,-71.3181950,False,0
64883163,42.6242002,-71.3215045,True,0
64883295,42.6313090,-71.3025760,False,0
64883390,42.6298900,-71.3296220,False,0
64883437,42.6269313,-71.3304412,False,0
64883464,42.6245810,-71.2973780,False,0
64883507,42.6372550,-71.3248200,False,0
64883668,42.6321009,-71.3132168,True,0
64883850,42.6326140,-71.3058170,False,0
64883989,42.6326210,-71.3082500,False,0
64883997,42.6252483,-71.3218085,False,0
64884055,42.6256776,-71.3198491,False,0
64884120,42.6349520,-71.3208820,False,0
64884493,42.6263180,-71.3203265,False,0
64884635,42.6253890,-71.3151050,True,4
64885130,42.6286620,-71.3287570,False,0
64885493,42.6247090,-71.3124760,False,0
64885644,42.6272694,-71.3316091,False,0
64885710,42.6342799,-71.3144544,False,0
64885903,42.6327601,-71.3240580,False,0
64885936,42.6250535,-71.3288421,False,0
64886020,42.6355061,-71.3120620,False,0
64886031,42.6283008,-71.3229400,False,0
64886266,42.6258101,-71.3200910,False,0
64886307,42.6351960,-71.3046930,False,0
64886321,42.6316630,-71.3212060,True,0
64886375,42.6280424,-71.3080604,False,0
64886460,42.6368840,-71.3198700,False,0
64886478,42.6321580,-71.3101890,False,0
64886504,42.6374724,-71.3180400,False,0
64886511,42.6355570,-71.3245220,True,0
64886742,42.6312453,-71.2995218,False,0
64887055,42.6310407,-71.3225282,True,0
64887296,42.6272360,-71.3103550,False,0
64887300,42.6338421,-71.3079549,True,0
64887403,42.6284778,-71.3061761,True,0
64887428,42.6276720,-71.3189773,False,0
64887708,42.6335111,-71.3102015,False,0
64887722,42.6285950,-71.3295300,False,0
64887797,42.6246080,-71.3202970,False,0
64888016,42.6295304,-71.3064761,False,0
64888048,42.6362480,-71.3177790,False,0
64888415,42.6340017,-71.3077678,True,0
64888523,42.6352160,-71.3208900,False,0
64888543,42.6330010,-71.3187070,False,0
64888616,42.6334172,-71.3129752,True,0
64888746,42.6281800,-71.3258290,False,0
64888795,42.6272870,-71.3128020,True,0
64888817,42.6361550,-71.3199300,False,0
64888855,42.6267924,-71.3132918,False,0
64889336,42.6289420,-71.2995050,False,0
64889667,42.6323780,-71.3059700,True,0
64889684,42.6286160,-71.3235980,False,0
64889897,42.6273364,-71.3320975,False,0
64889943,42.6280630,-71.3162200,False,0
64890248,42.6260706,-71.3030831,True,0
64890257,42.6265510,-71.3074784,True,0
64890286,42.6284000,-71.3313160,False,0
64890294,42.6281370,-71.3163850,False,0
64890339,42.6285061,-71.3183660,True,0
64890446,42.6356830,-71.3250890,False,0
64890641,42.6288575,-71.3076525,False,0
64890658,42.6376344,-71.3174319,False,0
64890661,42.6272469,-71.3192257,False,0
64890857,42.6336460,-71.3023960,True,0
64890876,42.6351960,-71.3025220,False,0
64891015,42.6341640,-71.3338010,False,1
64891187,42.6267691,-71.3275207,False,0
64891245,42.6253657,-71.3100987,False,0
64891266,42.6336220,-71.3183530,False,0
64891392,42.6282835,-71.3188617,False,0
64891625,42.6344270,-71.3198950,True,0
64891677,42.6350570,-71.3266970,False,0
64891825,42.6308450,-71.3171890,False,0
64891844,42.6368520,-71.3176120,False,0
64891933,42.6325110,-71.3212800,False,0
64891946,42.6299096,-71.3233044,True,0
64892101,42.6310002,-71.3208997,False,0
64892273,42.6311890,-71.3275595,False,0
64892300,42.6231200,-71.3238390,False,0
64892385,42.6331200,-71.3410550,False,0
64892477,42.6249880,-71.3163550,False,0
64892493,42.6367790,-71.3249000,False,0
64892603,42.6255909,-71.3207055,False,0
64892613,42.6275650,-71.3121010,False,0
64892644,42.6314050,-71.3025170,False,0
64892669,42.6273420,-71.3322030,False,0
64892784,42.6319811,-71.3152959,False,0
64892863,42.6253672,-71.3205150,True,0
64893210,42.6311880,-71.3005680,False,0
64893290,42.6268826,-71.3131790,False,0
64893312,42.6314058,-71.2997054,False,0
64893469,42.6284560,-71.3308380,False,0
64893568,42.6295486,-71.3003483,True,0
64893732,42.6281340,-71.3266430,False,0
64893916,42.6267958,-71.3129096,False,0
64894024,42.6249940,-71.3248170,False,0
64894109,42.6269580,-71.3178580,False,0
64894129,42.6327970,-71.3228610,True,0
64894388,42.6334670,-71.3393490,False,0
64894515,42.6357020,-71.3208920,False,0
64894538,42.6224570,-71.3238860,False,0
64894614,42.6364490,-71.3249670,False,0
64894836,42.6272106,-71.3313828,False,0
64894946,42.6301053,-71.3063456,True,0
64894954,42.6310630,-71.3294640,False,0
64895144,42.6337506,-71.3237808,False,0
64895171,42.6358070,-71.3032920,True,0
64895182,42.6312324,-71.3233411,False,0
64895315,42.6358900,-71.3190480,False,0
64895435,42.6334780,-71.3392540,False,0
64895452,42.6335634,-71.3084341,True,0
64895656,42.6307660,-71.3005050,True,0
64895717,42.6312590,-71.3182110,True,0
64895782,42.6315750,-71.3154440,False,0
64895842,42.6318100,-71.3209240,False,0
64895869,42.6281800,-71.3053110,True,0
64895873,42.6323760,-71.3430420,False,0
64895992,42.6274570,-71.3092390,True,0
64896095,42.6282110,-71.3253020,False,0
64896100,42.6272885,-71.3317166,False,0
64896164,42.6287640,-71.3272660,False,0
64896216,42.6267140,-71.3169830,True,0
64896324,42.6267891,-71.3130766,True,0
64896345,42.6291123,-71.3185846,True,0
64896354,42.6377826,-71.3068864,False,0
64896423,42.6283149,-71.3230936,False,0
64896626,42.6260837,-71.3230237,True,1
64896719,42.6300042,-71.3086578,False,0
64896748,42.6303640,-71.3081710,False,0
64896885,42.6253826,-71.3199172,True,0
64896951,42.6299210,-71.3292910,False,0
64897113,42.6316970,-71.3212150,False,0
64897256,42.6320100,-71.3213670,True,0
64897410,42.6249192,-71.3189708,True,0
64897419,42.6249273,-71.3202687,False,0
64897657,42.6299510,-71.3290560,False,0
64897755,42.6359170,-71.3208950,False,0
64897804,42.6271230,-71.3129905,False,0
64897936,42.6327650,-71.3224040,False,0
64897994,42.6231211,-71.3110394,False,0
64898100,42.6288662,-71.3005994,False,0
64898137,42.6343390,-71.3064100,False,0
64898146,42.6295740,-71.3310710,False,0
64898254,42.6317780,-71.3193910,False,0
64898270,42.6233580,-71.3238220,False,0
64898337,42.6316020,-71.3087950,False,0
64898391,42.6367520,-71.3238330,False,0
64898450,42.6330680,-71.3060980,True,0
64898602,42.6318377,-71.3064950,False,0
64898605,42.6222810,-71.3200553,False,0
64898646,42.6324070,-71.3004460,False,0
64898658,42.6288710,-71.3078800,False,0
64898693,42.6265973,-71.3132326,False,0
64898990,42.6366670,-71.3056120,False,0
64899025,42.6282840,-71.3242500,False,0
64899055,42.6246560,-71.2971620,False,0
64899065,42.6219580,-71.3239190,False,0
64899112,42.6329510,-71.3415100,False,0
64899212,42.6344010,-71.3319130,False,0
64899357,42.6320969,-71.3101318,True,0
64899419,42.6338040,-71.3366350,False,0
64899441,42.6251106,-71.3196149,True,1
64899454,42.6264720,-71.3112490,True,0
64899480,42.6346750,-71.3033920,False,0
64899486,42.6326090,-71.3189970,False,0
64899609,42.6318740,-71.3206840,False,0
64899688,42.6325770,-71.3228970,False,0
64899738,42.6266728,-71.3132373,False,0
64899784,42.6343566,-71.3105973,True,0
64899872,42.6321770,-71.3017205,True,0
64899925,42.6245954,-71.3066660,True,0
64900055,42.6268058,-71.3127831,False,0
64900439,42.6222690,-71.3208390,False,0
64900462,42.6240240,-71.3214620,True,0
64900554,42.6316730,-71.3153400,False,0
64900616,42.6350140,-71.3269530,False,0
64900621,42.6332790,-71.3185480,True,1
64900674,42.6289145,-71.3194546,False,0
64900689,42.6311934,-71.3243735,False,0
64900776,42.6296287,-71.3239170,True,0
64900803,42.6361346,-71.3006829,False,0
64900807,42.6346652,-71.3068812,True,0
64900873,42.6288383,-71.3221319,False,0
64900899,42.6305861,-71.3072092,True,0
64900920,42.6226400,-71.3238740,False,0
64901025,42.6338591,-71.3102399,False,0
64901044,42.6328531,-71.3069428,False,0
64901103,42.6254420,-71.3240150,False,0
64901147,42.6258657,-71.3109980,True,0
64901257,42.6299390,-71.3088230,False,0
64901266,42.6357560,-71.3173870,False,0
64901301,42.6281630,-71.3030200,False,0
64901507,42.6325198,-71.3068992,False,0
64901593,42.6211900,-71.3239450,False,0
64901659,42.6267622,-71.3295656,False,0
64901726,42.6275916,-71.3054239,False,0
64901904,42.6286480,-71.3289670,False,0
64901935,42.6249342,-71.3195746,False,0
64901981,42.6370390,-71.3193760,False,0
64902288,42.6232495,-71.3204378,False,0
64902366,42.6343680,-71.3079430,True,0
64902571,42.6322050,-71.3213310,False,0
64902582,42.6245169,-71.3236282,False,0
64902645,42.6332964,-71.3128966,True,0
64902704,42.6272414,-71.3315003,False,0
64902842,42.6277718,-71.3222967,True,0
64902945,42.6296860,-71.3308030,False,0
64902994,42.6303461,-71.3096580,True,0
64902999,42.6301924,-71.3189463,True,0
64903089,42.6300106,-71.3081837,True,0
64903115,42.6333240,-71.3191460,False,0
64903136,42.6282076,-71.3022760,True,0
64903179,42.6301520,-71.3260380,False,0
64903190,42.6353520,-71.3040130,False,0
64903259,42.6268772,-71.3256976,False,0
64903275,42.6314075,-71.3058550,False,0
64903303,42.6318800,-71.3194580,False,0
64903351,42.6363240,-71.3209860,False,0
64903371,42.6281650,-71.3260890,False,0
64903692,42.6353383,-71.3099808,False,0
64903775,42.6265520,-71.3195520,False,0
64903803,42.6348009,-71.3126524,True,0
64903836,42.6297646,-71.3090909,True,0
64903949,42.6336750,-71.3376450,False,0
64904181,42.6293860,-71.3278260,False,0
64904284,42.6259390,-71.3143700,False,0
64904323,42.6320950,-71.3195270,False,0
64904340,42.6275410,-71.3135110,False,0
64904344,42.6317710,-71.3160320,True,0
64904512,42.6313590,-71.3175270,True,0
64904597,42.6266675,-71.3201236,False,0
64904642,42.6345519,-71.3135244,False,0
64904677,42.6302827,-71.3240561,True,0
64904799,42.6291512,-71.3192561,False,0
64904969,42.6255600,-71.3124000,False,0
64904989,42.6365150,-71.3191270,False,0
64905047,42.6351860,-71.3054200,True,0
64905092,42.6223350,-71.3206880,False,0
64905251,42.6276795,-71.3175584,False,0
64905332,42.6302510,-71.3009976,True,0
64905424,42.6252064,-71.3271614,False,0
64905530,42.6302010,-71.3145860,False,0
64905578,42.6288414,-71.3053298,False,0
64905615,42.6262484,-71.3263270,False,0
64905629,42.6264351,-71.3242513,False,0
64905656,42.6262512,-71.3256183,False,0
64905669,42.6341060,-71.3060030,False,0
64905672,42.6295260,-71.3254760,False,0
64905753,42.6375976,-71.3175888,False,0
64905762,42.6307100,-71.3065740,False,0
64905851,42.6296400,-71.3308630,False,0
64906044,42.6330220,-71.3197530,False,0
64906173,42.6357275,-71.3122687,False,0
64906303,42.6213673,-71.3053971,False,0
64906339,42.6335540,-71.3057450,True,0
64906369,42.6314431,-71.3085653,True,0
64906379,42.6276830,-71.3167290,False,0
64906392,42.6253659,-71.3217503,True,0
64906403,42.6337250,-71.3214490,True,0
64906469,42.6366490,-71.3064640,False,0
64906479,42.6275306,-71.3190630,False,0
64906602,42.6309593,-71.3208636,False,0
64906645,42.6314779,-71.3155513,False,0
64906757,42.6274960,-71.3124810,False,0
64906795,42.6273552,-71.3233162,True,0
64906835,42.6349140,-71.3235620,False,0
64906846,42.6324710,-71.3191320,False,0
64906908,42.6327206,-71.3239138,False,0
64907091,42.6265354,-71.3198493,False,0
64907435,42.6272453,-71.3005299,True,0
64907491,42.6233566,-71.3204447,False,0
64907642,42.6238104,-71.3237732,False,0
64907763,42.6256740,-71.3118650,False,0
64907905,42.6307650,-71.3170910,False,0
64907959,42.6262200,-71.3124660,False,0
64907995,42.6352800,-71.3061440,False,0
64908156,42.6321040,-71.3015860,False,0
64908195,42.6264617,-71.3230458,False,0
64908215,42.6230650,-71.3206880,False,0
64908227,42.6241807,-71.3064951,False,0
64908598,42.6281930,-71.3053670,False,0
64908629,42.6362470,-71.3209520,False,0
64908634,42.6318790,-71.3208560,False,0
64908692,42.6357740,-71.3236120,False,0
64908909,42.6290430,-71.2995710,False,0
64909068,42.6330165,-71.3134571,False,0
64909403,42.6298130,-71.3302170,False,0
64909529,42.6264633,-71.3193883,False,0
64909555,42.6218274,-71.3239240,False,0
64909572,42.6326800,-71.3143313,False,0
64909646,42.6364060,-71.3184200,False,0
64909810,42.6360690,-71.3250320,False,0
64909906,42.6304932,-71.3211246,False,0
64909916,42.6352460,-71.3182370,False,0
64910016,42.6281210,-71.3048150,False,0
64910021,42.6360625,-71.3025229,False,0
64910049,42.6338059,-71.3111305,False,0
64910115,42.6262390,-71.3131810,False,0
64910217,42.6284732,-71.3210794,True,0
64910279,42.6349230,-71.3277250,False,0
64910312,42.6248610,-71.3235399,False,0
64910345,42.6355020,-71.3231110,False,0
64910411,42.6319060,-71.3194990,False,0
64910471,42.6277860,-71.3106650,False,0
64910543,42.6333548,-71.3081956,False,0
64910728,42.6327028,-71.3114863,True,0
64910816,42.6305550,-71.3082020,True,0
64910869,42.6304380,-71.3143880,False,0
64910917,42.6268752,-71.3139736,False,0
64911021,42.6239690,-71.3214240,True,0
64911155,42.6315349,-71.3057476,False,0
64911259,42.6294780,-71.3152600,True,0
64911314,42.6285633,-71.3081401,False,0
64911372,42.6246536,-71.3200167,False,0
64911387,42.6335184,-71.3130413,True,0
64911410,42.6340430,-71.3069660,False,0
64911463,42.6339756,-71.3000083,True,0
64911571,42.6272172,-71.3191178,False,0
64911674,42.6293284,-71.3065635,False,0
64911694,42.6257100,-71.3018150,False,0
64911708,42.6356328,-71.3089713,True,0
64911718,42.6255001,-71.3207282,False,0
64911830,42.6330500,-71.3198510,False,0
64911981,42.6335630,-71.3385520,False,0
64912046,42.6300220,-71.3147320,False,0
64912071,42.6319180,-71.3212740,False,0
64912219,42.6259407,-71.3200544,False,0
64912356,42.6273836,-71.3191458,False,0
64912421,42.6252500,-71.2999800,False,0
64912501,42.6285559,-71.3064169,False,0
64912835,42.6247255,-71.3235799,True,0
64912864,42.6284512,-71.2987413,False,0
64912901,42.6268424,-71.3131975,False,0
64912994,42.6255181,-71.3251479,False,0
64913246,42.6353330,-71.3065220,True,0
64913374,42.6298409,-71.3081949,True,0
64913426,42.6293384,-71.3238199,True,0
64913458,42.6223020,-71.3207400,False,0
64913516,42.6313257,-71.2996056,False,0
64913612,42.6345960,-71.3303800,False,0
64913621,42.6269694,-71.3131300,False,0
64913716,42.6255288,-71.3198842,False,0
64913822,42.6292212,-71.3186431,True,0
64913926,42.6274353,-71.3169321,False,0
64913974,42.6300170,-71.3282860,False,0
64914126,42.6289265,-71.3193961,False,0
64914203,42.6347900,-71.3054880,False,0
64914355,42.6316098,-71.3086386,True,0
64914366,42.6331700,-71.3182370,False,0
64914412,42.6360720,-71.3209070,False,0
64914560,42.6353680,-71.3198870,False,0
64914850,42.6341120,-71.3084930,False,0
64914913,42.6301283,-71.3081790,False,0
64914974,42.6337730,-71.3080620,False,0
64915018,42.6269178,-71.3131629,False,0
64915029,42.6325700,-71.3212840,False,0
64915141,42.6257187,-71.3206422,True,0
64915175,42.6376815,-71.3171940,False,0
64915371,42.6279090,-71.3298080,False,0
64915533,42.6275436,-71.3232490,False,0
64915876,42.6250076,-71.3193952,False,0
64915908,42.6250221,-71.3199839,True,0
64915931,42.6351670,-71.3045120,False,0
64916098,42.6261340,-71.3128470,False,0
64916119,42.6264060,-71.3170760,True,0
64916191,42.6250409,-71.3117673,True,0
64916363,42.6256790,-71.3167240,False,0
64916388,42.6336720,-71.3060450,False,0
64916415,42.6321493,-71.3068637,False,0
64916447,42.6302239,-71.3014870,True,0
64916567,42.6338076,-71.3108301,False,0
64916654,42.6306870,-71.3180120,False,0
64916673,42.6247950,-71.3153060,True,0
64916731,42.6363460,-71.3177730,False,0
64916769,42.6267955,-71.3200382,False,0
64916826,42.6262682,-71.3255074,False,0
64916870,42.6246223,-71.3176689,False,0
64916919,42.6300950,-71.3269690,False,0
64917039,42.6322710,-71.3018150,False,0
64917119,42.6324363,-71.3090412,False,0
64917151,42.6372792,-71.3238014,False,0
64917189,42.6253150,-71.3146900,False,0
64917335,42.6262160,-71.3141730,False,0
64917507,42.6329460,-71.3228370,False,0
64917572,42.6282290,-71.3204420,False,0
64917586,42.6234980,-71.3238100,False,0
64917678,42.6349550,-71.3051940,True,0
64918036,42.6277617,-71.3176276,False,0
64918049,42.6355752,-71.3110041,False,0
64918221,42.6269330,-71.3143400,False,0
64918494,42.6328961,-71.3136664,True,4
64918512,42.6271020,-71.3031800,True,0
64918696,42.6284910,-71.3235670,False,0
64918725,42.6293650,-71.3039280,False,0
64918753,42.6340390,-71.3104466,True,0
64918824,42.6351230,-71.3026210,False,0
64918982,42.6296800,-71.3150540,False,0
64919167,42.6367970,-71.3176120,False,0
64919196,42.6364430,-71.3212820,False,0
64919229,42.6236680,-71.3237960,False,0
64919311,42.6374524,-71.3067327,False,0
64919663,42.6357120,-71.3238850,True,0
64919679,42.6299341,-71.3239890,True,0
64920168,42.6302222,-71.3095762,False,0
64920285,42.6283160,-71.3235270,True,0
64920326,42.6297470,-71.3307750,False,0
64920411,42.6320400,-71.3018730,False,0
64920489,42.6303190,-71.2998240,False,0
64920723,42.6250249,-71.3193299,True,0
64920792,42.6194103,-71.3048084,False,0
64921041,42.6340120,-71.3042800,False,0
64921049,42.6283080,-71.3204050,True,0
64921165,42.6247850,-71.3242660,True,0
64921192,42.6319894,-71.3068411,False,0
64921501,42.6327120,-71.3176977,True,0
64921561,42.6314379,-71.3159148,False,0
64921604,42.6377293,-71.3169139,False,0
64921619,42.6252420,-71.2998360,False,0
64921641,42.6305835,-71.3210831,False,0
64921751,42.6299471,-71.3063632,True,0
64921890,42.6351310,-71.3263770,False,0
64921963,42.6252420,-71.3206308,False,0
64921995,42.6255319,-71.3207242,False,0
64922072,42.6356050,-71.3214240,False,0
64922224,42.6283524,-71.2999877,True,0
64922432,42.6281340,-71.3038920,False,0
64922584,42.6199540,-71.3240430,False,0
64922591,42.6261652,-71.3031185,False,0
64922613,42.6332729,-71.3090738,True,4
64922729,42.6286790,-71.3285150,False,0
64922835,42.6366160,-71.3056350,False,0
64922919,42.6323117,-71.3185950,True,0
64923046,42.6286830,-71.3068909,True,0
64923270,42.6236793,-71.3062855,False,0
64923578,42.6316780,-71.3193580,False,0
64923614,42.6247776,-71.3200087,False,0
64923671,42.6318278,-71.3063507,True,0
64923856,42.6254740,-71.3173610,False,0
64924046,42.6313510,-71.3175130,False,0
64924210,42.6319490,-71.3211780,False,0
64924660,42.6274670,-71.3125780,False,0
64924671,42.6253591,-71.3195680,True,0
64924745,42.6259589,-71.3072324,True,0
64924802,42.6362080,-71.3177650,False,0
64924825,42.6339120,-71.3213900,False,0
64924930,42.6322679,-71.3146276,False,0
64925125,42.6253002,-71.3205943,False,0
64925189,42.6290822,-71.3061137,True,4
64925195,42.6308110,-71.3169260,False,0
64925374,42.6315678,-71.3157761,False,0
64925401,42.6283363,-71.3001767,True,0
64925514,42.6270039,-71.3236633,True,0
64925535,42.6335357,-71.3237522,False,0
64925651,42.6277329,-71.3079694,True,0
64925666,42.6364590,-71.3177290,False,0
64925722,42.6306410,-71.3032520,False,0
64925793,42.6375697,-71.3177022,True,0
64925987,42.6322870,-71.3212960,False,0
64926102,42.6269625,-71.3231983,False,0
64926167,42.6247870,-71.3243090,False,0
64926249,42.6296212,-71.3233206,False,0
64926263,42.6326890,-71.3189130,False,0
64926302,42.6250044,-71.3196313,False,0
64926482,42.6258190,-71.3198091,False,0
64926845,42.6332740,-71.3406140,False,0
64926879,42.6328405,-71.3242776,True,0
64926926,42.6320468,-71.3068441,False,0
64927158,42.6279699,-71.3190894,False,0
64927533,42.6299113,-71.3069005,True,4
64927601,42.6342410,-71.3026420,True,0
64927715,42.6330071,-71.3108975,False,0
64927739,42.6299760,-71.3177871,True,0
64927773,42.6302080,-71.3032310,False,0
64927816,42.6263920,-71.3240911,True,0
64927910,42.6280110,-71.3285080,False,0
64927935,42.6354500,-71.3024990,False,0
64927982,42.6316050,-71.3088680,False,0
64928030,42.6307810,-71.3169830,False,0
64928174,42.6234615,-71.3204555,False,0
64928212,42.6282240,-71.3054740,False,0
64928299,42.6342088,-71.3109133,True,0
64928356,42.6349740,-71.3272340,False,0
64928448,42.6355430,-71.3224850,False,0
64928471,42.6212338,-71.3053581,False,0
64928505,42.6278187,-71.3191892,False,0
64928533,42.6369180,-71.3176150,False,0
64928542,42.6279220,-71.3155380,False,0
64928602,42.6253150,-71.3250460,False,0
64928743,42.6307930,-71.3171450,False,0
64928790,42.6262218,-71.3259949,False,0
64928808,42.6268850,-71.3179020,True,0
64928830,42.6266818,-71.3230806,False,0
64928845,42.6322040,-71.3097520,False,0
64928884,42.6223880,-71.3206560,False,0
64928896,42.6328233,-71.3068760,False,0
64928936,42.6351080,-71.3062990,False,0
64928981,42.6243183,-71.3154639,False,0
64929060,42.6268130,-71.3179450,False,0
64929099,42.6343640,-71.3046200,True,0
64929128,42.6221870,-71.3212420,False,0
64929147,42.6348460,-71.3284020,False,0
64929177,42.6311060,-71.3026250,False,0
64929472,42.6337502,-71.3105796,False,0
64929523,42.6329650,-71.3195810,False,0
64929816,42.6336270,-71.3208730,False,0
64929905,42.6285857,-71.3186162,False,0
64929913,42.6268984,-71.3192568,False,0
64929976,42.6306575,-71.3082266,False,0
64930086,42.6358620,-71.3171180,False,0
64930253,42.6326940,-71.3081680,False,0
64930269,42.6272762,-71.3195089,False,0
64930276,42.6310604,-71.2993772,True,0
64930308,42.6226800,-71.3238710,False,0
64930353,42.6320590,-71.3014640,False,0
64930394,42.6252120,-71.3234002,True,0
64930409,42.6345450,-71.3307860,False,0
64930525,42.6311890,-71.3241547,True,0
64930552,42.6326433,-71.3068171,False,0
64930582,42.6342339,-71.3145674,False,0
64930595,42.6299770,-71.3287660,False,0
64930875,42.6253791,-71.3207875,False,0
64930940,42.6262251,-71.3258536,False,0
64930998,42.6261111,-71.3031050,False,0
64931044,42.6358050,-71.3059430,True,0
64931065,42.6318232,-71.3221918,False,0
64931088,42.6321360,-71.3018100,False,0
64931132,42.6336440,-71.3074803,True,0
64931150,42.6382537,-71.3071224,False,0
64931210,42.6323216,-71.3133973,True,0
64931282,42.6263270,-71.3147920,True,0
64931312,42.6324582,-71.3143584,False,0
64931448,42.6294970,-71.3259790,False,0
64931591,42.6319165,-71.3077149,False,0
64931695,42.6311884,-71.3242524,False,0
64931906,42.6342290,-71.3062260,False,0
64931993,42.6256118,-71.3213615,True,0
64932002,42.6257462,-71.3071441,True,0
64932086,42.6313640,-71.3176300,False,0
64932349,42.6347730,-71.3289760,False,0
64932417,42.6281840,-71.3164670,False,0
64932616,42.6361913,-71.3089601,True,0
64932785,42.6216550,-71.3239310,False,0
64932800,42.6362420,-71.3190820,False,0
64932864,42.6353637,-71.3098313,True,4
305057623,42.6365264,-71.3141726,False,0
305057729,42.6363321,-71.3142122,False,0
305057731,42.6361784,-71.3141743,False,0
305057732,42.6358719,-71.3140169,True,0
305057733,42.6366711,-71.3142464,False,0
305058038,42.6357846,-71.3141746,True,0
327279052,42.6231366,-71.3207507,True,0
327301516,42.6254713,-71.3210152,False,0
328288004,42.6294739,-71.3075106,False,0
328292720,42.6352041,-71.3043991,False,0
328577612,42.6353332,-71.3043612,False,0
328587893,42.6355497,-71.3041442,False,0
328593003,42.6357036,-71.3042709,False,0
328598534,42.6298728,-71.3075479,False,0
328605669,42.6354035,-71.3044318,False,0
328641599,42.6294642,-71.3066477,False,0
328657237,42.6311734,-71.3059882,False,0
328664276,42.6317687,-71.3062689,False,0
328678259,42.6290751,-71.3068512,False,0
328685115,42.6291637,-71.3072695,False,0
328690512,42.6294608,-71.3071873,False,0
328727181,42.6323780,-71.3185417,False,0
328740857,42.6322217,-71.3189236,False,0
328747137,42.6327336,-71.3188934,False,0
328784776,42.6320657,-71.3195871,False,0
328812024,42.6352147,-71.3040067,False,0
328818445,42.6313958,-71.3048944,False,0
328826813,42.6317163,-71.3050744,False,0
328832663,42.6352029,-71.3040584,False,0
328835451,42.6316427,-71.3198956,False,0
328839819,42.6313947,-71.3196446,False,0
328839852,42.6317893,-71.3054644,False,0
328841516,42.6311017,-71.3204637,False,0
328844684,42.6315592,-71.3198490,False,0
328847697,42.6305957,-71.3193602,False,0
329021610,42.6349774,-71.3042535,False,0
1237902708,42.6301384,-71.2991828,False,0
1237902737,42.6308635,-71.2992715,False,0
1237902742,42.6289899,-71.2989146,False,0
1237902753,42.6289583,-71.2994457,False,0
1237902767,42.6301029,-71.2997032,False,0
1237902783,42.6290333,-71.2995101,False,0
1237902787,42.6289425,-71.2993759,False,0
1359733721,42.6375236,-71.3162101,False,0
1470956594,42.6291683,-71.3186170,False,0
1470963711,42.6331963,-71.3135579,False,0
1470996403,42.6348078,-71.3089969,True,0
1471007561,42.6337037,-71.3081741,False,0
1471007564,42.6339227,-71.3078594,False,0
1471033644,42.6322674,-71.3088624,False,0
1471033645,42.6325661,-71.3091032,False,0
1471033647,42.6327950,-71.3092614,False,0
1471033648,42.6330247,-71.3093495,True,1
1471033652,42.6322565,-71.3089579,True,0
1471033654,42.6329592,-71.3134898,False,0
1471033656,42.6320915,-71.3088750,False,0
1471033658,42.6328917,-71.3093553,False,0
1471033661,42.6326886,-71.3091763,False,0
1471170969,42.6332234,-71.3095740,True,0
1471170971,42.6282612,-71.3189241,False,0
1471170972,42.6346974,-71.3105481,False,0
1471170974,42.6326110,-71.3092170,False,0
1471170977,42.6347315,-71.3105073,False,0
1471170986,42.6256729,-71.3215723,True,0
1471170990,42.6290456,-71.3178603,False,0
1471170993,42.6333663,-71.3088050,True,0
1471170994,42.6327511,-71.3093511,False,0
1471170997,42.6278867,-71.3192376,False,0
1471171007,42.6332428,-71.3094407,True,2
1471171008,42.6333097,-71.3089728,False,0
1471171009,42.6334074,-71.3097804,False,0
1471171011,42.6281100,-71.3190625,False,0
1471171014,42.6329740,-71.3094383,True,1
1471171022,42.6324889,-71.3091105,False,0
1471213472,42.6288761,-71.3236666,True,0
1471213475,42.6288259,-71.3220003,False,0
1471213479,42.6326772,-71.3243027,False,0
1471213482,42.6265980,-71.3242532,False,0
1471213489,42.6264879,-71.3244848,False,0
1471213493,42.6327677,-71.3242996,False,0
1471213494,42.6309492,-71.3209697,False,0
1471213496,42.6276397,-71.3241439,False,0
1471213498,42.6264401,-71.3246181,True,0
1471213507,42.6301016,-71.3240258,True,0
1471213508,42.6268313,-71.3238556,False,0
1471213510,42.6309421,-71.3208883,False,0
1471213511,42.6275027,-71.3233477,True,0
1471213513,42.6268833,-71.3237867,False,0
1471213515,42.6265403,-71.3243691,False,0
1471259280,42.6262247,-71.3230264,False,0
1471259281,42.6261457,-71.3229984,True,0
1472330400,42.6249500,-71.3190770,True,0
1472330402,42.6248957,-71.3196181,False,0
1472330403,42.6266089,-71.3193520,False,0
1472330404,42.6254277,-71.3208566,False,0
1472330406,42.6267588,-71.3193069,False,0
1472330408,42.6253400,-71.3205550,False,0
1472330412,42.6250625,-71.3196244,False,0
1472519428,42.6249695,-71.3235021,False,0
1473462364,42.6174031,-71.3204212,False,0
1473462366,42.6177726,-71.3201411,False,0
1474653274,42.6301763,-71.3064432,False,0
1474653276,42.6293500,-71.3066463,False,0
1474653279,42.6306120,-71.3063845,True,0
1474653280,42.6302809,-71.3064191,False,0
1474653282,42.6290431,-71.3060227,False,0
1474653283,42.6292397,-71.3067005,False,0
1474653284,42.6289338,-71.3056131,False,0
1474653288,42.6298744,-71.3063705,False,0
1474653289,42.6287035,-71.3069786,True,0
1474653291,42.6294423,-71.3066024,False,0
1474653293,42.6298685,-71.3064662,False,0
1474653294,42.6300163,-71.3064521,False,0
1474653296,42.6295465,-71.3065612,False,0
1474653298,42.6301052,-71.3064472,True,0
1474653304,42.6300144,-71.3063528,False,0
1474653305,42.6299438,-71.3064562,True,0
1474653306,42.6302691,-71.3063563,False,0
1474653307,42.6307284,-71.3063845,False,0
1475326998,42.6314905,-71.3062423,False,0
1475326999,42.6314839,-71.3063067,False,0
1475327000,42.6314627,-71.3061804,False,0
1475327001,42.6313841,-71.3060915,False,0
1475327002,42.6314329,-71.3061338,False,0
1475327003,42.6316574,-71.3047338,False,0
1475327005,42.6315896,-71.3047774,False,0
1475327006,42.6315656,-71.3046285,False,0
1475327007,42.6312052,-71.3059164,False,0
1475327008,42.6308860,-71.3054847,False,0
1475327009,42.6310442,-71.3050817,False,0
1477412329,42.6338523,-71.3024803,True,0
1477425531,42.6333628,-71.3022820,True,0
1477425553,42.6318181,-71.3032863,False,0
1477425554,42.6322907,-71.3041253,False,0
1481587865,42.6378382,-71.3161282,False,0
1481587866,42.6378239,-71.3161960,False,2
1482813925,42.6281512,-71.3179069,True,0
1482813967,42.6283480,-71.3180480,True,0
1483770394,42.6319174,-71.3087615,True,0
1483770395,42.6317403,-71.3086907,True,0
1483803944,42.6333083,-71.3163887,False,0
1483838343,42.6320127,-71.3192524,False,0
1484088876,42.6303042,-71.3099787,False,0
1484088882,42.6302838,-71.3096242,False,0
1484088883,42.6288636,-71.3080180,False,2
1513686626,42.6267306,-71.3132332,False,0
1513686638,42.6267803,-71.3132210,False,0
1513686670,42.6270473,-71.3130717,False,0
1513686696,42.6274958,-71.3057062,False,0
1513686698,42.6274964,-71.3057318,False,0
1513686700,42.6275043,-71.3057591,False,0
1513686703,42.6275244,-71.3055697,True,0
1513686704,42.6275311,-71.3055308,False,0
1513686706,42.6275439,-71.3054903,False,0
1513686708,42.6275585,-71.3054505,False,0
1513686712,42.6275700,-71.3054340,False,0
1513686799,42.6283214,-71.3061994,False,0
1513686814,42.6283870,-71.3062031,False,0
1513686817,42.6284174,-71.3061955,False,0
1513687418,42.6377863,-71.3164633,False,0
1642739833,42.6171166,-71.3252947,False,0
1642739868,42.6179979,-71.3248362,False,0
1642739912,42.6194880,-71.3241803,False,0
1642739923,42.6203118,-71.3240138,False,0
2916827485,42.6214568,-71.3054257,False,0
2916827486,42.6224663,-71.3058161,False,0
2916827487,42.6222578,-71.3057353,False,0
2916827488,42.6217497,-71.3055302,False,0
2916835605,42.6246975,-71.3067085,False,0
2916835610,42.6259752,-71.3060939,False,0
2916870932,42.6231806,-71.3060821,False,0
2916870933,42.6233305,-71.3061407,False,0
2939900472,42.6271328,-71.3025323,False,0
2939900473,42.6271637,-71.3018813,False,0
3236386237,42.6305128,-71.3196941,False,0
3236386238,42.6305292,-71.3196282,False,0
3236386240,42.6307615,-71.3198163,False,0
3453905694,42.6303659,-71.3152276,False,0
3453905695,42.6305201,-71.3155001,False,0
3453905793,42.6302389,-71.3145543,True,0
3453905794,42.6304167,-71.3154967,False,0
3453906093,42.6304596,-71.3152908,False,0
3453906094,42.6305782,-71.3154075,False,0
3453906293,42.6305454,-71.3153286,False,0
4143851176,42.6294160,-71.3024167,True,0
4222229605,42.6268698,-71.3301252,False,0
4222229621,42.6271200,-71.3310893,False,0
4825764079,42.6262179,-71.3031236,False,0
4825764080,42.6262567,-71.3031273,False,0
5458738853,42.6348934,-71.3123379,True,0
5458738863,42.6347172,-71.3129457,True,0
5458742774,42.6333694,-71.3162610,True,0
5458742775,42.6300097,-71.3196233,True,0
5458742776,42.6304294,-71.3197902,False,0
5458742777,42.6307333,-71.3199350,False,0
5458742778,42.6310853,-71.3206270,True,0
5458742779,42.6309948,-71.3204473,True,0
5458742785,42.6306348,-71.3210541,True,0
5458826440,42.6282307,-71.3018188,True,0
5458826441,42.6294441,-71.3019783,True,0
5458852879,42.6312077,-71.2994904,False,0
5584601916,42.6285053,-71.3062544,False,0
5584601935,42.6326979,-71.3020100,False,0
5584693631,42.6330896,-71.3092356,True,2
5584693632,42.6331461,-71.3093001,True,2
5584693633,42.6331355,-71.3094754,True,2
5584693634,42.6330872,-71.3095605,True,2
5584693635,42.6330278,-71.3096512,True,2
5584693637,42.6355649,-71.3089734,False,2
5584693638,42.6356212,-71.3088806,True,2
5584693639,42.6361782,-71.3088621,True,2
5584810408,42.6353230,-71.3117330,True,0
5584810410,42.6349465,-71.3113213,True,0
5584810764,42.6350402,-71.3118390,True,2
5584810766,42.6352209,-71.3117731,True,2
5584810840,42.6374908,-71.3067506,False,2
5584810844,42.6374050,-71.3067127,False,2
5584810872,42.6357212,-71.3058722,False,2
5584810873,42.6349969,-71.3065333,False,2
5584810874,42.6347066,-71.3068243,False,2
5584810875,42.6346176,-71.3068115,False,2
5584810876,42.6342556,-71.3073043,False,2
5584810877,42.6305886,-71.3073854,False,0
5584810878,42.6305920,-71.3075188,False,0
5584810879,42.6305989,-71.3077448,False,2
5584810880,42.6306014,-71.3078896,False,0
5584810881,42.6305836,-71.3080452,False,2
5584918596,42.6305117,-71.3211161,False,2
5586930796,42.6371894,-71.3248307,False,2
5586930800,42.6355032,-71.3251217,False,2
5586930801,42.6353830,-71.3252463,False,2
5586930802,42.6354463,-71.3249771,False,2
5586930808,42.6312359,-71.3253918,False,2
5586930810,42.6312254,-71.3251436,False,2
5586930812,42.6301958,-71.3253102,False,2
5586930814,42.6302101,-71.3250910,False,2
5586930815,42.6302792,-71.3241066,False,2
5586930816,42.6302458,-71.3239582,False,2
5586930817,42.6301572,-71.3259517,False,2
5586930819,42.6301457,-71.3261478,False,2
5586932624,42.6299538,-71.3290250,False,2
5586932626,42.6299290,-71.3292302,False,2
5586932628,42.6298271,-71.3301083,False,2
5586932630,42.6298052,-71.3302833,False,2
5586932634,42.6295846,-71.3310251,False,2
5586932641,42.6310164,-71.3303405,False,2
5586932644,42.6310696,-71.3293562,False,2
5586932646,42.6310566,-71.3295849,False,2
5586932648,42.6311212,-71.3285152,False,2
5586932650,42.6311353,-71.3282834,False,2
5586932652,42.6311829,-71.3276403,False,2
5586932654,42.6311976,-71.3274170,False,2
5586932656,42.6311958,-71.3240741,False,2
5586932657,42.6311138,-71.3241467,False,2
5586932658,42.6313024,-71.3241660,False,2
5586932659,42.6328041,-71.3242886,False,2
5586932660,42.6328629,-71.3243230,False,2
5586932661,42.6329038,-71.3242292,False,2
5586932662,42.6318955,-71.3200363,False,2
5586932663,42.6319835,-71.3199550,False,2
5586932664,42.6320730,-71.3195544,False,2
5586932665,42.6332450,-71.3184360,False,2
5620523078,42.6299335,-71.3065994,False,0
5620523079,42.6298092,-71.3058699,True,0
5717815099,42.6295123,-71.3009140,True,0
6038075794,42.6308902,-71.3055986,False,0
6038075795,42.6318141,-71.3062555,False,0
6038075796,42.6316838,-71.3054623,False,0
6038075797,42.6317695,-71.3054040,False,0
6237315996,42.6349341,-71.3276235,False,0
6238896822,42.6248550,-71.3187491,False,0
6289964115,42.6300986,-71.3269153,False,0
6399364276,42.6263519,-71.3101780,False,0
6399849412,42.6307412,-71.3010223,False,0
6401276628,42.6321834,-71.3171487,True,0
6401276629,42.6320264,-71.3174438,False,0
6442927586,42.6346581,-71.3110106,True,2
6579027973,42.6330767,-71.3084391,False,0
6579027974,42.6333981,-71.3087546,True,0
6755463005,42.6303765,-71.3211749,True,0
6755463015,42.6310126,-71.3235988,True,0
6755463016,42.6308903,-71.3236561,False,0
6755463018,42.6310272,-71.3235920,False,0
6755463019,42.6297661,-71.3214381,True,0
6755463026,42.6293130,-71.3216336,True,0
6755463033,42.6290970,-71.3217267,True,0
6755463034,42.6281389,-71.3221398,False,0
6755463035,42.6279341,-71.3222273,False,0
6755463036,42.6281207,-71.3221475,False,0
6755463037,42.6268195,-71.3227077,True,0
6755463043,42.6289311,-71.3197935,True,0
6755463051,42.6290858,-71.3189860,True,0
6755476775,42.6377694,-71.3166061,False,0
6755476782,42.6372956,-71.3163360,False,0
6755476783,42.6374621,-71.3162441,False,0
6755724847,42.6324225,-71.3044558,True,0
6755724853,42.6323266,-71.3042152,True,0
6755724854,42.6326832,-71.3020039,True,0
6755724865,42.6312996,-71.3025800,True,0
6759041058,42.6339940,-71.3226889,True,0
6759041065,42.6343600,-71.3226371,True,0
6771746191,42.6344449,-71.3315666,False,0
6771900596,42.6360784,-71.3089624,True,0
6771900603,42.6357462,-71.3089690,True,0
6771900606,42.6336802,-71.3075671,True,0
6774379249,42.6248553,-71.2984911,False,0
6866208225,42.6246469,-71.3004718,False,0
6867325684,42.6353525,-71.3224985,True,0
6869983333,42.6267711,-71.3031604,True,0
6869983336,42.6281276,-71.3040988,True,0
6869983339,42.6271628,-71.3018998,True,0
6869983342,42.6271413,-71.3023536,True,0
6870341950,42.6300940,-71.3146733,True,0
6870341955,42.6287464,-71.3160672,True,0
6870341960,42.6290680,-71.3157075,True,0
6876714802,42.6334151,-71.3099166,True,4
6876724455,42.6363810,-71.3143693,False,2
6876724456,42.6363076,-71.3142101,False,2
6876724457,42.6362895,-71.3143956,False,0
6876724458,42.6362536,-71.3142053,False,0
6876724560,42.6363395,-71.3143869,False,0
6876724561,42.6362393,-71.3143905,False,0
6876724600,42.6358350,-71.3142521,False,0
6876724601,42.6359453,-71.3143057,False,0
6878303650,42.6270429,-71.3178056,True,0
6879206347,42.6351876,-71.3045407,False,0
6879206348,42.6352016,-71.3045760,False,0
6879206349,42.6352060,-71.3046552,False,0
6879206350,42.6349311,-71.3043158,True,0
6879206351,42.6350987,-71.3039130,False,0
6879206352,42.6350804,-71.3039123,False,0
6879206353,42.6350478,-71.3039340,False,0
6879206354,42.6350369,-71.3039541,False,0
6879206355,42.6350287,-71.3039799,False,0
6879206356,42.6350628,-71.3039196,False,0
6879206357,42.6350815,-71.3039564,False,0
6879206358,42.6350583,-71.3039799,False,0
6879206359,42.6351047,-71.3039544,False,0
6879206360,42.6353449,-71.3041207,False,0
6879206365,42.6354658,-71.3044003,False,0
6879206366,42.6354476,-71.3043480,False,0
6879206367,42.6354811,-71.3044084,False,0
6879206368,42.6356173,-71.3042656,False,0
6879206369,42.6356952,-71.3042428,False,0
6879206370,42.6355970,-71.3041717,False,0
6884900195,42.6357775,-71.3025022,True,0
6885198342,42.6341225,-71.3180756,True,0
6885198345,42.6342881,-71.3179822,True,0
6887751537,42.6290552,-71.3060509,False,0
6904317481,42.6358397,-71.3142008,True,2
6904317482,42.6359202,-71.3140417,True,2
6907956832,42.6318182,-71.3134106,True,0
7019653201,42.6298231,-71.3058897,False,0
7019653202,42.6298596,-71.3059552,False,0
7019653203,42.6299266,-71.3061135,False,0
7019653204,42.6299501,-71.3062348,False,0
7079786892,42.6258115,-71.3220510,True,0
7079786896,42.6264602,-71.3212242,True,0
7079786897,42.6257265,-71.3217573,True,0
7079786901,42.6268931,-71.3210327,True,0
