Node ID,Lat,Lon,Is Intersection,Type
103655255,40.7249491,-74.1738220,True,0
103655258,40.7250320,-74.1743240,False,0
103655260,40.7250650,-74.1744650,False,0
103655712,40.7237663,-74.1811074,True,0
103655713,40.7236900,-74.1809250,True,0
103655869,40.7221370,-74.1589000,False,0
103656792,40.7265223,-74.1895473,True,0
103656816,40.7317052,-74.1874197,False,1
103658137,40.7294880,-74.1739220,False,0
103661392,40.7176200,-74.1815590,False,0
103664951,40.7300672,-74.1857093,False,0
103672188,40.7230693,-74.1768118,True,0
103672330,40.7244236,-74.1874307,True,0
103672332,40.7242020,-74.1866210,False,0
103672338,40.7239063,-74.1814718,False,0
103672340,40.7238320,-74.1808410,True,0
103672344,40.7244870,-74.1808670,False,0
103672346,40.7242050,-74.1806140,False,0
103672351,40.7251230,-74.1803180,True,0
103672353,40.7250480,-74.1801010,True,0
103672362,40.7187100,-74.1697360,False,0
103672371,40.7159700,-74.1744160,False,0
103672378,40.7216300,-74.1860450,True,0
103672380,40.7215520,-74.1860890,True,0
103672386,40.7246278,-74.1646853,False,1
103672571,40.7185540,-74.1698290,True,0
103674283,40.7301674,-74.1890321,True,0
103674298,40.7223780,-74.1771410,True,0
103684136,40.7270233,-74.1771517,True,1
103684138,40.7268350,-74.1766050,False,0
103684140,40.7264750,-74.1755500,True,0
103684142,40.7263640,-74.1752250,False,0
103684144,40.7259520,-74.1740180,True,0
103685102,40.7299532,-74.1852887,True,0
103685104,40.7280040,-74.1860897,True,1
103685108,40.7258658,-74.1869062,True,0
103685110,40.7233787,-74.1878302,True,0
103685112,40.7230870,-74.1879320,False,0
103686904,40.7209710,-74.1844250,True,0
103686944,40.7204280,-74.1828700,True,0
103686946,40.7199428,-74.1814413,True,0
103686964,40.7193742,-74.1796967,False,0
103686975,40.7190351,-74.1787283,False,0
103686981,40.7172830,-74.1736530,False,0
103686989,40.7233050,-74.1870820,True,1
103686992,40.7224040,-74.1864910,True,0
103686994,40.7221380,-74.1863180,False,0
103687345,40.7242160,-74.1713120,True,0
103687347,40.7241890,-74.1712140,False,0
103687349,40.7241210,-74.1710460,True,0
103687351,40.7238940,-74.1704880,True,0
103687353,40.7235280,-74.1695840,True,0
103687357,40.7228940,-74.1680210,True,0
103687496,40.7258752,-74.1796142,True,0
103687498,40.7253460,-74.1799190,True,0
103687499,40.7243650,-74.1805170,True,0
103687501,40.7230510,-74.1813070,True,0
103687503,40.7223760,-74.1817090,True,0
103687504,40.7217290,-74.1820940,True,0
103687506,40.7210870,-74.1824770,True,0
103687508,40.7198020,-74.1832440,True,0
103687510,40.7191390,-74.1836380,True,0
103687512,40.7184590,-74.1840440,False,0
103689274,40.7284170,-74.1727450,False,0
103689276,40.7279070,-74.1713940,False,0
103689661,40.7188950,-74.1897390,False,1
103689663,40.7182920,-74.1879710,False,0
103690491,40.7292338,-74.1823712,True,0
103690493,40.7295359,-74.1835834,True,0
103690495,40.7301874,-74.1861598,True,0
103690499,40.7304001,-74.1870054,True,0
103690501,40.7306121,-74.1878693,True,0
103690809,40.7256669,-74.1930043,True,0
103690811,40.7261160,-74.1950450,False,0
103690866,40.7234830,-74.1889280,False,0
103690868,40.7227570,-74.1892170,True,0
103690870,40.7192210,-74.1907230,False,0
103690873,40.7171380,-74.1915820,False,1
103691238,40.7169470,-74.1907920,False,1
103691240,40.7174092,-74.1927035,False,0
103691242,40.7176890,-74.1938660,False,1
103691622,40.7190268,-74.1810608,False,0
103691625,40.7201367,-74.1796822,True,1
103691627,40.7207031,-74.1789254,True,4
103691629,40.7212380,-74.1783510,True,1
103691631,40.7229090,-74.1765770,True,0
103691633,40.7235800,-74.1758640,True,1
103691635,40.7240770,-74.1753380,True,0
103691637,40.7246550,-74.1747240,True,1
103691639,40.7247480,-74.1746250,True,0
103691641,40.7258390,-74.1734680,False,0
103691643,40.7263270,-74.1729750,True,1
103691645,40.7269009,-74.1724053,True,1
103691647,40.7274784,-74.1718237,True,1
103691648,40.7276120,-74.1716870,False,0
103691649,40.7285070,-74.1707880,True,1
103691650,40.7290660,-74.1702270,True,1
103691652,40.7296629,-74.1696440,True,1
103691653,40.7299250,-74.1693640,False,0
103691654,40.7299570,-74.1693330,True,0
103691655,40.7304760,-74.1688110,False,0
103691656,40.7306840,-74.1685800,False,1
103691931,40.7197730,-74.1930090,True,1
103691933,40.7200582,-74.1942134,False,1
103692125,40.7284440,-74.1705740,False,0
103692127,40.7283418,-74.1702329,True,0
103692128,40.7276930,-74.1680050,True,0
103692130,40.7271070,-74.1660020,True,0
103692134,40.7268330,-74.1650660,False,0
103692137,40.7264680,-74.1637670,False,0
103692139,40.7264580,-74.1637300,False,0
103692141,40.7256310,-74.1609110,False,0
103692212,40.7276137,-74.1767946,True,1
103692214,40.7270900,-74.1752040,True,0
103692216,40.7266393,-74.1737078,True,0
103692286,40.7262640,-74.1727950,False,0
103692287,40.7261689,-74.1725343,True,0
103692288,40.7258570,-74.1717610,False,0
103692289,40.7253450,-74.1705050,True,0
103692290,40.7250555,-74.1697093,True,1
103692292,40.7241469,-74.1675104,True,1
103695121,40.7239573,-74.1650126,False,0
103695128,40.7217960,-74.1660220,False,0
103695130,40.7214940,-74.1661720,False,0
103695134,40.7204110,-74.1667070,False,0
103695136,40.7197420,-74.1671240,False,0
103695811,40.7175850,-74.1904520,False,0
103695813,40.7169750,-74.1887520,False,0
103696171,40.7235040,-74.2003860,False,0
103696800,40.7286138,-74.1660021,False,0
103698778,40.7230080,-74.1874400,False,0
103698780,40.7228520,-74.1875870,False,0
103698782,40.7215370,-74.1883020,True,1
103698784,40.7208570,-74.1886720,True,0
103698786,40.7202230,-74.1890170,True,0
103698788,40.7195660,-74.1893740,True,0
103698790,40.7182560,-74.1900870,False,0
103698792,40.7175300,-74.1904820,False,0
103699291,40.7202400,-74.1868430,True,0
103699293,40.7200910,-74.1864000,False,0
103699295,40.7196800,-74.1852080,True,0
103699297,40.7186487,-74.1822088,True,0
103699300,40.7182136,-74.1809321,False,0
103699302,40.7177150,-74.1794820,False,0
103702596,40.7330644,-74.1652456,False,0
103702599,40.7329020,-74.1643270,False,0
103702609,40.7340320,-74.1697020,False,1
103705085,40.7224892,-74.1902585,False,1
103705086,40.7236945,-74.1908275,False,0
103706084,40.7256020,-74.2102190,False,0
103706471,40.7306817,-74.1749631,False,1
103706472,40.7304070,-74.1741598,False,0
103706473,40.7302040,-74.1735430,True,0
103706475,40.7297701,-74.1720252,True,1
103706503,40.7297188,-74.1720535,True,1
103706505,40.7289353,-74.1696080,True,0
103706506,40.7283380,-74.1676840,True,1
103706507,40.7277630,-74.1656710,False,1
103707571,40.7257910,-74.2111140,False,0
103709146,40.7253747,-74.1781191,True,1
103709151,40.7275013,-74.1768657,True,0
103709154,40.7271184,-74.1781165,True,0
103709158,40.7268722,-74.1788857,True,0
103709160,40.7268306,-74.1793965,False,0
103709162,40.7268602,-74.1803502,True,1
103709168,40.7259509,-74.1807289,True,1
103709177,40.7279251,-74.1784190,True,0
103709665,40.7259860,-74.2120310,False,0
103710310,40.7287838,-74.1760525,True,1
103710315,40.7258757,-74.1778205,True,1
103710317,40.7251043,-74.1782826,True,1
103710319,40.7245316,-74.1786288,True,1
103710321,40.7238444,-74.1790443,True,0
103710324,40.7231854,-74.1794426,True,0
103710326,40.7225345,-74.1798361,True,0
103710329,40.7218817,-74.1802308,True,1
103710330,40.7212353,-74.1806216,True,1
103710332,40.7205892,-74.1810121,True,1
103710336,40.7193155,-74.1818065,True,0
103710338,40.7189617,-74.1820050,False,0
103710714,40.7292346,-74.1740658,True,0
103710716,40.7282970,-74.1745520,True,0
103710717,40.7278230,-74.1748080,True,0
103710719,40.7252330,-74.1762490,True,0
103710720,40.7245350,-74.1766420,True,0
103710721,40.7239610,-74.1769650,True,0
103710722,40.7232610,-74.1773600,True,0
103712042,40.7261740,-74.2129210,False,0
103712276,40.7304270,-74.1974370,False,0
103713825,40.7263650,-74.2138200,False,0
103715352,40.7186600,-74.1568860,False,0
103716620,40.7290014,-74.1673447,False,0
103716626,40.7270190,-74.1683400,True,0
103716629,40.7263860,-74.1687740,True,0
103716631,40.7256390,-74.1692870,True,0
103716634,40.7244440,-74.1701090,True,0
103717085,40.7275454,-74.1800517,False,0
103717088,40.7280420,-74.1827880,True,0
103718629,40.7316869,-74.1684460,False,0
103718631,40.7308352,-74.1688973,False,0
103719992,40.7292968,-74.1776195,True,0
103721594,40.7170570,-74.1798650,False,0
103721600,40.7196000,-74.1872130,True,0
103721602,40.7193170,-74.1863920,False,0
103721604,40.7190320,-74.1856010,True,1
103722534,40.7189310,-74.1876010,True,0
103722536,40.7183530,-74.1859890,False,0
103722638,40.7247990,-74.2064320,False,1
103725546,40.7279454,-74.1706487,True,0
103725549,40.7262590,-74.1664280,True,0
103726081,40.7250280,-74.2075120,False,0
103726218,40.7287768,-74.1725602,True,0
103727821,40.7291088,-74.1770382,True,0
103727823,40.7294421,-74.1780307,True,0
103727825,40.7297368,-74.1789410,False,1
103727829,40.7301304,-74.1806864,True,0
103727831,40.7304245,-74.1819480,True,1
103727833,40.7307073,-74.1831500,False,0
103727886,40.7252160,-74.2083990,False,1
103728449,40.7314657,-74.1710646,False,1
103728450,40.7310720,-74.1697360,False,0
103728461,40.7303753,-74.1680830,False,0
103728464,40.7299590,-74.1674150,False,0
103728584,40.7225260,-74.1681730,True,0
103728585,40.7208570,-74.1632570,False,0
103728586,40.7203070,-74.1616620,False,0
103728588,40.7197720,-74.1601110,False,0
103728590,40.7189810,-74.1578180,False,0
103728592,40.7185211,-74.1564755,False,0
103729222,40.7144090,-74.1903174,False,0
103729366,40.7216190,-74.1840320,True,0
103729368,40.7203410,-74.1848080,True,0
103729490,40.7254070,-74.2093000,False,0
103729570,40.7256456,-74.1772285,False,0
103729572,40.7245880,-74.1745420,False,0
103729574,40.7245000,-74.1743030,True,0
103729576,40.7234530,-74.1714600,True,0
103729578,40.7229000,-74.1699600,True,0
103729580,40.7222790,-74.1682740,True,0
103729693,40.7198580,-74.1721040,True,0
103729695,40.7192900,-74.1703620,False,0
103729976,40.7322284,-74.1706286,False,1
103729978,40.7318675,-74.1693136,False,0
103729985,40.7311345,-74.1672797,False,0
103729989,40.7307860,-74.1665650,False,0
103730380,40.7218590,-74.1927210,True,0
103730382,40.7220150,-74.1934470,True,1
103730384,40.7222610,-74.1945930,False,0
103730386,40.7224620,-74.1955310,False,0
103730388,40.7226700,-74.1965010,False,0
103730390,40.7228660,-74.1974120,False,0
103730392,40.7228760,-74.1974610,False,0
103730394,40.7230860,-74.1984390,False,0
103730395,40.7232970,-74.1994200,False,1
103730397,40.7237220,-74.2014030,False,0
103730399,40.7239380,-74.2024080,False,0
103730401,40.7241580,-74.2034320,False,0
103730403,40.7243760,-74.2044480,False,0
103730404,40.7245960,-74.2054710,False,0
103730976,40.7287410,-74.1895920,True,0
103730977,40.7267394,-74.1904362,True,0
103732027,40.7299410,-74.1881390,True,0
103732029,40.7285510,-74.1887070,True,1
103732372,40.7289500,-74.1905660,True,1
103732374,40.7291580,-74.1915330,True,0
103732376,40.7293430,-74.1923960,True,0
103732377,40.7300440,-74.1956550,False,0
103732378,40.7302340,-74.1965380,False,1
103732379,40.7307140,-74.1987730,False,0
103732439,40.7247680,-74.1709170,True,0
103732444,40.7228570,-74.1718280,True,0
103732446,40.7223050,-74.1721700,True,1
103732448,40.7216150,-74.1725970,True,0
103732631,40.7223422,-74.1703558,True,0
103732633,40.7217707,-74.1706745,True,1
103732635,40.7210890,-74.1710450,True,0
103732637,40.7210720,-74.1710550,False,0
103732639,40.7204400,-74.1714490,True,0
103734446,40.7243240,-74.1947720,False,0
103737203,40.7320842,-74.1662920,False,0
103737204,40.7316822,-74.1656320,False,0
103737206,40.7329230,-74.1702830,False,0
103737361,40.7303799,-74.1899727,False,1
103737365,40.7270149,-74.1914409,True,1
103737367,40.7239064,-74.1927190,True,1
103737368,40.7216320,-74.1936060,False,1
103738065,40.7247060,-74.1810640,True,0
103738069,40.7243295,-74.1817721,True,0
103738071,40.7237580,-74.1831450,True,0
103738073,40.7234680,-74.1838610,True,0
103738076,40.7221890,-74.1870120,False,0
103738078,40.7218120,-74.1872200,False,0
103738080,40.7212670,-74.1875080,True,0
103739978,40.7240030,-74.1751240,False,0
103739980,40.7239210,-74.1748890,True,0
103741185,40.7237240,-74.1618460,False,0
103741189,40.7231020,-74.1621510,False,1
103741193,40.7194540,-74.1639490,False,0
103741194,40.7187550,-74.1642940,False,0
103741313,40.7290734,-74.1723955,True,0
103744855,40.7278595,-74.1730650,True,1
103744857,40.7274108,-74.1716175,False,0
103744859,40.7273520,-74.1712835,True,0
103744861,40.7255540,-74.1667830,True,1
103745032,40.7232690,-74.1678670,False,0
103746426,40.7237570,-74.1750190,True,0
103746428,40.7233350,-74.1751550,True,0
103746430,40.7225660,-74.1754050,True,0
103746432,40.7207240,-74.1763630,False,0
103746434,40.7205880,-74.1764450,True,0
103746436,40.7199380,-74.1768370,True,0
103746438,40.7192790,-74.1772340,True,0
103746444,40.7273765,-74.1733204,True,0
103746446,40.7271943,-74.1734105,True,0
103746452,40.7332360,-74.1701200,False,0
103746454,40.7306372,-74.1715425,False,0
103746456,40.7302909,-74.1717389,True,0
103747168,40.7223790,-74.1906900,True,1
103747433,40.7294953,-74.1690155,True,0
103747435,40.7267371,-74.1719299,True,0
103747437,40.7258151,-74.1729067,True,0
103747439,40.7254891,-74.1732478,True,0
103747441,40.7234600,-74.1755170,False,0
103747443,40.7210750,-74.1778680,True,0
103747445,40.7205236,-74.1784749,True,0
103747447,40.7199254,-74.1791027,True,0
103747449,40.7187780,-74.1803030,False,0
103747549,40.7244985,-74.1855274,False,0
103747551,40.7246960,-74.1864540,False,0
103747554,40.7241840,-74.1866270,False,0
103747556,40.7235650,-74.1862430,True,0
103748186,40.7251100,-74.1839076,True,0
103748188,40.7254344,-74.1851922,True,0
103748190,40.7256641,-74.1860938,False,0
103748192,40.7260915,-74.1878057,True,0
103748194,40.7272376,-74.1923467,True,0
103748195,40.7274489,-74.1931961,True,0
103748197,40.7277156,-74.1942983,False,0
103748258,40.7251550,-74.1986360,False,1
103748342,40.7308290,-74.1917880,True,0
103749392,40.7258730,-74.1666220,False,0
103752440,40.7264330,-74.1663410,False,0
103752441,40.7247920,-74.1671660,True,0
103752443,40.7235050,-74.1677700,True,0
103752444,40.7220220,-74.1683800,True,0
103752445,40.7211250,-74.1687490,True,1
103752446,40.7204120,-74.1690430,True,0
103752447,40.7203180,-74.1687720,True,0
103752448,40.7196460,-74.1691750,True,0
103752449,40.7182382,-74.1695988,False,0
103752450,40.7177515,-74.1704663,False,0
103753459,40.7242285,-74.1844011,True,1
103753461,40.7227680,-74.1833570,True,0
103753462,40.7219530,-74.1827700,False,0
103753468,40.7191103,-74.1744687,True,0
103753470,40.7185470,-74.1728920,True,0
103753472,40.7185350,-74.1728600,False,0
103754624,40.7273210,-74.1830550,True,1
103754626,40.7276040,-74.1843450,True,1
103754630,40.7281953,-74.1869855,True,0
103754885,40.7156760,-74.1895220,False,0
103755071,40.7251428,-74.1823691,True,0
103755076,40.7228570,-74.1784520,True,0
103755088,40.7211370,-74.1734460,True,0
103755090,40.7205280,-74.1717010,True,0
103755347,40.7183960,-74.1608368,False,0
103755349,40.7189080,-74.1623770,False,0
103755353,40.7234990,-74.1756280,False,0
103757220,40.7280857,-74.1776205,False,0
103757222,40.7279146,-74.1782731,False,0
103758042,40.7233294,-74.1820963,True,0
103759667,40.7245180,-74.1957250,False,0
103759854,40.7137587,-74.1907026,False,0
103760746,40.7237740,-74.1915760,True,0
103760748,40.7228440,-74.1917860,False,0
103760749,40.7226500,-74.1918350,False,0
103760751,40.7220140,-74.1921170,True,1
103761255,40.7298865,-74.1704031,True,0
103761262,40.7292489,-74.1681880,True,0
103762226,40.7209090,-74.1864560,True,0
103762228,40.7208840,-74.1863850,False,0
103762236,40.7183640,-74.1791030,False,0
103762240,40.7166210,-74.1740150,False,0
103762306,40.7235110,-74.1780740,True,0
103762308,40.7215360,-74.1792150,True,0
103763053,40.7254310,-74.1817335,True,1
103763092,40.7224590,-74.1750890,False,0
103763094,40.7222655,-74.1744936,True,0
103763096,40.7218030,-74.1731510,True,0
103763354,40.7283657,-74.1797178,False,0
103763356,40.7286290,-74.1811510,False,0
103763358,40.7289267,-74.1824810,True,0
103764237,40.7241310,-74.1938270,False,0
103764978,40.7150560,-74.1898900,False,0
103768293,40.7243285,-74.1841548,True,1
103768614,40.7124545,-74.1914685,False,0
103771396,40.7226080,-74.1604850,False,0
103771550,40.7289824,-74.1793873,False,0
103771886,40.7247300,-74.1966940,False,0
103772595,40.7323880,-74.1648720,False,0
103773695,40.7316246,-74.1767647,False,0
103775305,40.7220060,-74.1851610,True,0
103775307,40.7200676,-74.1794944,True,1
103775309,40.7197570,-74.1786290,False,0
103775310,40.7196600,-74.1783470,True,0
103775312,40.7188135,-74.1758320,False,0
103775313,40.7184620,-74.1748478,True,0
103775316,40.7179210,-74.1732690,True,0
103775317,40.7169011,-74.1702936,False,0
103775830,40.7199080,-74.1720730,False,0
103775831,40.7192300,-74.1724810,True,0
103775833,40.7172380,-74.1736800,False,0
103776536,40.7245220,-74.1836930,True,1
103776539,40.7238570,-74.1853460,True,0
103776543,40.7235240,-74.1863670,False,0
103776544,40.7226260,-74.1897280,False,0
103776712,40.7268633,-74.1722643,False,0
103776713,40.7244780,-74.1663820,False,0
103777352,40.7293203,-74.1810011,True,0
103781357,40.7204740,-74.1737400,True,0
103781359,40.7197919,-74.1740938,True,0
103783901,40.7249420,-74.1976600,False,0
103784381,40.7306280,-74.1909190,True,0
103784383,40.7240940,-74.1936470,True,0
103784484,40.7163500,-74.1891220,False,1
103786847,40.7230837,-74.1826611,True,0
103786851,40.7216490,-74.1860040,False,0
103786861,40.7209490,-74.1864330,False,0
103786863,40.7182700,-74.1879830,False,0
103786865,40.7176570,-74.1883470,False,0
103786869,40.7119121,-74.1918105,False,0
103787471,40.7242840,-74.1856000,False,0
103789601,40.7235030,-74.1890990,False,0
103790070,40.7225690,-74.1822940,False,0
477530847,40.7235235,-74.1695728,False,0
483040661,40.7201859,-74.1843580,True,0
624185924,40.7213590,-74.1782232,True,4
624185963,40.7189677,-74.1808782,False,0
624185964,40.7193886,-74.1803259,False,0
624185965,40.7197586,-74.1798646,False,0
624185966,40.7196330,-74.1802836,True,0
624185967,40.7196285,-74.1804225,False,0
624185968,40.7196448,-74.1805566,False,0
624185969,40.7197464,-74.1809213,True,0
624186038,40.7181486,-74.1825682,False,0
760840186,40.7213699,-74.1775574,False,0
760840189,40.7198493,-74.1812053,False,0
760840190,40.7199021,-74.1812696,False,0
760840191,40.7200038,-74.1813018,True,0
760901291,40.7241919,-74.1800273,False,0
760901301,40.7260533,-74.1802772,False,0
760901306,40.7260340,-74.1801093,True,0
760901317,40.7264064,-74.1798904,True,0
760901323,40.7298567,-74.1723165,False,0
768696122,40.7207839,-74.1913464,False,0
768696133,40.7189461,-74.1920276,False,0
768696135,40.7190559,-74.1919578,False,0
768696138,40.7191657,-74.1918130,False,0
768696141,40.7192795,-74.1915823,False,0
768696143,40.7193608,-74.1914321,False,0
768696144,40.7194544,-74.1913516,False,0
768696146,40.7204409,-74.1909374,False,0
1924740160,40.7206827,-74.1745109,False,0
1924740163,40.7208967,-74.1751899,False,0
1924740164,40.7220434,-74.1738602,True,0
2597321569,40.7279697,-74.1929745,True,0
2597321581,40.7280331,-74.1955992,False,0
2597321749,40.7295495,-74.1933558,True,0
2597321754,40.7296603,-74.1938713,False,0
2597321760,40.7298959,-74.1949665,False,0
2649253209,40.7337307,-74.1684201,False,0
2673108941,40.7291530,-74.1801959,True,0
2673108942,40.7298742,-74.1795565,True,0
2673108943,40.7299380,-74.1798641,True,0
2673108944,40.7300735,-74.1804300,False,0
2673129068,40.7263106,-74.1886941,True,0
2673129069,40.7283665,-74.1878488,True,0
2673129072,40.7287670,-74.1876842,True,0
2673129075,40.7300516,-74.1871563,True,0
2673151369,40.7291468,-74.1894327,True,0
2673151396,40.7297736,-74.1891867,True,0
2673151412,40.7300572,-74.1885975,True,0
2673160616,40.7239902,-74.1865068,True,0
2673160619,40.7240895,-74.1875588,True,0
2673160622,40.7247110,-74.1832919,True,0
2673160652,40.7261324,-74.1849197,True,0
2673160663,40.7273640,-74.1863390,True,0
2673160666,40.7278112,-74.1852907,True,0
2673160688,40.7304840,-74.1873589,False,0
2673160700,40.7311070,-74.1876609,False,0
2673165840,40.7239392,-74.1876164,True,0
2673165856,40.7246255,-74.1924112,False,0
2673165858,40.7246897,-74.1965098,False,0
2673165861,40.7248060,-74.1970404,False,0
2673165888,40.7254208,-74.1920827,False,0
2673165905,40.7260540,-74.1918211,False,0
3158791810,40.7302574,-74.1692269,False,0
3158791821,40.7325625,-74.1689666,False,0
3158791822,40.7273336,-74.1710108,False,0
3531733690,40.7288843,-74.1788816,False,0
3531733691,40.7295855,-74.1784708,True,0
3564377337,40.7289219,-74.1811449,False,0
3631671412,40.7250231,-74.1980315,False,0
3902972960,40.7247185,-74.1854486,True,0
3902973836,40.7279289,-74.1909992,True,0
3902974380,40.7294605,-74.1832801,True,0
3902974381,40.7294768,-74.1833466,True,0
3966397646,40.7185656,-74.1839803,True,0
3966397647,40.7186794,-74.1822983,True,0
3966397654,40.7193508,-74.1819109,True,0
3966397656,40.7196343,-74.1804705,True,0
3966403266,40.7199739,-74.1815327,True,0
3966403271,40.7200092,-74.1795643,True,0
3966403274,40.7200753,-74.1797555,True,0
3966403290,40.7205315,-74.1810407,True,0
3966403291,40.7205340,-74.1810488,True,0
4174138410,40.7253055,-74.1752943,False,0
4174138411,40.7262128,-74.1747819,True,0
4174410183,40.7236492,-74.1812139,False,0
4174410184,40.7233402,-74.1819515,False,0
4174410185,40.7231369,-74.1813748,False,0
4174410186,40.7236024,-74.1810985,False,0
4207180011,40.7218486,-74.1927614,True,0
4207180013,40.7223906,-74.1932910,True,0
4207180014,40.7225993,-74.1932043,True,0
4207180015,40.7226675,-74.1931364,False,0
4207180016,40.7226852,-74.1932119,False,0
4207180017,40.7235459,-74.1927769,True,0
4207180018,40.7238953,-74.1926339,True,1
4207180019,40.7242053,-74.1925911,True,0
4207180020,40.7246089,-74.1923293,True,0
4207180021,40.7254051,-74.1920046,True,0
4207180023,40.7257290,-74.1811284,True,0
4207180024,40.7260395,-74.1917458,True,0
4207180025,40.7263599,-74.1916944,False,0
4207180026,40.7263645,-74.1805750,True,0
4207180027,40.7266734,-74.1914875,True,0
4207180028,40.7270725,-74.1914136,True,1
4207180029,40.7273343,-74.1912895,True,0
4207180030,40.7274255,-74.1911710,False,0
4207180031,40.7274336,-74.1912425,False,0
4207180032,40.7278573,-74.1909936,False,0
4207180033,40.7278772,-74.1910641,False,0
4207180034,40.7286120,-74.1907093,True,0
4207180035,40.7292754,-74.1904310,True,0
4207180036,40.7300626,-74.1901044,False,0
4207194087,40.7196745,-74.1799694,True,4
4207194088,40.7203273,-74.1794384,True,0
4207197889,40.7209848,-74.1786140,True,4
4207197890,40.7216456,-74.1779338,True,4
4207197891,40.7226078,-74.1768969,True,4
4207197892,40.7240350,-74.1753825,True,4
4207197893,40.7254164,-74.1739163,True,4
4207197894,40.7256675,-74.1789937,True,0
4207197895,40.7259982,-74.1733071,True,4
4207197896,40.7261349,-74.1776694,True,0
4207197897,40.7271354,-74.1721667,True,4
4207197898,40.7272439,-74.1720578,True,4
4207197899,40.7273259,-74.1769707,True,0
4207197900,40.7283215,-74.1763457,True,0
4207197903,40.7292649,-74.1757764,True,0
4207197907,40.7301822,-74.1752498,False,0
4207201931,40.7288085,-74.1704854,True,4
4207201932,40.7292850,-74.1700131,True,4
4207201933,40.7294945,-74.1698085,True,4
4207202430,40.7205489,-74.1789593,True,0
4207202431,40.7206366,-74.1791073,False,0
4228989255,40.7245092,-74.1956819,False,0
4228989257,40.7295910,-74.1935489,False,0
4228989264,40.7291370,-74.1915419,False,0
4229400196,40.7264831,-74.1895138,False,0
4229400197,40.7237155,-74.1907046,False,0
4229400198,40.7235987,-74.1896959,False,0
4229400199,40.7244410,-74.1893363,False,0
4229400200,40.7243065,-74.1887853,False,0
4229400201,40.7261608,-74.1880866,True,0
4229400202,40.7256617,-74.1882747,False,0
4230184887,40.7189570,-74.1920207,False,0
4231041379,40.7216730,-74.1935543,False,0
4231041380,40.7219882,-74.1934218,False,0
4231041381,40.7218590,-74.1927576,False,0
4281791555,40.7215458,-74.1781695,False,0
4281791556,40.7227997,-74.1782981,True,0
4281791557,40.7225090,-74.1774190,True,0
4281791558,40.7224233,-74.1772371,True,0
4285587138,40.7192973,-74.1840973,True,0
4329448122,40.7239525,-74.1689200,False,0
4329919656,40.7217068,-74.1725342,False,0
4330583117,40.7201237,-74.1726840,False,0
4331571906,40.7235630,-74.1738589,False,0
4728719400,40.7207091,-74.1914638,False,0
4728719737,40.7204969,-74.1911634,False,0
4728719738,40.7202707,-74.1910093,False,0
4728719739,40.7203290,-74.1912375,False,0
4728720799,40.7195032,-74.1913334,False,0
4747262447,40.7170456,-74.1707151,False,0
4747262448,40.7178991,-74.1732052,False,0
4747342512,40.7195338,-74.1665271,False,0
5280151629,40.7216390,-74.1781895,True,0
5280151630,40.7218159,-74.1782070,True,0
5280151631,40.7221533,-74.1782070,True,0
5280151632,40.7224460,-74.1782284,True,0
5295958980,40.7179935,-74.1693597,False,0
5295958982,40.7177985,-74.1689567,False,0
5295958985,40.7180067,-74.1690869,False,0
5295958987,40.7179326,-74.1690406,False,0
5556420252,40.7299509,-74.1851927,False,0
5556420253,40.7295851,-74.1836666,False,0
5568167652,40.7247080,-74.1647467,False,0
5568167653,40.7245627,-74.1646400,False,0
5569725514,40.7241946,-74.1675796,False,0
5703608451,40.7283505,-74.1918751,True,0
5703608456,40.7280360,-74.1920084,True,0
5715614553,40.7299746,-74.1953322,False,0
5715614555,40.7300923,-74.1958795,False,0
5715614560,40.7282519,-74.1964959,False,0
5715614563,40.7281323,-74.1960057,False,0
5715614567,40.7298473,-74.1947404,False,0
5735216748,40.7329144,-74.1688020,False,0
5735216749,40.7328224,-74.1688450,False,0
5735216751,40.7329821,-74.1687647,False,0
5769520204,40.7255083,-74.1930664,False,0
6028861793,40.7290536,-74.1797248,True,0
6113163264,40.7284138,-74.1868949,False,0
6292524478,40.7244864,-74.1934859,True,0
6292524481,40.7250771,-74.1932434,True,0
6441547600,40.7285295,-74.1752687,True,0
6441547601,40.7282050,-74.1754543,False,0
6721254946,40.7224349,-74.1932726,True,0
6861906297,40.7323942,-74.1648654,False,0
6861906302,40.7325794,-74.1646691,False,0
6861906323,40.7339718,-74.1697409,False,2
6861906324,40.7323611,-74.1705564,False,2
6888710154,40.7185785,-74.1789832,False,0
6888710161,40.7203474,-74.1803016,True,0
6888710171,40.7193532,-74.1806423,True,0
6888710180,40.7202245,-74.1822707,True,0
6888710183,40.7208329,-74.1817293,True,0
6895120545,40.7255366,-74.1769698,True,0
6895120549,40.7267041,-74.1762213,True,0
6895120550,40.7266738,-74.1761325,True,0
6895120554,40.7254617,-74.1767918,True,0
6905368095,40.7245095,-74.1855234,True,0
6905368099,40.7252843,-74.1845979,True,0
6905368103,40.7249563,-74.1839562,True,0
6953857662,40.7311927,-74.1770152,False,0
7054682808,40.7305115,-74.1774104,True,0
7054682813,40.7300299,-74.1776897,True,0
7054682814,40.7299464,-74.1777382,True,0
7054682817,40.7296486,-74.1779109,True,0
7071620519,40.7281781,-74.1791647,True,0
7071831352,40.7284394,-74.1781192,True,0
7111426069,40.7255878,-74.1814151,True,0
7111641732,40.7300062,-74.1820967,True,0
7111824389,40.7299402,-74.1753955,True,0
7111824398,40.7293466,-74.1757301,True,0
7114091510,40.7295558,-74.1822568,True,0
7114091515,40.7298477,-74.1821530,True,0
7138034193,40.7197873,-74.1690903,True,0
7138034195,40.7193964,-74.1693246,False,0
7144825664,40.7192142,-74.1632585,False,0
7144825667,40.7186797,-74.1616902,False,0
7148027057,40.7275466,-74.1911213,True,0
7150293868,40.7280481,-74.1956607,False,0
