Node ID,Lat,Lon,Is Intersection,Type
64810303,42.6300670,-71.3274240,False,0
64810368,42.6328058,-71.3242001,False,2
64810380,42.6328860,-71.3194040,True,0
64810386,42.6405513,-71.3267366,False,0
64810418,42.6380937,-71.3209185,False,0
64810427,42.6319000,-71.3198840,False,0
64810465,42.6352060,-71.3260100,False,0
64810552,42.6345240,-71.3189430,True,0
64810594,42.6385540,-71.3342700,False,0
64810600,42.6355920,-71.3341320,False,0
64810623,42.6367330,-71.3176290,False,0
64810632,42.6302170,-71.3396990,False,0
64810810,42.6385965,-71.3189936,False,0
64810819,42.6319227,-71.3197418,True,1
64810863,42.6393444,-71.3169492,False,0
64810866,42.6314200,-71.3163560,True,0
64810899,42.6318450,-71.3269030,True,0
64810938,42.6401073,-71.3284631,False,0
64810963,42.6308799,-71.3402392,True,0
64811054,42.6328210,-71.3399390,False,0
64811078,42.6346480,-71.3177880,True,0
64811138,42.6309169,-71.3208050,True,0
64811198,42.6323110,-71.3413140,False,0
64811302,42.6338900,-71.3445990,False,0
64811354,42.6371310,-71.3170290,False,0
64811383,42.6300400,-71.3418250,False,0
64811598,42.6307610,-71.3170390,False,0
64811639,42.6373720,-71.3171010,False,0
64811644,42.6363440,-71.3238540,True,0
64811670,42.6353340,-71.3340710,True,0
64812069,42.6378250,-71.3327340,False,0
64812401,42.6415148,-71.3348527,False,0
64812483,42.6360670,-71.3407470,False,0
64812633,42.6302020,-71.3252070,False,0
64812821,42.6334930,-71.3276960,True,0
64812925,42.6371620,-71.3189840,False,0
64813018,42.6367130,-71.3409000,False,0
64813160,42.6307680,-71.3330230,False,0
64813192,42.6320750,-71.3325100,False,0
64813202,42.6397217,-71.3287423,False,0
64813299,42.6386114,-71.3318354,True,0
64813363,42.6359700,-71.3198870,False,0
64813581,42.6329180,-71.3415980,True,0
64813608,42.6312644,-71.3260581,False,0
64813610,42.6355900,-71.3423850,True,0
64813661,42.6395291,-71.3276638,False,0
64813674,42.6350610,-71.3362050,True,0
64813814,42.6321370,-71.3409640,True,4
64813844,42.6287720,-71.3236390,False,0
64813869,42.6366070,-71.3262440,False,0
64813887,42.6348280,-71.3285460,True,0
64813929,42.6308110,-71.3367370,False,0
64814013,42.6236490,-71.3382680,False,0
64814022,42.6333860,-71.3399920,False,0
64814035,42.6367840,-71.3201920,True,0
64814044,42.6318330,-71.3212420,False,0
64814052,42.6330580,-71.3277450,False,0
64814392,42.6322540,-71.3333670,True,0
64814413,42.6296600,-71.3318830,False,0
64814455,42.6338930,-71.3359360,True,0
64814465,42.6365130,-71.3276180,False,0
64814540,42.6372720,-71.3256870,False,0
64814656,42.6340410,-71.3438630,False,0
64814799,42.6414610,-71.3308510,True,0
64814880,42.6311280,-71.3284040,True,0
64815038,42.6295174,-71.3238850,False,0
64815107,42.6348940,-71.3279800,True,0
64815156,42.6318810,-71.3260340,False,0
64815282,42.6392778,-71.3294232,False,0
64815474,42.6317910,-71.3342070,False,0
64815670,42.6372510,-71.3285410,False,0
64815825,42.6333700,-71.3401130,True,0
64815889,42.6332920,-71.3251450,True,0
64815971,42.6389510,-71.3394760,False,0
64816209,42.6300880,-71.3319820,False,0
64816356,42.6313692,-71.3223710,True,0
64816381,42.6397147,-71.3285063,False,0
64816414,42.6379042,-71.3267778,False,0
64816436,42.6383320,-71.3406110,False,0
64816506,42.6327260,-71.3194990,False,0
64816515,42.6394827,-71.3268773,False,0
64816749,42.6310760,-71.3343470,True,0
64816798,42.6337430,-71.3371140,False,0
64816814,42.6350240,-71.3372260,False,0
64816916,42.6447580,-71.3352880,False,0
64816972,42.6292928,-71.3186732,False,0
64817076,42.6339410,-71.3443450,False,0
64817126,42.6314540,-71.3192980,False,0
64817183,42.6332489,-71.3289329,False,0
64817285,42.6376947,-71.3283733,True,0
64817473,42.6304970,-71.3382090,True,0
64817569,42.6448970,-71.3350710,False,0
64817688,42.6335740,-71.3305080,False,0
64817696,42.6300920,-71.3407380,False,0
64817792,42.6312674,-71.3262196,False,0
64817826,42.6316300,-71.3258140,False,0
64817839,42.6346950,-71.3295980,False,0
64817960,42.6382220,-71.3427480,False,0
64817966,42.6382590,-71.3422910,True,4
64818017,42.6307836,-71.3209415,False,0
64818098,42.6288460,-71.3259160,False,0
64818151,42.6332130,-71.3296970,False,0
64818212,42.6329590,-71.3277400,False,0
64818298,42.6353520,-71.3253790,False,0
64818322,42.6306629,-71.3210383,False,0
64818332,42.6308100,-71.3367430,True,0
64818354,42.6290113,-71.3185236,False,0
64818438,42.6330980,-71.3200460,False,0
64818444,42.6405860,-71.3197871,True,0
64818544,42.6373579,-71.3184070,False,0
64818582,42.6360570,-71.3199010,False,0
64818701,42.6331370,-71.3285810,False,0
64818770,42.6312020,-71.3352940,True,0
64818793,42.6354080,-71.3251390,True,1
64818811,42.6353940,-71.3264430,False,0
64818936,42.6306700,-71.3433190,False,0
64819069,42.6389415,-71.3164630,False,0
64819085,42.6289816,-71.3237028,False,0
64819095,42.6331120,-71.3318030,True,0
64819102,42.6388350,-71.3164640,False,0
64819270,42.6342910,-71.3327820,True,0
64819284,42.6342550,-71.3425800,True,0
64819411,42.6337380,-71.3316870,False,0
64819440,42.6237280,-71.3382390,False,0
64819734,42.6355860,-71.3172720,True,0
64819792,42.6334000,-71.3208460,False,0
64819854,42.6389261,-71.3416572,False,0
64820030,42.6303340,-71.3390020,True,0
64820069,42.6405200,-71.3264049,False,0
64820353,42.6373370,-71.3332850,False,0
64820361,42.6367110,-71.3249120,False,0
64820508,42.6310980,-71.3355650,False,0
64820546,42.6358590,-71.3198800,False,0
64820694,42.6343120,-71.3208560,True,0
64820703,42.6340800,-71.3292930,False,0
64820870,42.6370430,-71.3170020,False,0
64821008,42.6283420,-71.3324530,False,0
64821011,42.6319180,-71.3210630,False,0
64821133,42.6388005,-71.3179450,False,0
64821656,42.6400545,-71.3212299,False,0
64822272,42.6301810,-71.3212592,False,0
64822428,42.6339060,-71.3326940,False,0
64822505,42.6320740,-71.3199150,False,0
64822565,42.6364950,-71.3211160,True,0
64822585,42.6383429,-71.3307603,True,0
64822620,42.6311390,-71.3282220,False,0
64822647,42.6317690,-71.3295560,False,0
64822655,42.6406586,-71.3329446,True,0
64822815,42.6318760,-71.3258960,True,0
64822902,42.6313110,-71.3174770,False,0
64823067,42.6415437,-71.3347303,True,0
64823161,42.6335750,-71.3290110,False,0
64823165,42.6300190,-71.3415170,False,0
64823184,42.6335900,-71.3383340,True,0
64823190,42.6315220,-71.3211660,False,0
64823451,42.6309340,-71.3316150,True,0
64823460,42.6385750,-71.3337240,False,0
64823533,42.6322177,-71.3220959,True,0
64823584,42.6389080,-71.3395000,False,0
64823612,42.6421440,-71.3375810,False,0
64823643,42.6327200,-71.3219720,True,0
64823652,42.6359510,-71.3229080,False,0
64823883,42.6370330,-71.3193950,True,0
64823934,42.6407459,-71.3218571,False,0
64823969,42.6405094,-71.3243778,False,0
64824081,42.6383020,-71.3412530,True,0
64824189,42.6310099,-71.3222831,False,0
64824240,42.6408032,-71.3381935,False,0
64824255,42.6336740,-71.3327570,False,0
64824359,42.6302550,-71.3394270,False,0
64824414,42.6273900,-71.3322230,False,0
64824601,42.6340000,-71.3351010,False,0
64824978,42.6304700,-71.3383270,False,0
64825100,42.6360070,-71.3361250,True,0
64825308,42.6318990,-71.3199360,True,1
64825747,42.6315440,-71.3332030,True,0
64825921,42.6310610,-71.3357080,False,0
64826387,42.6442360,-71.3359240,False,0
64826536,42.6383680,-71.3357200,False,0
64826640,42.6383400,-71.3403610,True,0
64827084,42.6284850,-71.3346860,False,0
64827139,42.6400884,-71.3290867,True,0
64827278,42.6373070,-71.3198090,False,0
64827327,42.6350930,-71.3405220,False,0
64827408,42.6381950,-71.3431540,False,0
64827455,42.6379420,-71.3292771,True,3
64827552,42.6365320,-71.3278680,False,0
64827572,42.6366710,-71.3362770,True,0
64827634,42.6269660,-71.3296050,False,0
64827811,42.6372720,-71.3170770,False,0
64828476,42.6276801,-71.3233863,False,0
64828782,42.6332320,-71.3249870,False,0
64828821,42.6319540,-71.3199600,False,0
64829044,42.6378640,-71.3160516,True,1
64829061,42.6295460,-71.3251370,False,0
64829080,42.6450757,-71.3347844,False,0
64829104,42.6364250,-71.3191020,False,0
64829342,42.6310222,-71.3224046,False,0
64829396,42.6352780,-71.3264370,False,0
64829416,42.6357050,-71.3415030,True,0
64829583,42.6333130,-71.3404440,False,0
64829879,42.6318020,-71.3445680,True,0
64830042,42.6389129,-71.3247738,True,0
64830352,42.6375223,-71.3178759,False,0
64830487,42.6360450,-71.3284020,False,0
64830824,42.6336690,-71.3300570,False,0
64831194,42.6301802,-71.3399936,True,0
64831290,42.6366640,-71.3176530,False,0
64831373,42.6409523,-71.3306304,True,0
64831416,42.6312640,-71.3351680,False,0
64831743,42.6271790,-71.3389430,False,0
64831965,42.6312431,-71.3234069,False,0
64831991,42.6387100,-71.3183193,True,0
64832125,42.6361660,-71.3177340,False,0
64832411,42.6323680,-71.3397610,True,0
64832459,42.6310630,-71.3226405,False,0
64832761,42.6398842,-71.3254470,False,0
64832853,42.6318750,-71.3208170,True,0
64832956,42.6430240,-71.3369940,False,0
64833063,42.6397560,-71.3326490,False,0
64833523,42.6396007,-71.3248892,True,0
64833575,42.6340838,-71.3148722,False,0
64833619,42.6351790,-71.3352730,True,0
64833866,42.6405200,-71.3304260,False,0
64834101,42.6362910,-71.3177820,False,0
64834178,42.6357370,-71.3224920,False,0
64834192,42.6396290,-71.3350430,True,0
64834321,42.6347620,-71.3386240,True,0
64834394,42.6406209,-71.3253684,False,0
64834500,42.6332690,-71.3314460,True,0
64834589,42.6322632,-71.3222409,True,0
64835083,42.6340670,-71.3437310,False,0
64835144,42.6331930,-71.3245030,False,0
64835242,42.6320130,-71.3199500,False,0
64835441,42.6264117,-71.3386416,False,0
64835597,42.6343220,-71.3179650,False,0
64835743,42.6330090,-71.3285850,False,0
64835810,42.6309440,-71.3361520,True,0
64836078,42.6299410,-71.3291390,False,0
64836411,42.6351590,-71.3340290,False,0
64836520,42.6351480,-71.3175160,False,0
64836588,42.6334794,-71.3160308,False,0
64836657,42.6354680,-71.3387950,False,0
64836664,42.6338250,-71.3364670,True,0
64836714,42.6361600,-71.3209260,False,0
64836969,42.6385595,-71.3288615,True,0
64836996,42.6380251,-71.3260076,False,0
64837297,42.6376500,-71.3411080,False,0
64837409,42.6377055,-71.3170669,False,0
64838096,42.6387530,-71.3165360,False,0
64838289,42.6377467,-71.3177789,False,0
64838410,42.6315020,-71.3211570,True,0
64838429,42.6318060,-71.3426880,False,0
64838863,42.6324613,-71.3229269,True,0
64839009,42.6404601,-71.3243667,True,0
64839058,42.6330630,-71.3246910,True,0
64839098,42.6332472,-71.3291922,False,0
64839165,42.6311570,-71.3343650,False,0
64839212,42.6385120,-71.3356070,True,0
64839310,42.6343260,-71.3287580,False,0
64839348,42.6299500,-71.3359050,False,0
64839698,42.6297740,-71.3319040,False,0
64839937,42.6445110,-71.3356160,False,0
64839953,42.6290857,-71.3237345,False,0
64840067,42.6310280,-71.3358270,True,0
64840090,42.6293650,-71.3186969,False,0
64840194,42.6298413,-71.3214057,False,0
64840349,42.6318830,-71.3261680,False,0
64840530,42.6309905,-71.3253020,False,0
64840701,42.6383519,-71.3181192,True,0
64840852,42.6329010,-71.3244000,False,0
64841107,42.6317760,-71.3284650,True,0
64841964,42.6304690,-71.3303630,False,0
64842053,42.6332000,-71.3408240,False,0
64842405,42.6339560,-71.3188580,False,0
64842478,42.6354350,-71.3435650,False,0
64842490,42.6391823,-71.3298287,True,0
64842528,42.6282017,-71.3221129,False,0
64842643,42.6406089,-71.3192512,True,0
64842732,42.6285480,-71.3299450,False,0
64842774,42.6393744,-71.3248447,True,0
64842943,42.6363130,-71.3227660,False,0
64842977,42.6250580,-71.3384440,False,0
64843032,42.6386019,-71.3174274,True,0
64843102,42.6336480,-71.3298180,False,0
64843201,42.6350970,-71.3359170,True,0
64843632,42.6322850,-71.3193190,False,0
64843795,42.6320260,-71.3337700,False,0
64844024,42.6333460,-71.3402840,False,0
64844034,42.6362830,-71.3238600,False,0
64844742,42.6360970,-71.3223850,False,0
64844886,42.6308610,-71.3191250,False,0
64845328,42.6302300,-71.3424780,False,0
64845361,42.6364050,-71.3177490,False,0
64845848,42.6377974,-71.3193527,True,0
64845946,42.6322280,-71.3434310,False,0
64845991,42.6283630,-71.3316360,False,0
64846281,42.6293750,-71.3327000,False,0
64846305,42.6325920,-71.3213140,False,0
64846319,42.6405782,-71.3268912,False,0
64846521,42.6276540,-71.3391070,False,0
64846607,42.6385310,-71.3349230,False,0
64846618,42.6362750,-71.3249930,True,0
64846653,42.6375418,-71.3275689,True,0
64846747,42.6381383,-71.3435870,False,0
64846787,42.6344270,-71.3412340,True,0
64846804,42.6374208,-71.3210923,False,0
64847039,42.6333980,-71.3243050,False,0
64847283,42.6324760,-71.3206570,False,0
64847446,42.6305862,-71.3252672,False,0
64847486,42.6354610,-71.3330330,False,0
64847789,42.6355760,-71.3264130,True,0
64847868,42.6345190,-71.3309890,True,0
64847883,42.6373750,-71.3345390,False,0
64847971,42.6312630,-71.3182120,False,0
64848023,42.6366000,-71.3191570,False,0
64848098,42.6354780,-71.3264290,False,0
64848174,42.6385440,-71.3425430,False,0
64848298,42.6377256,-71.3221069,True,0
64848493,42.6370430,-71.3377040,True,0
64848560,42.6371810,-71.3285400,False,0
64848571,42.6339510,-71.3354860,True,0
64848638,42.6347520,-71.3179610,False,0
64849003,42.6350250,-71.3231750,False,0
64849017,42.6391190,-71.3306560,False,0
64849094,42.6318440,-71.3341090,True,0
64849273,42.6312318,-71.3268544,True,0
64849333,42.6360500,-71.3225530,True,0
64849346,42.6409190,-71.3178380,False,0
64849376,42.6325210,-71.3380780,False,0
64849405,42.6358690,-71.3341990,False,0
64849433,42.6325110,-71.3276910,False,0
64849633,42.6335860,-71.3291660,True,0
64849708,42.6274850,-71.3322530,False,0
64849809,42.6318850,-71.3262850,False,0
64849866,42.6300414,-71.3411149,True,0
64850030,42.6312617,-71.3263633,False,0
64850627,42.6333950,-71.3262370,True,0
64850653,42.6401321,-71.3285727,False,0
64850845,42.6393383,-71.3169912,False,0
64850958,42.6404140,-71.3388690,False,0
64850987,42.6315284,-71.3404668,True,0
64851265,42.6327660,-71.3324400,False,0
64851284,42.6364780,-71.3291250,True,0
64851572,42.6385960,-71.3329720,True,0
64852370,42.6338550,-71.3298150,False,0
64852765,42.6382790,-71.3430500,False,0
64852792,42.6310110,-71.3304420,True,0
64852864,42.6319230,-71.3195490,False,0
64853302,42.6300220,-71.3413240,False,0
64853341,42.6397277,-71.3285893,False,0
64853428,42.6361130,-71.3329580,False,0
64853468,42.6285240,-71.3316640,False,0
64853493,42.6318640,-71.3265550,False,0
64853575,42.6335790,-71.3336790,True,0
64853584,42.6349510,-71.3274680,False,0
64853592,42.6353290,-71.3190020,False,0
64853971,42.6352210,-71.3264310,False,0
64854046,42.6423440,-71.3312450,False,0
64854094,42.6320000,-71.3269200,False,0
64854241,42.6348970,-71.3176530,True,0
64854247,42.6334010,-71.3297030,False,0
64854676,42.6365220,-71.3277430,True,0
64854821,42.6369910,-71.3176270,False,0
64854846,42.6335982,-71.3237354,True,0
64855282,42.6376600,-71.3327880,False,0
64855431,42.6386488,-71.3191996,False,0
64855596,42.6384160,-71.3380250,True,0
64855608,42.6402160,-71.3312290,False,0
64855754,42.6340160,-71.3349760,True,0
64855883,42.6335677,-71.3288858,True,0
64855900,42.6368500,-71.3253890,False,0
64856253,42.6338750,-71.3297690,True,0
64856478,42.6374271,-71.3181880,False,0
64856822,42.6333120,-71.3297060,False,0
64856875,42.6387501,-71.3181372,False,0
64856960,42.6318420,-71.3194220,False,0
64857000,42.6385780,-71.3336290,True,0
64857134,42.6393417,-71.3169091,False,0
64857234,42.6335220,-71.3281220,False,0
64857272,42.6375155,-71.3227849,True,0
64857445,42.6362950,-71.3217480,True,0
64857574,42.6312190,-71.3352610,False,0
64857775,42.6273000,-71.3296770,False,0
64858025,42.6385982,-71.3305460,True,0
64858227,42.6348940,-71.3251640,False,0
64858257,42.6332600,-71.3250510,False,2
64858326,42.6383935,-71.3237417,True,0
64858360,42.6362430,-71.3389680,False,0
64858741,42.6320284,-71.3221257,False,0
64858757,42.6312454,-71.3234897,True,0
64858826,42.6320380,-71.3415120,False,0
64858861,42.6376430,-71.3411070,False,0
64858950,42.6317530,-71.3210190,False,0
64859029,42.6345340,-71.3404000,True,0
64859113,42.6321050,-71.3213960,False,0
64859147,42.6348164,-71.3276838,False,0
64859245,42.6326940,-71.3415110,False,0
64859274,42.6383090,-71.3432460,True,1
64859298,42.6306539,-71.3240977,False,0
64859619,42.6300240,-71.3416590,False,0
64859655,42.6302910,-71.3392290,False,0
64859706,42.6318770,-71.3205590,False,0
64859931,42.6383700,-71.3394590,True,0
64860337,42.6337800,-71.3208710,True,0
64860399,42.6365260,-71.3280010,False,0
64860694,42.6373417,-71.3256460,True,0
64860839,42.6362940,-71.3230190,False,0
64860888,42.6324010,-71.3212850,False,0
64861581,42.6388863,-71.3241944,False,0
64861599,42.6336710,-71.3237507,False,0
64861643,42.6318790,-71.3424180,True,0
64861990,42.6331260,-71.3207730,True,0
64862061,42.6394420,-71.3365540,False,0
64862192,42.6393708,-71.3408352,True,0
64862210,42.6307280,-71.3371210,False,0
64862260,42.6377544,-71.3167330,False,0
64862350,42.6397688,-71.3267076,True,0
64862605,42.6363050,-71.3199950,False,0
64862711,42.6403237,-71.3390114,False,0
64862872,42.6335000,-71.3208570,False,0
64862885,42.6443680,-71.3357830,False,0
64862950,42.6315720,-71.3252580,True,0
64863198,42.6351660,-71.3182170,False,0
64863239,42.6363370,-71.3225990,True,0
64863411,42.6369060,-71.3165510,False,0
64863452,42.6319290,-71.3195980,False,0
64863478,42.6382910,-71.3414960,False,0
64863537,42.6362360,-71.3219350,False,0
64863611,42.6406249,-71.3252701,False,0
64863769,42.6346230,-71.3301670,True,0
64863913,42.6367240,-71.3192320,False,0
64863976,42.6321730,-71.3414810,False,0
64864003,42.6234300,-71.3386660,False,0
64864093,42.6384150,-71.3380570,False,0
64864111,42.6345340,-71.3403930,False,0
64864319,42.6331290,-71.3277400,False,0
64864337,42.6392650,-71.3288490,True,4
64864762,42.6356940,-71.3290560,True,0
64864904,42.6330840,-71.3199780,False,0
64865199,42.6379120,-71.3320620,False,0
64865303,42.6397287,-71.3286603,False,0
64865449,42.6318930,-71.3209640,False,0
64865629,42.6380320,-71.3172860,False,0
64865740,42.6340560,-71.3346510,True,0
64866113,42.6414900,-71.3379660,False,0
64866130,42.6336240,-71.3296840,True,0
64866189,42.6355520,-71.3278930,True,0
64866624,42.6369200,-71.3391230,False,0
64866736,42.6234910,-71.3387930,False,0
64867144,42.6331040,-71.3201440,False,0
64867280,42.6314470,-71.3217100,False,0
64867348,42.6307278,-71.3209939,False,0
64867352,42.6387055,-71.3167341,False,0
64867392,42.6321630,-71.3410650,False,0
64867412,42.6337860,-71.3367750,True,0
64867457,42.6356580,-71.3241190,False,0
64867516,42.6398440,-71.3338630,False,0
64867696,42.6398201,-71.3301124,True,0
64867829,42.6374969,-71.3208792,False,0
64867909,42.6350080,-71.3181340,False,0
64868207,42.6354900,-71.3328070,True,0
64868310,42.6406248,-71.3250923,False,0
64868563,42.6333140,-71.3252370,False,0
64868625,42.6362980,-71.3232500,False,0
64868791,42.6395467,-71.3267265,False,0
64869068,42.6327380,-71.3420750,True,0
64869963,42.6309510,-71.3313620,True,0
64870045,42.6305399,-71.3260948,False,0
64870123,42.6373090,-71.3285310,False,0
64870137,42.6356200,-71.3224880,True,0
64870461,42.6294399,-71.3397338,False,0
64870514,42.6384628,-71.3247040,True,1
64870793,42.6319890,-71.3418120,True,0
64871095,42.6327840,-71.3188420,False,0
64871123,42.6334320,-71.3268280,False,0
64871279,42.6367540,-71.3202900,False,0
64871500,42.6343930,-71.3415060,False,0
64871747,42.6342620,-71.3425330,False,0
64872135,42.6326220,-71.3327010,True,0
64872425,42.6324710,-71.3206590,False,0
64872470,42.6372010,-71.3170570,False,0
64872663,42.6328800,-71.3187740,False,0
64872747,42.6354520,-71.3331070,True,0
64872786,42.6371674,-71.3219746,True,0
64872814,42.6321870,-71.3406980,True,0
64872944,42.6391495,-71.3167559,False,0
64873113,42.6234650,-71.3387610,False,0
64873499,42.6304930,-71.3430810,False,0
64873518,42.6269450,-71.3388590,False,0
64873719,42.6337040,-71.3374170,True,0
64873758,42.6337670,-71.3227210,True,0
64873958,42.6310320,-71.3437210,True,0
64874035,42.6286726,-71.3219098,False,0
64874403,42.6416215,-71.3254027,False,0
64874430,42.6404025,-71.3243715,True,0
64874697,42.6333550,-71.3311900,False,0
64874772,42.6330070,-71.3245940,False,0
64874925,42.6366250,-71.3362660,False,0
64875218,42.6322230,-71.3414530,False,0
64875387,42.6364010,-71.3375540,False,0
64875474,42.6376600,-71.3173039,False,0
64875571,42.6393340,-71.3336840,False,0
64875599,42.6365524,-71.3167434,True,0
64875783,42.6363980,-71.3375530,False,0
64875933,42.6308370,-71.3168940,False,0
64876017,42.6331200,-71.3181690,False,0
64876097,42.6301330,-71.3422050,False,0
64876124,42.6335660,-71.3242180,False,0
64876168,42.6381560,-71.3434530,False,0
64876181,42.6282700,-71.3324370,False,0
64876276,42.6336590,-71.3299300,False,0
64876358,42.6308950,-71.3322180,True,0
64876487,42.6385099,-71.3259928,True,0
64876687,42.6384530,-71.3371010,False,0
64877022,42.6352510,-71.3225110,False,0
64877094,42.6334738,-71.3237940,False,0
64877210,42.6446690,-71.3354140,False,0
64877281,42.6369580,-71.3196270,False,0
64877333,42.6332390,-71.3277290,False,0
64877367,42.6384468,-71.3242172,True,0
64877390,42.6393267,-71.3170363,False,0
64877591,42.6338730,-71.3199070,True,0
64878032,42.6363950,-71.3262790,True,0
64878109,42.6405411,-71.3251013,True,0
64878218,42.6317780,-71.3427380,False,0
64878229,42.6365030,-71.3284490,True,0
64878278,42.6317250,-71.3428040,False,0
64878372,42.6329663,-71.3171459,True,0
64878433,42.6306743,-71.3413414,True,0
64878519,42.6312318,-71.3252965,True,0
64879589,42.6376560,-71.3177329,False,0
64879626,42.6343170,-71.3421010,True,0
64879936,42.6310690,-71.3191850,False,0
64880139,42.6330300,-71.3319640,False,0
64880452,42.6369070,-71.3344300,True,0
64880629,42.6333610,-71.3257040,False,0
64880960,42.6392640,-71.3285160,False,0
64881004,42.6318720,-71.3207710,False,0
64881366,42.6234560,-71.3384890,False,0
64881411,42.6332110,-71.3183240,False,0
64881530,42.6287985,-71.3218555,False,0
64881705,42.6319296,-71.3221488,False,0
64881806,42.6354130,-71.3224910,False,0
64882532,42.6395440,-71.3325800,True,0
64882586,42.6383112,-71.3230947,True,0
64882713,42.6412840,-71.3307730,False,0
64883086,42.6355040,-71.3247330,False,0
64883095,42.6314100,-71.3295090,False,0
64883099,42.6351010,-71.3181950,False,0
64883205,42.6328680,-71.3270460,False,0
64883311,42.6276540,-71.3322940,False,0
64883346,42.6309710,-71.3360360,False,0
64883507,42.6372550,-71.3248200,True,0
64883578,42.6377653,-71.3200502,True,0
64884120,42.6349520,-71.3208820,False,0
64884130,42.6296090,-71.3349090,False,0
64884246,42.6425020,-71.3373590,False,0
64884286,42.6315590,-71.3252580,False,0
64884676,42.6375977,-71.3199576,True,0
64885124,42.6392430,-71.3228700,True,0
64885130,42.6286620,-71.3287570,False,0
64885538,42.6235810,-71.3383160,False,0
64885903,42.6327601,-71.3240580,False,0
64886140,42.6316350,-71.3344830,False,0
64886321,42.6316630,-71.3212060,True,0
64886364,42.6354820,-71.3432090,False,0
64886447,42.6343610,-71.3262670,False,0
64886460,42.6368840,-71.3198700,False,0
64886504,42.6374724,-71.3180400,False,0
64886511,42.6355570,-71.3245220,True,0
64886666,42.6414600,-71.3331970,False,0
64886756,42.6336580,-71.3251770,False,0
64887055,42.6310407,-71.3225282,True,0
64887159,42.6400981,-71.3249981,True,0
64887192,42.6391575,-71.3248114,True,0
64887197,42.6334310,-71.3309520,False,0
64887346,42.6398420,-71.3338700,True,0
64887478,42.6305580,-71.3431780,False,0
64887684,42.6327530,-71.3381470,False,0
64888048,42.6362480,-71.3177790,False,0
64888171,42.6311940,-71.3438990,False,0
64888523,42.6352160,-71.3208900,False,0
64888543,42.6330010,-71.3187070,False,0
64888557,42.6323700,-71.3296020,True,0
64888718,42.6386294,-71.3187313,False,0
64888746,42.6281800,-71.3258290,False,0
64888817,42.6361550,-71.3199300,False,0
64888932,42.6328900,-71.3322140,False,0
64888991,42.6335480,-71.3285580,True,0
64889377,42.6340170,-71.3271330,False,0
64889444,42.6307300,-71.3293880,False,0
64889684,42.6286160,-71.3235980,False,0
64889801,42.6333070,-71.3313440,False,0
64890107,42.6300890,-71.3420760,False,0
64890117,42.6404280,-71.3303850,True,0
64890210,42.6375110,-71.3392520,True,0
64890446,42.6356830,-71.3250890,False,0
64890658,42.6376344,-71.3174319,False,0
64890989,42.6301880,-71.3312010,False,0
64891015,42.6341640,-71.3338010,True,1
64891026,42.6363810,-71.3315700,True,0
64891238,42.6353330,-71.3264390,False,0
64891266,42.6336220,-71.3183530,False,0
64891304,42.6360330,-71.3398360,False,0
64891346,42.6393148,-71.3168312,True,0
64891593,42.6342050,-71.3429480,False,0
64891625,42.6344270,-71.3198950,True,0
64891632,42.6388587,-71.3417896,False,0
64891677,42.6350570,-71.3266970,False,0
64891825,42.6308450,-71.3171890,False,0
64891844,42.6368520,-71.3176120,False,0
64891857,42.6340770,-71.3251820,False,0
64891933,42.6325110,-71.3212800,False,0
64891954,42.6453066,-71.3344230,False,0
64892101,42.6310002,-71.3208997,False,0
64892243,42.6382073,-71.3180486,True,0
64892256,42.6294250,-71.3289860,False,0
64892273,42.6311890,-71.3275595,True,0
64892280,42.6331720,-71.3382380,False,0
64892284,42.6363880,-71.3187730,False,0
64892375,42.6288470,-71.3356520,False,0
64892385,42.6331200,-71.3410550,True,0
64892393,42.6385040,-71.3357730,True,0
64892493,42.6367790,-71.3249000,True,0
64892549,42.6384646,-71.3197246,True,0
64892605,42.6364250,-71.3304610,True,0
64892669,42.6273420,-71.3322030,False,0
64892962,42.6354350,-71.3264360,True,0
64893100,42.6383680,-71.3430700,False,0
64893324,42.6309100,-71.3294320,False,0
64893690,42.6386158,-71.3325604,False,0
64893722,42.6386381,-71.3172364,False,0
64893751,42.6387570,-71.3356910,False,0
64893769,42.6427540,-71.3371970,False,0
64893938,42.6379491,-71.3213874,True,0
64894129,42.6327970,-71.3228610,True,0
64894388,42.6334670,-71.3393490,False,0
64894406,42.6343970,-71.3414800,True,0
64894515,42.6357020,-71.3208920,False,0
64894587,42.6406273,-71.3251823,False,0
64894614,42.6364490,-71.3249670,True,0
64894699,42.6325750,-71.3296180,False,0
64894734,42.6384150,-71.3198857,False,0
64894954,42.6310630,-71.3294640,True,0
64895144,42.6337506,-71.3237808,False,0
64895182,42.6312324,-71.3233411,False,0
64895315,42.6358900,-71.3190480,False,0
64895435,42.6334780,-71.3392540,True,0
64895457,42.6440930,-71.3360670,False,0
64895607,42.6321280,-71.3415320,False,0
64895717,42.6312590,-71.3182110,True,0
64895811,42.6325640,-71.3269960,False,0
64895838,42.6406290,-71.3274562,False,0
64895842,42.6318100,-71.3209240,False,0
64895873,42.6323760,-71.3430420,False,0
64895887,42.6405296,-71.3262652,False,0
64895953,42.6343510,-71.3418380,False,0
64896031,42.6381171,-71.3299288,True,0
64896038,42.6411095,-71.3366177,False,0
64896086,42.6380217,-71.3293125,False,2
64896193,42.6315020,-71.3347290,False,0
64896234,42.6234290,-71.3385760,False,0
64896317,42.6412020,-71.3331130,True,0
64896345,42.6291123,-71.3185846,False,0
64896440,42.6321020,-71.3396560,False,0
64896564,42.6322540,-71.3412470,False,0
64896626,42.6260837,-71.3230237,False,1
64896694,42.6386782,-71.3184587,False,0
64896882,42.6410760,-71.3382230,False,0
64896898,42.6321460,-71.3415120,False,0
64897009,42.6382610,-71.3428170,False,0
64897113,42.6316970,-71.3212150,False,0
64897256,42.6320100,-71.3213670,True,0
64897755,42.6359170,-71.3208950,False,0
64897919,42.6397877,-71.3400583,False,0
64897936,42.6327650,-71.3224040,False,0
64898207,42.6373913,-71.3261050,True,0
64898254,42.6317780,-71.3193910,False,0
64898301,42.6318390,-71.3426090,False,0
64898385,42.6385247,-71.3267170,True,0
64898391,42.6367520,-71.3238330,True,0
64898423,42.6324480,-71.3414130,False,0
64898501,42.6322820,-71.3414300,False,0
64898830,42.6362370,-71.3342800,True,0
64898869,42.6335220,-71.3306680,True,0
64898926,42.6318620,-71.3425120,False,0
64899079,42.6332250,-71.3315610,False,0
64899112,42.6329510,-71.3415100,False,0
64899212,42.6344010,-71.3319130,False,0
64899244,42.6308925,-71.3252942,False,0
64899338,42.6387050,-71.3420970,False,0
64899419,42.6338040,-71.3366350,False,0
64899458,42.6327670,-71.3277170,False,0
64899486,42.6326090,-71.3189970,False,0
64899609,42.6318740,-71.3206840,False,0
64899688,42.6325770,-71.3228970,False,0
64899697,42.6411067,-71.3175738,False,0
64899766,42.6300180,-71.3415410,False,0
64899980,42.6400569,-71.3282807,False,0
64900109,42.6365130,-71.3281690,False,0
64900140,42.6432820,-71.3367800,False,0
64900169,42.6401257,-71.3288493,False,0
64900332,42.6346480,-71.3395100,True,0
64900338,42.6301910,-71.3399020,False,0
64900421,42.6313010,-71.3376800,False,0
64900606,42.6292260,-71.3408230,False,0
64900616,42.6350140,-71.3269530,False,0
64900621,42.6332790,-71.3185480,True,1
64900671,42.6405668,-71.3267997,False,0
64900689,42.6311934,-71.3243735,False,0
64900776,42.6296287,-71.3239170,False,0
64900813,42.6318760,-71.3264190,False,0
64900861,42.6318350,-71.3252400,True,0
64900905,42.6388340,-71.3394970,False,0
64901008,42.6312320,-71.3331300,True,0
64901266,42.6357560,-71.3173870,False,0
64901291,42.6308948,-71.3261331,False,0
64901543,42.6337770,-71.3327180,False,0
64901659,42.6267622,-71.3295656,False,0
64901981,42.6370390,-71.3193760,False,0
64902000,42.6446520,-71.3354380,False,0
64902034,42.6342940,-71.3338270,False,0
64902249,42.6310890,-71.3253020,False,0
64902293,42.6367860,-71.3353730,True,0
64902571,42.6322050,-71.3213310,False,0
64902842,42.6277718,-71.3222967,False,0
64902957,42.6384590,-71.3369310,False,0
64902999,42.6301924,-71.3189463,False,0
64903115,42.6333240,-71.3191460,False,0
64903179,42.6301520,-71.3260380,False,0
64903303,42.6318800,-71.3194580,False,0
64903320,42.6400792,-71.3394881,False,0
64903351,42.6363240,-71.3209860,False,0
64903424,42.6400390,-71.3327390,True,0
64903456,42.6346170,-71.3281160,False,0
64903768,42.6412470,-71.3317010,False,0
64903809,42.6368780,-71.3391130,True,0
64903845,42.6316940,-71.3316840,True,0
64903949,42.6336750,-71.3376450,False,0
64904031,42.6333290,-71.3253220,False,0
64904323,42.6320950,-71.3195270,False,0
64904329,42.6300490,-71.3410340,False,0
64904344,42.6317710,-71.3160320,True,0
64904432,42.6316310,-71.3344910,True,0
64904512,42.6313590,-71.3175270,True,0
64904565,42.6354210,-71.3396870,False,0
64904677,42.6302827,-71.3240561,False,0
64904711,42.6378880,-71.3299990,False,0
64904813,42.6303170,-71.3427140,False,0
64904963,42.6398670,-71.3326840,True,0
64904977,42.6405703,-71.3244419,False,0
64904989,42.6365150,-71.3191270,False,0
64905031,42.6405210,-71.3387330,False,0
64905097,42.6337010,-71.3327480,False,0
64905223,42.6358110,-71.3406890,True,0
64905473,42.6304870,-71.3293070,False,0
64905498,42.6356270,-71.3406470,False,0
64905596,42.6401550,-71.3197735,True,0
64905612,42.6344680,-71.3284450,True,0
64905731,42.6333710,-71.3285660,False,0
64905753,42.6375976,-71.3175888,False,0
64905937,42.6373462,-71.3203978,True,0
64906044,42.6330220,-71.3197530,False,0
64906089,42.6389030,-71.3348850,False,0
64906131,42.6418830,-71.3310400,False,0
64906247,42.6350910,-71.3387040,True,0
64906335,42.6380970,-71.3438600,False,0
64906403,42.6337250,-71.3214490,True,0
64906458,42.6382680,-71.3429320,False,0
64906590,42.6303740,-71.3428430,False,0
64906602,42.6309593,-71.3208636,False,0
64906634,42.6306520,-71.3374730,True,0
64906795,42.6273552,-71.3233162,False,0
64906835,42.6349140,-71.3235620,False,0
64906846,42.6324710,-71.3191320,False,0
64906871,42.6325690,-71.3414620,False,0
64906908,42.6327206,-71.3239138,False,0
64907058,42.6391169,-71.3413115,True,0
64907513,42.6395400,-71.3262420,False,0
64907553,42.6329390,-71.3381870,False,0
64907717,42.6336810,-71.3301370,True,4
64907791,42.6380981,-71.3215562,True,0
64907855,42.6321670,-71.3333470,False,0
64907905,42.6307650,-71.3170910,False,0
64907920,42.6372180,-71.3299610,False,0
64908007,42.6313200,-71.3350670,False,0
64908030,42.6331750,-71.3316620,False,0
64908131,42.6384960,-71.3359290,False,0
64908258,42.6385693,-71.3295561,True,0
64908415,42.6398516,-71.3249441,True,0
64908527,42.6382060,-71.3429860,False,0
64908578,42.6384932,-71.3254590,True,0
64908629,42.6362470,-71.3209520,False,0
64908634,42.6318790,-71.3208560,False,0
64908692,42.6357740,-71.3236120,False,0
64908734,42.6366470,-71.3343700,False,0
64908820,42.6380550,-71.3356710,False,0
64908835,42.6382749,-71.3203319,True,0
64908951,42.6306180,-71.3342430,False,0
64909168,42.6333020,-71.3251740,False,0
64909403,42.6298130,-71.3302170,False,0
64909646,42.6364060,-71.3184200,True,0
64909717,42.6370920,-71.3257340,False,0
64909810,42.6360690,-71.3250320,False,0
64909819,42.6408013,-71.3305604,True,0
64909906,42.6304932,-71.3211246,False,0
64909916,42.6352460,-71.3182370,False,0
64910000,42.6374710,-71.3364620,False,0
64910028,42.6402173,-71.3392068,False,0
64910137,42.6339930,-71.3308110,False,0
64910279,42.6349230,-71.3277250,False,0
64910304,42.6385683,-71.3294487,False,0
64910345,42.6355020,-71.3231110,False,0
64910385,42.6373750,-71.3285130,False,0
64910411,42.6319060,-71.3194990,False,0
64910552,42.6364370,-71.3375620,False,0
64910724,42.6412130,-71.3198030,False,0
64911141,42.6313033,-71.3415665,True,0
64911495,42.6393321,-71.3168676,False,0
64911643,42.6405340,-71.3266778,False,0
64911830,42.6330500,-71.3198510,False,0
64911981,42.6335630,-71.3385520,False,0
64912071,42.6319180,-71.3212740,False,0
64912289,42.6300740,-71.3419960,False,0
64913400,42.6384680,-71.3366970,True,0
64913426,42.6293384,-71.3238199,False,0
64913592,42.6348560,-71.3370290,False,0
64913612,42.6345960,-71.3303800,True,0
64913822,42.6292212,-71.3186431,False,0
64913832,42.6302510,-71.3394450,False,0
64913887,42.6324270,-71.3414010,True,4
64913932,42.6387811,-71.3419362,False,0
64913974,42.6300170,-71.3282860,False,0
64914071,42.6357160,-71.3278710,True,0
64914141,42.6409290,-71.3330240,True,0
64914366,42.6331700,-71.3182370,False,0
64914412,42.6360720,-71.3209070,False,0
64914533,42.6350340,-71.3262880,False,0
64914560,42.6353680,-71.3198870,False,0
64914832,42.6404236,-71.3328724,True,0
64915029,42.6325700,-71.3212840,False,0
64915175,42.6376815,-71.3171940,True,0
64915265,42.6330000,-71.3306050,False,0
64915272,42.6303990,-71.3320740,False,0
64915371,42.6279090,-71.3298080,False,0
64915386,42.6389780,-71.3394360,False,0
64915673,42.6338430,-71.3326950,False,0
64915716,42.6235170,-71.3383850,False,0
64915739,42.6250620,-71.3384440,False,0
64915792,42.6320810,-71.3416080,False,0
64915892,42.6239230,-71.3382600,False,0
64916269,42.6316210,-71.3324180,True,0
64916642,42.6310170,-71.3392690,False,0
64916654,42.6306870,-71.3180120,False,0
64916731,42.6363460,-71.3177730,False,0
64917151,42.6372792,-71.3238014,True,0
64917295,42.6351460,-71.3251580,False,0
64917507,42.6329460,-71.3228370,False,0
64917636,42.6333670,-71.3257990,True,0
64917671,42.6405233,-71.3266074,False,0
64917873,42.6376530,-71.3300030,False,0
64918126,42.6395120,-71.3358760,True,0
64918321,42.6384600,-71.3427900,False,0
64918335,42.6304360,-71.3429800,False,0
64918443,42.6320110,-71.3276290,False,0
64918615,42.6324900,-71.3329380,False,0
64918696,42.6284910,-71.3235670,False,0
64918763,42.6405500,-71.3244064,False,0
64918837,42.6346670,-71.3251750,False,0
64919131,42.6409966,-71.3370998,False,0
64919167,42.6367970,-71.3176120,False,0
64919186,42.6292840,-71.3318030,False,0
64919196,42.6364430,-71.3212820,False,0
64919240,42.6407820,-71.3218733,False,0
64919249,42.6319220,-71.3305060,False,0
64919487,42.6317150,-71.3295490,True,0
64919663,42.6357120,-71.3238850,True,0
64919679,42.6299341,-71.3239890,False,0
64919750,42.6412792,-71.3218367,False,0
64920012,42.6418771,-71.3333211,True,1
64920217,42.6389590,-71.3394640,True,4
64920247,42.6323550,-71.3414120,False,0
64920285,42.6283160,-71.3235270,False,0
64920456,42.6304570,-71.3384200,False,0
64920995,42.6301640,-71.3401370,False,0
64921206,42.6374005,-71.3231839,False,0
64921333,42.6368340,-71.3250500,False,0
64921426,42.6391887,-71.3266204,False,0
64921501,42.6327120,-71.3176977,True,0
64921512,42.6389812,-71.3164840,False,0
64921604,42.6377293,-71.3169139,False,0
64921641,42.6305835,-71.3210831,False,0
64921890,42.6351310,-71.3263770,True,0
64922072,42.6356050,-71.3214240,False,0
64922130,42.6390030,-71.3393330,False,0
64922358,42.6365000,-71.3274360,False,0
64922803,42.6408119,-71.3181668,False,0
64922919,42.6323117,-71.3185950,True,0
64922958,42.6395159,-71.3299771,True,0
64923037,42.6364650,-71.3294610,False,0
64923098,42.6337170,-71.3332990,False,0
64923161,42.6392400,-71.3324820,True,0
64923578,42.6316780,-71.3193580,False,0
64923695,42.6341190,-71.3434670,False,0
64923907,42.6385870,-71.3333310,False,0
64924046,42.6313510,-71.3175130,False,0
64924100,42.6405940,-71.3201100,False,0
64924107,42.6386260,-71.3423030,False,0
64924193,42.6382820,-71.3416970,False,0
64924210,42.6319490,-71.3211780,False,0
64924570,42.6298460,-71.3311280,False,0
64924802,42.6362080,-71.3177650,False,0
64924825,42.6339120,-71.3213900,False,0
64925061,42.6301270,-71.3359490,False,0
64925144,42.6356800,-71.3313480,True,0
64925195,42.6308110,-71.3169260,False,0
64925294,42.6405802,-71.3244986,False,0
64925535,42.6335357,-71.3237522,False,0
64925574,42.6321980,-71.3411620,False,0
64925666,42.6364590,-71.3177290,True,0
64925755,42.6318760,-71.3258700,False,0
64925793,42.6375697,-71.3177022,True,0
64925871,42.6401406,-71.3287205,True,0
64925987,42.6322870,-71.3212960,False,0
64926263,42.6326890,-71.3189130,False,0
64926281,42.6320630,-71.3413570,False,0
64926288,42.6295770,-71.3318660,False,0
64926340,42.6382610,-71.3426490,False,0
64926404,42.6358260,-71.3278560,False,0
64926434,42.6402231,-71.3233888,False,0
64926462,42.6436460,-71.3364720,False,0
64926661,42.6377070,-71.3378600,True,0
64926845,42.6332740,-71.3406140,False,0
64926879,42.6328405,-71.3242776,True,0
64927334,42.6238120,-71.3382380,False,0
64927451,42.6386220,-71.3173296,False,0
64927519,42.6323780,-71.3413740,False,0
64927542,42.6388820,-71.3164530,False,0
64927566,42.6376950,-71.3392920,False,0
64927632,42.6311730,-71.3353500,False,0
64927729,42.6369250,-71.3169310,False,0
64927739,42.6299760,-71.3177871,False,0
64927744,42.6311340,-71.3354520,False,0
64927989,42.6383740,-71.3393440,False,0
64928022,42.6406140,-71.3386210,False,0
64928030,42.6307810,-71.3169830,False,0
64928075,42.6336970,-71.3262460,False,0
64928219,42.6383827,-71.3309245,True,0
64928356,42.6349740,-71.3272340,True,0
64928448,42.6355430,-71.3224850,False,0
64928479,42.6332550,-71.3285750,False,0
64928533,42.6369180,-71.3176150,False,0
64928548,42.6413122,-71.3357426,False,0
64928553,42.6387222,-71.3166270,False,0
64928563,42.6405182,-71.3265346,False,0
64928587,42.6334500,-71.3270830,True,0
64928594,42.6295760,-71.3327460,False,0
64928743,42.6307930,-71.3171450,False,0
64929014,42.6349400,-71.3371150,True,0
64929088,42.6314270,-71.3348710,True,0
64929144,42.6333400,-71.3254520,False,0
64929147,42.6348460,-71.3284020,False,0
64929274,42.6337260,-71.3337140,False,0
64929336,42.6386114,-71.3322726,True,0
64929523,42.6329650,-71.3195810,False,0
64929816,42.6336270,-71.3208730,False,0
64930086,42.6358620,-71.3171180,False,0
64930226,42.6318890,-71.3423610,False,0
64930287,42.6377710,-71.3346320,False,0
64930311,42.6385360,-71.3347980,True,0
64930409,42.6345450,-71.3307860,False,0
64930465,42.6328400,-71.3285660,False,0
64930525,42.6311890,-71.3241547,True,0
64930861,42.6318000,-71.3316930,False,0
64931002,42.6351500,-71.3355010,False,0
64931065,42.6318232,-71.3221918,False,0
64931185,42.6324600,-71.3285300,True,0
64931272,42.6381780,-71.3433110,False,0
64931323,42.6378590,-71.3178570,False,0
64931347,42.6327830,-71.3324080,True,0
64931448,42.6294970,-71.3259790,False,0
64931566,42.6370190,-71.3400590,False,0
64931610,42.6387930,-71.3164920,False,0
64931655,42.6428960,-71.3370900,False,0
64931695,42.6311884,-71.3242524,False,0
64931999,42.6412777,-71.3358841,True,0
64932086,42.6313640,-71.3176300,False,0
64932288,42.6373794,-71.3212301,False,0
64932349,42.6347730,-71.3289760,True,0
64932697,42.6414764,-71.3350086,False,2
64932800,42.6362420,-71.3190820,False,0
327264075,42.6368409,-71.3304849,False,0
327288291,42.6368898,-71.3297714,False,0
327311794,42.6427452,-71.3372822,False,0
327327238,42.6429287,-71.3371588,False,0
327338525,42.6431042,-71.3370046,False,0
327340439,42.6432266,-71.3369007,False,0
327667461,42.6366870,-71.3297461,False,0
327673597,42.6366375,-71.3304462,False,0
328279990,42.6371398,-71.3188162,False,0
328300937,42.6438170,-71.3363910,False,0
328305596,42.6319043,-71.3426631,False,0
328327230,42.6369035,-71.3176724,False,0
328332151,42.6320340,-71.3316551,False,0
328579650,42.6328352,-71.3416451,False,0
328589053,42.6320718,-71.3417645,False,0
328589908,42.6323440,-71.3429616,False,0
328592256,42.6325472,-71.3415494,False,0
328594225,42.6366591,-71.3185331,False,0
328606381,42.6321302,-71.3416389,False,0
328608069,42.6374710,-71.3177766,False,0
328610078,42.6320599,-71.3311722,False,0
328636955,42.6383870,-71.3208178,False,0
328644135,42.6383255,-71.3213012,False,0
328650585,42.6383757,-71.3229971,False,0
328653514,42.6391669,-71.3227895,False,0
328684484,42.6387895,-71.3211798,False,0
328713551,42.6413788,-71.3384110,False,0
328714926,42.6440192,-71.3362066,False,0
328717881,42.6463788,-71.3328140,False,0
328718412,42.6404416,-71.3396493,True,0
328722344,42.6448651,-71.3352136,False,0
328724824,42.6401028,-71.3395540,False,0
328726046,42.6460607,-71.3332964,False,0
328726451,42.6461702,-71.3331194,False,0
328727165,42.6452232,-71.3346443,False,0
328727181,42.6323780,-71.3185417,False,0
328727217,42.6410375,-71.3383263,False,0
328729205,42.6445366,-71.3356541,False,0
328730145,42.6411169,-71.3382773,False,0
328733947,42.6462383,-71.3330054,False,0
328736489,42.6408373,-71.3390232,True,0
328738070,42.6314519,-71.3316116,False,0
328739153,42.6410118,-71.3388714,True,0
328740857,42.6322217,-71.3189236,False,0
328741954,42.6434175,-71.3367458,False,0
328743177,42.6417478,-71.3378897,False,0
328744809,42.6409290,-71.3384047,False,0
328746017,42.6410972,-71.3386517,False,0
328747120,42.6436828,-71.3365131,False,0
328747137,42.6327336,-71.3188934,False,0
328748452,42.6447512,-71.3353866,False,0
328750045,42.6417034,-71.3380638,True,0
328750423,42.6446984,-71.3354576,False,0
328751537,42.6414576,-71.3380593,False,0
328753330,42.6425927,-71.3373687,False,0
328758626,42.6457792,-71.3337571,False,0
328761572,42.6419925,-71.3377429,False,0
328762340,42.6309861,-71.3315775,False,0
328763965,42.6410064,-71.3383524,False,0
328764393,42.6447941,-71.3353235,False,0
328764648,42.6407736,-71.3385375,False,0
328765121,42.6403182,-71.3396250,False,0
328765506,42.6405245,-71.3394964,True,0
328766889,42.6406537,-71.3393059,False,0
328767739,42.6411835,-71.3382337,False,0
328769207,42.6413024,-71.3381626,False,0
328769799,42.6310059,-71.3313234,False,0
328769863,42.6412984,-71.3384971,False,0
328770525,42.6446392,-71.3355213,False,0
328771452,42.6449327,-71.3351069,False,0
328771553,42.6415372,-71.3380111,False,0
328773068,42.6416427,-71.3379501,False,0
328774937,42.6310271,-71.3310742,False,0
328775304,42.6451542,-71.3347536,False,0
328778326,42.6424448,-71.3374673,False,0
328778341,42.6453263,-71.3345041,False,0
328779346,42.6402137,-71.3393200,False,0
328780033,42.6405963,-71.3393795,False,0
328780233,42.6420852,-71.3376859,False,0
328782021,42.6418903,-71.3378113,False,0
328782529,42.6423175,-71.3375397,False,0
328783851,42.6404781,-71.3395715,True,0
328783976,42.6442027,-71.3360296,False,0
328784776,42.6320657,-71.3195871,False,0
328785753,42.6449722,-71.3350399,False,0
328785916,42.6450466,-71.3349225,False,0
328835451,42.6316427,-71.3198956,False,0
328839819,42.6313947,-71.3196446,False,0
328841516,42.6311017,-71.3204637,False,0
328844684,42.6315592,-71.3198490,False,0
328847697,42.6305957,-71.3193602,False,0
960060195,42.6452183,-71.3356233,True,0
960061017,42.6460331,-71.3348280,True,0
960065334,42.6423141,-71.3376939,True,0
960066125,42.6456967,-71.3352236,True,0
960066918,42.6465845,-71.3339590,True,0
960070830,42.6418632,-71.3379581,True,0
960071872,42.6438540,-71.3366760,True,0
960072702,42.6462846,-71.3344592,True,0
960076854,42.6425725,-71.3375451,True,0
960077645,42.6448612,-71.3359371,True,0
960082611,42.6443719,-71.3363609,True,0
960083487,42.6453761,-71.3355106,True,0
1238033773,42.6442725,-71.3358850,False,0
1238033803,42.6445395,-71.3355801,False,0
1359733721,42.6375236,-71.3162101,False,0
1470956594,42.6291683,-71.3186170,False,0
1471213472,42.6288761,-71.3236666,False,0
1471213479,42.6326772,-71.3243027,False,0
1471213493,42.6327677,-71.3242996,False,0
1471213494,42.6309492,-71.3209697,False,0
1471213507,42.6301016,-71.3240258,True,0
1471213510,42.6309421,-71.3208883,False,0
1471213511,42.6275027,-71.3233477,False,0
1471259281,42.6261457,-71.3229984,False,0
1481587865,42.6378382,-71.3161282,False,0
1481587866,42.6378239,-71.3161960,False,2
1481657588,42.6401713,-71.3189332,False,0
1481657605,42.6409211,-71.3252029,False,0
1481657619,42.6400723,-71.3214819,True,0
1481674249,42.6385704,-71.3192308,False,0
1481674259,42.6385491,-71.3193675,False,0
1481674261,42.6386115,-71.3188560,False,0
1481674263,42.6386525,-71.3185950,False,0
1481674267,42.6385205,-71.3195066,False,0
1481674276,42.6385846,-71.3191085,False,0
1481699854,42.6385679,-71.3175498,False,0
1481699869,42.6385641,-71.3194504,False,0
1482813967,42.6283480,-71.3180480,False,0
1483803944,42.6333083,-71.3163887,False,0
1483838343,42.6320127,-71.3192524,False,0
1513687418,42.6377863,-71.3164633,False,0
3236386237,42.6305128,-71.3196941,False,0
3236386238,42.6305292,-71.3196282,False,0
3236386240,42.6307615,-71.3198163,False,0
3399767723,42.6351578,-71.3354394,True,0
3399767724,42.6352690,-71.3345752,True,0
3399767737,42.6360424,-71.3358413,True,0
3399767739,42.6362036,-71.3345481,True,0
3586751064,42.6388925,-71.3184219,True,0
3586751065,42.6393416,-71.3186552,True,0
3586751066,42.6395451,-71.3180575,False,0
3748306136,42.6408431,-71.3329988,True,0
3748306148,42.6413320,-71.3356447,True,0
3748366595,42.6408308,-71.3378153,False,0
3748366598,42.6407869,-71.3380835,False,0
3748366600,42.6412432,-71.3360370,False,0
3748366608,42.6390593,-71.3390927,True,0
3748367919,42.6408737,-71.3376282,True,0
3748392317,42.6445907,-71.3355154,False,0
3748392319,42.6442217,-71.3359383,False,0
3748392448,42.6419579,-71.3310733,False,0
3748408824,42.6416122,-71.3378941,True,0
3748409158,42.6405543,-71.3386929,True,0
3789007059,42.6328794,-71.3311368,False,0
3789007060,42.6328865,-71.3309486,False,0
3789007062,42.6329022,-71.3312338,False,0
3789007063,42.6329036,-71.3305961,True,0
3789007067,42.6329365,-71.3312823,False,0
3789007069,42.6329850,-71.3313114,False,0
3789007071,42.6330978,-71.3313366,False,0
3789007073,42.6332006,-71.3313560,False,0
5458738890,42.6401404,-71.3200290,True,0
5458738898,42.6401105,-71.3204121,True,0
5458742774,42.6333694,-71.3162610,False,0
5458742775,42.6300097,-71.3196233,False,0
5458742776,42.6304294,-71.3197902,False,0
5458742777,42.6307333,-71.3199350,False,0
5458742778,42.6310853,-71.3206270,True,0
5458742779,42.6309948,-71.3204473,True,0
5458742785,42.6306348,-71.3210541,True,0
5466110038,42.6408012,-71.3379494,True,0
5466110040,42.6408214,-71.3378549,True,0
5466110042,42.6409665,-71.3372245,True,0
5466110052,42.6408096,-71.3379085,True,0
5466110054,42.6409433,-71.3373198,True,0
5466135610,42.6302419,-71.3320275,False,0
5466135611,42.6301242,-71.3328734,False,0
5584744983,42.6383811,-71.3430302,False,2
5584744984,42.6407495,-71.3384788,True,2
5584744985,42.6408153,-71.3382303,True,2
5584744986,42.6409800,-71.3382881,True,2
5584744987,42.6452129,-71.3345718,False,2
5584746856,42.6386487,-71.3182850,True,2
5584918580,42.6386017,-71.3306795,False,2
5584918581,42.6383483,-71.3307859,False,2
5584918582,42.6385740,-71.3296260,False,2
5584918583,42.6385067,-71.3295282,False,2
5584918584,42.6386365,-71.3295859,False,2
5584918585,42.6385333,-71.3247155,False,2
5584918586,42.6384626,-71.3246288,True,2
5584918587,42.6384064,-71.3246949,False,2
5584918588,42.6380616,-71.3214624,False,0
5584918589,42.6379833,-71.3212764,False,2
5584918590,42.6380051,-71.3214247,False,2
5584918593,42.6381439,-71.3207558,True,0
5584918595,42.6383809,-71.3199944,False,2
5584918596,42.6305117,-71.3211161,False,2
5585000553,42.6409753,-71.3177501,True,0
5585000554,42.6406699,-71.3187564,True,0
5586930771,42.6410571,-71.3176382,False,2
5586930794,42.6373197,-71.3248092,False,2
5586930795,42.6372614,-71.3249112,False,2
5586930796,42.6371894,-71.3248307,False,2
5586930797,42.6372491,-71.3247355,False,2
5586930798,42.6364410,-71.3248823,False,2
5586930799,42.6362816,-71.3250632,False,2
5586930800,42.6355032,-71.3251217,False,2
5586930801,42.6353830,-71.3252463,False,2
5586930802,42.6354463,-71.3249771,False,2
5586930803,42.6353223,-71.3251452,False,2
5586930804,42.6334384,-71.3251578,False,2
5586930805,42.6333133,-71.3252331,False,2
5586930806,42.6332400,-71.3251484,False,2
5586930807,42.6312908,-71.3252896,False,2
5586930808,42.6312359,-71.3253918,False,2
5586930809,42.6311842,-71.3252983,False,2
5586930810,42.6312254,-71.3251436,False,2
5586930811,42.6302923,-71.3252211,False,2
5586930813,42.6301687,-71.3252034,False,2
5586930816,42.6302458,-71.3239582,False,2
5586930818,42.6302361,-71.3260503,False,2
5586930820,42.6301029,-71.3260336,False,2
5586932621,42.6301274,-71.3274313,False,2
5586932623,42.6300798,-71.3282927,False,2
5586932625,42.6300224,-71.3291641,False,2
5586932627,42.6298830,-71.3291218,False,2
5586932629,42.6299290,-71.3302428,False,2
5586932631,42.6297552,-71.3302046,False,2
5586932637,42.6299179,-71.3311434,False,2
5586932638,42.6310107,-71.3316220,False,2
5586932639,42.6310065,-71.3305114,False,2
5586932640,42.6310966,-71.3304480,False,2
5586932641,42.6310164,-71.3303405,False,2
5586932642,42.6309448,-71.3304323,False,2
5586932643,42.6311390,-71.3294739,False,2
5586932644,42.6310696,-71.3293562,False,2
5586932645,42.6309926,-71.3294493,False,2
5586932646,42.6310566,-71.3295849,False,2
5586932647,42.6311977,-71.3284106,False,2
5586932648,42.6311212,-71.3285152,False,2
5586932649,42.6310902,-71.3284000,False,2
5586932650,42.6311353,-71.3282834,False,2
5586932651,42.6312471,-71.3275644,False,2
5586932652,42.6311829,-71.3276403,False,2
5586932653,42.6311380,-71.3275533,False,2
5586932654,42.6311976,-71.3274170,False,2
5586932655,42.6312824,-71.3268584,False,2
5586932656,42.6311958,-71.3240741,False,2
5586932657,42.6311138,-71.3241467,False,2
5586932658,42.6313024,-71.3241660,False,2
5586932659,42.6328041,-71.3242886,False,2
5586932660,42.6328629,-71.3243230,False,2
5586932661,42.6329038,-71.3242292,False,2
5586932662,42.6318955,-71.3200363,False,2
5586932663,42.6319835,-71.3199550,False,2
5586932664,42.6320730,-71.3195544,False,2
5586932665,42.6332450,-71.3184360,False,2
5738745160,42.6417028,-71.3340616,False,2
6035068119,42.6381281,-71.3213378,False,0
6035068120,42.6387300,-71.3210320,False,0
6038086172,42.6323465,-71.3414986,False,0
6038086173,42.6322271,-71.3415349,False,0
6086431049,42.6418504,-71.3334322,False,2
6086431051,42.6418093,-71.3332988,False,2
6237315988,42.6409319,-71.3373680,True,0
6237315995,42.6408476,-71.3377415,True,0
6237315996,42.6349341,-71.3276235,True,0
6237315997,42.6348901,-71.3276222,False,0
6237315998,42.6348516,-71.3276383,False,0
6238896807,42.6386130,-71.3312688,True,0
6250169363,42.6338486,-71.3262508,False,0
6289964117,42.6307277,-71.3261151,False,0
6291597987,42.6287255,-71.3394831,False,0
6292222125,42.6343267,-71.3378368,False,0
6292222126,42.6342386,-71.3384911,True,0
6388651968,42.6404316,-71.3245267,True,0
6400513285,42.6354096,-71.3334531,True,0
6400513287,42.6359019,-71.3342062,True,0
6401276628,42.6321834,-71.3171487,True,0
6401276629,42.6320264,-71.3174438,False,0
6401597338,42.6370870,-71.3291843,True,0
6401597339,42.6370546,-71.3299404,False,0
6579027975,42.6356765,-71.3274133,True,0
6579027976,42.6359636,-71.3273661,False,0
6579027977,42.6379535,-71.3311896,False,0
6579027978,42.6381035,-71.3312338,False,0
6579027979,42.6381755,-71.3317072,False,0
6579027980,42.6381177,-71.3321170,True,0
6755463005,42.6303765,-71.3211749,True,0
6755463015,42.6310126,-71.3235988,True,0
6755463016,42.6308903,-71.3236561,False,0
6755463018,42.6310272,-71.3235920,False,0
6755463019,42.6297661,-71.3214381,False,0
6755463026,42.6293130,-71.3216336,False,0
6755463033,42.6290970,-71.3217267,False,0
6755463034,42.6281389,-71.3221398,False,0
6755463035,42.6279341,-71.3222273,False,0
6755463036,42.6281207,-71.3221475,False,0
6755463037,42.6268195,-71.3227077,False,0
6755476775,42.6377694,-71.3166061,False,0
6755476782,42.6372956,-71.3163360,False,0
6755476783,42.6374621,-71.3162441,False,0
6755479393,42.6389462,-71.3164655,True,0
6755486509,42.6382674,-71.3420742,True,0
6759041058,42.6339940,-71.3226889,True,0
6759041065,42.6343600,-71.3226371,True,0
6765955997,42.6385435,-71.3278375,True,0
6765956006,42.6385366,-71.3273855,True,0
6771746191,42.6344449,-71.3315666,True,0
6774036735,42.6383008,-71.3230202,True,0
6787003523,42.6442959,-71.3359270,False,0
6787003524,42.6443956,-71.3358365,False,0
6787003546,42.6406069,-71.3387098,False,0
6787003547,42.6404155,-71.3389646,False,0
6787003577,42.6408683,-71.3383712,True,1
6787003611,42.6390669,-71.3390467,True,0
6833084053,42.6468213,-71.3331154,True,0
6833084054,42.6466703,-71.3336478,True,0
6833084055,42.6464509,-71.3327038,False,0
6833084156,42.6463527,-71.3343371,True,0
6833084157,42.6458575,-71.3350587,True,0
6833084158,42.6461702,-71.3346402,True,0
6833084159,42.6460726,-71.3347475,True,0
6833084160,42.6464474,-71.3342151,True,0
6833457141,42.6415264,-71.3348034,False,0
6833579489,42.6407909,-71.3381372,False,0
6833579490,42.6407899,-71.3380165,False,0
6835655200,42.6409780,-71.3371770,True,2
6841814094,42.6422918,-71.3312218,False,2
6861457958,42.6412575,-71.3359737,False,2
6862134856,42.6410435,-71.3176557,False,0
6867325684,42.6353525,-71.3224985,True,0
6877456012,42.6350238,-71.3311451,True,0
6878204177,42.6383106,-71.3202184,True,0
6878204180,42.6384728,-71.3197020,True,0
6878204184,42.6381794,-71.3206307,True,0
6878590900,42.6354766,-71.3312851,True,0
6885198342,42.6341225,-71.3180756,True,0
6885198345,42.6342881,-71.3179822,True,0
6887751554,42.6332153,-71.3290136,False,0
6887751555,42.6332242,-71.3291330,False,0
6961284542,42.6407256,-71.3218133,True,0
6961284543,42.6407329,-71.3218376,False,0
6961284544,42.6407629,-71.3218695,False,0
6961284678,42.6401970,-71.3192866,False,0
6961284718,42.6398823,-71.3299370,False,0
6961284719,42.6396238,-71.3294770,False,0
6961284720,42.6395173,-71.3267508,False,0
6961284721,42.6394835,-71.3268306,False,0
6961284722,42.6394955,-71.3267868,False,0
6961284723,42.6381222,-71.3247214,False,0
6961284724,42.6375934,-71.3279749,False,0
6961284725,42.6378691,-71.3292530,False,2
6961284726,42.6379625,-71.3293593,False,2
6961284727,42.6379195,-71.3292010,False,2
6961284728,42.6386151,-71.3314921,False,0
6961284729,42.6386107,-71.3310192,True,0
6961284730,42.6385188,-71.3311280,True,0
6961284731,42.6384738,-71.3313221,False,0
6961284732,42.6388163,-71.3305740,False,0
6961284735,42.6398201,-71.3274010,False,0
6961284745,42.6398852,-71.3253229,False,0
6961284746,42.6398093,-71.3261390,False,0
6961284747,42.6398507,-71.3275351,False,0
6961284748,42.6391680,-71.3251600,False,0
6961284749,42.6389117,-71.3246990,True,2
6961284750,42.6373241,-71.3235252,False,0
6961284751,42.6372338,-71.3241481,False,0
6961284752,42.6372323,-71.3244639,False,0
6961284753,42.6389085,-71.3245913,False,0
6961284755,42.6393717,-71.3247640,True,2
7013268483,42.6355285,-71.3325111,True,0
7013268484,42.6355783,-71.3321291,True,0
7025805982,42.6368569,-71.3305284,True,0
7025805983,42.6369064,-71.3299552,False,0
7049354823,42.6384164,-71.3310627,True,0
7059149561,42.6301965,-71.3423838,False,0
7081461359,42.6326581,-71.3270115,True,0
7081830590,42.6329012,-71.3321939,True,0
7081830593,42.6329954,-71.3320258,True,0
