Node ID,Lat,Lon,Is Intersection,Type
220732215,36.8143400,-76.2258760,False,0
220763366,36.8180460,-76.2237420,False,0
220767019,36.8141650,-76.2213740,False,0
220767022,36.8143280,-76.2213040,False,0
220767026,36.8145078,-76.2212939,True,0
220767032,36.8149320,-76.2213130,False,0
220767035,36.8150260,-76.2213210,False,0
220808060,36.8140930,-76.2268500,False,0
220808063,36.8144970,-76.2252260,False,0
220808066,36.8145860,-76.2249560,False,0
220808070,36.8146390,-76.2248420,False,0
220808074,36.8146920,-76.2247410,False,0
220808078,36.8148500,-76.2244870,False,0
220808081,36.8153010,-76.2238000,False,0
220808086,36.8153330,-76.2237310,False,0
220808089,36.8153880,-76.2235930,False,0
220808097,36.8156280,-76.2226360,True,0
220808101,36.8157460,-76.2221670,False,0
220808105,36.8157580,-76.2220750,False,0
220808106,36.8157560,-76.2220000,False,0
220808118,36.8157390,-76.2218870,False,0
220808129,36.8157120,-76.2217550,False,0
220834961,36.8190960,-76.2270350,False,0
220834965,36.8168880,-76.2274160,False,0
220835005,36.8125620,-76.2262850,False,0
220905074,36.8167960,-76.2264890,False,0
220905077,36.8167630,-76.2262140,False,0
220905080,36.8167580,-76.2260630,False,0
220905083,36.8167640,-76.2258820,False,0
220905086,36.8168010,-76.2255870,False,0
220905089,36.8168410,-76.2254110,False,0
220905093,36.8171280,-76.2242820,False,0
220905096,36.8173650,-76.2233210,True,0
220913240,36.8143870,-76.2227990,False,0
220934374,36.8131840,-76.2238400,False,0
220951481,36.8190740,-76.2268110,False,0
220951487,36.8190390,-76.2266270,False,0
220951494,36.8189900,-76.2264300,False,0
220951499,36.8183870,-76.2243670,False,0
220951501,36.8183360,-76.2242290,False,0
220951504,36.8182530,-76.2240400,False,0
220951508,36.8182040,-76.2239490,False,0
220951515,36.8181370,-76.2238520,False,0
220951519,36.8179350,-76.2236260,False,0
220951522,36.8178500,-76.2235530,False,0
220951525,36.8176640,-76.2234360,False,0
220951529,36.8174660,-76.2233530,False,0
220951533,36.8153680,-76.2225270,False,0
220951537,36.8151340,-76.2224490,False,0
220951540,36.8150440,-76.2224480,False,0
220951543,36.8149490,-76.2224580,False,0
220951546,36.8148700,-76.2224840,False,0
220951549,36.8133790,-76.2234750,False,0
220951552,36.8133160,-76.2235220,False,0
220951558,36.8132590,-76.2235910,False,0
220951562,36.8132220,-76.2236610,False,0
220951563,36.8132030,-76.2237260,False,0
221248643,36.8167230,-76.1978350,True,0
221250074,36.8131190,-76.1978330,False,0
221264312,36.8263149,-76.2119019,True,0
221264333,36.8264590,-76.2128040,False,0
221264385,36.8227710,-76.2069130,False,0
221264386,36.8230660,-76.2069620,False,0
221264388,36.8231390,-76.2069560,False,0
221264394,36.8235130,-76.2068280,False,0
221264397,36.8240180,-76.2066440,False,0
221264399,36.8245650,-76.2064620,False,0
221264402,36.8246560,-76.2064430,False,0
221264404,36.8248860,-76.2064080,False,0
221264405,36.8251170,-76.2063910,False,0
221264408,36.8253480,-76.2063930,False,0
221264411,36.8255640,-76.2063740,False,0
221264420,36.8256460,-76.2063540,True,0
221264424,36.8259400,-76.2062750,False,0
221264428,36.8263120,-76.2061590,False,0
221264433,36.8267640,-76.2060040,False,0
221264437,36.8270880,-76.2059060,False,0
221264438,36.8271770,-76.2058650,True,0
221264442,36.8272820,-76.2057990,False,0
221264445,36.8274410,-76.2056770,False,0
221264446,36.8277660,-76.2053880,False,0
221264450,36.8278120,-76.2053140,False,0
221264451,36.8278490,-76.2052260,False,0
221264454,36.8278780,-76.2051330,False,0
221264458,36.8279570,-76.2047670,False,0
221266578,36.8185170,-76.2135650,True,0
221266594,36.8192780,-76.2119583,True,0
221272648,36.8214380,-76.2126173,True,0
221272664,36.8212888,-76.2122053,True,1
221272666,36.8212001,-76.2119674,True,1
221278053,36.8245290,-76.1993420,True,0
221279991,36.8283500,-76.2106260,False,1
221279993,36.8283470,-76.2103890,False,1
221290064,36.8227700,-76.2008320,False,0
221290067,36.8226520,-76.2007900,False,0
221290071,36.8225560,-76.2007710,False,0
221290073,36.8223790,-76.2007570,False,0
221290076,36.8222740,-76.2007250,False,0
221290078,36.8222050,-76.2006870,False,0
221290083,36.8221910,-76.2006790,False,0
221290086,36.8221490,-76.2006450,False,0
221290089,36.8220980,-76.2005810,False,0
221290091,36.8220590,-76.2005040,False,0
221290095,36.8220360,-76.2004380,False,0
221290098,36.8220200,-76.2003490,False,0
221290101,36.8220200,-76.2001490,False,0
221290104,36.8220780,-76.1980460,True,0
221294573,36.8156600,-76.1978030,True,0
221296577,36.8253410,-76.2106860,True,0
221296581,36.8253360,-76.2104460,True,0
221296867,36.8174950,-76.1978540,True,0
221296905,36.8160630,-76.1978160,True,0
221303608,36.8132900,-76.2169570,False,0
221303610,36.8131813,-76.2167047,False,0
221310704,36.8238527,-76.2106771,True,0
221310708,36.8238390,-76.2109280,True,0
221320931,36.8178230,-76.1978600,True,0
221331083,36.8154070,-76.2186440,True,0
221331089,36.8154170,-76.2184480,False,0
221331094,36.8154240,-76.2184060,False,0
221331097,36.8154390,-76.2183770,False,0
221331107,36.8154584,-76.2183453,False,0
221331111,36.8155264,-76.2183274,False,0
221331133,36.8162070,-76.2174870,False,0
221341687,36.8210170,-76.1979830,True,0
221345028,36.8224720,-76.2112340,True,0
221345033,36.8225420,-76.2114610,True,0
221345341,36.8160140,-76.1978140,True,0
221345386,36.8153040,-76.1977890,False,0
221345503,36.8144477,-76.1977829,False,0
221376200,36.8185360,-76.1978690,True,0
221386173,36.8295090,-76.2104230,False,1
221393975,36.8231460,-76.2168730,True,0
221397171,36.8151870,-76.2158300,False,0
221397174,36.8150960,-76.2155670,False,0
221413173,36.8121780,-76.2176010,False,0
221420406,36.8220860,-76.2117200,False,0
221420428,36.8223280,-76.2124630,False,0
221421399,36.8191520,-76.1978880,True,0
221425950,36.8171920,-76.2131630,False,0
221437847,36.8214800,-76.2128550,False,0
221444331,36.8154350,-76.2206090,False,0
221444335,36.8153850,-76.2204070,False,0
221444339,36.8153160,-76.2200810,False,0
221444342,36.8152930,-76.2199380,False,0
221444347,36.8152840,-76.2198450,False,0
221444350,36.8152820,-76.2196890,True,0
221444353,36.8152940,-76.2195340,False,0
221445962,36.8181740,-76.2176230,True,0
221445968,36.8180660,-76.2176370,False,0
221445970,36.8177460,-76.2176670,False,0
221445975,36.8174240,-76.2176800,False,0
221445979,36.8170280,-76.2176730,False,0
221445983,36.8164940,-76.2176900,False,0
221445986,36.8164210,-76.2176740,True,0
221445992,36.8163790,-76.2176570,False,0
221445996,36.8163130,-76.2176140,False,0
221446000,36.8162550,-76.2175570,False,0
221446004,36.8161760,-76.2174230,False,0
221446007,36.8161620,-76.2173730,False,0
221446009,36.8161520,-76.2172850,False,0
221446011,36.8161560,-76.2171970,False,0
221446014,36.8161800,-76.2170940,False,0
221446017,36.8162130,-76.2170170,False,0
221446020,36.8162470,-76.2169630,False,0
221446022,36.8162990,-76.2169050,False,0
221446029,36.8163590,-76.2168610,False,0
221446031,36.8164120,-76.2168380,False,0
221446033,36.8164670,-76.2168240,False,0
221446039,36.8171180,-76.2168180,False,0
221446043,36.8177620,-76.2167970,False,0
221446046,36.8179220,-76.2167720,True,1
221448353,36.8176140,-76.2223500,True,0
221448356,36.8176230,-76.2223120,False,0
221448360,36.8176150,-76.2222290,False,0
221448366,36.8175920,-76.2221390,False,0
221448369,36.8174470,-76.2216420,False,0
221448374,36.8170480,-76.2201850,False,0
221448377,36.8170370,-76.2200720,False,0
221448380,36.8170290,-76.2198810,False,0
221448383,36.8170450,-76.2196520,True,0
221458426,36.8147700,-76.2053960,False,0
221458433,36.8150650,-76.2052710,False,0
221458437,36.8156340,-76.2050110,False,0
221458440,36.8157570,-76.2049730,False,0
221458444,36.8158840,-76.2049530,False,0
221458448,36.8160110,-76.2049520,False,0
221458452,36.8160620,-76.2049570,True,0
221458456,36.8162780,-76.2049690,False,0
221458461,36.8164940,-76.2049620,False,0
221458464,36.8167100,-76.2049370,False,0
221458467,36.8168380,-76.2049130,False,0
221458471,36.8170570,-76.2048400,True,0
221458475,36.8173520,-76.2047500,False,0
221458479,36.8176460,-76.2046840,False,0
221458483,36.8178260,-76.2046630,False,0
221458487,36.8185530,-76.2046140,False,0
221458492,36.8186770,-76.2046090,True,0
221458496,36.8190120,-76.2045860,False,0
221458500,36.8201300,-76.2044970,False,0
221458503,36.8202070,-76.2044740,False,0
221458508,36.8202790,-76.2044330,False,0
221458511,36.8203310,-76.2043900,False,0
221458516,36.8203780,-76.2043370,False,0
221458521,36.8204270,-76.2042600,False,0
221458526,36.8204580,-76.2041920,False,0
221458529,36.8204810,-76.2041120,False,0
221458532,36.8204980,-76.2039850,False,0
221458535,36.8205010,-76.2038560,False,0
221458538,36.8204890,-76.2037280,False,0
221458541,36.8204440,-76.2035140,True,0
221458545,36.8203810,-76.2031880,False,0
221458549,36.8203260,-76.2028160,False,0
221458553,36.8203060,-76.2026500,True,0
221458556,36.8203000,-76.2025920,False,0
221458559,36.8202860,-76.2022540,False,0
221462932,36.8163160,-76.2089080,False,0
221462936,36.8161440,-76.2089810,False,0
221462940,36.8159260,-76.2090540,False,0
221462944,36.8158310,-76.2090940,False,0
221462947,36.8157180,-76.2091580,False,0
221462953,36.8156110,-76.2092380,False,0
221462956,36.8151410,-76.2097110,True,0
221474785,36.8195330,-76.2110460,False,0
221474792,36.8193210,-76.2111690,True,0
221474795,36.8190316,-76.2113518,True,0
221474802,36.8186450,-76.2115830,True,0
221474806,36.8175720,-76.2122220,False,0
221474810,36.8173900,-76.2123420,False,0
221474814,36.8172140,-76.2124770,False,0
221474820,36.8170470,-76.2126280,True,0
221475877,36.8184720,-76.2077640,True,0
221475880,36.8184830,-76.2079090,False,0
221475885,36.8185080,-76.2080890,False,0
221475890,36.8185380,-76.2082300,False,0
221475895,36.8187580,-76.2090730,False,0
221475898,36.8188030,-76.2092330,False,0
221475905,36.8192650,-76.2110010,False,0
221480509,36.8247340,-76.1981810,True,0
221480514,36.8248610,-76.1987850,False,0
221480517,36.8249130,-76.1990040,False,0
221480520,36.8249470,-76.1990880,False,0
221480522,36.8249740,-76.1991340,False,0
221480527,36.8250180,-76.1991730,False,0
221480529,36.8251200,-76.1992190,False,0
221480531,36.8251650,-76.1992590,False,0
221480536,36.8251940,-76.1993000,False,0
221480538,36.8253130,-76.1995340,False,0
221480540,36.8253850,-76.1996990,False,0
221480544,36.8254330,-76.1998270,False,0
221481310,36.8162650,-76.2061800,True,0
221481314,36.8162230,-76.2060050,False,0
221481319,36.8161410,-76.2056230,False,0
221481322,36.8160590,-76.2051500,False,0
221481327,36.8160530,-76.2050370,False,0
221481329,36.8160940,-76.2047470,False,0
221481332,36.8161400,-76.2045420,False,0
221481335,36.8161880,-76.2043810,False,0
221481339,36.8165020,-76.2034730,False,0
221481343,36.8165740,-76.2033130,False,0
221481347,36.8166590,-76.2031620,False,0
221481351,36.8167760,-76.2029960,False,0
221481353,36.8169170,-76.2028340,False,0
221481357,36.8169910,-76.2027650,True,0
221481361,36.8170150,-76.2027430,False,0
221481366,36.8171220,-76.2026670,False,0
221481369,36.8172430,-76.2026050,False,0
221481371,36.8174840,-76.2025090,False,0
221481374,36.8175970,-76.2024810,False,0
221481379,36.8176890,-76.2024710,False,0
221481383,36.8178670,-76.2024750,False,0
221481386,36.8179900,-76.2024920,False,0
221481389,36.8182410,-76.2025500,False,0
221481395,36.8187480,-76.2026870,True,0
221481398,36.8188700,-76.2027040,False,0
221481402,36.8189780,-76.2027070,False,0
221481406,36.8192950,-76.2026970,False,0
221481410,36.8201090,-76.2026470,False,0
221481415,36.8204270,-76.2026570,False,0
221481418,36.8206910,-76.2026850,False,0
221481420,36.8209160,-76.2027230,False,0
221481422,36.8209860,-76.2027550,False,0
221481426,36.8210500,-76.2028030,False,0
221481430,36.8211040,-76.2028660,False,0
221481432,36.8211280,-76.2029090,False,0
221481434,36.8211550,-76.2029860,False,0
221481437,36.8211680,-76.2030680,False,0
221481440,36.8211680,-76.2031520,False,0
221481443,36.8211380,-76.2033180,False,0
221481447,36.8211380,-76.2034040,False,0
221481450,36.8212900,-76.2042490,False,0
221481453,36.8213680,-76.2045990,True,0
221493938,36.8273450,-76.2178910,False,0
221494024,36.8287910,-76.2191660,False,0
221512158,36.8256860,-76.2119180,True,0
221512161,36.8255790,-76.2119200,False,0
221512165,36.8254010,-76.2119280,False,0
221512170,36.8253640,-76.2119460,True,0
221512175,36.8253330,-76.2119790,False,0
221512176,36.8253110,-76.2120330,False,0
221512178,36.8253060,-76.2121410,False,0
221512180,36.8253130,-76.2122760,False,0
221512183,36.8253490,-76.2125360,False,0
221512187,36.8253880,-76.2127250,False,0
221512191,36.8254540,-76.2129430,False,0
221512194,36.8255300,-76.2131310,False,0
221512197,36.8255670,-76.2131960,False,0
221512200,36.8256050,-76.2132400,False,0
221512203,36.8256610,-76.2132810,False,0
221512207,36.8257220,-76.2133070,False,0
221512210,36.8257760,-76.2133100,False,0
221512213,36.8258440,-76.2132960,False,0
221512216,36.8259090,-76.2132650,False,0
221512220,36.8259670,-76.2132190,False,0
221512224,36.8261280,-76.2130580,False,0
221512228,36.8263200,-76.2128990,False,0
221512231,36.8265200,-76.2127700,False,0
221512238,36.8266000,-76.2127460,False,0
221512243,36.8266810,-76.2127400,False,0
221512245,36.8276010,-76.2127320,False,0
221512247,36.8277490,-76.2127340,False,0
221512250,36.8277990,-76.2127130,False,0
221512258,36.8278430,-76.2126770,False,0
221512264,36.8278770,-76.2126280,False,0
221512268,36.8279000,-76.2125690,False,0
221512274,36.8279090,-76.2125040,False,0
221512279,36.8278990,-76.2121430,False,0
221512282,36.8278799,-76.2118617,True,0
221516593,36.8149890,-76.2109480,False,0
221522461,36.8133570,-76.2108060,False,0
221522576,36.8137690,-76.1978080,False,0
221525069,36.8257720,-76.1982040,True,0
221525072,36.8250930,-76.1981890,True,0
221525073,36.8244090,-76.1981770,True,0
221525076,36.8242460,-76.1981620,False,0
221525080,36.8231010,-76.1980920,False,0
221525081,36.8226900,-76.1980780,False,0
221525084,36.8216600,-76.1980200,True,0
221525087,36.8206550,-76.1979700,False,0
221525091,36.8201890,-76.1979410,True,0
221525095,36.8193740,-76.1978910,False,0
221525100,36.8164000,-76.1978310,True,0
221525101,36.8154500,-76.1977980,False,0
221525102,36.8151270,-76.1977810,False,0
221525107,36.8147220,-76.1977760,False,0
221530476,36.8134713,-76.2070859,True,1
221530479,36.8135951,-76.2070254,False,0
221530482,36.8142956,-76.2068139,False,0
221530490,36.8175010,-76.2057810,False,0
221530494,36.8176560,-76.2057390,False,0
221530499,36.8178570,-76.2057080,False,0
221530502,36.8180600,-76.2056890,False,0
221530506,36.8187320,-76.2056450,True,0
221530508,36.8201490,-76.2055500,False,0
221530511,36.8202860,-76.2055240,False,0
221530515,36.8204210,-76.2054800,False,0
221530519,36.8205500,-76.2054200,False,0
221530523,36.8206510,-76.2053610,False,0
221530528,36.8207930,-76.2052530,False,0
221530535,36.8209550,-76.2050640,False,0
221530538,36.8211060,-76.2048630,False,0
221530543,36.8212090,-76.2047100,False,0
221530547,36.8212640,-76.2046550,False,0
221530551,36.8213280,-76.2046150,False,0
221530555,36.8220850,-76.2043750,False,0
221530559,36.8224030,-76.2042710,True,0
221530564,36.8227240,-76.2041640,False,0
221530567,36.8231130,-76.2040430,True,0
221530570,36.8235780,-76.2038870,False,0
221530573,36.8237450,-76.2038430,False,0
221530578,36.8238540,-76.2038320,False,0
221530580,36.8239640,-76.2038400,False,0
221530583,36.8240710,-76.2038660,False,0
221530585,36.8241340,-76.2038900,False,0
221530588,36.8246000,-76.2041350,False,0
221530591,36.8250970,-76.2043770,False,0
221530594,36.8251530,-76.2044250,False,0
221530598,36.8252010,-76.2044860,False,0
221530601,36.8252360,-76.2045590,False,0
221530605,36.8252510,-76.2046070,False,0
221530608,36.8253670,-76.2050980,True,0
221530625,36.8216650,-76.1987550,False,0
221530629,36.8216620,-76.1990110,False,0
221530633,36.8216400,-76.1997110,False,0
221530637,36.8216210,-76.2000890,False,0
221530641,36.8216029,-76.2005441,True,0
221541984,36.8177440,-76.2078240,True,0
221541989,36.8177350,-76.2079610,False,0
221541993,36.8177410,-76.2080990,False,0
221541997,36.8177620,-76.2082340,False,0
221542000,36.8181730,-76.2098160,True,0
221542002,36.8184070,-76.2107300,True,0
221542836,36.8202050,-76.1954370,False,0
221542840,36.8202140,-76.1955070,False,0
221542844,36.8202250,-76.1960480,False,0
221542849,36.8202250,-76.1967240,False,0
221542852,36.8202150,-76.1972660,False,0
221548539,36.8258430,-76.2041410,False,0
221548543,36.8258810,-76.2040680,False,0
221548546,36.8259090,-76.2039820,False,0
221548550,36.8259310,-76.2038700,False,0
221548551,36.8259610,-76.2034620,True,0
221554450,36.8244750,-76.1989710,True,0
221554453,36.8242640,-76.1990440,False,0
221554457,36.8240430,-76.1991020,False,0
221554461,36.8238200,-76.1991430,False,0
221554465,36.8235950,-76.1991660,False,0
221554466,36.8234370,-76.1991720,False,0
221554470,36.8233270,-76.1991610,False,0
221554472,36.8230660,-76.1991540,False,0
221555908,36.8164610,-76.2186380,True,0
221557810,36.8185480,-76.2225830,False,0
221557815,36.8185340,-76.2223510,False,0
221557818,36.8184750,-76.2220940,False,0
221557819,36.8178080,-76.2195530,True,0
221557820,36.8177270,-76.2192950,False,0
221557821,36.8176860,-76.2191170,False,0
221557823,36.8176630,-76.2189710,False,0
221557824,36.8176470,-76.2187870,False,0
221557826,36.8176450,-76.2186020,True,0
221564177,36.8282590,-76.2033070,False,0
221564182,36.8281380,-76.2032750,False,0
221564186,36.8280500,-76.2032740,False,0
221564190,36.8277940,-76.2033250,False,0
221564194,36.8274460,-76.2033840,False,0
221564199,36.8268520,-76.2034940,False,0
221564203,36.8267260,-76.2035090,True,0
221564207,36.8266510,-76.2035110,False,0
221564213,36.8257940,-76.2034500,False,0
221564217,36.8256020,-76.2034220,False,0
221564220,36.8254260,-76.2033800,False,0
221564223,36.8252570,-76.2033220,False,0
221564230,36.8250650,-76.2032380,False,0
221564233,36.8248780,-76.2031360,False,0
221564239,36.8246980,-76.2030190,False,0
221564243,36.8244580,-76.2028380,False,0
221564247,36.8243660,-76.2027910,False,0
221564252,36.8242790,-76.2027610,False,0
221564259,36.8241890,-76.2027480,False,0
221564266,36.8241000,-76.2027540,True,0
221564270,36.8239870,-76.2027790,False,0
221564273,36.8238770,-76.2028220,False,0
221564276,36.8237380,-76.2028880,False,0
221564280,36.8235620,-76.2029890,False,0
221564284,36.8232270,-76.2032130,False,0
221564288,36.8231740,-76.2032680,False,0
221564292,36.8231310,-76.2033360,False,0
221564299,36.8231050,-76.2033960,False,0
221564303,36.8230840,-76.2034790,False,0
221564307,36.8230770,-76.2035640,False,0
221565112,36.8225110,-76.2025420,False,0
221565115,36.8224510,-76.2026310,False,0
221565117,36.8224020,-76.2027300,False,0
221565120,36.8223670,-76.2028370,False,0
221565124,36.8223450,-76.2029500,False,0
221565127,36.8223380,-76.2030660,False,0
221565130,36.8223850,-76.2038560,False,0
221565132,36.8224090,-76.2045490,False,0
221565133,36.8223770,-76.2047960,False,0
221565134,36.8223760,-76.2048530,False,0
221565135,36.8223850,-76.2050160,False,0
221565136,36.8224150,-76.2052090,False,0
221565137,36.8225360,-76.2056660,False,0
221565138,36.8226220,-76.2060570,True,0
221565139,36.8226540,-76.2062330,False,0
221565140,36.8226870,-76.2063760,False,0
221565141,36.8227300,-76.2064880,False,0
221565143,36.8227840,-76.2065910,False,0
221573902,36.8263180,-76.1987130,False,0
221573906,36.8261100,-76.1986620,False,0
221573911,36.8260270,-76.1986170,False,0
221573915,36.8259510,-76.1985560,False,0
221573922,36.8258840,-76.1984810,False,0
221573926,36.8258240,-76.1983890,False,0
221573930,36.8257880,-76.1982990,False,0
221573934,36.8257810,-76.1977720,False,0
221580584,36.8231610,-76.2136530,True,0
221580588,36.8231760,-76.2136100,False,0
221580591,36.8231960,-76.2135040,False,0
221580595,36.8232010,-76.2133950,False,0
221580599,36.8231960,-76.2132810,False,0
221580605,36.8232050,-76.2132270,False,0
221580608,36.8232170,-76.2131890,False,0
221580613,36.8232470,-76.2131310,False,0
221580615,36.8232880,-76.2130860,False,0
221580617,36.8233370,-76.2130540,False,0
221580620,36.8234080,-76.2130330,False,0
221580624,36.8235920,-76.2129370,False,0
221580626,36.8237780,-76.2128480,False,0
221580629,36.8238190,-76.2128440,False,0
221580630,36.8238590,-76.2128580,False,0
221580633,36.8238870,-76.2128800,False,0
221580637,36.8239140,-76.2129190,False,0
221580640,36.8239530,-76.2130790,False,0
221580644,36.8239900,-76.2131750,False,0
221580647,36.8240280,-76.2132450,False,0
221580652,36.8240860,-76.2133230,False,0
221580657,36.8241390,-76.2133760,False,0
221580664,36.8245490,-76.2136930,False,0
221583836,36.8294960,-76.2106590,False,1
221583841,36.8287470,-76.2106280,False,0
221583845,36.8263060,-76.2106710,True,0
221583847,36.8252600,-76.2106890,False,0
221583851,36.8249940,-76.2107090,False,0
221583854,36.8246200,-76.2107600,False,0
221583857,36.8243470,-76.2108060,False,0
221583861,36.8236590,-76.2109810,False,0
221583865,36.8234030,-76.2110720,False,0
221583868,36.8229530,-76.2112540,False,0
221583870,36.8227470,-76.2113470,False,0
221583874,36.8216280,-76.2119900,False,0
221583878,36.8211520,-76.2122810,False,0
221583882,36.8206210,-76.2125930,False,0
221583890,36.8198830,-76.2130460,False,0
221583908,36.8170100,-76.2147520,False,0
221583916,36.8167480,-76.2149000,False,0
221583924,36.8164480,-76.2150800,False,0
221583927,36.8163260,-76.2151470,False,0
221583930,36.8160930,-76.2152930,False,0
221583933,36.8152530,-76.2157890,False,0
221583938,36.8148180,-76.2160470,False,0
221583942,36.8146710,-76.2161280,False,0
221583947,36.8134800,-76.2168470,False,0
221583951,36.8126930,-76.2172970,False,0
221583955,36.8123870,-76.2174820,False,0
221583959,36.8115490,-76.2179800,False,0
221583964,36.8112478,-76.2181335,False,1
221583968,36.8110540,-76.2182340,False,1
221584059,36.8290720,-76.2103970,False,0
221584063,36.8262960,-76.2104330,True,0
221584067,36.8260940,-76.2104380,False,0
221584070,36.8255840,-76.2104360,False,0
221584075,36.8248490,-76.2104900,False,0
221584080,36.8245190,-76.2105350,False,0
221584085,36.8241230,-76.2106120,False,0
221584091,36.8235990,-76.2107570,False,0
221584097,36.8231890,-76.2109040,False,0
221584105,36.8229170,-76.2110170,False,0
221584109,36.8226480,-76.2111430,False,0
221584116,36.8223160,-76.2113180,False,0
221584120,36.8215050,-76.2117940,False,0
221584124,36.8200210,-76.2126330,False,0
221584129,36.8196270,-76.2128690,True,4
221584136,36.8189950,-76.2132740,False,0
221584143,36.8186470,-76.2134820,False,0
221584144,36.8181000,-76.2138230,False,0
221584149,36.8178790,-76.2139530,False,0
221584152,36.8177050,-76.2140650,True,1
221584158,36.8175670,-76.2141490,True,1
221584162,36.8163720,-76.2148280,False,0
221584167,36.8126960,-76.2169880,False,0
221584171,36.8124930,-76.2170990,False,0
221584174,36.8121350,-76.2173200,False,0
221584178,36.8118630,-76.2174770,False,0
221584185,36.8113249,-76.2178017,False,1
221584191,36.8111330,-76.2179150,False,1
221586113,36.8270690,-76.2054500,False,0
221586115,36.8270350,-76.2053450,False,0
221586119,36.8270020,-76.2052810,False,0
221586123,36.8269380,-76.2051940,False,0
221586127,36.8268830,-76.2051420,False,0
221586131,36.8268080,-76.2050890,False,0
221586135,36.8267100,-76.2050460,False,0
221586140,36.8266250,-76.2050300,False,0
221586144,36.8265240,-76.2050390,False,0
221586148,36.8263990,-76.2050670,False,0
221586151,36.8262550,-76.2051190,False,0
221586156,36.8261370,-76.2051510,False,0
221586161,36.8260170,-76.2051650,False,0
221586167,36.8258960,-76.2051620,False,0
221586169,36.8257760,-76.2051400,False,0
221586173,36.8256590,-76.2051010,False,0
221586177,36.8255960,-76.2050890,False,0
221586182,36.8254900,-76.2050830,False,0
221586188,36.8252800,-76.2051230,False,0
221586192,36.8251800,-76.2051690,False,0
221586194,36.8242810,-76.2054910,True,0
221586197,36.8238190,-76.2056610,False,0
221586202,36.8231020,-76.2059070,False,0
221596407,36.8211574,-76.2231999,True,0
221596421,36.8219943,-76.2231824,False,0
221596442,36.8233680,-76.2233930,False,0
221596465,36.8257870,-76.2228830,False,0
221600593,36.8165480,-76.2021590,True,0
221602651,36.8266230,-76.2027260,False,0
221603299,36.8142300,-76.2109110,False,0
221604779,36.8242270,-76.2053000,False,0
221604781,36.8241490,-76.2049780,False,0
221604783,36.8241300,-76.2049320,False,0
221604785,36.8240880,-76.2048630,False,0
221604787,36.8240470,-76.2048170,False,0
221604788,36.8240010,-76.2047790,False,0
221604792,36.8239370,-76.2047460,False,0
221604796,36.8238690,-76.2047290,False,0
221604799,36.8238010,-76.2047350,False,0
221604803,36.8232460,-76.2049180,False,0
221604814,36.8266880,-76.2031850,False,0
221604816,36.8266150,-76.2026750,False,0
221604818,36.8265980,-76.2026230,False,0
221604821,36.8265720,-76.2025770,False,0
221604825,36.8265300,-76.2025290,False,0
221604829,36.8264800,-76.2024950,False,0
221604834,36.8264370,-76.2024800,False,0
221604837,36.8259910,-76.2024510,False,0
221604841,36.8258010,-76.2024300,True,0
221604845,36.8255530,-76.2023800,False,0
221604850,36.8254480,-76.2023450,False,0
221604854,36.8253220,-76.2022870,False,0
221604858,36.8252010,-76.2022110,False,0
221604862,36.8250880,-76.2021200,False,0
221604864,36.8249550,-76.2020250,False,0
221604868,36.8247870,-76.2019320,False,0
221604871,36.8246710,-76.2018830,False,0
221604874,36.8244910,-76.2018270,False,0
221604877,36.8243370,-76.2017970,False,0
221604883,36.8241800,-76.2017840,False,0
221604885,36.8240330,-76.2017890,True,0
221604889,36.8238140,-76.2018250,False,0
221604891,36.8237210,-76.2018360,False,0
221604894,36.8236040,-76.2018340,False,0
221604895,36.8234660,-76.2018080,False,0
221607644,36.8172720,-76.2093540,True,0
221607647,36.8168610,-76.2095730,False,0
221607650,36.8164730,-76.2098010,False,0
221607653,36.8160910,-76.2100440,False,0
221607657,36.8157900,-76.2102500,False,0
221607661,36.8156020,-76.2104250,True,0
221607665,36.8154900,-76.2105490,True,0
221607670,36.8153540,-76.2106830,False,0
221607674,36.8152550,-76.2107700,False,0
221607678,36.8150840,-76.2109030,False,0
221607682,36.8148860,-76.2109730,False,0
221607686,36.8147930,-76.2109760,False,0
221607690,36.8138940,-76.2108650,False,0
221608195,36.8233690,-76.2242460,False,0
221608200,36.8233820,-76.2231890,False,0
221608205,36.8234100,-76.2229880,False,0
221608209,36.8234530,-76.2227920,False,0
221608213,36.8235090,-76.2226000,False,0
221608217,36.8236010,-76.2223800,False,0
221608222,36.8237060,-76.2221450,True,0
221608226,36.8238930,-76.2217500,False,0
221608229,36.8240560,-76.2214270,True,0
221608233,36.8245020,-76.2205470,True,0
221608236,36.8251080,-76.2193350,False,0
221608240,36.8251770,-76.2192240,False,0
221608243,36.8252370,-76.2191700,False,0
221608248,36.8252900,-76.2191370,False,0
221608258,36.8253760,-76.2191080,False,0
221608264,36.8255570,-76.2190950,True,0
221611063,36.8293050,-76.2063900,False,0
221611067,36.8288420,-76.2068100,False,0
221611071,36.8287970,-76.2068330,False,0
221611074,36.8287480,-76.2068390,False,0
221611078,36.8286280,-76.2068100,False,0
221611081,36.8284780,-76.2067960,False,0
221611085,36.8282760,-76.2067960,False,0
221611089,36.8280750,-76.2068140,False,0
221611095,36.8278750,-76.2068500,False,0
221611097,36.8274870,-76.2069060,False,0
221611102,36.8268380,-76.2069860,False,0
221611106,36.8261880,-76.2070470,False,0
221611109,36.8255360,-76.2070900,False,0
221611114,36.8234700,-76.2073400,False,0
221611119,36.8233550,-76.2073580,False,0
221611123,36.8231140,-76.2073970,False,0
221611128,36.8229350,-76.2074180,False,0
221611131,36.8222630,-76.2074450,False,0
221611132,36.8216380,-76.2074880,False,0
221611136,36.8210130,-76.2075510,False,0
221611138,36.8205940,-76.2075790,False,0
221611141,36.8192190,-76.2076570,False,0
221611146,36.8190280,-76.2076720,False,0
221611149,36.8181780,-76.2078000,False,0
221611153,36.8170150,-76.2078640,False,0
221611159,36.8169490,-76.2078710,True,0
221611164,36.8168060,-76.2078840,False,0
221611168,36.8162830,-76.2079460,False,0
221611172,36.8154948,-76.2080688,True,0
221611177,36.8152320,-76.2081460,False,0
221611180,36.8150420,-76.2082160,False,0
221611183,36.8148600,-76.2082980,False,0
221611186,36.8147000,-76.2083770,False,0
221611189,36.8145450,-76.2084730,False,0
221611193,36.8143980,-76.2085840,True,0
221611702,36.8170350,-76.2047310,False,0
221611705,36.8170280,-76.2046180,False,0
221611709,36.8170340,-76.2045060,False,0
221611713,36.8170610,-76.2043750,False,0
221611717,36.8172270,-76.2038830,False,0
221611721,36.8172830,-76.2037770,False,0
221611726,36.8173500,-76.2036820,False,0
221611728,36.8174280,-76.2035990,False,0
221611730,36.8174950,-76.2035440,False,0
221611737,36.8175920,-76.2035010,False,0
221611740,36.8176930,-76.2034750,False,0
221611744,36.8177950,-76.2034670,False,0
221611745,36.8178980,-76.2034780,False,0
221611749,36.8184480,-76.2036250,False,0
221611754,36.8185550,-76.2036360,False,0
221611758,36.8186310,-76.2036320,True,0
221611762,36.8197500,-76.2035540,False,0
221632943,36.8161730,-76.2196650,True,0
221632945,36.8173950,-76.2196460,False,0
221632948,36.8175230,-76.2196300,False,0
221632953,36.8177140,-76.2195850,False,0
221641799,36.8175160,-76.2102150,True,0
221641802,36.8165850,-76.2107780,False,0
221641805,36.8163310,-76.2109560,False,0
221641811,36.8160810,-76.2111450,True,0
221642948,36.8194480,-76.2123810,False,0
221645390,36.8208340,-76.2180300,True,0
221645394,36.8208290,-76.2173140,False,0
221645398,36.8208310,-76.2159030,True,0
221654064,36.8164200,-76.2207290,False,0
221654066,36.8163580,-76.2206670,False,0
221654070,36.8163170,-76.2206070,False,0
221654074,36.8162710,-76.2204980,False,0
221654076,36.8162430,-76.2204040,False,0
221654078,36.8162040,-76.2202140,False,0
221654082,36.8161790,-76.2200190,False,0
221654086,36.8161700,-76.2198230,False,0
221662656,36.8247470,-76.2173190,True,0
221662658,36.8249660,-76.2160420,True,0
221664114,36.8180440,-76.2109190,False,0
221664118,36.8177210,-76.2111200,False,0
221664121,36.8170530,-76.2115070,False,0
221664124,36.8169160,-76.2115980,False,0
221664128,36.8167440,-76.2117400,False,0
221664133,36.8165770,-76.2119080,True,0
221670781,36.8204430,-76.2195190,True,0
221670785,36.8207510,-76.2193610,False,0
221670789,36.8208380,-76.2193310,False,0
221670791,36.8209270,-76.2193200,False,0
221670795,36.8210170,-76.2193270,False,0
221670797,36.8210680,-76.2193430,False,0
221675633,36.8242360,-76.2215510,False,0
221675637,36.8243840,-76.2216390,False,0
221675641,36.8245750,-76.2217360,False,0
221675644,36.8247700,-76.2218150,False,0
221675646,36.8249210,-76.2218640,False,0
221675648,36.8251370,-76.2219110,False,0
221675650,36.8252830,-76.2219290,False,0
221675651,36.8254660,-76.2219350,False,0
221675653,36.8256490,-76.2219230,False,0
221675656,36.8257220,-76.2219140,True,0
221675665,36.8193883,-76.2211951,True,0
221675667,36.8195391,-76.2211189,False,0
221675672,36.8207692,-76.2206078,True,0
221675674,36.8209221,-76.2205640,False,0
221675678,36.8210864,-76.2205291,False,0
221675681,36.8214770,-76.2204830,False,0
221675683,36.8218820,-76.2204550,True,0
221675686,36.8223730,-76.2204210,True,0
221675690,36.8223920,-76.2204040,False,0
221675694,36.8223990,-76.2203760,False,0
221675699,36.8224480,-76.2194340,False,0
221675703,36.8224620,-76.2192650,False,0
221675705,36.8224750,-76.2192380,False,0
221675707,36.8225070,-76.2192140,False,0
221675716,36.8235404,-76.2192684,False,0
221678552,36.8231830,-76.2168780,False,0
221678557,36.8237760,-76.2171350,False,0
221678561,36.8238330,-76.2171790,False,0
221678565,36.8238730,-76.2172250,False,0
221678571,36.8239060,-76.2172790,False,0
221678989,36.8283758,-76.2118489,False,0
221680386,36.8266380,-76.2180480,True,0
221680390,36.8264240,-76.2165830,True,0
221680393,36.8263780,-76.2162010,False,0
221680395,36.8263820,-76.2160960,False,0
221680397,36.8264070,-76.2159730,True,0
221683579,36.8211820,-76.2130250,False,0
221683582,36.8218260,-76.2126500,False,0
221683584,36.8224310,-76.2124190,False,0
221683588,36.8224730,-76.2124240,False,0
221683592,36.8224990,-76.2124400,False,0
221683595,36.8225230,-76.2124720,False,0
221683598,36.8225660,-76.2125680,False,0
221683602,36.8225880,-76.2126550,False,0
221683605,36.8225970,-76.2127270,False,0
221683611,36.8225940,-76.2128190,False,0
221683620,36.8225720,-76.2129250,False,0
221683629,36.8224260,-76.2132590,False,0
221683634,36.8223070,-76.2134950,True,0
221683641,36.8222040,-76.2136840,False,0
221683644,36.8221130,-76.2138370,False,0
221687147,36.8288431,-76.2118369,False,0
221687162,36.8303210,-76.2117990,False,0
221687900,36.8256930,-76.2214750,True,0
221687903,36.8263050,-76.2213210,False,0
221687907,36.8282160,-76.2208610,False,0
221687914,36.8286320,-76.2207780,False,0
221687921,36.8286990,-76.2207530,False,0
221687926,36.8287600,-76.2207110,False,0
221687930,36.8288040,-76.2206670,False,0
221687934,36.8288570,-76.2205870,False,0
221687938,36.8288880,-76.2205070,False,0
221687943,36.8289050,-76.2204210,False,0
221687949,36.8289070,-76.2203320,False,0
221687956,36.8288470,-76.2198490,False,0
221687961,36.8287230,-76.2184910,False,0
221687966,36.8286490,-76.2176740,False,0
221687969,36.8285860,-76.2170860,False,0
221687973,36.8285800,-76.2168670,False,0
221687981,36.8285850,-76.2167770,False,0
221687986,36.8286030,-76.2166980,False,0
221687989,36.8286520,-76.2165760,False,0
221687993,36.8286930,-76.2164300,False,0
221687997,36.8287120,-76.2163120,False,0
221688001,36.8287270,-76.2161420,False,0
221688003,36.8287240,-76.2156620,False,0
221688006,36.8287360,-76.2154240,False,0
221688008,36.8287510,-76.2152680,False,0
221688011,36.8287720,-76.2151960,False,0
221688014,36.8288070,-76.2151330,False,0
221688016,36.8288980,-76.2150270,False,0
221694970,36.8225260,-76.2136420,False,0
221694972,36.8227510,-76.2137740,False,0
221694976,36.8229350,-76.2138670,False,0
221694980,36.8229860,-76.2138680,False,0
221694983,36.8230350,-76.2138520,False,0
221694986,36.8230790,-76.2138200,False,0
221694990,36.8231070,-76.2137840,False,0
221694993,36.8231410,-76.2137100,False,0
221696093,36.8259060,-76.2182110,True,0
221696097,36.8258870,-76.2180590,False,0
221696099,36.8258830,-76.2179040,False,0
221696102,36.8258920,-76.2177500,False,0
221696106,36.8259540,-76.2172730,False,0
221696110,36.8259940,-76.2170550,False,0
221696114,36.8260220,-76.2169290,False,0
221696117,36.8260630,-76.2168270,False,0
221696123,36.8261220,-76.2167370,False,0
221696126,36.8261940,-76.2166660,False,0
221696132,36.8262350,-76.2166380,False,0
221696136,36.8263760,-76.2165930,False,0
221697267,36.8169470,-76.2079470,False,0
221697272,36.8169550,-76.2080750,False,0
221697277,36.8169770,-76.2081990,False,0
221697282,36.8170790,-76.2085560,False,0
221697287,36.8171300,-76.2087800,False,0
221697291,36.8173570,-76.2096670,False,0
221713737,36.8186380,-76.2032970,False,0
221713739,36.8186260,-76.2034210,False,0
221713742,36.8186510,-76.2039760,False,0
221739066,36.8257350,-76.2221520,False,0
221739073,36.8256560,-76.2209140,True,0
221739077,36.8256140,-76.2202420,False,0
221739081,36.8255820,-76.2195330,False,0
221739086,36.8255260,-76.2185380,False,0
221739091,36.8255160,-76.2182990,True,0
221739094,36.8255060,-76.2179630,False,0
221739099,36.8255280,-76.2176880,False,0
221739104,36.8255760,-76.2173600,False,0
221739111,36.8256090,-76.2171990,False,0
221746633,36.8263190,-76.2111680,False,0
221746637,36.8263140,-76.2109360,True,0
221747700,36.8201450,-76.2180360,True,0
221747705,36.8215450,-76.2180340,False,0
221747711,36.8217790,-76.2180290,True,0
221747713,36.8223050,-76.2180060,False,0
221747716,36.8225660,-76.2179880,True,0
221747721,36.8229510,-76.2179770,False,0
221747724,36.8231040,-76.2179900,False,0
221747727,36.8232550,-76.2180220,False,0
221747730,36.8235210,-76.2181100,False,0
221747737,36.8238610,-76.2182410,False,0
221747741,36.8243060,-76.2184370,False,0
221747742,36.8243620,-76.2184450,False,0
221747746,36.8244180,-76.2184350,False,0
221747749,36.8244610,-76.2184150,True,0
221747752,36.8245080,-76.2183760,False,0
221747762,36.8245320,-76.2183470,False,0
221747769,36.8245770,-76.2182450,False,0
221747774,36.8246070,-76.2181360,False,0
221748780,36.8247050,-76.2206850,False,0
221748784,36.8249370,-76.2208120,False,0
221748788,36.8250290,-76.2208460,False,0
221748792,36.8253020,-76.2209050,False,0
221748795,36.8254730,-76.2209240,False,0
221748798,36.8256040,-76.2209210,False,0
221749728,36.8258070,-76.2020780,False,0
221749729,36.8258260,-76.2020220,False,0
221749731,36.8258620,-76.2019600,False,0
221749734,36.8259090,-76.2019100,False,0
221749738,36.8259760,-76.2018710,False,0
221749742,36.8260740,-76.2018430,False,0
221749744,36.8261210,-76.2018160,False,0
221749747,36.8261630,-76.2017790,False,0
221749754,36.8262070,-76.2017220,False,0
221749758,36.8262190,-76.2016260,False,0
221749761,36.8262140,-76.2015460,False,0
221749764,36.8262000,-76.2014830,False,0
221749767,36.8261720,-76.2014110,False,0
221749771,36.8261180,-76.2013420,False,0
221749774,36.8260510,-76.2012850,False,0
221749778,36.8259780,-76.2012430,False,0
221749781,36.8259360,-76.2012240,False,0
221749782,36.8258850,-76.2011780,False,0
221749785,36.8258680,-76.2011550,False,0
221757040,36.8218970,-76.2210150,False,0
221757045,36.8218800,-76.2203450,False,0
221757050,36.8217710,-76.2177870,False,0
221757055,36.8217810,-76.2176160,False,0
221757058,36.8218060,-76.2174750,False,0
221757075,36.8218520,-76.2173130,False,0
221757088,36.8221960,-76.2166700,False,0
221757092,36.8223370,-76.2164150,False,0
221757098,36.8225030,-76.2160880,False,0
221757102,36.8226600,-76.2157550,False,0
221766273,36.8184660,-76.2186060,True,0
221766277,36.8180330,-76.2171360,False,0
221766281,36.8177620,-76.2162250,False,0
221766285,36.8177010,-76.2159760,False,0
221766288,36.8176650,-76.2157680,False,0
221766292,36.8176470,-76.2155980,False,0
221766296,36.8176250,-76.2152330,False,0
221766300,36.8175270,-76.2139590,False,0
221766303,36.8174720,-76.2137710,False,0
221766307,36.8173870,-76.2135500,False,0
221766311,36.8172760,-76.2133130,False,0
221766315,36.8167060,-76.2124030,False,0
221766319,36.8162140,-76.2116550,False,0
221766323,36.8159900,-76.2113080,False,0
221766327,36.8148700,-76.2095930,False,0
221766331,36.8140180,-76.2082950,False,0
221766335,36.8137630,-76.2078980,False,0
221766341,36.8131010,-76.2067930,False,0
221766344,36.8125990,-76.2060080,False,1
221766348,36.8125130,-76.2058700,False,1
221766504,36.8126600,-76.2058180,False,1
221766510,36.8129760,-76.2063010,False,0
221766514,36.8133140,-76.2068230,False,0
221766518,36.8136060,-76.2073350,False,0
221766521,36.8138790,-76.2077860,False,0
221766525,36.8141220,-76.2081670,False,0
221766529,36.8163500,-76.2115620,False,0
221766533,36.8164380,-76.2116890,False,0
221766537,36.8171990,-76.2128720,False,0
221766543,36.8173390,-76.2130810,False,0
221766547,36.8174230,-76.2132360,False,0
221766550,36.8174820,-76.2133660,False,0
221766553,36.8175890,-76.2136440,False,0
221766559,36.8176560,-76.2138630,False,0
221766565,36.8177650,-76.2145740,False,0
221766568,36.8177750,-76.2148010,False,0
221766571,36.8177870,-76.2152520,False,0
221766574,36.8178050,-76.2155340,False,0
221766577,36.8178300,-76.2157590,False,0
221766580,36.8178750,-76.2160360,False,0
221766583,36.8179850,-76.2164590,False,0
221766586,36.8180669,-76.2167347,True,1
221766588,36.8183260,-76.2176130,False,0
221766590,36.8186318,-76.2186096,True,0
221766593,36.8190850,-76.2201599,False,0
221773093,36.8244270,-76.1985090,False,0
221773098,36.8244510,-76.1987730,False,0
221775017,36.8252630,-76.1961530,False,0
221775021,36.8252280,-76.1964620,False,0
221775025,36.8251510,-76.1969640,False,0
221775029,36.8251240,-76.1972240,False,0
221783230,36.8211390,-76.2225949,False,0
221783231,36.8211215,-76.2220977,False,0
221783233,36.8211048,-76.2219004,False,0
221783235,36.8210625,-76.2216816,False,0
221783238,36.8210110,-76.2214510,False,0
221783239,36.8209090,-76.2210850,False,0
221783242,36.8202220,-76.2187650,False,0
221783246,36.8201890,-76.2186220,False,0
221783250,36.8201610,-76.2184400,False,0
221783253,36.8201480,-76.2182550,False,0
221783255,36.8201400,-76.2172540,False,0
221783258,36.8201460,-76.2162770,False,0
221783262,36.8201570,-76.2162110,False,0
221783266,36.8201760,-76.2161630,False,0
221783270,36.8202030,-76.2161200,False,0
221783274,36.8202540,-76.2160710,False,0
221783278,36.8202940,-76.2160510,False,0
221783282,36.8206680,-76.2159450,False,0
221783286,36.8210440,-76.2158520,False,0
221785810,36.8238360,-76.2222430,False,0
221791543,36.8226600,-76.2188240,False,0
221791547,36.8226030,-76.2186300,False,0
221791550,36.8225890,-76.2185320,False,0
221791552,36.8225850,-76.2183830,False,0
221791555,36.8225660,-76.2178280,False,0
221791557,36.8225800,-76.2177710,False,0
221791561,36.8227420,-76.2174770,False,0
221791564,36.8229680,-76.2170840,False,0
221791568,36.8230590,-76.2169170,False,0
221791572,36.8230960,-76.2168870,False,0
221791576,36.8231280,-76.2168740,False,0
221794977,36.8282320,-76.2109140,False,0
221794980,36.8278590,-76.2109090,False,0
221794983,36.8272910,-76.2109150,False,0
221794986,36.8267930,-76.2109350,False,0
221794988,36.8260370,-76.2109390,False,0
221794991,36.8255810,-76.2109600,False,0
221794996,36.8253180,-76.2109630,False,0
221794999,36.8249910,-76.2109820,False,0
221795002,36.8246640,-76.2110200,False,0
221795006,36.8244070,-76.2110730,False,0
221795010,36.8239980,-76.2111700,False,0
221802886,36.8229690,-76.1960900,False,0
221812094,36.8237595,-76.2101773,False,0
221813133,36.8163870,-76.1986600,False,0
221813137,36.8163870,-76.1991580,False,0
221813141,36.8164120,-76.1999360,False,0
221813146,36.8164230,-76.2001720,False,0
221813150,36.8164410,-76.2002750,False,0
221813159,36.8164730,-76.2003730,False,0
221813165,36.8165090,-76.2004460,False,0
221818449,36.8170930,-76.2186240,False,0
221818453,36.8182140,-76.2186000,False,0
221829293,36.8226170,-76.1960770,False,0
221829298,36.8222050,-76.1960780,False,0
221829302,36.8217770,-76.1960980,False,0
221829305,36.8217400,-76.1961140,False,0
221829307,36.8217060,-76.1961540,False,0
221829310,36.8216910,-76.1961990,False,0
221829313,36.8216850,-76.1963820,False,0
221829317,36.8216980,-76.1968430,False,0
356605599,36.8210571,-76.2016019,False,0
469985228,36.8094650,-76.2191503,False,0
469985246,36.8094090,-76.2190190,False,0
469985283,36.8233700,-76.2242690,True,0
469985290,36.8205645,-76.2232159,True,0
469985314,36.8198353,-76.2231791,True,1
469985318,36.8151610,-76.2213650,True,0
469985324,36.8185410,-76.2227050,True,0
469985326,36.8195463,-76.2230850,True,0
469985328,36.8156570,-76.2215720,True,0
511942197,36.8206792,-76.2015644,True,0
511942204,36.8208342,-76.2016342,False,0
940624096,36.8215131,-76.2004421,True,0
940624098,36.8217794,-76.2012762,False,0
3146545368,36.8102918,-76.2184617,False,0
3146545372,36.8103615,-76.2184164,False,0
3146545543,36.8152297,-76.2154896,False,0
3146545548,36.8162552,-76.2148956,True,0
3146545552,36.8171835,-76.2131498,True,0
3146562486,36.8178219,-76.2156861,True,0
3187760775,36.8190568,-76.2228912,True,0
3187760792,36.8192606,-76.2213000,True,0
3187760793,36.8195270,-76.2216670,False,0
3187760794,36.8196719,-76.2226677,False,0
3677038706,36.8177430,-76.2143140,True,1
3677038707,36.8175990,-76.2143990,True,1
3708578740,36.8245391,-76.2118652,False,0
3708578741,36.8245420,-76.2117858,False,0
3708578742,36.8245557,-76.2119177,False,0
3708578743,36.8246203,-76.2119397,False,0
3708578744,36.8248902,-76.2119483,False,0
3708578745,36.8252306,-76.2119238,False,0
4124898989,36.8226440,-76.2192150,True,0
4124899002,36.8228147,-76.2192162,True,0
4125079845,36.8202369,-76.2014812,True,0
4125079846,36.8202520,-76.2015376,True,0
4125079847,36.8202584,-76.1998853,True,0
4125079848,36.8202670,-76.2013150,True,0
4125079849,36.8202713,-76.2010145,True,0
4125079850,36.8203013,-76.2015376,True,0
4125079851,36.8203078,-76.1994589,True,0
4125079852,36.8203856,-76.1991779,True,0
4125079853,36.8204023,-76.2014973,True,0
4125079854,36.8204586,-76.1991350,True,0
4125079855,36.8205123,-76.1991377,True,0
4125079856,36.8205268,-76.2014812,True,0
4125079857,36.8205955,-76.2015000,True,0
4125079858,36.8206948,-76.1992020,True,0
4125079859,36.8207828,-76.1991779,True,0
4125082894,36.8210534,-76.1992235,True,0
4125082895,36.8210620,-76.2002991,True,0
4125082896,36.8210749,-76.2004117,True,0
4125082897,36.8211071,-76.1992745,True,0
4125082898,36.8211135,-76.2004466,True,0
4125082899,36.8211307,-76.1993442,True,0
4125082903,36.8213105,-76.2016610,False,0
4125082905,36.8214678,-76.2004520,True,0
4125082908,36.8215629,-76.2005980,True,0
4125082910,36.8215832,-76.2017790,False,0
4125082911,36.8216991,-76.2018004,False,0
4125082912,36.8218086,-76.2018031,False,0
4125082913,36.8218924,-76.2017495,False,0
4125082914,36.8219138,-76.2016985,False,0
4125130587,36.8133410,-76.2071936,True,1
4125141164,36.8142909,-76.2087108,True,0
4125141167,36.8155758,-76.2183765,False,0
4125141168,36.8155855,-76.2184181,False,0
4125141169,36.8156081,-76.2186429,True,0
4125141170,36.8169350,-76.2127611,True,0
4125194272,36.8154919,-76.2183310,False,0
4125194273,36.8155654,-76.2183491,False,0
4163825805,36.8199791,-76.2232021,True,1
4291789006,36.8215146,-76.2128345,True,4
4291789022,36.8213376,-76.2123326,False,0
4291818862,36.8237486,-76.2107099,True,0
4291819000,36.8236928,-76.2103987,False,0
4291819005,36.8236263,-76.2096531,True,0
4291819009,36.8236649,-76.2101976,False,0
4293985071,36.8206913,-76.2207011,False,0
4293985078,36.8198518,-76.2210792,False,0
4293985079,36.8206385,-76.2206203,False,0
4293985608,36.8137543,-76.2069773,False,0
4293985616,36.8194141,-76.2212828,True,0
4293985653,36.8206950,-76.2206069,False,0
4293985656,36.8207243,-76.2206795,False,0
4592551171,36.8150260,-76.2065810,False,0
4592551172,36.8166285,-76.2060626,False,0
5360448666,36.8191560,-76.2204021,True,0
5360448668,36.8202130,-76.2208133,True,0
5360448669,36.8202374,-76.2209055,True,0
5747886300,36.8255306,-76.2186199,True,0
5747886303,36.8245478,-76.2183113,True,0
5814662685,36.8134442,-76.1978352,False,0
5910864803,36.8286700,-76.2165220,False,0
6045587179,36.8148544,-76.2066435,False,0
6045587182,36.8146659,-76.2067067,False,0
6048162257,36.8214401,-76.2118270,True,0
6060013833,36.8123417,-76.2171924,False,0
6060337614,36.8286352,-76.2103922,False,0
6082478952,36.8174576,-76.2133123,True,0
6092874536,36.8108214,-76.2181179,False,0
6275244919,36.8160687,-76.2079794,True,0
6275244938,36.8157109,-76.2080351,True,0
6275244940,36.8152805,-76.2064986,True,0
6322308180,36.8191745,-76.2117321,False,0
6322308181,36.8192495,-76.2118961,False,0
6453680447,36.8272751,-76.2104180,False,0
7043005520,36.8203884,-76.2232117,True,0
7043005530,36.8198635,-76.2228096,True,0
7043047889,36.8169254,-76.2145136,True,0
7043374603,36.8233400,-76.2110975,True,0
7043374608,36.8235280,-76.2110276,True,0
7043374613,36.8201358,-76.2125682,True,0
7043374617,36.8216721,-76.2116959,True,0
7043374622,36.8220762,-76.2114587,True,0
7043374623,36.8229957,-76.2109843,True,0
7043904816,36.8200353,-76.2129525,True,0
7043904817,36.8192908,-76.2130844,True,0
7043904824,36.8195492,-76.2126569,True,0
7046146710,36.8176229,-76.2151650,True,0
7046146714,36.8169447,-76.2147889,True,0
7046163491,36.8138991,-76.2078175,False,0
7046163499,36.8146873,-76.2083849,False,0
7046163500,36.8149024,-76.2082789,False,0
7069393639,36.8196551,-76.2226117,True,0
7069393641,36.8194375,-76.2230414,True,0
7069393642,36.8195718,-76.2223350,True,0
7079193624,36.8136291,-76.1978197,False,0
7083755215,36.8191968,-76.2210838,True,0
7083755218,36.8191284,-76.2208519,True,0
7094701449,36.8194647,-76.2124264,True,0
7094701453,36.8198996,-76.2127057,True,0
7122160489,36.8207625,-76.2122144,True,0
7132434197,36.8286557,-76.2165648,False,0
