Node ID,Lat,Lon,Is Intersection,Type
103652355,40.7351974,-74.1730270,True,0
103652609,40.7370118,-74.1712859,False,1
103652611,40.7375237,-74.1728811,False,0
103653231,40.7322470,-74.1639270,False,0
103653233,40.7323107,-74.1630990,False,0
103653239,40.7317950,-74.1608850,False,0
103653242,40.7314830,-74.1587800,False,0
103653246,40.7311010,-74.1559740,False,0
103653250,40.7306610,-74.1528240,False,0
103653254,40.7305160,-74.1519710,False,0
103653256,40.7303290,-74.1511070,False,0
103653259,40.7301310,-74.1502340,False,0
103655255,40.7249491,-74.1738220,False,0
103655258,40.7250320,-74.1743240,False,0
103655260,40.7250650,-74.1744650,False,0
103655868,40.7222650,-74.1588370,False,0
103655869,40.7221370,-74.1589000,True,0
103658137,40.7294880,-74.1739220,False,0
103661894,40.7318938,-74.1774672,False,1
103665500,40.7337731,-74.1641057,True,1
103665502,40.7336492,-74.1642855,True,1
103672386,40.7246278,-74.1646853,True,1
103675319,40.7327030,-74.1747443,True,0
103679702,40.7331896,-74.1616400,True,0
103679714,40.7333272,-74.1613806,True,4
103682811,40.7286930,-74.1516880,True,0
103682814,40.7262340,-74.1493980,True,0
103682817,40.7288670,-74.1507870,True,0
103682819,40.7266520,-74.1486580,False,0
103684136,40.7270233,-74.1771517,False,1
103684138,40.7268350,-74.1766050,False,0
103684140,40.7264750,-74.1755500,True,0
103684142,40.7263640,-74.1752250,False,0
103684144,40.7259520,-74.1740180,True,0
103684556,40.7329803,-74.1552280,True,0
103684557,40.7322413,-74.1553558,True,0
103684560,40.7318690,-74.1554550,True,1
103684564,40.7315160,-74.1555960,False,0
103684568,40.7306760,-74.1563610,True,0
103684570,40.7299779,-74.1569994,True,0
103684572,40.7290016,-74.1578935,True,1
103684574,40.7274640,-74.1589380,True,0
103686086,40.7360198,-74.1736659,True,1
103686088,40.7359238,-74.1733207,True,0
103686090,40.7358829,-74.1731736,False,0
103686096,40.7355888,-74.1721164,True,1
103686098,40.7351443,-74.1706914,True,1
103686100,40.7348709,-74.1696792,False,0
103686102,40.7348290,-74.1694426,True,2
103686104,40.7348020,-74.1692960,True,1
103686110,40.7346137,-74.1682301,False,0
103686113,40.7342541,-74.1664423,True,1
103686118,40.7338584,-74.1645179,True,0
103686119,40.7335441,-74.1631233,True,0
103686121,40.7333036,-74.1621334,True,0
103686122,40.7331340,-74.1613990,True,0
103686123,40.7330460,-74.1609840,True,1
103686125,40.7330119,-74.1607873,True,4
103686129,40.7328080,-74.1598570,True,0
103686131,40.7326140,-74.1589460,False,0
103686135,40.7325900,-74.1588280,True,1
103686137,40.7323850,-74.1578980,True,0
103686139,40.7323370,-74.1576800,True,0
103686141,40.7321810,-74.1569260,True,0
103686143,40.7320320,-74.1562120,True,1
103686145,40.7316500,-74.1544400,True,1
103686151,40.7314630,-74.1535670,False,0
103686153,40.7314510,-74.1535100,True,0
103686154,40.7312917,-74.1526342,True,1
103686155,40.7311082,-74.1517692,True,0
103686156,40.7309224,-74.1508968,True,0
103686157,40.7307419,-74.1500264,True,1
103686158,40.7306852,-74.1497580,False,0
103686159,40.7305332,-74.1490014,False,0
103686161,40.7304197,-74.1485277,False,0
103686163,40.7300264,-74.1465793,False,1
103686183,40.7364082,-74.1750620,False,1
103687345,40.7242160,-74.1713120,False,0
103687351,40.7238940,-74.1704880,False,0
103687357,40.7228940,-74.1680210,False,0
103687474,40.7395081,-74.1717650,False,0
103689274,40.7284170,-74.1727450,False,0
103689276,40.7279070,-74.1713940,False,0
103691637,40.7246550,-74.1747240,False,1
103691639,40.7247480,-74.1746250,True,0
103691641,40.7258390,-74.1734680,False,0
103691643,40.7263270,-74.1729750,True,1
103691645,40.7269009,-74.1724053,True,1
103691647,40.7274784,-74.1718237,True,1
103691648,40.7276120,-74.1716870,False,0
103691649,40.7285070,-74.1707880,True,1
103691650,40.7290660,-74.1702270,True,1
103691652,40.7296629,-74.1696440,True,1
103691653,40.7299250,-74.1693640,False,0
103691654,40.7299570,-74.1693330,True,0
103691655,40.7304760,-74.1688110,False,0
103691656,40.7306840,-74.1685800,True,1
103691657,40.7314678,-74.1677920,True,1
103691658,40.7315620,-74.1677096,False,0
103691659,40.7319199,-74.1674260,False,0
103691661,40.7327941,-74.1670092,False,0
103691662,40.7333669,-74.1667726,True,1
103691666,40.7352473,-74.1660512,True,0
103692125,40.7284440,-74.1705740,False,0
103692127,40.7283418,-74.1702329,True,0
103692128,40.7276930,-74.1680050,True,0
103692130,40.7271070,-74.1660020,True,0
103692134,40.7268330,-74.1650660,False,0
103692137,40.7264680,-74.1637670,True,0
103692139,40.7264580,-74.1637300,False,0
103692141,40.7256310,-74.1609110,True,0
103692149,40.7250900,-74.1592120,True,0
103692151,40.7246340,-74.1576390,True,1
103692153,40.7240380,-74.1555070,False,0
103692155,40.7234310,-74.1549300,False,0
103692158,40.7228600,-74.1543760,False,0
103692160,40.7223800,-74.1539110,False,0
103692162,40.7218460,-74.1533930,False,0
103692164,40.7216481,-74.1531987,False,0
103692166,40.7210830,-74.1526540,False,0
103692168,40.7205055,-74.1521222,False,0
103692212,40.7276137,-74.1767946,False,1
103692214,40.7270900,-74.1752040,True,0
103692216,40.7266393,-74.1737078,True,0
103692286,40.7262640,-74.1727950,False,0
103692287,40.7261689,-74.1725343,True,0
103692288,40.7258570,-74.1717610,False,0
103692289,40.7253450,-74.1705050,True,0
103692290,40.7250555,-74.1697093,True,1
103692292,40.7241469,-74.1675104,True,1
103692298,40.7222850,-74.1625540,False,1
103692302,40.7217100,-74.1609440,False,1
103692304,40.7211690,-74.1593950,False,1
103693136,40.7356290,-74.1704919,False,0
103693137,40.7361300,-74.1702550,False,0
103693594,40.7410637,-74.1709923,False,0
103695121,40.7239573,-74.1650126,False,0
103695151,40.7317382,-74.1596859,False,0
103695152,40.7316231,-74.1597942,True,0
103695154,40.7305850,-74.1608070,True,1
103695156,40.7289369,-74.1622958,True,1
103695192,40.7277860,-74.1631725,True,0
103695196,40.7271460,-74.1634470,True,1
103695198,40.7257920,-74.1640860,True,0
103695200,40.7251860,-74.1643720,True,0
103696786,40.7324028,-74.1630285,True,1
103696790,40.7320619,-74.1632928,True,0
103696792,40.7308780,-74.1642860,True,0
103696794,40.7300400,-74.1649170,True,1
103696798,40.7290520,-74.1656600,True,0
103696800,40.7286138,-74.1660021,True,0
103697495,40.7283680,-74.1533610,True,0
103697497,40.7271746,-74.1525603,False,0
103697499,40.7271035,-74.1524986,True,0
103697500,40.7265519,-74.1519744,True,0
103697501,40.7254350,-74.1508323,True,0
103699872,40.7321970,-74.1733650,False,0
103700475,40.7313400,-74.1577860,False,0
103700477,40.7307919,-74.1583514,True,0
103700479,40.7297280,-74.1594340,True,0
103700481,40.7297140,-74.1594480,False,0
103700484,40.7281945,-74.1605946,True,1
103701517,40.7356200,-74.1828080,False,0
103702442,40.7238750,-74.1580430,False,0
103702588,40.7336928,-74.1682689,False,0
103702590,40.7331986,-74.1659675,True,0
103702594,40.7330685,-74.1652666,True,0
103702596,40.7330644,-74.1652456,True,0
103702597,40.7330495,-74.1650438,True,0
103702599,40.7329020,-74.1643270,True,0
103702600,40.7327505,-74.1635311,True,0
103702607,40.7349013,-74.1725165,True,1
103702609,40.7340320,-74.1697020,True,1
103703907,40.7270807,-74.1560085,True,0
103703909,40.7265188,-74.1549036,False,0
103704292,40.7264557,-74.1541968,True,0
103704294,40.7267742,-74.1533596,True,0
103704295,40.7274187,-74.1516888,True,0
103706471,40.7306817,-74.1749631,True,1
103706472,40.7304070,-74.1741598,True,0
103706473,40.7302040,-74.1735430,True,0
103706475,40.7297701,-74.1720252,True,1
103706503,40.7297188,-74.1720535,True,1
103706505,40.7289353,-74.1696080,True,0
103706506,40.7283380,-74.1676840,True,1
103706507,40.7277630,-74.1656710,True,1
103706508,40.7275010,-74.1647520,False,0
103706509,40.7262930,-74.1605870,True,1
103706510,40.7257780,-74.1588600,True,1
103706511,40.7253060,-74.1572810,True,1
103706513,40.7245360,-74.1546160,True,1
103707732,40.7237267,-74.1515127,False,1
103708179,40.7340563,-74.1763700,False,1
103708181,40.7343475,-74.1775994,False,1
103708183,40.7345239,-74.1783379,False,0
103708185,40.7347637,-74.1793942,False,0
103708187,40.7349770,-74.1802770,False,1
103708193,40.7357440,-74.1828821,False,0
103708240,40.7331832,-74.1734996,True,1
103708242,40.7334623,-74.1743701,True,0
103708244,40.7336780,-74.1750600,True,1
103710294,40.7371693,-74.1711999,False,1
103710296,40.7365586,-74.1715507,False,1
103710298,40.7364345,-74.1716222,False,1
103710300,40.7347037,-74.1726310,True,1
103710304,40.7323970,-74.1739610,True,1
103710306,40.7315336,-74.1744805,True,1
103710310,40.7287838,-74.1760525,False,1
103710714,40.7292346,-74.1740658,True,0
103710716,40.7282970,-74.1745520,True,0
103710717,40.7278230,-74.1748080,True,0
103710719,40.7252330,-74.1762490,False,0
103710720,40.7245350,-74.1766420,False,0
103710721,40.7239610,-74.1769650,False,0
103710722,40.7232610,-74.1773600,False,0
103711388,40.7348875,-74.1731975,True,0
103711391,40.7349826,-74.1734903,True,0
103711393,40.7352028,-74.1741687,True,1
103711397,40.7355908,-74.1757343,False,1
103711399,40.7358945,-74.1769153,False,1
103711401,40.7360745,-74.1776304,False,0
103711403,40.7363636,-74.1788033,False,0
103711405,40.7364463,-74.1793899,False,0
103712536,40.7281033,-74.1558235,True,0
103712538,40.7278100,-74.1555500,True,1
103712539,40.7269520,-74.1547060,False,0
103712541,40.7258037,-74.1535468,True,1
103712543,40.7256662,-74.1534208,True,1
103712545,40.7253772,-74.1531216,True,0
103712547,40.7247669,-74.1525285,False,0
103712549,40.7245739,-74.1523366,True,0
103712551,40.7241999,-74.1519797,False,0
103712553,40.7240351,-74.1518143,False,0
103712889,40.7311955,-74.1590628,True,0
103712891,40.7303589,-74.1576324,True,0
103716449,40.7250190,-74.1515480,True,0
103716452,40.7258354,-74.1501215,True,1
103716455,40.7270530,-74.1479480,False,0
103716586,40.7327046,-74.1634706,True,0
103716608,40.7304450,-74.1658110,True,1
103716614,40.7295920,-74.1667090,True,0
103716620,40.7290014,-74.1673447,True,0
103716626,40.7270190,-74.1683400,True,0
103716629,40.7263860,-74.1687740,True,0
103716631,40.7256390,-74.1692870,True,0
103716634,40.7244440,-74.1701090,True,0
103717174,40.7337957,-74.1605430,False,0
103717327,40.7250090,-74.1537924,True,0
103718629,40.7316869,-74.1684460,True,0
103718631,40.7308352,-74.1688973,True,0
103718782,40.7369825,-74.1731578,False,0
103719807,40.7314602,-74.1625181,True,0
103719969,40.7425410,-74.1702900,False,0
103719970,40.7418456,-74.1706173,False,1
103719971,40.7403325,-74.1713149,False,0
103719972,40.7392871,-74.1718751,False,0
103719973,40.7389534,-74.1720537,False,0
103719975,40.7384393,-74.1723454,False,0
103719976,40.7379319,-74.1726400,False,1
103719980,40.7344745,-74.1745932,True,0
103719983,40.7329628,-74.1754683,True,0
103719985,40.7320090,-74.1760150,True,0
103725546,40.7279454,-74.1706487,True,0
103725549,40.7262590,-74.1664280,True,0
103726218,40.7287768,-74.1725602,True,0
103728447,40.7317890,-74.1721090,False,0
103728449,40.7314657,-74.1710646,True,1
103728450,40.7310720,-74.1697360,True,0
103728453,40.7307720,-74.1687210,False,0
103728456,40.7306010,-74.1684460,False,0
103728459,40.7305300,-74.1683330,False,0
103728461,40.7303753,-74.1680830,True,0
103728464,40.7299590,-74.1674150,True,0
103728467,40.7299410,-74.1673850,False,0
103728584,40.7225260,-74.1681730,False,0
103728585,40.7208570,-74.1632570,False,0
103728586,40.7203070,-74.1616620,False,0
103728588,40.7197720,-74.1601110,False,0
103729574,40.7245000,-74.1743030,False,0
103729580,40.7222790,-74.1682740,False,0
103729976,40.7322284,-74.1706286,True,1
103729978,40.7318675,-74.1693136,True,0
103729979,40.7315280,-74.1679140,False,0
103729981,40.7313760,-74.1676810,False,0
103729983,40.7312700,-74.1675180,False,0
103729985,40.7311345,-74.1672797,True,0
103729987,40.7309770,-74.1670020,False,0
103729989,40.7307860,-74.1665650,True,0
103729993,40.7296010,-74.1639080,True,1
103729994,40.7292600,-74.1631230,True,1
103729997,40.7285938,-74.1615252,True,0
103730005,40.7278288,-74.1597632,True,1
103730007,40.7271159,-74.1581221,True,1
103730009,40.7267520,-74.1572550,True,0
103730013,40.7267390,-74.1572210,False,0
103730015,40.7265720,-74.1566370,True,1
103730017,40.7264990,-74.1563800,True,1
103730181,40.7312979,-74.1736426,True,0
103732252,40.7326909,-74.1502760,True,1
103732254,40.7315460,-74.1506760,False,0
103732258,40.7301620,-74.1511660,False,0
103732439,40.7247680,-74.1709170,True,0
103737203,40.7320842,-74.1662920,True,0
103737204,40.7316822,-74.1656320,True,0
103737206,40.7329230,-74.1702830,False,0
103739494,40.7311530,-74.1615380,True,0
103739496,40.7280346,-74.1640326,True,0
103739980,40.7239210,-74.1748890,False,0
103741176,40.7315530,-74.1564090,False,0
103741177,40.7312050,-74.1567640,False,0
103741178,40.7293410,-74.1586660,True,1
103741182,40.7269212,-74.1602795,True,1
103741183,40.7249450,-74.1612470,True,0
103741184,40.7243530,-74.1615370,True,0
103741185,40.7237240,-74.1618460,True,0
103741189,40.7231020,-74.1621510,True,1
103741191,40.7215620,-74.1629100,False,0
103741193,40.7194540,-74.1639490,False,0
103741313,40.7290734,-74.1723955,True,0
103744843,40.7232210,-74.1601710,False,0
103744845,40.7227600,-74.1585930,False,0
103744855,40.7278595,-74.1730650,True,1
103744857,40.7274108,-74.1716175,False,0
103744859,40.7273520,-74.1712835,True,0
103744861,40.7255540,-74.1667830,True,1
103744873,40.7229340,-74.1585070,False,0
103745032,40.7232690,-74.1678670,False,0
103745034,40.7210080,-74.1613030,False,0
103745036,40.7204720,-74.1597520,False,0
103745346,40.7290480,-74.1498540,False,0
103746406,40.7366499,-74.1680764,False,1
103746414,40.7356217,-74.1687507,False,1
103746420,40.7346567,-74.1694027,True,0
103746444,40.7273765,-74.1733204,True,0
103746446,40.7271943,-74.1734105,True,0
103746452,40.7332360,-74.1701200,False,0
103746454,40.7306372,-74.1715425,True,0
103746456,40.7302909,-74.1717389,True,0
103747433,40.7294953,-74.1690155,True,0
103747435,40.7267371,-74.1719299,True,0
103747437,40.7258151,-74.1729067,True,0
103747439,40.7254891,-74.1732478,True,0
103749392,40.7258730,-74.1666220,True,0
103749399,40.7238660,-74.1598400,False,0
103749401,40.7234040,-74.1582760,False,0
103750107,40.7321060,-74.1627076,False,0
103750109,40.7317798,-74.1622781,True,0
103750111,40.7301150,-74.1602020,False,0
103750113,40.7300860,-74.1601450,True,0
103750117,40.7286485,-74.1570833,True,1
103750119,40.7283026,-74.1562621,True,0
103750121,40.7280181,-74.1555879,False,0
103750123,40.7279836,-74.1554446,True,1
103750125,40.7279784,-74.1553873,True,0
103750127,40.7280800,-74.1548410,False,0
103750129,40.7281840,-74.1543060,True,0
103750131,40.7283010,-74.1537060,True,0
103750133,40.7285000,-74.1526790,True,1
103750135,40.7285470,-74.1524380,True,1
103750139,40.7288870,-74.1506860,True,0
103750141,40.7292355,-74.1488499,False,0
103751013,40.7275388,-74.1623363,True,0
103751027,40.7300730,-74.1601580,False,0
103751051,40.7326825,-74.1576707,True,4
103751053,40.7326300,-74.1577000,False,0
103751055,40.7326000,-74.1577340,False,0
103751057,40.7325480,-74.1577700,False,0
103751059,40.7324900,-74.1577820,False,0
103751061,40.7324310,-74.1577700,False,0
103751063,40.7323950,-74.1577490,False,0
103751066,40.7323630,-74.1577180,False,0
103752438,40.7284208,-74.1653613,True,4
103752440,40.7264330,-74.1663410,True,0
103752441,40.7247920,-74.1671660,True,0
103752443,40.7235050,-74.1677700,True,0
103752444,40.7220220,-74.1683800,False,0
103752445,40.7211250,-74.1687490,False,1
103753899,40.7299490,-74.1503000,False,0
103755347,40.7183960,-74.1608368,False,0
103755349,40.7189080,-74.1623770,False,0
103756045,40.7269138,-74.1511769,True,0
103757003,40.7361283,-74.1684070,True,1
103758954,40.7296060,-74.1541700,True,0
103759924,40.7355591,-74.1735500,True,0
103760445,40.7324040,-74.1770758,False,0
103761255,40.7298865,-74.1704031,True,0
103761262,40.7292489,-74.1681880,True,0
103761265,40.7282809,-74.1648794,True,0
103761266,40.7272326,-74.1613131,True,0
103761267,40.7264194,-74.1585547,True,0
103761268,40.7259542,-74.1569809,True,0
103764710,40.7333310,-74.1766866,False,0
103767620,40.7341766,-74.1635249,True,0
103767624,40.7366989,-74.1699413,False,0
103768010,40.7310200,-74.1628350,False,0
103769259,40.7327350,-74.1539905,True,0
103769261,40.7327346,-74.1541957,False,0
103769263,40.7326934,-74.1568475,False,0
103769267,40.7326865,-74.1582160,False,0
103769269,40.7327312,-74.1587264,False,1
103769318,40.7331474,-74.1611432,True,1
103769322,40.7336108,-74.1617083,False,0
103769324,40.7337010,-74.1618320,False,0
103769326,40.7342130,-74.1623370,False,0
103769328,40.7346858,-74.1627920,True,1
103769330,40.7349221,-74.1629988,False,0
103769332,40.7351457,-74.1632510,False,0
103769334,40.7352189,-74.1633851,False,0
103769336,40.7353127,-74.1636663,False,0
103769338,40.7353802,-74.1640435,True,1
103769340,40.7359303,-74.1658350,True,1
103769567,40.7239820,-74.1579870,False,0
103771391,40.7309750,-74.1550270,False,0
103771393,40.7303070,-74.1556090,True,0
103771395,40.7244320,-74.1595500,False,0
103771396,40.7226080,-74.1604850,True,0
103771539,40.7348996,-74.1760175,False,0
103772595,40.7323880,-74.1648720,False,0
103773695,40.7316246,-74.1767647,False,0
103775820,40.7294030,-74.1532940,True,0
103776677,40.7292300,-74.1524230,True,0
103776712,40.7268633,-74.1722643,False,0
103776713,40.7244780,-74.1663820,False,0
103777423,40.7308440,-74.1540320,False,0
103777425,40.7299230,-74.1548240,True,0
103778454,40.7296100,-74.1541870,False,0
103781722,40.7345324,-74.1652753,False,0
103781724,40.7341756,-74.1654599,True,2
103783407,40.7308976,-74.1755883,False,0
103783409,40.7310007,-74.1758876,False,0
103783410,40.7310970,-74.1760920,False,0
103783412,40.7314520,-74.1765560,False,0
103783414,40.7316701,-74.1768368,False,0
103783751,40.7268352,-74.1534186,False,0
103783753,40.7261861,-74.1527614,True,0
103787248,40.7319700,-74.1620600,False,0
103855503,40.7354193,-74.1505374,False,0
103855505,40.7362704,-74.1488471,False,0
103855507,40.7375306,-74.1488761,False,0
103855509,40.7383983,-74.1488942,False,0
103855511,40.7385360,-74.1488390,False,0
103855513,40.7386630,-74.1487060,False,0
103855515,40.7387881,-74.1484847,False,0
103855516,40.7388270,-74.1481520,False,0
103866791,40.7344514,-74.1553189,True,0
440154379,40.7337291,-74.1552743,True,0
475721870,40.7257878,-74.1588690,False,0
475721876,40.7226384,-74.1604738,False,0
475721877,40.7229156,-74.1603416,False,0
475721883,40.7262886,-74.1605944,False,0
475721885,40.7231087,-74.1621273,False,0
624185913,40.7352373,-74.1637076,False,0
624185914,40.7351288,-74.1634125,False,0
624185916,40.7349953,-74.1631759,False,0
624185917,40.7347590,-74.1628948,True,0
651854134,40.7337373,-74.1605549,False,0
652442739,40.7330840,-74.1605258,True,0
652442740,40.7331784,-74.1609183,True,1
652442747,40.7336123,-74.1601903,True,0
652841666,40.7343815,-74.1632759,False,0
653214241,40.7337370,-74.1630450,True,0
696077702,40.7353563,-74.1638721,True,0
747626704,40.7320688,-74.1552923,False,0
747626705,40.7327345,-74.1550476,True,0
747626711,40.7331529,-74.1552329,True,0
747626718,40.7326933,-74.1574585,True,0
747626728,40.7327986,-74.1552512,True,0
747626733,40.7317720,-74.1543536,False,0
747626750,40.7326992,-74.1585488,True,0
747626751,40.7326440,-74.1587511,False,0
760901298,40.7338620,-74.1755942,False,0
760901310,40.7330649,-74.1609665,True,1
760901323,40.7298567,-74.1723165,False,0
893489029,40.7349353,-74.1699537,False,0
893489032,40.7342185,-74.1703192,False,0
893537921,40.7326800,-74.1538395,False,0
893615459,40.7351889,-74.1553676,True,1
893620429,40.7389052,-74.1465372,False,0
893620431,40.7389490,-74.1463863,False,0
893620434,40.7389650,-74.1463538,False,0
914816156,40.7359001,-74.1554154,False,0
914816162,40.7360605,-74.1514251,False,0
914816174,40.7352612,-74.1535209,True,0
914816203,40.7353452,-74.1513780,True,0
914892217,40.7384230,-74.1515808,False,0
914892219,40.7369848,-74.1514860,False,0
1313863051,40.7329827,-74.1669324,True,4
1457420107,40.7340796,-74.1655869,True,1
1457420111,40.7353186,-74.1638988,False,0
1789719385,40.7338077,-74.1637405,False,0
1789719392,40.7340333,-74.1635742,False,0
1789719399,40.7339072,-74.1637686,False,0
1789719409,40.7339411,-74.1638512,False,0
1789719415,40.7337028,-74.1632865,False,0
1789719424,40.7337771,-74.1632162,False,0
1789719430,40.7340322,-74.1635058,False,0
2037712630,40.7388925,-74.1466904,False,0
2037712631,40.7388984,-74.1465955,False,0
2037712633,40.7389149,-74.1464856,False,0
2037712634,40.7389282,-74.1464369,False,0
2648292707,40.7352748,-74.1531749,True,0
2648292720,40.7379829,-74.1515518,False,0
2648292766,40.7364077,-74.1487891,False,0
2648292767,40.7363280,-74.1488036,False,0
2648292773,40.7382445,-74.1489123,False,0
2648292776,40.7387387,-74.1486043,False,0
2648292777,40.7364711,-74.1487940,False,0
2648292791,40.7373019,-74.1488583,False,0
2649253148,40.7352536,-74.1634846,True,0
2649253149,40.7351896,-74.1635860,True,0
2649253151,40.7347745,-74.1628721,True,0
2649253152,40.7350271,-74.1630931,False,0
2649253154,40.7339977,-74.1651908,True,0
2649253155,40.7338026,-74.1642485,True,0
2649253157,40.7337278,-74.1643566,True,0
2649253158,40.7348835,-74.1648553,False,0
2649253160,40.7347023,-74.1651227,False,0
2649253161,40.7352303,-74.1643524,False,0
2649253162,40.7353245,-74.1641791,False,0
2649253170,40.7330031,-74.1642008,False,0
2649253171,40.7331027,-74.1640868,False,0
2649253177,40.7334070,-74.1643057,False,0
2649253178,40.7334207,-74.1643754,False,0
2649253179,40.7331382,-74.1647618,False,0
2649253180,40.7331201,-74.1647551,False,0
2649253181,40.7343560,-74.1653666,True,0
2649253188,40.7337084,-74.1630152,True,0
2649253195,40.7316137,-74.1681767,False,0
2649253196,40.7317767,-74.1688896,False,0
2649253198,40.7320281,-74.1699834,False,0
2649253199,40.7319420,-74.1696485,False,0
2649253209,40.7337307,-74.1684201,True,0
2649253246,40.7340118,-74.1695409,False,0
2649253259,40.7341358,-74.1698477,True,0
2649253260,40.7347086,-74.1695046,False,0
2649253261,40.7348598,-74.1699782,False,0
2649253262,40.7342716,-74.1703018,True,0
2649253263,40.7349663,-74.1691814,False,0
2649253274,40.7338406,-74.1688583,True,0
2649253275,40.7346696,-74.1685481,True,0
2649253277,40.7335424,-74.1675786,True,0
2649253278,40.7344172,-74.1672808,True,0
2649253382,40.7332108,-74.1660330,True,0
2649253385,40.7333038,-74.1659340,True,0
2649253540,40.7357536,-74.1727089,True,0
2649253542,40.7358045,-74.1728918,False,0
2649253616,40.7352755,-74.1635519,False,0
2649253619,40.7354574,-74.1635480,False,0
2650330724,40.7356857,-74.1635710,False,0
3158791810,40.7302574,-74.1692269,False,0
3158791821,40.7325625,-74.1689666,False,0
3158791822,40.7273336,-74.1710108,False,0
3432289294,40.7320552,-74.1673461,False,0
3432295811,40.7339316,-74.1605934,False,0
3432295812,40.7350730,-74.1622486,True,0
3573159450,40.7326839,-74.1560721,False,0
3639396122,40.7293757,-74.1481694,False,0
3639396130,40.7300508,-74.1502631,False,0
3659137402,40.7334467,-74.1743207,True,0
4147406546,40.7357645,-74.1704359,False,0
4174138410,40.7253055,-74.1752943,False,0
4174138411,40.7262128,-74.1747819,True,0
4192526443,40.7354018,-74.1505803,False,0
4192526444,40.7353500,-74.1512554,True,0
4192526445,40.7353703,-74.1507367,False,0
4192526446,40.7353758,-74.1506807,False,0
4192526447,40.7353853,-74.1506280,False,0
4207197893,40.7254164,-74.1739163,True,4
4207197895,40.7259982,-74.1733071,True,4
4207197897,40.7271354,-74.1721667,True,4
4207197898,40.7272439,-74.1720578,True,4
4207197907,40.7301822,-74.1752498,True,0
4207201931,40.7288085,-74.1704854,True,4
4207201932,40.7292850,-74.1700131,True,4
4207201933,40.7294945,-74.1698085,True,4
4207244050,40.7326933,-74.1571719,True,4
4207244061,40.7348705,-74.1553462,True,0
4207244062,40.7355607,-74.1553926,True,0
4207258432,40.7299781,-74.1463292,False,0
4215643365,40.7236794,-74.1514636,False,0
4224423776,40.7342388,-74.1739207,True,0
4224427628,40.7338852,-74.1756833,False,0
4226120957,40.7338087,-74.1644475,False,0
4226120958,40.7340197,-74.1656262,False,0
4226120960,40.7335238,-74.1658561,False,0
4226120961,40.7333609,-74.1623956,False,0
4226120962,40.7339656,-74.1656529,False,0
4226120963,40.7334381,-74.1658909,False,0
4226120964,40.7336968,-74.1657563,False,0
4226120965,40.7337666,-74.1657253,False,0
4226120966,40.7337677,-74.1643979,False,0
4226120967,40.7334003,-74.1625764,False,0
4226120968,40.7335064,-74.1629655,False,0
4329448122,40.7239525,-74.1689200,False,0
4335867391,40.7238760,-74.1598349,False,0
4335918807,40.7230687,-74.1584408,False,0
4337881206,40.7269248,-74.1555903,False,0
4344829622,40.7285872,-74.1625565,False,0
4345301204,40.7299222,-74.1625696,False,0
4346246097,40.7310368,-74.1628229,True,0
4927028698,40.7241856,-74.1596905,True,0
4927034821,40.7236304,-74.1618919,False,0
4927034822,40.7247034,-74.1613653,False,0
5005392482,40.7358112,-74.1636053,False,0
5005392483,40.7355485,-74.1635525,False,0
5005392484,40.7352659,-74.1635223,True,0
5005392485,40.7353996,-74.1635543,True,0
5005392488,40.7353434,-74.1635383,False,0
5005392489,40.7346174,-74.1652154,False,0
5005392501,40.7356003,-74.1635595,True,0
5295899966,40.7348244,-74.1698540,False,0
5295899967,40.7348342,-74.1698130,False,0
5295899968,40.7347824,-74.1695566,False,0
5295899969,40.7347530,-74.1695113,True,0
5295899970,40.7341532,-74.1697742,False,0
5295899971,40.7341294,-74.1697934,False,0
5295899972,40.7341229,-74.1698334,False,0
5295899980,40.7335797,-74.1698025,True,0
5568167645,40.7327278,-74.1522421,True,1
5568167652,40.7247080,-74.1647467,False,0
5568167653,40.7245627,-74.1646400,False,0
5569725509,40.7286309,-74.1614416,False,0
5569725510,40.7285589,-74.1616130,False,0
5569725511,40.7288917,-74.1623851,False,0
5569725512,40.7289787,-74.1622303,False,0
5569725514,40.7241946,-74.1675796,False,0
5569725515,40.7201613,-74.1636001,False,0
5569725516,40.7196188,-74.1620137,False,0
5569725517,40.7190872,-74.1604722,False,0
5692144473,40.7345897,-74.1681143,True,0
5692144475,40.7358451,-74.1676496,False,0
5735216738,40.7329520,-74.1701118,True,2
5735216739,40.7326627,-74.1689578,True,0
5735216740,40.7323066,-74.1672105,False,0
5735216741,40.7326586,-74.1672948,True,0
5735216742,40.7325326,-74.1675255,True,0
5735216743,40.7324635,-74.1673109,True,0
5735216744,40.7325773,-74.1672573,True,0
5735216745,40.7325529,-74.1667906,True,0
5735216746,40.7327115,-74.1681907,False,0
5735216747,40.7327968,-74.1682068,False,0
5735216748,40.7329144,-74.1688020,True,0
5735216749,40.7328224,-74.1688450,True,0
5735216751,40.7329821,-74.1687647,False,0
5735216752,40.7328619,-74.1681799,False,0
5735216753,40.7331463,-74.1680626,True,0
5735216754,40.7328537,-74.1671875,True,0
5735216755,40.7325708,-74.1671450,True,0
5735216757,40.7327568,-74.1670246,True,0
5736998908,40.7329821,-74.1687647,False,0
5736998909,40.7328305,-74.1688973,False,0
5740993678,40.7332269,-74.1618015,True,0
6069012320,40.7324042,-74.1563735,False,0
6069012321,40.7323903,-74.1562601,False,0
6069012322,40.7321710,-74.1563292,False,0
6069012323,40.7321948,-74.1564369,False,0
6117011432,40.7323525,-74.1671916,True,0
6131876723,40.7339838,-74.1606435,False,0
6131876724,40.7341921,-74.1609263,False,0
6131876725,40.7341453,-74.1609846,False,0
6131876740,40.7330393,-74.1638372,False,0
6177103096,40.7351949,-74.1552133,True,0
6177103097,40.7351074,-74.1553621,True,0
6339535677,40.7286055,-74.1521377,True,0
6339535684,40.7266013,-74.1508711,True,0
6339539086,40.7271650,-74.1514316,True,0
6339539091,40.7279372,-74.1520331,True,0
6339539092,40.7283071,-74.1513286,True,0
6441547600,40.7285295,-74.1752687,True,0
6441547601,40.7282050,-74.1754543,False,0
6476603230,40.7312864,-74.1649609,True,0
6476603231,40.7296207,-74.1666788,False,0
6672709501,40.7355205,-74.1645003,True,0
6672709506,40.7349394,-74.1647742,True,0
6672709517,40.7347412,-74.1650654,True,0
6684017695,40.7298316,-74.1546381,True,0
6861858962,40.7321780,-74.1639991,True,0
6861858965,40.7323058,-74.1638684,True,0
6861858971,40.7319373,-74.1624855,True,0
6861858973,40.7319527,-74.1620798,True,0
6861858976,40.7320923,-74.1619377,True,0
6861906297,40.7323942,-74.1648654,True,0
6861906298,40.7328733,-74.1641760,True,0
6861906302,40.7325794,-74.1646691,True,0
6861906315,40.7347361,-74.1689236,True,0
6861906316,40.7339315,-74.1692206,True,0
6861906323,40.7339718,-74.1697409,True,2
6861906324,40.7323611,-74.1705564,True,2
6861906333,40.7341687,-74.1699576,True,0
6861906334,40.7341280,-74.1696560,True,2
6861906335,40.7341395,-74.1697852,True,0
6861906336,40.7340850,-74.1698775,True,2
6861906337,40.7347282,-74.1693502,True,2
6861906350,40.7348466,-74.1723404,True,2
6866739029,40.7328533,-74.1725077,True,0
6866739034,40.7346190,-74.1716080,True,0
6868761856,40.7362822,-74.1784731,False,0
6868761869,40.7361285,-74.1778493,False,0
6886140101,40.7354028,-74.1688945,True,0
6886140109,40.7350808,-74.1691061,True,0
6886149613,40.7413287,-74.1708708,False,0
6888277583,40.7326933,-74.1572189,True,0
6888277584,40.7322499,-74.1572591,True,0
6888283485,40.7323048,-74.1575244,True,0
6888283489,40.7320928,-74.1565034,True,0
6888283492,40.7319947,-74.1560385,True,0
6888283495,40.7317891,-74.1550845,True,0
6888283509,40.7327345,-74.1548298,True,0
6888283510,40.7314072,-74.1532690,True,0
6888283515,40.7311978,-74.1521917,True,0
6888283517,40.7309447,-74.1518249,True,0
6888283518,40.7311394,-74.1526800,True,0
6892902270,40.7388773,-74.1470305,False,0
6893029988,40.7317253,-74.1769923,False,0
6893030000,40.7325207,-74.1738884,True,0
6893030001,40.7327982,-74.1746901,True,0
6894973576,40.7344474,-74.1631711,True,0
6894973579,40.7332910,-74.1620787,True,0
6895030150,40.7269106,-74.1500373,False,0
6895030151,40.7276239,-74.1506968,True,0
6895030153,40.7280905,-74.1511283,True,0
6895120549,40.7267041,-74.1762213,False,0
6895120550,40.7266738,-74.1761325,False,0
6899325155,40.7370811,-74.1709714,False,2
6899339110,40.7348356,-74.1649260,True,0
6899339114,40.7339319,-74.1638652,True,2
6899339117,40.7337326,-74.1639320,True,2
6899339130,40.7355808,-74.1687776,True,2
6899339138,40.7339838,-74.1656439,True,2
6899339140,40.7340969,-74.1656715,True,2
6899339144,40.7340495,-74.1654415,True,2
6902845087,40.7338443,-74.1755429,True,0
6902845088,40.7346202,-74.1750813,True,0
6911297155,40.7352080,-74.1641475,True,0
6911297156,40.7350194,-74.1638927,True,0
6911297157,40.7344335,-74.1631931,True,0
6911297158,40.7344971,-74.1630920,True,0
6911297159,40.7345615,-74.1629897,True,0
6911297160,40.7346253,-74.1628882,True,0
6929381537,40.7326349,-74.1667425,True,0
6929381554,40.7290722,-74.1673014,False,0
6953857664,40.7313395,-74.1764089,False,0
7038294284,40.7286452,-74.1581356,True,0
7038314401,40.7283867,-74.1583112,True,0
7071831336,40.7310697,-74.1760340,False,0
7071831341,40.7308445,-74.1754346,True,0
7087977727,40.7352990,-74.1815444,False,0
7111381442,40.7357003,-74.1650859,False,0
7111452044,40.7400207,-74.1714851,False,0
7111824389,40.7299402,-74.1753955,True,0
7111824398,40.7293466,-74.1757301,True,0
7137915800,40.7385170,-74.1488466,False,0
7146251551,40.7310299,-74.1641586,True,0
