Node ID,Lat,Lon,Is Intersection,Type
103653233,40.7323107,-74.1630990,False,0
103653239,40.7317950,-74.1608850,False,0
103653242,40.7314830,-74.1587800,False,0
103653246,40.7311010,-74.1559740,False,0
103653250,40.7306610,-74.1528240,False,0
103653254,40.7305160,-74.1519710,False,0
103653256,40.7303290,-74.1511070,False,0
103653259,40.7301310,-74.1502340,False,0
103653261,40.7291900,-74.1464640,False,0
103656794,40.7319710,-74.1435910,True,0
103663042,40.7322615,-74.1369370,False,0
103664315,40.7252541,-74.1450182,False,0
103664740,40.7248398,-74.1458011,False,0
103664743,40.7242611,-74.1452251,False,0
103665424,40.7386166,-74.1369393,False,0
103665500,40.7337731,-74.1641057,False,1
103672386,40.7246278,-74.1646853,False,1
103679702,40.7331896,-74.1616400,True,0
103679714,40.7333272,-74.1613806,True,4
103682522,40.7322940,-74.1397534,True,1
103682526,40.7319505,-74.1396407,True,0
103682811,40.7286930,-74.1516880,True,0
103682814,40.7262340,-74.1493980,False,0
103682817,40.7288670,-74.1507870,True,0
103684556,40.7329803,-74.1552280,True,0
103684557,40.7322413,-74.1553558,True,0
103684560,40.7318690,-74.1554550,True,1
103684564,40.7315160,-74.1555960,False,0
103684568,40.7306760,-74.1563610,True,0
103684570,40.7299779,-74.1569994,True,0
103684572,40.7290016,-74.1578935,True,1
103684574,40.7274640,-74.1589380,True,0
103686119,40.7335441,-74.1631233,True,0
103686121,40.7333036,-74.1621334,True,0
103686122,40.7331340,-74.1613990,True,0
103686123,40.7330460,-74.1609840,True,1
103686125,40.7330119,-74.1607873,True,4
103686129,40.7328080,-74.1598570,True,0
103686131,40.7326140,-74.1589460,False,0
103686135,40.7325900,-74.1588280,True,1
103686137,40.7323850,-74.1578980,True,0
103686139,40.7323370,-74.1576800,True,0
103686141,40.7321810,-74.1569260,True,0
103686143,40.7320320,-74.1562120,True,1
103686145,40.7316500,-74.1544400,True,1
103686151,40.7314630,-74.1535670,False,0
103686153,40.7314510,-74.1535100,True,0
103686154,40.7312917,-74.1526342,True,1
103686155,40.7311082,-74.1517692,True,0
103686156,40.7309224,-74.1508968,True,0
103686157,40.7307419,-74.1500264,True,1
103686158,40.7306852,-74.1497580,True,0
103686159,40.7305332,-74.1490014,True,0
103686161,40.7304197,-74.1485277,True,0
103686163,40.7300264,-74.1465793,True,1
103686165,40.7299883,-74.1451798,True,4
103687363,40.7306639,-74.1428647,True,1
103687365,40.7285297,-74.1411723,False,0
103687366,40.7281151,-74.1397319,True,0
103687369,40.7278894,-74.1388387,True,0
103690821,40.7297188,-74.1395200,True,0
103690822,40.7300155,-74.1386939,True,0
103690824,40.7301395,-74.1383452,True,0
103690826,40.7302310,-74.1380877,False,0
103690828,40.7303204,-74.1378302,True,0
103690829,40.7305420,-74.1371945,True,0
103690831,40.7307635,-74.1365776,False,0
103691029,40.7224970,-74.1435810,False,0
103691657,40.7314678,-74.1677920,False,1
103692137,40.7264680,-74.1637670,False,0
103692141,40.7256310,-74.1609110,False,0
103692149,40.7250900,-74.1592120,False,0
103692298,40.7222850,-74.1625540,False,1
103692302,40.7217100,-74.1609440,False,1
103695151,40.7317382,-74.1596859,False,0
103695152,40.7316231,-74.1597942,True,0
103695154,40.7305850,-74.1608070,True,1
103695156,40.7289369,-74.1622958,True,1
103695192,40.7277860,-74.1631725,False,0
103695196,40.7271460,-74.1634470,False,1
103695198,40.7257920,-74.1640860,False,0
103695200,40.7251860,-74.1643720,False,0
103695555,40.7387040,-74.1354580,False,0
103695858,40.7324968,-74.1490104,True,0
103695859,40.7306275,-74.1478904,True,0
103696786,40.7324028,-74.1630285,True,1
103696790,40.7320619,-74.1632928,True,0
103696792,40.7308780,-74.1642860,False,0
103696794,40.7300400,-74.1649170,True,1
103696798,40.7290520,-74.1656600,False,0
103696800,40.7286138,-74.1660021,False,0
103697495,40.7283680,-74.1533610,True,0
103697497,40.7271746,-74.1525603,False,0
103697499,40.7271035,-74.1524986,False,0
103697500,40.7265519,-74.1519744,False,0
103697501,40.7254350,-74.1508323,False,0
103700475,40.7313400,-74.1577860,False,0
103700477,40.7307919,-74.1583514,True,0
103700479,40.7297280,-74.1594340,True,0
103700481,40.7297140,-74.1594480,False,0
103700484,40.7281945,-74.1605946,True,1
103704295,40.7274187,-74.1516888,False,0
103704347,40.7317838,-74.1400511,True,0
103706509,40.7262930,-74.1605870,False,1
103706510,40.7257780,-74.1588600,False,1
103708240,40.7331832,-74.1734996,False,1
103708571,40.7314627,-74.1408638,True,1
103708575,40.7295318,-74.1393698,True,0
103708577,40.7293936,-74.1392652,False,0
103708579,40.7292350,-74.1391767,False,0
103708581,40.7290196,-74.1390801,False,0
103708583,40.7288062,-74.1390104,False,0
103708585,40.7283549,-74.1388977,False,0
103708587,40.7281578,-74.1388656,False,0
103708589,40.7275545,-74.1388483,False,0
103708801,40.7386690,-74.1363670,False,0
103712076,40.7327050,-74.1332120,False,0
103712536,40.7281033,-74.1558235,False,0
103712543,40.7256662,-74.1534208,False,1
103712889,40.7311955,-74.1590628,True,0
103712891,40.7303589,-74.1576324,True,0
103714393,40.7255377,-74.1429693,False,0
103716452,40.7258354,-74.1501215,False,1
103716455,40.7270530,-74.1479480,False,0
103716586,40.7327046,-74.1634706,False,0
103716608,40.7304450,-74.1658110,False,1
103717174,40.7337957,-74.1605430,False,0
103718524,40.7343121,-74.1436095,True,0
103718527,40.7337360,-74.1435450,True,1
103718529,40.7322450,-74.1427190,True,1
103718539,40.7310054,-74.1420171,True,1
103718542,40.7290358,-74.1404534,True,0
103718629,40.7316869,-74.1684460,False,0
103719807,40.7314602,-74.1625181,True,0
103722064,40.7322574,-74.1374815,False,0
103725936,40.7368590,-74.1368210,False,0
103725937,40.7384906,-74.1373229,False,0
103728497,40.7336485,-74.1455187,True,1
103728499,40.7316980,-74.1444590,True,0
103728501,40.7303070,-74.1437090,True,0
103728585,40.7208570,-74.1632570,False,0
103728586,40.7203070,-74.1616620,False,0
103729976,40.7322284,-74.1706286,False,1
103729978,40.7318675,-74.1693136,False,0
103729979,40.7315280,-74.1679140,False,0
103729981,40.7313760,-74.1676810,False,0
103729983,40.7312700,-74.1675180,False,0
103729985,40.7311345,-74.1672797,False,0
103729987,40.7309770,-74.1670020,False,0
103729989,40.7307860,-74.1665650,False,0
103729993,40.7296010,-74.1639080,True,1
103729994,40.7292600,-74.1631230,True,1
103729997,40.7285938,-74.1615252,True,0
103730005,40.7278288,-74.1597632,True,1
103730007,40.7271159,-74.1581221,True,1
103730009,40.7267520,-74.1572550,True,0
103730013,40.7267390,-74.1572210,False,0
103730015,40.7265720,-74.1566370,False,1
103730017,40.7264990,-74.1563800,False,1
103732252,40.7326909,-74.1502760,True,1
103732254,40.7315460,-74.1506760,False,0
103732258,40.7301620,-74.1511660,False,0
103737238,40.7338080,-74.1419170,True,4
103737239,40.7324950,-74.1418420,True,0
103737241,40.7313367,-74.1411749,True,0
103739494,40.7311530,-74.1615380,True,0
103739496,40.7280346,-74.1640326,False,0
103739811,40.7322594,-74.1382460,True,0
103741176,40.7315530,-74.1564090,False,0
103741177,40.7312050,-74.1567640,False,0
103741178,40.7293410,-74.1586660,True,1
103741182,40.7269212,-74.1602795,False,1
103741183,40.7249450,-74.1612470,False,0
103741184,40.7243530,-74.1615370,False,0
103741185,40.7237240,-74.1618460,False,0
103741189,40.7231020,-74.1621510,False,1
103741191,40.7215620,-74.1629100,False,0
103741193,40.7194540,-74.1639490,False,0
103741668,40.7333940,-74.1464280,True,4
103741670,40.7314230,-74.1453340,True,0
103741672,40.7300940,-74.1445970,True,0
103744843,40.7232210,-74.1601710,False,0
103745034,40.7210080,-74.1613030,False,0
103745333,40.7231045,-74.1441254,False,0
103745335,40.7220960,-74.1431960,False,0
103745346,40.7290480,-74.1498540,True,0
103745348,40.7272900,-74.1481750,True,0
103745350,40.7264936,-74.1474039,False,0
103745352,40.7259661,-74.1468840,False,0
103745354,40.7254051,-74.1463451,False,0
103745940,40.7348751,-74.1399407,True,0
103745942,40.7347860,-74.1418730,False,0
103745945,40.7348220,-74.1419660,False,0
103745947,40.7355380,-74.1420080,False,0
103745948,40.7355960,-74.1419310,False,0
103745950,40.7356982,-74.1400051,True,0
103748000,40.7332613,-74.1319236,False,0
103749399,40.7238660,-74.1598400,False,0
103750107,40.7321060,-74.1627076,False,0
103750109,40.7317798,-74.1622781,True,0
103750111,40.7301150,-74.1602020,False,0
103750113,40.7300860,-74.1601450,True,0
103750117,40.7286485,-74.1570833,True,1
103750119,40.7283026,-74.1562621,True,0
103750123,40.7279836,-74.1554446,False,1
103750125,40.7279784,-74.1553873,True,0
103750127,40.7280800,-74.1548410,False,0
103750129,40.7281840,-74.1543060,False,0
103750131,40.7283010,-74.1537060,True,0
103750133,40.7285000,-74.1526790,True,1
103750135,40.7285470,-74.1524380,True,1
103750139,40.7288870,-74.1506860,True,0
103750141,40.7292355,-74.1488499,True,0
103750143,40.7294350,-74.1478640,True,0
103750145,40.7294440,-74.1478140,False,0
103750147,40.7294800,-74.1476250,False,0
103750149,40.7296442,-74.1468806,True,0
103750151,40.7296990,-74.1466374,True,0
103750155,40.7302780,-74.1437810,False,0
103750156,40.7315582,-74.1406251,True,0
103750157,40.7319668,-74.1396005,True,0
103750158,40.7322046,-74.1389809,True,1
103750160,40.7323020,-74.1342806,False,0
103750161,40.7323800,-74.1340642,False,1
103750163,40.7335460,-74.1312010,False,0
103751013,40.7275388,-74.1623363,False,0
103751027,40.7300730,-74.1601580,False,0
103751051,40.7326825,-74.1576707,True,4
103751053,40.7326300,-74.1577000,False,0
103751055,40.7326000,-74.1577340,False,0
103751057,40.7325480,-74.1577700,False,0
103751059,40.7324900,-74.1577820,False,0
103751061,40.7324310,-74.1577700,False,0
103751063,40.7323950,-74.1577490,False,0
103751066,40.7323630,-74.1577180,False,0
103752396,40.7308935,-74.1470764,True,0
103752398,40.7311420,-74.1462280,False,0
103752400,40.7311510,-74.1462000,True,0
103752402,40.7325020,-74.1419030,False,0
103752404,40.7323794,-74.1406868,True,0
103752407,40.7322533,-74.1391338,False,0
103753899,40.7299490,-74.1503000,False,0
103753909,40.7327045,-74.1498610,True,0
103755349,40.7189080,-74.1623770,False,0
103756045,40.7269138,-74.1511769,False,0
103756156,40.7277161,-74.1473902,True,0
103756158,40.7264112,-74.1461052,False,0
103758351,40.7268441,-74.1453620,False,0
103758353,40.7272731,-74.1446160,False,0
103758954,40.7296060,-74.1541700,True,0
103761265,40.7282809,-74.1648794,False,0
103761266,40.7272326,-74.1613131,False,0
103761267,40.7264194,-74.1585547,False,0
103764949,40.7338975,-74.1398603,True,1
103764950,40.7367347,-74.1400802,True,0
103764955,40.7375151,-74.1401365,True,0
103765838,40.7338580,-74.1407750,True,0
103767053,40.7243190,-74.1419150,False,0
103767405,40.7387410,-74.1345270,False,0
103767620,40.7341766,-74.1635249,True,0
103767932,40.7331606,-74.1472802,True,4
103767935,40.7328450,-74.1471220,False,0
103768010,40.7310200,-74.1628350,False,0
103769222,40.7341490,-74.1342980,False,0
103769224,40.7340350,-74.1371240,False,0
103769230,40.7337250,-74.1438100,False,0
103769232,40.7336620,-74.1453090,False,0
103769234,40.7336520,-74.1454860,False,0
103769236,40.7336060,-74.1457180,False,0
103769238,40.7329164,-74.1481479,True,0
103769240,40.7328664,-74.1482955,False,0
103769243,40.7327529,-74.1487242,True,0
103769245,40.7327327,-74.1489009,False,0
103769247,40.7327321,-74.1489446,False,0
103769249,40.7327243,-74.1490351,True,1
103769255,40.7327189,-74.1492819,False,0
103769259,40.7327350,-74.1539905,True,0
103769261,40.7327346,-74.1541957,False,0
103769263,40.7326934,-74.1568475,False,0
103769267,40.7326865,-74.1582160,False,0
103769269,40.7327312,-74.1587264,False,1
103769318,40.7331474,-74.1611432,True,1
103769322,40.7336108,-74.1617083,False,0
103769324,40.7337010,-74.1618320,False,0
103769326,40.7342130,-74.1623370,False,0
103769328,40.7346858,-74.1627920,True,1
103769330,40.7349221,-74.1629988,False,0
103769332,40.7351457,-74.1632510,False,0
103769334,40.7352189,-74.1633851,False,0
103769719,40.7281390,-74.1466260,True,0
103769721,40.7256790,-74.1442760,False,0
103771391,40.7309750,-74.1550270,False,0
103771393,40.7303070,-74.1556090,True,0
103771395,40.7244320,-74.1595500,False,0
103771396,40.7226080,-74.1604850,False,0
103774266,40.7368416,-74.1377366,False,0
103775820,40.7294030,-74.1532940,True,0
103776677,40.7292300,-74.1524230,True,0
103777423,40.7308440,-74.1540320,False,0
103777425,40.7299230,-74.1548240,True,0
103778454,40.7296100,-74.1541870,False,0
103780515,40.7282660,-74.1455850,False,0
103781266,40.7285580,-74.1458630,True,0
103783624,40.7386200,-74.1368560,False,0
103783626,40.7386660,-74.1364400,False,0
103785016,40.7289510,-74.1462370,False,0
103785018,40.7261020,-74.1435290,False,0
103785034,40.7244888,-74.1419635,False,0
103785036,40.7244090,-74.1419460,False,0
103787248,40.7319700,-74.1620600,False,0
103855503,40.7354193,-74.1505374,False,0
103855505,40.7362704,-74.1488471,False,0
103855507,40.7375306,-74.1488761,True,0
103855509,40.7383983,-74.1488942,False,0
103855511,40.7385360,-74.1488390,False,0
103855513,40.7386630,-74.1487060,False,0
103855515,40.7387881,-74.1484847,False,0
103855516,40.7388270,-74.1481520,False,0
103866791,40.7344514,-74.1553189,True,0
103869623,40.7386117,-74.1598615,True,0
103869625,40.7374933,-74.1598164,True,0
103874244,40.7400426,-74.1577672,False,0
103874246,40.7387015,-74.1576548,True,0
103874248,40.7385288,-74.1576363,False,0
103883804,40.7383434,-74.1505363,False,0
103883805,40.7384189,-74.1506264,False,0
103883807,40.7386334,-74.1507132,False,0
103883809,40.7389434,-74.1507357,False,0
440154379,40.7337291,-74.1552743,True,0
477531408,40.7282068,-74.1478630,True,0
477531696,40.7345391,-74.1399130,True,0
624185914,40.7351288,-74.1634125,False,0
624185916,40.7349953,-74.1631759,False,0
624185917,40.7347590,-74.1628948,True,0
651854134,40.7337373,-74.1605549,False,0
652442739,40.7330840,-74.1605258,True,0
652442740,40.7331784,-74.1609183,True,1
652442747,40.7336123,-74.1601903,True,0
652841666,40.7343815,-74.1632759,False,0
653214241,40.7337370,-74.1630450,True,0
747626704,40.7320688,-74.1552923,False,0
747626705,40.7327345,-74.1550476,True,0
747626711,40.7331529,-74.1552329,True,0
747626718,40.7326933,-74.1574585,True,0
747626728,40.7327986,-74.1552512,True,0
747626733,40.7317720,-74.1543536,False,0
747626750,40.7326992,-74.1585488,True,0
747626751,40.7326440,-74.1587511,False,0
747626770,40.7341744,-74.1337220,False,0
760901310,40.7330649,-74.1609665,True,1
893537921,40.7326800,-74.1538395,False,0
893615459,40.7351889,-74.1553676,True,1
893620429,40.7389052,-74.1465372,False,0
893620431,40.7389490,-74.1463863,False,0
893620434,40.7389650,-74.1463538,False,0
914816142,40.7368323,-74.1554781,True,1
914816156,40.7359001,-74.1554154,True,0
914816162,40.7360605,-74.1514251,True,0
914816174,40.7352612,-74.1535209,True,0
914816183,40.7383449,-74.1535587,True,0
914816193,40.7385140,-74.1506875,False,0
914816203,40.7353452,-74.1513780,True,0
914816240,40.7382653,-74.1555744,True,1
914892217,40.7384230,-74.1515808,True,0
914892219,40.7369848,-74.1514860,True,0
1051397710,40.7286368,-74.1389740,True,0
1051398052,40.7276882,-74.1388387,False,0
1051398710,40.7284728,-74.1411025,False,0
1051398711,40.7284322,-74.1410086,True,0
1051400989,40.7321538,-74.1391230,False,0
1051401501,40.7322615,-74.1385973,False,0
1051402005,40.7322676,-74.1355477,False,0
1051402007,40.7322818,-74.1344989,False,0
1051402209,40.7322330,-74.1388575,False,0
1051402213,40.7322513,-74.1387341,False,0
1051402617,40.7322737,-74.1395495,False,0
1051402619,40.7322594,-74.1393349,False,0
1051402622,40.7322371,-74.1390506,False,0
1109650419,40.7386979,-74.1356159,False,0
1109650863,40.7383944,-74.1376131,False,0
1472726893,40.7386365,-74.1367068,False,0
1789719385,40.7338077,-74.1637405,False,0
1789719392,40.7340333,-74.1635742,False,0
1789719399,40.7339072,-74.1637686,False,0
1789719415,40.7337028,-74.1632865,False,0
1789719424,40.7337771,-74.1632162,False,0
1789719430,40.7340322,-74.1635058,False,0
2037712630,40.7388925,-74.1466904,False,0
2037712631,40.7388984,-74.1465955,False,0
2037712633,40.7389149,-74.1464856,False,0
2037712634,40.7389282,-74.1464369,False,0
2484315338,40.7359812,-74.1533979,True,0
2484315339,40.7369097,-74.1534504,True,0
2648292705,40.7359743,-74.1535685,True,0
2648292707,40.7352748,-74.1531749,True,0
2648292709,40.7359881,-74.1532266,True,0
2648292720,40.7379829,-74.1515518,True,0
2648292757,40.7391484,-74.1508140,False,0
2648292760,40.7394234,-74.1508710,False,0
2648292763,40.7405613,-74.1509564,True,0
2648292766,40.7364077,-74.1487891,False,0
2648292767,40.7363280,-74.1488036,False,0
2648292770,40.7376240,-74.1491152,False,0
2648292773,40.7382445,-74.1489123,False,0
2648292776,40.7387387,-74.1486043,False,0
2648292777,40.7364711,-74.1487940,True,0
2648292791,40.7373019,-74.1488583,True,0
2649253148,40.7352536,-74.1634846,False,0
2649253149,40.7351896,-74.1635860,False,0
2649253151,40.7347745,-74.1628721,True,0
2649253152,40.7350271,-74.1630931,False,0
2649253188,40.7337084,-74.1630152,True,0
2649253195,40.7316137,-74.1681767,False,0
2649253196,40.7317767,-74.1688896,False,0
2649253198,40.7320281,-74.1699834,False,0
2649253199,40.7319420,-74.1696485,False,0
2794848137,40.7297616,-74.1461824,False,0
2805588745,40.7325987,-74.1490215,False,0
2805588746,40.7326279,-74.1490246,False,0
3432295811,40.7339316,-74.1605934,False,0
3432295812,40.7350730,-74.1622486,True,0
3477750266,40.7408422,-74.1578181,False,0
3566158836,40.7348200,-74.1411362,True,0
3566158837,40.7348523,-74.1404352,True,0
3566158838,40.7355332,-74.1411966,False,0
3566158839,40.7355638,-74.1404831,False,0
3569385593,40.7325597,-74.1449225,False,0
3569385594,40.7325909,-74.1449393,True,0
3569385595,40.7328313,-74.1441638,False,0
3569385596,40.7328440,-74.1441204,False,0
3569385597,40.7328622,-74.1440962,False,0
3569385598,40.7328895,-74.1440804,False,0
3569385599,40.7329061,-74.1440783,False,0
3569385600,40.7329373,-74.1440880,False,0
3569385601,40.7333358,-74.1443119,False,0
3569385602,40.7334981,-74.1442899,False,0
3573159450,40.7326839,-74.1560721,False,0
3639396122,40.7293757,-74.1481694,True,0
3639396125,40.7295377,-74.1482583,False,0
3639396129,40.7296386,-74.1486656,False,0
3639396130,40.7300508,-74.1502631,True,0
3659298504,40.7340074,-74.1376737,False,0
3659298505,40.7348123,-74.1399355,True,0
3659298506,40.7348444,-74.1392487,False,0
3659298507,40.7349321,-74.1390913,False,0
3659298508,40.7349847,-74.1377459,False,0
3886977194,40.7274152,-74.1388697,False,0
3886977202,40.7272795,-74.1388905,False,0
3886977205,40.7269790,-74.1389379,False,0
4143977991,40.7399611,-74.1599541,False,0
4192526443,40.7354018,-74.1505803,False,0
4192526444,40.7353500,-74.1512554,True,0
4192526445,40.7353703,-74.1507367,False,0
4192526446,40.7353758,-74.1506807,False,0
4192526447,40.7353853,-74.1506280,False,0
4207244050,40.7326933,-74.1571719,True,4
4207244051,40.7327014,-74.1499559,True,4
4207244052,40.7330094,-74.1478207,True,4
4207244053,40.7332482,-74.1469602,True,4
4207244054,40.7334793,-74.1461424,True,4
4207244055,40.7336667,-74.1451977,True,0
4207244056,40.7336798,-74.1448845,True,4
4207244057,40.7337539,-74.1431414,True,0
4207244058,40.7337636,-74.1429216,True,4
4207244059,40.7338274,-74.1414737,True,4
4207244060,40.7339219,-74.1393749,True,0
4207244061,40.7348705,-74.1553462,True,0
4207244062,40.7355607,-74.1553926,True,0
4207244063,40.7364963,-74.1554555,True,4
4207244064,40.7372592,-74.1555068,True,0
4207244065,40.7379753,-74.1555549,True,0
4207244066,40.7387582,-74.1556098,True,0
4207244067,40.7400888,-74.1557055,False,0
4207258432,40.7299781,-74.1463292,True,4
4207909035,40.7342451,-74.1287939,False,0
4226120961,40.7333609,-74.1623956,False,0
4226120967,40.7334003,-74.1625764,False,0
4226120968,40.7335064,-74.1629655,False,0
4335867391,40.7238760,-74.1598349,False,0
4344829622,40.7285872,-74.1625565,False,0
4345301204,40.7299222,-74.1625696,False,0
4346246097,40.7310368,-74.1628229,True,0
4363410291,40.7304162,-74.1468026,False,0
4446613116,40.7407669,-74.1600094,False,0
4446613117,40.7414430,-74.1600558,False,0
4446613127,40.7391053,-74.1556294,True,0
4567826937,40.7345289,-74.1399122,True,0
4567836835,40.7343233,-74.1450968,False,0
4567836836,40.7339042,-74.1445745,False,0
4567836837,40.7346198,-74.1435840,False,0
4567836838,40.7350435,-74.1441016,False,0
4567836839,40.7346396,-74.1434372,False,0
4567836840,40.7346065,-74.1430408,False,0
4567836841,40.7345541,-74.1427511,False,0
4567836842,40.7345726,-74.1426556,False,0
4567836843,40.7346335,-74.1426251,False,0
4567836844,40.7347652,-74.1426109,False,0
4567836845,40.7348722,-74.1426353,False,0
4567836846,40.7351618,-74.1425966,False,0
4567836847,40.7351864,-74.1427613,False,0
4567836848,40.7351610,-74.1429910,False,0
4567836849,40.7350663,-74.1432105,False,0
4567836850,40.7349115,-74.1433711,False,0
4567836851,40.7347813,-74.1434260,False,0
4844515122,40.7305991,-74.1430196,True,0
4844515123,40.7305857,-74.1430515,True,0
4926248201,40.7334585,-74.1314231,False,0
4926248734,40.7336437,-74.1308647,False,0
4926248776,40.7326665,-74.1333078,False,0
4926248780,40.7327532,-74.1331003,False,0
4927028698,40.7241856,-74.1596905,False,0
4927034821,40.7236304,-74.1618919,False,0
4927034822,40.7247034,-74.1613653,False,0
5498278063,40.7286933,-74.1387787,False,0
5498278066,40.7285964,-74.1385267,False,0
5498278067,40.7290196,-74.1390801,False,0
5498278069,40.7294682,-74.1386647,False,0
5568167645,40.7327278,-74.1522421,True,1
5568167648,40.7299072,-74.1458541,False,0
5568167649,40.7299205,-74.1453834,False,1
5568167650,40.7299646,-74.1455208,True,1
5568167651,40.7299174,-74.1459788,False,0
5569725509,40.7286309,-74.1614416,False,0
5569725510,40.7285589,-74.1616130,False,0
5569725511,40.7288917,-74.1623851,False,0
5569725512,40.7289787,-74.1622303,False,0
5569725515,40.7201613,-74.1636001,False,0
5569725516,40.7196188,-74.1620137,False,0
5570105473,40.7369588,-74.1554866,False,1
5723400353,40.7299087,-74.1454427,True,0
5723400361,40.7295261,-74.1467723,True,0
5735457779,40.7322585,-74.1373362,False,0
5735457782,40.7322761,-74.1349206,False,0
5740993678,40.7332269,-74.1618015,True,0
5748293847,40.7380491,-74.1386039,True,0
5748293848,40.7386543,-74.1365455,False,0
5764962141,40.7398587,-74.1577518,False,0
6069012320,40.7324042,-74.1563735,False,0
6069012321,40.7323903,-74.1562601,False,0
6069012322,40.7321710,-74.1563292,False,0
6069012323,40.7321948,-74.1564369,False,0
6093105958,40.7415227,-74.1578507,False,0
6093266539,40.7382354,-74.1555724,True,0
6093266540,40.7382907,-74.1549303,True,0
6131876723,40.7339838,-74.1606435,False,0
6131876724,40.7341921,-74.1609263,False,0
6131876725,40.7341453,-74.1609846,False,0
6177103096,40.7351949,-74.1552133,True,0
6177103097,40.7351074,-74.1553621,True,0
6292575704,40.7373700,-74.1401260,True,0
6292575712,40.7376560,-74.1397322,True,0
6292575713,40.7377290,-74.1395226,True,0
6292575727,40.7360459,-74.1400303,True,0
6339535677,40.7286055,-74.1521377,True,0
6339535684,40.7266013,-74.1508711,True,0
6339539086,40.7271650,-74.1514316,False,0
6339539091,40.7279372,-74.1520331,False,0
6339539092,40.7283071,-74.1513286,True,0
6506317434,40.7386621,-74.1586231,False,0
6564404203,40.7299129,-74.1497285,True,0
6564404204,40.7300323,-74.1501914,False,0
6616120212,40.7384091,-74.1519335,True,0
6669475514,40.7378190,-74.1392642,True,0
6669475525,40.7368173,-74.1382687,True,0
6669475528,40.7367634,-74.1394508,True,0
6684017695,40.7298316,-74.1546381,True,0
6861858971,40.7319373,-74.1624855,True,0
6861858973,40.7319527,-74.1620798,True,0
6861858976,40.7320923,-74.1619377,True,0
6862408060,40.7226746,-74.1437421,False,0
6866739029,40.7328533,-74.1725077,False,0
6888277583,40.7326933,-74.1572189,True,0
6888277584,40.7322499,-74.1572591,True,0
6888283485,40.7323048,-74.1575244,True,0
6888283489,40.7320928,-74.1565034,True,0
6888283492,40.7319947,-74.1560385,True,0
6888283495,40.7317891,-74.1550845,True,0
6888283509,40.7327345,-74.1548298,True,0
6888283510,40.7314072,-74.1532690,True,0
6888283515,40.7311978,-74.1521917,True,0
6888283517,40.7309447,-74.1518249,True,0
6888283518,40.7311394,-74.1526800,True,0
6892902270,40.7388773,-74.1470305,True,0
6894973576,40.7344474,-74.1631711,True,0
6894973579,40.7332910,-74.1620787,True,0
6895030150,40.7269106,-74.1500373,False,0
6895030151,40.7276239,-74.1506968,False,0
6895030153,40.7280905,-74.1511283,True,0
6895030158,40.7279750,-74.1488292,False,0
6899339117,40.7337326,-74.1639320,False,2
6902329364,40.7322669,-74.1356980,False,0
6902329368,40.7340930,-74.1356870,False,0
6911297156,40.7350194,-74.1638927,True,0
6911297157,40.7344335,-74.1631931,True,0
6911297158,40.7344971,-74.1630920,True,0
6911297159,40.7345615,-74.1629897,True,0
6911297160,40.7346253,-74.1628882,True,0
6989122370,40.7369674,-74.1554872,True,0
6989147288,40.7362908,-74.1554417,True,0
7038294284,40.7286452,-74.1581356,True,0
7038314401,40.7283867,-74.1583112,True,0
7137915800,40.7385170,-74.1488466,True,0
7146251551,40.7310299,-74.1641586,False,0
7148579056,40.7386914,-74.1357858,False,0
