Node ID,Lat,Lon,Is Intersection,Type
220697482,36.8282460,-76.2419010,True,0
220698991,36.8249350,-76.2381590,True,0
220733175,36.8269040,-76.2320680,True,0
220733182,36.8272310,-76.2320580,False,0
220733185,36.8273960,-76.2320700,False,0
220733189,36.8275820,-76.2321020,False,0
220733192,36.8276950,-76.2321370,False,0
220733197,36.8277800,-76.2321750,False,0
220733204,36.8278270,-76.2321770,False,0
220733208,36.8278790,-76.2321550,False,0
220733213,36.8279060,-76.2321300,False,0
220733217,36.8279270,-76.2321020,False,0
220733220,36.8279450,-76.2320640,False,0
220733223,36.8280430,-76.2316000,False,0
220733228,36.8280586,-76.2315204,True,0
220733232,36.8280770,-76.2313660,False,0
220733236,36.8280410,-76.2296110,True,0
220738132,36.8222490,-76.2241420,False,0
220738136,36.8221120,-76.2241220,False,0
220738140,36.8219152,-76.2241241,False,0
220738144,36.8210010,-76.2241560,False,0
220738148,36.8207190,-76.2241570,False,0
220738153,36.8205110,-76.2241840,False,0
220738157,36.8202669,-76.2242276,False,0
220742874,36.8232230,-76.2280730,True,0
220742877,36.8225290,-76.2261050,True,0
220744292,36.8252310,-76.2441300,True,0
220744296,36.8251820,-76.2440700,False,0
220744300,36.8237410,-76.2406580,True,0
220747190,36.8221760,-76.2483260,False,0
220747494,36.8217300,-76.2465790,False,0
220747504,36.8232470,-76.2473920,False,0
220747510,36.8240360,-76.2478090,False,0
220747515,36.8246070,-76.2481130,False,0
220748892,36.8222550,-76.2444380,True,0
220748897,36.8230740,-76.2443720,False,0
220748902,36.8238830,-76.2443140,True,0
220748906,36.8250650,-76.2442210,False,0
220748910,36.8251240,-76.2442020,False,0
220750145,36.8342250,-76.2326320,True,0
220750150,36.8335840,-76.2324390,False,0
220750154,36.8334650,-76.2323980,False,0
220750159,36.8333890,-76.2323660,False,0
220750165,36.8333310,-76.2323340,False,0
220750171,36.8331200,-76.2321930,False,0
220750177,36.8329330,-76.2320450,False,0
220750180,36.8328440,-76.2319550,False,0
220750187,36.8327590,-76.2318590,False,0
220750201,36.8326700,-76.2317380,False,0
220750208,36.8325920,-76.2316180,False,0
220750213,36.8321070,-76.2308390,True,0
220750219,36.8314910,-76.2298320,True,0
220750223,36.8313400,-76.2296080,False,0
220750226,36.8312650,-76.2294670,False,0
220750229,36.8312190,-76.2293590,False,0
220750231,36.8311730,-76.2292340,False,0
220750235,36.8311290,-76.2290810,False,0
220750238,36.8308140,-76.2277100,True,0
220751895,36.8247270,-76.2283770,True,0
220751897,36.8246640,-76.2286050,False,0
220751899,36.8246430,-76.2287150,False,0
220751901,36.8246300,-76.2288550,False,0
220751905,36.8246240,-76.2289850,False,0
220751908,36.8246220,-76.2291460,False,0
220751913,36.8246450,-76.2293880,False,0
220751918,36.8246640,-76.2294930,False,0
220751922,36.8247180,-76.2296830,False,0
220751925,36.8247890,-76.2298660,False,0
220751930,36.8248630,-76.2300780,False,0
220751933,36.8249370,-76.2303050,False,0
220753292,36.8336859,-76.2346902,True,0
220753296,36.8336710,-76.2349863,False,0
220754059,36.8290230,-76.2305520,False,0
220754061,36.8289600,-76.2303080,False,0
220754065,36.8289210,-76.2301380,False,0
220754070,36.8288870,-76.2299480,False,0
220754074,36.8288600,-76.2297200,False,0
220754079,36.8288400,-76.2294500,True,0
220754083,36.8287810,-76.2286080,True,0
220754085,36.8287640,-76.2283210,False,0
220754089,36.8287670,-76.2282220,False,0
220754094,36.8287770,-76.2281120,False,0
220754097,36.8288410,-76.2278610,True,0
220756575,36.8282350,-76.2378240,False,0
220756579,36.8281820,-76.2379250,False,0
220756582,36.8281520,-76.2379670,False,0
220756585,36.8281180,-76.2380020,False,0
220756588,36.8280190,-76.2380460,False,0
220756591,36.8278940,-76.2380740,False,0
220756596,36.8277230,-76.2380820,False,0
220756599,36.8276550,-76.2381050,False,0
220756601,36.8272380,-76.2383560,False,0
220756604,36.8270090,-76.2385170,True,0
220756607,36.8258630,-76.2392450,True,0
220756611,36.8247696,-76.2399612,True,0
220756615,36.8236890,-76.2406600,False,0
220756618,36.8236400,-76.2406540,False,0
220756621,36.8224670,-76.2400610,True,0
220758552,36.8308630,-76.2306030,True,0
220758556,36.8307430,-76.2307020,False,0
220758560,36.8306810,-76.2307450,False,0
220758564,36.8305910,-76.2307990,False,0
220758758,36.8319181,-76.2277628,True,0
220758762,36.8318300,-76.2282260,False,0
220758767,36.8318060,-76.2282920,False,0
220758768,36.8317790,-76.2283370,False,0
220759077,36.8346440,-76.2383000,False,0
220759105,36.8337954,-76.2386434,True,0
220759108,36.8341250,-76.2384923,False,0
220761682,36.8240110,-76.2280870,True,0
220761686,36.8240190,-76.2279920,False,0
220761689,36.8240120,-76.2278310,False,0
220761694,36.8239930,-76.2277120,False,0
220761697,36.8238490,-76.2272180,True,0
220761704,36.8234100,-76.2260890,True,0
220761713,36.8233860,-76.2251130,True,0
220763461,36.8269010,-76.2314700,True,0
220763464,36.8265210,-76.2314810,False,0
220763468,36.8264870,-76.2314960,False,0
220763473,36.8264710,-76.2315240,False,0
220763477,36.8264630,-76.2315480,False,0
220763481,36.8264690,-76.2319270,False,0
220763485,36.8264610,-76.2319680,False,0
220763489,36.8264390,-76.2320000,False,0
220763493,36.8261210,-76.2320130,False,0
220763496,36.8260580,-76.2320110,False,0
220763501,36.8260010,-76.2319930,False,0
220763504,36.8259590,-76.2319630,False,0
220763506,36.8259170,-76.2319060,False,0
220763511,36.8258830,-76.2318490,False,0
220763515,36.8258530,-76.2317680,False,0
220765615,36.8253790,-76.2439550,False,0
220765620,36.8253450,-76.2439800,False,0
220765624,36.8252630,-76.2440750,False,0
220765627,36.8251780,-76.2444020,False,0
220765634,36.8251100,-76.2446500,False,0
220765639,36.8238780,-76.2482510,False,0
220765643,36.8238040,-76.2484000,False,0
220765647,36.8237360,-76.2485080,False,0
220765651,36.8236810,-76.2485780,False,0
220765655,36.8236060,-76.2486520,False,0
220765660,36.8235310,-76.2487060,False,0
220765664,36.8234400,-76.2487560,False,0
220765668,36.8230150,-76.2489260,False,0
220765672,36.8226460,-76.2490630,False,0
220765676,36.8222320,-76.2492290,False,0
220765679,36.8219690,-76.2493230,False,0
220765682,36.8216980,-76.2494330,False,0
220765687,36.8213250,-76.2495470,True,0
220768726,36.8267010,-76.2412160,True,0
220768731,36.8256048,-76.2419396,True,0
220772371,36.8347110,-76.2296270,True,0
220772376,36.8339730,-76.2288620,False,0
220777251,36.8289440,-76.2275030,False,0
220777255,36.8290340,-76.2272680,False,0
220777258,36.8291210,-76.2270870,False,0
220777262,36.8292200,-76.2269170,False,0
220777267,36.8292750,-76.2268330,False,0
220777272,36.8294240,-76.2266340,False,0
220777276,36.8295560,-76.2264760,False,0
220781055,36.8285940,-76.2286310,False,0
220781057,36.8284000,-76.2286400,False,0
220781059,36.8282670,-76.2286370,False,0
220781063,36.8281340,-76.2286200,False,0
220781065,36.8279750,-76.2285770,False,0
220781067,36.8278830,-76.2285460,False,0
220781071,36.8260360,-76.2277950,True,0
220781073,36.8250820,-76.2274340,False,0
220781077,36.8244980,-76.2271950,False,0
220781081,36.8244150,-76.2271730,False,0
220781085,36.8243210,-76.2271560,False,0
220781089,36.8242260,-76.2271310,False,0
220781093,36.8241050,-76.2271080,False,0
220781096,36.8240280,-76.2271200,False,0
220781101,36.8239650,-76.2271390,False,0
220781102,36.8239080,-76.2271710,False,0
220792797,36.8187770,-76.2295980,False,0
220792926,36.8252370,-76.2486690,False,0
220798138,36.8331450,-76.2363140,True,0
220798141,36.8331180,-76.2363560,False,0
220798146,36.8330410,-76.2364060,False,0
220798151,36.8324030,-76.2366610,False,0
220798157,36.8322260,-76.2367520,False,0
220798162,36.8320740,-76.2368420,False,0
220798165,36.8319920,-76.2369160,False,0
220798170,36.8318780,-76.2370800,False,0
220798174,36.8318210,-76.2371540,False,0
220798177,36.8317590,-76.2372070,False,0
220798180,36.8316980,-76.2372390,False,0
220798185,36.8316480,-76.2372510,False,0
220798189,36.8315870,-76.2372530,False,0
220798193,36.8314890,-76.2372180,False,0
220800035,36.8352370,-76.2340610,False,0
220800036,36.8340110,-76.2336740,True,0
220800040,36.8332970,-76.2334490,False,0
220800044,36.8331960,-76.2334080,False,0
220800048,36.8329470,-76.2332890,False,0
220800051,36.8327180,-76.2331480,False,0
220800054,36.8324700,-76.2329440,False,0
220800058,36.8322180,-76.2326950,False,0
220800062,36.8321140,-76.2325650,False,0
220800066,36.8318890,-76.2322470,True,0
220806487,36.8234000,-76.2312060,False,0
220806491,36.8223405,-76.2314429,False,1
220807582,36.8263593,-76.2438194,True,0
220807586,36.8262510,-76.2439395,True,0
220807589,36.8260810,-76.2441340,False,0
220807592,36.8260300,-76.2442020,False,0
220807595,36.8259150,-76.2444080,False,0
220807599,36.8258710,-76.2445180,False,0
220807603,36.8253730,-76.2460060,False,0
220807607,36.8249175,-76.2472797,False,0
220807611,36.8241240,-76.2494880,True,0
220807615,36.8238750,-76.2502130,False,0
220807618,36.8237990,-76.2503890,False,0
220807623,36.8237000,-76.2505970,False,0
220807626,36.8236040,-76.2507810,False,0
220807627,36.8222120,-76.2528250,False,0
220807631,36.8213790,-76.2539840,False,0
220807634,36.8208905,-76.2547370,False,0
220809271,36.8269020,-76.2309440,True,0
220809274,36.8262740,-76.2309320,False,0
220809278,36.8260910,-76.2309400,False,0
220809281,36.8259900,-76.2309230,False,0
220809286,36.8259610,-76.2309030,False,0
220809290,36.8259430,-76.2308630,False,0
220809294,36.8259480,-76.2308120,False,0
220809299,36.8259740,-76.2307490,False,0
220809303,36.8259880,-76.2306770,False,0
220809307,36.8260030,-76.2305090,False,0
220809312,36.8259870,-76.2303320,False,0
220809317,36.8259680,-76.2301990,False,0
220809321,36.8259360,-76.2300530,False,0
220809325,36.8258990,-76.2299450,False,0
220809329,36.8257820,-76.2296720,False,0
220809332,36.8257210,-76.2295230,False,0
220809334,36.8256990,-76.2294010,False,0
220809337,36.8256850,-76.2292850,False,0
220809339,36.8256910,-76.2291550,False,0
220809341,36.8257080,-76.2290040,False,0
220809343,36.8257570,-76.2288210,True,0
220809345,36.8262800,-76.2268370,True,0
220816186,36.8238760,-76.2287140,False,0
220816479,36.8096150,-76.2316140,False,0
220818072,36.8302070,-76.2451620,False,0
220818076,36.8298460,-76.2443280,True,0
220818078,36.8292550,-76.2429000,False,0
220819715,36.8314370,-76.2441170,False,0
220819720,36.8311690,-76.2434820,True,0
220823690,36.8212140,-76.2486930,True,0
220823693,36.8229000,-76.2480440,False,0
220823699,36.8230220,-76.2479790,False,0
220823704,36.8230700,-76.2479230,False,0
220823708,36.8231050,-76.2478400,False,0
220823713,36.8231400,-76.2477360,False,0
220823716,36.8231800,-76.2475990,False,0
220823720,36.8233820,-76.2470250,False,0
220823724,36.8234700,-76.2467590,False,0
220823728,36.8235820,-76.2464420,False,0
220823732,36.8237050,-76.2460620,False,0
220823734,36.8237420,-76.2459210,False,0
220823738,36.8237730,-76.2457800,False,0
220823741,36.8238420,-76.2454190,False,0
220823744,36.8238670,-76.2452170,False,0
220823747,36.8238860,-76.2449360,False,0
220823751,36.8238940,-76.2445530,False,0
220823755,36.8238530,-76.2439350,False,0
220823758,36.8238330,-76.2437380,False,0
220823762,36.8237930,-76.2434550,False,0
220823767,36.8237330,-76.2431810,False,0
220823770,36.8236960,-76.2430480,False,0
220823772,36.8236060,-76.2427710,False,0
220823778,36.8234640,-76.2424060,False,0
220823782,36.8233820,-76.2422310,False,0
220823787,36.8232940,-76.2420620,False,0
220823791,36.8232210,-76.2419380,False,0
220823796,36.8229590,-76.2415360,False,0
220823800,36.8227250,-76.2412560,False,0
220823804,36.8224510,-76.2409600,False,0
220823808,36.8221730,-76.2406500,True,0
220825125,36.8295990,-76.2457230,False,0
220825128,36.8291880,-76.2447610,True,0
220825130,36.8286080,-76.2433190,False,0
220828438,36.8322670,-76.2427690,True,0
220828441,36.8318200,-76.2430530,True,0
220828445,36.8305080,-76.2438980,True,0
220828448,36.8285300,-76.2451700,True,0
220828451,36.8278740,-76.2455970,False,0
220828454,36.8272737,-76.2459826,True,0
220828458,36.8270850,-76.2460920,False,0
220828461,36.8269920,-76.2461730,False,0
220828479,36.8269160,-76.2462500,False,0
220828483,36.8268530,-76.2463310,False,0
220828510,36.8259010,-76.2477060,False,0
220828514,36.8249780,-76.2490390,False,0
220828515,36.8249330,-76.2490910,False,0
220828518,36.8248760,-76.2491440,False,0
220828523,36.8247830,-76.2492120,False,0
220828526,36.8245520,-76.2493010,False,0
220828530,36.8243870,-76.2493570,False,0
220828535,36.8242650,-76.2493840,False,0
220828539,36.8241970,-76.2494070,False,0
220828544,36.8240790,-76.2495200,False,0
220828548,36.8239480,-76.2495470,False,0
220828553,36.8229210,-76.2499230,False,0
220828557,36.8214300,-76.2504870,True,0
220828560,36.8205430,-76.2508380,False,0
220828562,36.8195020,-76.2512340,False,0
220834821,36.8337746,-76.2387946,True,0
220834825,36.8335900,-76.2379380,True,0
220834828,36.8333800,-76.2371410,True,0
220834831,36.8329000,-76.2354160,True,0
220834836,36.8327290,-76.2347340,True,0
220834840,36.8324800,-76.2337880,False,0
220834844,36.8323880,-76.2334830,False,0
220834849,36.8323210,-76.2332770,False,0
220834850,36.8315370,-76.2316940,False,0
220834854,36.8314150,-76.2314780,True,0
220834859,36.8304180,-76.2298610,True,0
220834862,36.8303960,-76.2298070,False,0
220834865,36.8303740,-76.2297320,False,0
220834867,36.8303590,-76.2296370,False,0
220834872,36.8303450,-76.2294940,False,0
220834874,36.8303240,-76.2293480,False,0
220834876,36.8302760,-76.2291540,False,0
220834879,36.8302480,-76.2290700,False,0
220834885,36.8301550,-76.2288710,False,0
220834888,36.8300410,-76.2286420,False,0
220834897,36.8299280,-76.2284440,False,0
220834901,36.8298280,-76.2282790,True,0
220834904,36.8249020,-76.2262800,False,0
220834907,36.8246420,-76.2261890,False,0
220834910,36.8245140,-76.2261550,False,0
220834913,36.8242080,-76.2260900,False,0
220834917,36.8237420,-76.2260690,False,0
220834923,36.8219830,-76.2261320,False,0
220834926,36.8218340,-76.2261470,False,0
220834933,36.8216630,-76.2261790,False,0
220840522,36.8144400,-76.2305650,False,0
220848778,36.8290730,-76.2410770,True,0
220848781,36.8282390,-76.2398100,False,0
220850855,36.8332150,-76.2380930,False,0
220850859,36.8330860,-76.2381410,False,0
220850863,36.8329800,-76.2381340,False,0
220850866,36.8328650,-76.2380900,False,0
220854994,36.8321960,-76.2357000,False,0
220856136,36.8308270,-76.2446440,False,0
220856140,36.8302770,-76.2433720,False,0
220856144,36.8302380,-76.2432980,False,0
220856148,36.8301930,-76.2432310,False,0
220857362,36.8299780,-76.2413780,False,0
220857365,36.8299140,-76.2412570,False,0
220857368,36.8295060,-76.2406370,True,0
220857371,36.8275700,-76.2425740,True,0
220858827,36.8299720,-76.2280970,False,0
220858829,36.8300580,-76.2280120,False,0
220858834,36.8301240,-76.2279730,False,0
220858838,36.8302420,-76.2279180,False,0
220858842,36.8310040,-76.2276320,False,0
220858845,36.8310880,-76.2276020,False,0
220858849,36.8311850,-76.2275820,False,0
220858854,36.8312640,-76.2275760,False,0
220858858,36.8313540,-76.2275810,False,0
220858862,36.8314420,-76.2275990,False,0
220858866,36.8316170,-76.2276580,False,0
220858869,36.8317990,-76.2277250,False,0
220858875,36.8319810,-76.2277570,False,0
220858879,36.8320630,-76.2277230,False,0
220858884,36.8322600,-76.2276120,False,0
220859220,36.8294190,-76.2295050,False,0
220859226,36.8292140,-76.2294630,False,0
220859230,36.8291220,-76.2294490,False,0
220859234,36.8290250,-76.2294450,False,0
220859237,36.8287410,-76.2294630,False,0
220859242,36.8285920,-76.2294990,False,0
220859246,36.8284060,-76.2295550,False,0
220859249,36.8282930,-76.2295790,False,0
220859251,36.8279010,-76.2296120,False,0
220859254,36.8278020,-76.2296080,False,0
220859257,36.8275570,-76.2295600,False,0
220859261,36.8274510,-76.2295260,False,0
220859265,36.8270180,-76.2293540,True,0
220859268,36.8238810,-76.2280500,False,0
220859270,36.8237440,-76.2280340,False,0
220859273,36.8235840,-76.2280290,False,0
220859276,36.8234350,-76.2280370,False,0
220859281,36.8230870,-76.2281260,False,0
220859283,36.8229830,-76.2281590,False,0
220859288,36.8224640,-76.2284490,False,0
220859295,36.8217281,-76.2288771,False,0
220859298,36.8215620,-76.2289570,False,0
220859301,36.8164890,-76.2301030,False,0
220859304,36.8124230,-76.2310180,False,0
220859306,36.8087370,-76.2318280,False,0
220859311,36.8078670,-76.2320150,False,0
220864484,36.8350630,-76.2291170,False,0
220870825,36.8289700,-76.2462000,False,0
220870827,36.8281110,-76.2441240,False,0
220879016,36.8355090,-76.2319950,False,0
220881219,36.8346836,-76.2355038,True,0
220881221,36.8345200,-76.2350500,False,0
220881225,36.8344620,-76.2349590,False,0
220881228,36.8343750,-76.2348970,False,0
220881234,36.8338140,-76.2347326,True,0
220881239,36.8334130,-76.2346080,False,0
220881243,36.8332670,-76.2345740,False,0
220881247,36.8331500,-76.2345680,False,0
220881251,36.8328970,-76.2346610,False,0
220881811,36.8268450,-76.2326130,False,0
220881816,36.8268800,-76.2324750,False,0
220881819,36.8268900,-76.2324030,False,0
220881822,36.8269070,-76.2300920,False,0
220881830,36.8269130,-76.2299180,False,0
220881834,36.8269240,-76.2297610,False,0
220881838,36.8269480,-76.2295920,False,0
220891248,36.8344080,-76.2317100,True,0
220891256,36.8344380,-76.2315690,False,0
220891282,36.8344590,-76.2313430,False,0
220891290,36.8344480,-76.2311150,False,0
220891308,36.8344030,-76.2308800,False,0
220891318,36.8343810,-76.2306380,False,0
220891324,36.8343870,-76.2304460,False,0
220891337,36.8344210,-76.2302570,False,0
220891343,36.8344700,-76.2300750,False,0
220891349,36.8345440,-76.2299050,False,0
220891359,36.8351430,-76.2287830,False,0
220891361,36.8351610,-76.2286190,False,0
220891364,36.8351670,-76.2284680,False,0
220891367,36.8352300,-76.2282370,False,0
220891370,36.8353040,-76.2280710,False,0
220891374,36.8354050,-76.2279350,False,0
220891378,36.8355300,-76.2278280,False,0
220891382,36.8356500,-76.2277560,False,0
220891383,36.8357970,-76.2276390,False,0
220891387,36.8358960,-76.2274620,False,0
220891393,36.8359410,-76.2273000,False,0
220891396,36.8359420,-76.2271250,False,0
220891612,36.8259990,-76.2374600,True,0
220891616,36.8254120,-76.2361665,False,0
220909769,36.8248460,-76.2251540,False,0
220909770,36.8247340,-76.2251170,False,0
220909771,36.8245880,-76.2250940,False,0
220909772,36.8242430,-76.2250840,False,0
220909775,36.8235600,-76.2251110,False,0
220915022,36.8320260,-76.2435590,False,0
220915025,36.8318160,-76.2430050,False,0
220915027,36.8317980,-76.2429370,False,0
220915028,36.8317220,-76.2427140,False,0
220917517,36.8216970,-76.2411050,False,0
220920188,36.8272710,-76.2390600,False,0
220920192,36.8264590,-76.2371740,True,0
220923288,36.8323900,-76.2289650,False,0
220923291,36.8324560,-76.2288880,False,0
220923296,36.8326090,-76.2286600,False,0
220929661,36.8346316,-76.2356341,False,0
220929662,36.8345281,-76.2357064,False,0
220929664,36.8338160,-76.2360000,False,0
220929666,36.8332020,-76.2362720,False,0
220930719,36.8340480,-76.2316080,False,0
220930722,36.8339450,-76.2315740,False,0
220930726,36.8337920,-76.2315000,False,0
220930731,36.8337300,-76.2314570,False,0
220930735,36.8336380,-76.2313850,False,0
220930739,36.8335740,-76.2313120,False,0
220930742,36.8334850,-76.2312010,False,0
220930747,36.8334250,-76.2311140,False,0
220930750,36.8333690,-76.2310100,False,0
220930752,36.8333210,-76.2309020,False,0
220930756,36.8331500,-76.2303910,False,0
220930760,36.8331110,-76.2303000,False,0
220930763,36.8330950,-76.2302730,False,0
220930767,36.8330570,-76.2302330,False,0
220930772,36.8330130,-76.2302140,False,0
220930776,36.8329700,-76.2302050,False,0
220930780,36.8328550,-76.2302220,False,0
220930784,36.8327480,-76.2302730,False,0
220930789,36.8326370,-76.2303480,False,0
220930793,36.8325190,-76.2304440,False,0
220930797,36.8322570,-76.2306880,False,0
220930800,36.8312560,-76.2316640,False,0
220930804,36.8311300,-76.2317940,False,0
220930808,36.8310550,-76.2319130,False,0
220930811,36.8310040,-76.2320210,False,0
220930815,36.8309690,-76.2321340,False,0
220930818,36.8309240,-76.2323370,False,0
220930820,36.8308940,-76.2324270,False,0
220930823,36.8308500,-76.2324970,False,0
220930825,36.8308110,-76.2325460,False,0
220930829,36.8307190,-76.2325830,False,0
220930833,36.8306530,-76.2325910,False,0
220930837,36.8305810,-76.2325840,False,0
220930841,36.8305250,-76.2325610,False,0
220930843,36.8304530,-76.2325530,False,0
220930845,36.8303900,-76.2325520,False,0
220930847,36.8303250,-76.2325640,False,0
220930848,36.8302430,-76.2325900,False,0
220933721,36.8219370,-76.2519240,False,0
220933723,36.8217390,-76.2517520,False,0
220933727,36.8216360,-76.2516320,False,0
220933737,36.8215900,-76.2515550,False,0
220933747,36.8215520,-76.2514740,False,0
220933752,36.8215240,-76.2513560,False,0
220933756,36.8212090,-76.2485110,False,0
220933760,36.8212180,-76.2482890,False,0
220933764,36.8212640,-76.2480760,False,0
220933769,36.8212870,-76.2479830,False,0
220933773,36.8218620,-76.2462260,False,0
220933776,36.8220970,-76.2455430,False,0
220933777,36.8221760,-76.2452740,False,0
220933780,36.8222260,-76.2450190,False,0
220933784,36.8222410,-76.2448790,False,0
220933787,36.8222520,-76.2447210,False,0
220933790,36.8222370,-76.2441650,False,0
220933794,36.8221780,-76.2438660,False,0
220933799,36.8221450,-76.2437230,False,0
220933801,36.8220600,-76.2434690,False,0
220933803,36.8219410,-76.2432130,False,0
220933806,36.8218130,-76.2429910,False,0
220933810,36.8217240,-76.2428610,False,0
220933815,36.8215930,-76.2426460,False,0
220933819,36.8214980,-76.2425020,False,0
220933821,36.8214180,-76.2423640,False,0
220933825,36.8211960,-76.2420490,False,0
220933830,36.8211520,-76.2419350,False,0
220933834,36.8211280,-76.2418330,False,0
220933840,36.8211270,-76.2417410,False,0
220933845,36.8211390,-76.2416520,False,0
220933852,36.8211650,-76.2415760,False,0
220933856,36.8212470,-76.2414500,False,0
220933865,36.8213160,-76.2413830,False,0
220933870,36.8217930,-76.2410240,False,0
220933874,36.8218950,-76.2409490,False,0
220933877,36.8219740,-76.2408780,False,0
220933880,36.8223040,-76.2404140,False,0
220933884,36.8224050,-76.2402200,False,0
220933888,36.8225810,-76.2395680,False,0
220933892,36.8226060,-76.2394760,False,0
220933895,36.8226480,-76.2393580,False,0
220933900,36.8226970,-76.2392570,False,0
220933903,36.8227750,-76.2391320,False,0
220933906,36.8228270,-76.2390690,False,0
220933909,36.8229000,-76.2390050,False,0
220933916,36.8230400,-76.2389260,False,0
220933920,36.8231130,-76.2388960,False,0
220933925,36.8232510,-76.2388650,False,0
220933929,36.8234400,-76.2388800,False,0
220933931,36.8235700,-76.2389000,False,0
220933934,36.8237170,-76.2389020,False,0
220933936,36.8237960,-76.2388830,False,0
220933938,36.8239790,-76.2387890,False,0
220933940,36.8242178,-76.2386453,True,0
220933943,36.8273420,-76.2366040,False,0
220933945,36.8275080,-76.2364480,False,0
220937125,36.8238006,-76.2376479,True,0
220937136,36.8230393,-76.2357736,False,0
220959104,36.8274880,-76.2424770,False,0
220959111,36.8274100,-76.2423500,False,0
220959117,36.8270220,-76.2417600,False,0
220960535,36.8329470,-76.2374310,False,0
220960545,36.8330920,-76.2372830,False,0
220960549,36.8335740,-76.2370840,False,0
220960553,36.8337100,-76.2370320,False,0
220960560,36.8338390,-76.2369630,False,0
220960564,36.8339280,-76.2368720,False,0
220960570,36.8340910,-76.2366380,False,0
220960576,36.8341590,-76.2365750,False,0
220960580,36.8342380,-76.2365170,False,0
220960581,36.8343400,-76.2364770,True,0
221307529,36.8330360,-76.2252370,True,0
221307533,36.8329310,-76.2248320,False,0
221307536,36.8329110,-76.2247070,False,0
221307538,36.8328930,-76.2244160,False,0
221307539,36.8328990,-76.2242050,False,0
221346444,36.8300530,-76.2247080,False,0
221346445,36.8300680,-76.2249040,False,0
221346449,36.8300980,-76.2250970,False,0
221346452,36.8301520,-76.2253240,False,0
221346456,36.8302120,-76.2255060,False,0
221346461,36.8302850,-76.2256810,False,0
221346466,36.8303710,-76.2258470,True,0
221391848,36.8311370,-76.2199520,True,0
221404811,36.8350470,-76.2237860,False,0
221437827,36.8324631,-76.2274998,True,0
221438330,36.8319120,-76.2254320,True,0
221442069,36.8308210,-76.2198010,True,0
221442082,36.8310770,-76.2196810,True,0
221442087,36.8309670,-76.2197180,False,0
221442091,36.8308620,-76.2197720,False,0
221442093,36.8307630,-76.2198420,False,0
221442095,36.8306710,-76.2199260,False,0
221442097,36.8304870,-76.2201480,False,0
221442100,36.8303300,-76.2203640,False,0
221442107,36.8301840,-76.2205910,False,0
221442110,36.8300500,-76.2208290,False,0
221442114,36.8300310,-76.2208800,False,0
221442116,36.8300100,-76.2209680,False,0
221442121,36.8300020,-76.2210420,False,0
221442126,36.8300080,-76.2211530,False,0
221442130,36.8300830,-76.2214930,False,0
221442133,36.8301560,-76.2217910,True,0
221442136,36.8302440,-76.2222520,False,0
221442140,36.8303290,-76.2226250,False,0
221442145,36.8303870,-76.2228440,True,0
221464614,36.8239550,-76.2242430,True,0
221464616,36.8242160,-76.2242300,False,0
221464619,36.8248490,-76.2242210,False,0
221464623,36.8250680,-76.2242240,False,0
221464629,36.8252210,-76.2242430,False,0
221464633,36.8253430,-76.2242720,False,0
221464638,36.8254920,-76.2243220,False,0
221464641,36.8268550,-76.2248650,True,0
221469515,36.8267260,-76.2252240,True,0
221469517,36.8267780,-76.2250590,False,0
221469520,36.8269660,-76.2246220,False,0
221469523,36.8270630,-76.2244370,False,0
221491992,36.8283660,-76.2232190,False,0
221491996,36.8282360,-76.2223060,True,0
221493832,36.8279650,-76.2149890,False,0
221493838,36.8279100,-76.2151310,False,0
221493842,36.8278930,-76.2151910,False,0
221493849,36.8278900,-76.2152540,False,0
221493853,36.8279020,-76.2153160,False,0
221493858,36.8279490,-76.2154640,False,0
221493859,36.8279590,-76.2155310,False,0
221493863,36.8279510,-76.2155560,False,0
221493870,36.8279320,-76.2155700,False,0
221493874,36.8278580,-76.2155710,False,0
221493879,36.8277830,-76.2155900,False,0
221493883,36.8277320,-76.2156200,False,0
221493888,36.8276770,-76.2156710,False,0
221493894,36.8276310,-76.2157350,False,0
221493899,36.8275970,-76.2158100,False,0
221493906,36.8275830,-76.2158580,False,0
221493912,36.8274400,-76.2165590,False,0
221493917,36.8273470,-76.2170690,False,0
221493922,36.8273230,-76.2172190,False,0
221493927,36.8273070,-76.2174030,False,0
221493931,36.8273080,-76.2175760,False,0
221493934,36.8273230,-76.2177480,False,0
221493938,36.8273450,-76.2178910,False,0
221493942,36.8274440,-76.2185530,False,0
221493946,36.8275830,-76.2195640,False,0
221493950,36.8276080,-76.2196320,False,0
221493955,36.8276450,-76.2196910,False,0
221493959,36.8276930,-76.2197370,False,0
221493964,36.8277480,-76.2197670,False,0
221493968,36.8277710,-76.2197750,False,0
221493973,36.8278840,-76.2197570,False,0
221493978,36.8279950,-76.2197210,False,0
221493981,36.8281010,-76.2196690,False,0
221493987,36.8282010,-76.2196010,False,0
221493997,36.8283110,-76.2194990,False,0
221494002,36.8284160,-76.2193600,False,0
221494008,36.8284860,-76.2192910,False,0
221494014,36.8285650,-76.2192380,False,0
221494017,36.8286490,-76.2192000,False,0
221494024,36.8287910,-76.2191660,True,0
221494028,36.8290130,-76.2190760,False,0
221494032,36.8291810,-76.2189940,False,0
221494037,36.8293180,-76.2189180,False,0
221494043,36.8293810,-76.2188660,False,0
221494047,36.8294240,-76.2188150,False,0
221494050,36.8294620,-76.2187560,False,0
221494052,36.8295030,-76.2186570,False,0
221494054,36.8295240,-76.2185480,False,0
221494056,36.8295330,-76.2182720,False,0
221494058,36.8295290,-76.2179370,False,0
221494069,36.8294977,-76.2175464,False,0
221494940,36.8335100,-76.2248920,True,0
221494944,36.8336360,-76.2249870,False,0
221494945,36.8337500,-76.2250940,False,0
221494949,36.8338560,-76.2252160,False,0
221494953,36.8339520,-76.2253490,False,0
221494957,36.8340490,-76.2255200,False,0
221494960,36.8343000,-76.2259380,False,0
221528827,36.8344910,-76.2240780,True,0
221528830,36.8344830,-76.2239160,False,0
221528834,36.8344600,-76.2237550,False,0
221528838,36.8344330,-76.2236300,False,0
221528841,36.8343630,-76.2234110,False,0
221528843,36.8343650,-76.2233710,False,0
221528845,36.8343760,-76.2233420,False,0
221528847,36.8343990,-76.2233150,False,0
221528848,36.8348150,-76.2231520,False,0
221528850,36.8348370,-76.2231270,False,0
221528852,36.8348470,-76.2230920,False,0
221528855,36.8348410,-76.2230490,False,0
221528860,36.8348170,-76.2230160,False,0
221528865,36.8347530,-76.2229800,False,0
221528869,36.8346900,-76.2229650,False,0
221536336,36.8315650,-76.2254800,True,0
221536418,36.8328300,-76.2272860,False,0
221586728,36.8327250,-76.2252690,True,0
221586732,36.8329380,-76.2260320,False,0
221586738,36.8331420,-76.2267170,False,0
221586740,36.8331670,-76.2268250,False,0
221586744,36.8332250,-76.2270430,False,0
221586749,36.8333140,-76.2272340,False,0
221586753,36.8334150,-76.2274160,False,0
221590804,36.8296620,-76.2263830,True,0
221590809,36.8297910,-76.2262700,False,0
221590813,36.8302390,-76.2259390,False,0
221590817,36.8304480,-76.2257960,False,0
221590821,36.8305880,-76.2257290,False,0
221590825,36.8307320,-76.2256780,False,0
221590827,36.8310210,-76.2255890,False,0
221590829,36.8312830,-76.2255260,False,0
221590831,36.8318630,-76.2254410,False,0
221590832,36.8320700,-76.2254000,False,0
221590835,36.8323030,-76.2253420,False,0
221590839,36.8325970,-76.2252870,False,0
221590842,36.8331160,-76.2252170,False,0
221590847,36.8332380,-76.2251490,False,0
221590850,36.8333320,-76.2250760,False,0
221590854,36.8337090,-76.2247040,False,0
221590858,36.8337910,-76.2246340,False,0
221590863,36.8339540,-76.2244730,False,0
221590867,36.8341250,-76.2243260,False,0
221590871,36.8343050,-76.2241940,False,0
221590876,36.8346440,-76.2239980,False,0
221590879,36.8346700,-76.2239770,False,0
221590883,36.8347000,-76.2239750,False,0
221590888,36.8347620,-76.2239970,False,0
221590893,36.8348120,-76.2239860,False,0
221590897,36.8348570,-76.2239580,False,0
221590900,36.8348930,-76.2239140,False,0
221590903,36.8349050,-76.2238930,False,0
221590911,36.8350000,-76.2238160,False,0
221596407,36.8211574,-76.2231999,False,0
221596421,36.8219943,-76.2231824,False,0
221596427,36.8223760,-76.2231930,False,0
221596431,36.8225590,-76.2232150,False,0
221596434,36.8227400,-76.2232560,False,0
221596436,36.8229200,-76.2233040,False,0
221596439,36.8229850,-76.2233210,False,0
221596442,36.8233680,-76.2233930,True,0
221596451,36.8234850,-76.2234010,False,0
221596454,36.8236120,-76.2233930,False,0
221596457,36.8237380,-76.2233660,False,0
221596459,36.8237870,-76.2233500,False,0
221596461,36.8243390,-76.2232190,False,0
221596463,36.8245590,-76.2231610,False,0
221596464,36.8251540,-76.2230360,False,0
221596465,36.8257870,-76.2228830,True,0
221596466,36.8261620,-76.2227930,False,0
221596467,36.8265230,-76.2227170,False,0
221596468,36.8268800,-76.2226240,False,0
221596469,36.8275430,-76.2224810,False,0
221596471,36.8278800,-76.2223980,False,0
221596475,36.8288400,-76.2221620,True,0
221596480,36.8293400,-76.2220460,False,0
221596483,36.8296810,-76.2219480,False,0
221596486,36.8314510,-76.2213280,True,0
221596490,36.8316370,-76.2212730,False,0
221596494,36.8317400,-76.2212520,False,0
221596498,36.8317970,-76.2212630,False,0
221596503,36.8318470,-76.2212980,False,0
221596511,36.8318790,-76.2213420,False,0
221596515,36.8319000,-76.2213960,False,0
221596518,36.8319070,-76.2214430,False,0
221608195,36.8233690,-76.2242460,False,0
221608200,36.8233820,-76.2231890,False,0
221608205,36.8234100,-76.2229880,False,0
221608209,36.8234530,-76.2227920,False,0
221608213,36.8235090,-76.2226000,False,0
221608217,36.8236010,-76.2223800,False,0
221608222,36.8237060,-76.2221450,True,0
221608226,36.8238930,-76.2217500,False,0
221608229,36.8240560,-76.2214270,True,0
221608233,36.8245020,-76.2205470,True,0
221608236,36.8251080,-76.2193350,False,0
221608240,36.8251770,-76.2192240,False,0
221608243,36.8252370,-76.2191700,False,0
221608248,36.8252900,-76.2191370,False,0
221608258,36.8253760,-76.2191080,False,0
221608264,36.8255570,-76.2190950,True,0
221623994,36.8312750,-76.2205930,True,0
221623998,36.8319860,-76.2202790,False,0
221624002,36.8324410,-76.2200450,False,0
221656058,36.8314730,-76.2251160,False,0
221656061,36.8314120,-76.2249020,False,0
221673016,36.8295490,-76.2262080,False,0
221673031,36.8294670,-76.2260600,False,0
221673034,36.8293930,-76.2259060,False,0
221673037,36.8293210,-76.2257250,False,0
221673041,36.8292420,-76.2254930,False,0
221673045,36.8291760,-76.2252540,False,0
221673046,36.8291320,-76.2250600,False,0
221673048,36.8290900,-76.2248130,False,0
221673051,36.8290720,-76.2246630,False,0
221675633,36.8242360,-76.2215510,False,0
221675637,36.8243840,-76.2216390,False,0
221675641,36.8245750,-76.2217360,False,0
221675644,36.8247700,-76.2218150,False,0
221675646,36.8249210,-76.2218640,False,0
221675648,36.8251370,-76.2219110,False,0
221675650,36.8252830,-76.2219290,False,0
221675651,36.8254660,-76.2219350,False,0
221675653,36.8256490,-76.2219230,False,0
221675656,36.8257220,-76.2219140,True,0
221681389,36.8298110,-76.2228800,False,0
221681393,36.8299470,-76.2229010,False,0
221681396,36.8300560,-76.2229050,False,0
221681399,36.8301930,-76.2228930,False,0
221681403,36.8303280,-76.2228630,False,0
221681407,36.8310650,-76.2226240,False,0
221681411,36.8324430,-76.2221340,False,0
221681414,36.8325050,-76.2220990,False,0
221681417,36.8325610,-76.2220500,False,0
221681419,36.8326210,-76.2219740,False,0
221681427,36.8326610,-76.2219050,False,0
221681431,36.8326950,-76.2218190,False,0
221681436,36.8327140,-76.2217290,False,0
221681440,36.8327190,-76.2216370,False,0
221681444,36.8327100,-76.2215450,False,0
221681448,36.8326860,-76.2214560,False,0
221681453,36.8326730,-76.2214230,False,0
221687900,36.8256930,-76.2214750,True,0
221687903,36.8263050,-76.2213210,False,0
221687907,36.8282160,-76.2208610,False,0
221687914,36.8286320,-76.2207780,True,0
221687921,36.8286990,-76.2207530,False,0
221687926,36.8287600,-76.2207110,False,0
221687930,36.8288040,-76.2206670,False,0
221687934,36.8288570,-76.2205870,False,0
221687938,36.8288880,-76.2205070,False,0
221687943,36.8289050,-76.2204210,False,0
221687949,36.8289070,-76.2203320,False,0
221687956,36.8288470,-76.2198490,False,0
221687961,36.8287230,-76.2184910,False,0
221687966,36.8286490,-76.2176740,False,0
221687969,36.8285860,-76.2170860,False,0
221687973,36.8285800,-76.2168670,False,0
221687981,36.8285850,-76.2167770,False,0
221687986,36.8286030,-76.2166980,False,0
221687989,36.8286520,-76.2165760,False,0
221687993,36.8286930,-76.2164300,False,0
221687997,36.8287120,-76.2163120,False,0
221688001,36.8287270,-76.2161420,False,0
221688003,36.8287240,-76.2156620,False,0
221688006,36.8287360,-76.2154240,False,0
221688008,36.8287510,-76.2152680,False,0
221688011,36.8287720,-76.2151960,False,0
221688014,36.8288070,-76.2151330,False,0
221688016,36.8288980,-76.2150270,False,0
221729871,36.8309530,-76.2190670,False,0
221729873,36.8308940,-76.2188060,False,0
221739066,36.8257350,-76.2221520,False,0
221739073,36.8256560,-76.2209140,True,0
221739077,36.8256140,-76.2202420,False,0
221739081,36.8255820,-76.2195330,False,0
221739086,36.8255260,-76.2185380,False,0
221739091,36.8255160,-76.2182990,False,0
221739094,36.8255060,-76.2179630,False,0
221739099,36.8255280,-76.2176880,False,0
221739104,36.8255760,-76.2173600,False,0
221739111,36.8256090,-76.2171990,False,0
221748780,36.8247050,-76.2206850,False,0
221748784,36.8249370,-76.2208120,False,0
221748788,36.8250290,-76.2208460,False,0
221748792,36.8253020,-76.2209050,False,0
221748795,36.8254730,-76.2209240,False,0
221748798,36.8256040,-76.2209210,False,0
221781577,36.8262930,-76.2250430,False,0
221785810,36.8238360,-76.2222430,False,0
469985252,36.8265430,-76.2258140,True,0
469985258,36.8296120,-76.2264210,True,0
469985283,36.8233700,-76.2242690,True,0
469985285,36.8228410,-76.2242510,True,0
469985287,36.8224900,-76.2242000,True,0
469985291,36.8257880,-76.2255200,True,0
2063359030,36.8220202,-76.2241236,False,0
3632062421,36.8216020,-76.2289377,False,0
3678087695,36.8204571,-76.2292113,False,0
3971012642,36.8336444,-76.2349234,False,0
3971012643,36.8336453,-76.2348867,False,0
3971012644,36.8336537,-76.2349621,False,0
3971012645,36.8336952,-76.2349985,False,0
3971012646,36.8337249,-76.2349946,False,0
3971012647,36.8337484,-76.2349747,False,0
3971012648,36.8337718,-76.2349390,False,0
3971012649,36.8346663,-76.2353596,False,0
3971636354,36.8255029,-76.2362666,False,0
3971636355,36.8255837,-76.2363962,False,0
3990324680,36.8245041,-76.2393388,False,0
3990461382,36.8236747,-76.2377278,True,0
3990461383,36.8260742,-76.2435071,True,0
3990461384,36.8229005,-76.2358356,False,0
3990461385,36.8240866,-76.2387228,True,0
3990461387,36.8271461,-76.2460597,True,0
3990461388,36.8246449,-76.2400438,True,0
3990461389,36.8254792,-76.2420201,False,0
3990461390,36.8243791,-76.2394207,True,0
5380716795,36.8206081,-76.2551071,False,0
5747886300,36.8255306,-76.2186199,False,0
5910864803,36.8286700,-76.2165220,False,0
6045464966,36.8295995,-76.2407791,True,0
6048102476,36.8279013,-76.2274853,True,0
6048102483,36.8286076,-76.2277667,True,0
6053937606,36.8298093,-76.2410978,True,0
6056840428,36.8279387,-76.2422069,True,0
6058229919,36.8267352,-76.2465011,False,0
6080231453,36.8250912,-76.2407220,True,0
6080231461,36.8259362,-76.2391980,True,0
6163498107,36.8357229,-76.2276980,False,0
6782125058,36.8325586,-76.2340865,True,0
7043479358,36.8327652,-76.2348782,True,0
7043987962,36.8183373,-76.2296951,False,0
7043987968,36.8179111,-76.2297891,False,0
7043987969,36.8178904,-76.2297937,False,0
7046379952,36.8247670,-76.2476836,False,0
7046824957,36.8225268,-76.2314012,False,0
7046931893,36.8264820,-76.2407009,True,0
7079166452,36.8253201,-76.2379060,True,0
7079166456,36.8269135,-76.2368806,True,0
7111667241,36.8300783,-76.2416638,True,0
7132434197,36.8286557,-76.2165648,False,0
7132564275,36.8244541,-76.2401735,True,0
7136736885,36.8211389,-76.2290544,False,0
7136736887,36.8213826,-76.2289983,False,0
