Segment Id,Start Node,End Node,Perant Road ID,Road Name,State,Road Type,Lanes,TurnLanes,OneWay,Surface,Lit,SideWalk,Left Side parking,Right Side parking,Both Side parking,Direction
8888732_1,64912107,64844551,8888732,Otsego Avenue,. ,residential,2,. ,. ,. ,. ,. ,. ,. ,. ,. 
8888747_1,64898605,64823940,8888747,. ,. ,motorway_link,1,. ,yes,asphalt,. ,. ,. ,. ,. ,. 
8888747_2,64823940,64910284,8888747,. ,. ,motorway_link,1,. ,yes,asphalt,. ,. ,. ,. ,. ,. 
8888747_3,64910284,64861717,8888747,. ,. ,motorway_link,1,. ,yes,asphalt,. ,. ,. ,. ,. ,. 
8888747_4,64861717,64866396,8888747,. ,. ,motorway_link,1,. ,yes,asphalt,. ,. ,. ,. ,. ,. 
8888747_5,64866396,64827977,8888747,. ,. ,motorway_link,1,. ,yes,asphalt,. ,. ,. ,. ,. ,. 
8888787_1,64901593,64889406,8888787,Newell Street,. ,residential,2,. ,. ,. ,. ,. ,. ,. ,. ,. 
8888787_2,64889406,64821727,8888787,Newell Street,. ,residential,2,. ,. ,. ,. ,. ,. ,. ,. ,. 
8888787_3,64821727,64836650,8888787,Newell Street,. ,residential,2,. ,. ,. ,. ,. ,. ,. ,. ,. 
8888823_1,64902582,64912310,8888823,Avenue B,. ,residential,2,. ,. ,. ,. ,. ,. ,. ,. ,. 
8888823_2,64912310,64847092,8888823,Avenue B,. ,residential,2,. ,. ,. ,. ,. ,. ,. ,. ,. 
8888823_3,64847092,64895662,8888823,Avenue B,. ,residential,2,. ,. ,. ,. ,. ,. ,. ,. ,. 
8888823_4,64895662,64927183,8888823,Avenue B,. ,residential,2,. ,. ,. ,. ,. ,. ,. ,. ,. 
8888823_5,64927183,64831234,8888823,Avenue B,. ,residential,2,. ,. ,. ,. ,. ,. ,. ,. ,. 
8888823_6,64831234,64897044,8888823,Avenue B,. ,residential,2,. ,. ,. ,. ,. ,. ,. ,. ,. 
8888823_7,64897044,1472519423,8888823,Avenue B,. ,residential,2,. ,. ,. ,. ,. ,. ,. ,. ,. 
8888823_8,1472519423,1472519426,8888823,Avenue B,. ,residential,2,. ,. ,. ,. ,. ,. ,. ,. ,. 
8888823_9,1472519426,64883163,8888823,Avenue B,. ,residential,2,. ,. ,. ,. ,. ,. ,. ,. ,. 
8888831_1,64866736,64873113,8888831,Sanders Avenue,. ,residential,2,. ,. ,. ,. ,. ,. ,. ,. ,. 
8888831_2,64873113,64864003,8888831,Sanders Avenue,. ,residential,2,. ,. ,. ,. ,. ,. ,. ,. ,. 
8888831_3,64864003,64896234,8888831,Sanders Avenue,. ,residential,2,. ,. ,. ,. ,. ,. ,. ,. ,. 
8888831_4,64896234,64881366,8888831,Sanders Avenue,. ,residential,2,. ,. ,. ,. ,. ,. ,. ,. ,. 
8888831_5,64881366,64915716,8888831,Sanders Avenue,. ,residential,2,. ,. ,. ,. ,. ,. ,. ,. ,. 
8888831_6,64915716,64885538,8888831,Sanders Avenue,. ,residential,2,. ,. ,. ,. ,. ,. ,. ,. ,. 
8888831_7,64885538,64814013,8888831,Sanders Avenue,. ,residential,2,. ,. ,. ,. ,. ,. ,. ,. ,. 
8888831_8,64814013,64819440,8888831,Sanders Avenue,. ,residential,2,. ,. ,. ,. ,. ,. ,. ,. ,. 
8888831_9,64819440,64927334,8888831,Sanders Avenue,. ,residential,2,. ,. ,. ,. ,. ,. ,. ,. ,. 
8888831_10,64927334,64915892,8888831,Sanders Avenue,. ,residential,2,. ,. ,. ,. ,. ,. ,. ,. ,. 
8888831_11,64915892,64842977,8888831,Sanders Avenue,. ,residential,2,. ,. ,. ,. ,. ,. ,. ,. ,. 
8888831_12,64842977,64915739,8888831,Sanders Avenue,. ,residential,2,. ,. ,. ,. ,. ,. ,. ,. ,. 
8888831_13,64915739,64835441,8888831,Sanders Avenue,. ,residential,2,. ,. ,. ,. ,. ,. ,. ,. ,. 
8888831_14,64835441,64873518,8888831,Sanders Avenue,. ,residential,2,. ,. ,. ,. ,. ,. ,. ,. ,. 
8888831_15,64873518,64831743,8888831,Sanders Avenue,. ,residential,2,. ,. ,. ,. ,. ,. ,. ,. ,. 
8888831_16,64831743,64846521,8888831,Sanders Avenue,. ,residential,2,. ,. ,. ,. ,. ,. ,. ,. ,. 
8888831_17,64846521,6291597987,8888831,Sanders Avenue,. ,residential,2,. ,. ,. ,. ,. ,. ,. ,. ,. 
8888831_18,6291597987,64870461,8888831,Sanders Avenue,. ,residential,2,. ,. ,. ,. ,. ,. ,. ,. ,. 
8888831_19,64870461,64831194,8888831,Sanders Avenue,. ,residential,2,. ,. ,. ,. ,. ,. ,. ,. ,. 
8888831_20,64831194,64810963,8888831,Sanders Avenue,. ,residential,2,. ,. ,. ,. ,. ,. ,. ,. ,. 
8888831_21,64810963,64850987,8888831,Sanders Avenue,. ,residential,2,. ,. ,. ,. ,. ,. ,. ,. ,. 
8888831_22,64850987,64872814,8888831,Sanders Avenue,. ,residential,2,. ,. ,. ,. ,. ,. ,. ,. ,. 
8888891_1,64874744,64821180,8888891,Chatham Street,. ,residential,2,. ,. ,. ,. ,. ,. ,. ,. ,. 
8888894_1,64870194,64816823,8888894,Fairfield Street,. ,residential,2,. ,. ,. ,. ,. ,. ,. ,. ,. 
8888894_2,64816823,64816734,8888894,Fairfield Street,. ,residential,2,. ,. ,. ,. ,. ,. ,. ,. ,. 
8888894_3,64816734,64900225,8888894,Fairfield Street,. ,residential,2,. ,. ,. ,. ,. ,. ,. ,. ,. 
8888894_4,64900225,64850264,8888894,Fairfield Street,. ,residential,2,. ,. ,. ,. ,. ,. ,. ,. ,. 
8888894_5,64850264,64853356,8888894,Fairfield Street,. ,residential,2,. ,. ,. ,. ,. ,. ,. ,. ,. 
8888894_6,64853356,64868347,8888894,Fairfield Street,. ,residential,2,. ,. ,. ,. ,. ,. ,. ,. ,. 
8888894_7,64868347,64895509,8888894,Fairfield Street,. ,residential,2,. ,. ,. ,. ,. ,. ,. ,. ,. 
8888894_8,64895509,64853785,8888894,Fairfield Street,. ,residential,2,. ,. ,. ,. ,. ,. ,. ,. ,. 
8888894_9,64853785,64919117,8888894,Fairfield Street,. ,residential,2,. ,. ,. ,. ,. ,. ,. ,. ,. 
8888937_1,64897927,64897781,8888937,Upham Street,. ,residential,2,. ,. ,. ,. ,. ,. ,. ,. ,. 
8888937_2,64897781,64841126,8888937,Upham Street,. ,residential,2,. ,. ,. ,. ,. ,. ,. ,. ,. 
8888937_3,64841126,64837700,8888937,Upham Street,. ,residential,2,. ,. ,. ,. ,. ,. ,. ,. ,. 
8888985_1,64851402,64815905,8888985,Crescent Street,. ,residential,2,. ,. ,. ,. ,. ,. ,. ,. ,. 
8888985_2,64815905,64912994,8888985,Crescent Street,. ,residential,2,. ,. ,. ,. ,. ,. ,. ,. ,. 
8888985_3,64912994,64811017,8888985,Crescent Street,. ,residential,2,. ,. ,. ,. ,. ,. ,. ,. ,. 
8888985_4,64811017,64825492,8888985,Crescent Street,. ,residential,2,. ,. ,. ,. ,. ,. ,. ,. ,. 
8888985_5,64825492,64928602,8888985,Crescent Street,. ,residential,2,. ,. ,. ,. ,. ,. ,. ,. ,. 
8888985_6,64928602,64875818,8888985,Crescent Street,. ,residential,2,. ,. ,. ,. ,. ,. ,. ,. ,. 
8888985_7,64875818,64860794,8888985,Crescent Street,. ,residential,2,. ,. ,. ,. ,. ,. ,. ,. ,. 
8888985_8,64860794,64894024,8888985,Crescent Street,. ,residential,2,. ,. ,. ,. ,. ,. ,. ,. ,. 
8888985_9,64894024,64836879,8888985,Crescent Street,. ,residential,2,. ,. ,. ,. ,. ,. ,. ,. ,. 
8888985_10,64836879,64829100,8888985,Crescent Street,. ,residential,2,. ,. ,. ,. ,. ,. ,. ,. ,. 
8888985_11,64829100,64834794,8888985,Crescent Street,. ,residential,2,. ,. ,. ,. ,. ,. ,. ,. ,. 
8888985_12,64834794,64926167,8888985,Crescent Street,. ,residential,2,. ,. ,. ,. ,. ,. ,. ,. ,. 
8888985_13,64926167,64921165,8888985,Crescent Street,. ,residential,2,. ,. ,. ,. ,. ,. ,. ,. ,. 
8888985_14,64921165,64864913,8888985,Crescent Street,. ,residential,2,. ,. ,. ,. ,. ,. ,. ,. ,. 
8888985_15,64864913,64818083,8888985,Crescent Street,. ,residential,2,. ,. ,. ,. ,. ,. ,. ,. ,. 
8888985_16,64818083,64912835,8888985,Crescent Street,. ,residential,2,. ,. ,. ,. ,. ,. ,. ,. ,. 
8889005_1,64929128,64810686,8889005,Avenue A,. ,residential,2,. ,. ,. ,. ,. ,. ,. ,. ,. 
8889005_2,64810686,6773819025,8889005,Avenue A,. ,residential,2,. ,. ,. ,. ,. ,. ,. ,. ,. 
8889005_3,6773819025,64897044,8889005,Avenue A,. ,residential,2,. ,. ,. ,. ,. ,. ,. ,. ,. 
8889051_1,64912107,64876871,8889051,Clifford Street,. ,residential,2,. ,. ,. ,. ,. ,. ,. ,. ,. 
8889051_2,64876871,64927648,8889051,Clifford Street,. ,residential,2,. ,. ,. ,. ,. ,. ,. ,. ,. 
8889051_3,64927648,64840563,8889051,Clifford Street,. ,residential,2,. ,. ,. ,. ,. ,. ,. ,. ,. 
8889051_4,64840563,64853685,8889051,Clifford Street,. ,residential,2,. ,. ,. ,. ,. ,. ,. ,. ,. 
8889051_5,64853685,64930666,8889051,Clifford Street,. ,residential,2,. ,. ,. ,. ,. ,. ,. ,. ,. 
8889051_6,64930666,64924459,8889051,Clifford Street,. ,residential,2,. ,. ,. ,. ,. ,. ,. ,. ,. 
8889053_1,64827977,64926302,8889053,. ,. ,motorway_link,1,. ,yes,asphalt,. ,. ,. ,. ,. ,. 
8889053_2,64926302,1472330412,8889053,. ,. ,motorway_link,1,. ,yes,asphalt,. ,. ,. ,. ,. ,. 
8889053_3,1472330412,64899441,8889053,. ,. ,motorway_link,1,. ,yes,asphalt,. ,. ,. ,. ,. ,. 
8889101_1,64825344,64823379,8889101,Midland Street,. ,residential,2,. ,. ,. ,. ,. ,. ,. ,. ,. 
8889101_2,64823379,64824471,8889101,Midland Street,. ,residential,2,. ,. ,. ,. ,. ,. ,. ,. ,. 
8889101_3,64824471,64824177,8889101,Midland Street,. ,residential,2,. ,. ,. ,. ,. ,. ,. ,. ,. 
8889101_4,64824177,64877510,8889101,Midland Street,. ,residential,2,. ,. ,. ,. ,. ,. ,. ,. ,. 
8889101_5,64877510,64870687,8889101,Midland Street,. ,residential,2,. ,. ,. ,. ,. ,. ,. ,. ,. 
8889101_6,64870687,5609669748,8889101,Midland Street,. ,residential,2,. ,. ,. ,. ,. ,. ,. ,. ,. 
8889101_7,5609669748,64907225,8889101,Midland Street,. ,residential,2,. ,. ,. ,. ,. ,. ,. ,. ,. 
8889101_8,64907225,64910839,8889101,Midland Street,. ,residential,2,. ,. ,. ,. ,. ,. ,. ,. ,. 
8889101_9,64910839,64929755,8889101,Midland Street,. ,residential,2,. ,. ,. ,. ,. ,. ,. ,. ,. 
8889101_10,64929755,5609669747,8889101,Midland Street,. ,residential,2,. ,. ,. ,. ,. ,. ,. ,. ,. 
8889101_11,5609669747,64815012,8889101,Midland Street,. ,residential,2,. ,. ,. ,. ,. ,. ,. ,. ,. 
8889101_12,64815012,64830360,8889101,Midland Street,. ,residential,2,. ,. ,. ,. ,. ,. ,. ,. ,. 
8889101_13,64830360,64858030,8889101,Midland Street,. ,residential,2,. ,. ,. ,. ,. ,. ,. ,. ,. 
8889101_14,64858030,64907642,8889101,Midland Street,. ,residential,2,. ,. ,. ,. ,. ,. ,. ,. ,. 
8889150_1,64851070,64870194,8889150,Westchester Street,. ,residential,2,. ,. ,. ,. ,. ,. ,. ,. ,. 
8889150_2,64870194,64817273,8889150,Westchester Street,. ,residential,2,. ,. ,. ,. ,. ,. ,. ,. ,. 
8889150_3,64817273,64850757,8889150,Westchester Street,. ,residential,2,. ,. ,. ,. ,. ,. ,. ,. ,. 
8889164_1,64916870,64833454,8889164,Eaton Street,. ,residential,. ,. ,. ,. ,. ,. ,. ,. ,. ,. 
8889164_2,64833454,64923856,8889164,Eaton Street,. ,residential,. ,. ,. ,. ,. ,. ,. ,. ,. ,. 
8889214_1,64822131,64835802,8889214,Lowes Way,. ,service,. ,. ,. ,. ,. ,. ,. ,. ,. ,. 
8889214_2,64835802,1642739856,8889214,Lowes Way,. ,service,. ,. ,. ,. ,. ,. ,. ,. ,. ,. 
8889214_3,1642739856,1642739869,8889214,Lowes Way,. ,service,. ,. ,. ,. ,. ,. ,. ,. ,. ,. 
8889214_4,1642739869,1642739881,8889214,Lowes Way,. ,service,. ,. ,. ,. ,. ,. ,. ,. ,. ,. 
8889214_5,1642739881,1642739886,8889214,Lowes Way,. ,service,. ,. ,. ,. ,. ,. ,. ,. ,. ,. 
8889255_1,64869662,64914379,8889255,Westchester Street,. ,service,. ,. ,yes,. ,. ,. ,. ,. ,. ,. 
8889255_2,64914379,64858059,8889255,Westchester Street,. ,service,. ,. ,yes,. ,. ,. ,. ,. ,. ,. 
8889255_3,64858059,64925204,8889255,Westchester Street,. ,service,. ,. ,yes,. ,. ,. ,. ,. ,. ,. 
8889255_4,64925204,64853760,8889255,Westchester Street,. ,service,. ,. ,yes,. ,. ,. ,. ,. ,. ,. 
8889255_5,64853760,64893042,8889255,Westchester Street,. ,service,. ,. ,yes,. ,. ,. ,. ,. ,. ,. 
8889255_6,64893042,64833291,8889255,Westchester Street,. ,service,. ,. ,yes,. ,. ,. ,. ,. ,. ,. 
8889255_7,64833291,64866777,8889255,Westchester Street,. ,service,. ,. ,yes,. ,. ,. ,. ,. ,. ,. 
8889255_8,64866777,64812653,8889255,Westchester Street,. ,service,. ,. ,yes,. ,. ,. ,. ,. ,. ,. 
8889255_9,64812653,64909691,8889255,Westchester Street,. ,service,. ,. ,yes,. ,. ,. ,. ,. ,. ,. 
8889255_10,64909691,64844091,8889255,Westchester Street,. ,service,. ,. ,yes,. ,. ,. ,. ,. ,. ,. 
8889255_11,64844091,64815248,8889255,Westchester Street,. ,service,. ,. ,yes,. ,. ,. ,. ,. ,. ,. 
8889255_12,64815248,64817741,8889255,Westchester Street,. ,service,. ,. ,yes,. ,. ,. ,. ,. ,. ,. 
8889255_13,64817741,64912004,8889255,Westchester Street,. ,service,. ,. ,yes,. ,. ,. ,. ,. ,. ,. 
8889255_14,64912004,64875769,8889255,Westchester Street,. ,service,. ,. ,yes,. ,. ,. ,. ,. ,. ,. 
8889255_15,64875769,64901640,8889255,Westchester Street,. ,service,. ,. ,yes,. ,. ,. ,. ,. ,. ,. 
8889255_16,64901640,64916737,8889255,Westchester Street,. ,service,. ,. ,yes,. ,. ,. ,. ,. ,. ,. 
8889255_17,64916737,64837384,8889255,Westchester Street,. ,service,. ,. ,yes,. ,. ,. ,. ,. ,. ,. 
8889255_18,64837384,64815933,8889255,Westchester Street,. ,service,. ,. ,yes,. ,. ,. ,. ,. ,. ,. 
8889255_19,64815933,64869662,8889255,Westchester Street,. ,service,. ,. ,yes,. ,. ,. ,. ,. ,. ,. 
8889257_1,64857647,64813911,8889257,Twiss Street,. ,residential,2,. ,. ,. ,. ,. ,. ,. ,. ,. 
8889257_2,64813911,64916168,8889257,Twiss Street,. ,residential,2,. ,. ,. ,. ,. ,. ,. ,. ,. 
8889257_3,64916168,64904920,8889257,Twiss Street,. ,residential,2,. ,. ,. ,. ,. ,. ,. ,. ,. 
8889405_1,64897247,64905237,8889405,Bowl Road Extension,. ,residential,. ,. ,. ,. ,. ,. ,. ,. ,. ,. 
8889405_2,64905237,64927759,8889405,Bowl Road Extension,. ,residential,. ,. ,. ,. ,. ,. ,. ,. ,. ,. 
8889405_3,64927759,64893509,8889405,Bowl Road Extension,. ,residential,. ,. ,. ,. ,. ,. ,. ,. ,. ,. 
8889405_4,64893509,64858309,8889405,Bowl Road Extension,. ,residential,. ,. ,. ,. ,. ,. ,. ,. ,. ,. 
8889405_5,64858309,64932232,8889405,Bowl Road Extension,. ,residential,. ,. ,. ,. ,. ,. ,. ,. ,. ,. 
8889552_1,64820708,64883997,8889552,Quimby Avenue,. ,residential,1,. ,. ,. ,. ,. ,. ,. ,. ,. 
8889552_2,64883997,64906392,8889552,Quimby Avenue,. ,residential,1,. ,. ,. ,. ,. ,. ,. ,. ,. 
8889552_3,64906392,64828233,8889552,Quimby Avenue,. ,residential,1,. ,. ,. ,. ,. ,. ,. ,. ,. 
8889554_1,64883745,64832785,8889554,Industrial Avenue East,. ,service,. ,. ,. ,. ,. ,. ,. ,. ,. ,. 
8889554_2,64832785,64918902,8889554,Industrial Avenue East,. ,service,. ,. ,. ,. ,. ,. ,. ,. ,. ,. 
8889554_3,64918902,2916944788,8889554,Industrial Avenue East,. ,service,. ,. ,. ,. ,. ,. ,. ,. ,. ,. 
8889554_4,2916944788,64848191,8889554,Industrial Avenue East,. ,service,. ,. ,. ,. ,. ,. ,. ,. ,. ,. 
8889554_5,64848191,64925526,8889554,Industrial Avenue East,. ,service,. ,. ,. ,. ,. ,. ,. ,. ,. ,. 
8889554_6,64925526,64845133,8889554,Industrial Avenue East,. ,service,. ,. ,. ,. ,. ,. ,. ,. ,. ,. 
8889554_7,64845133,64907887,8889554,Industrial Avenue East,. ,service,. ,. ,. ,. ,. ,. ,. ,. ,. ,. 
8889554_8,64907887,64899515,8889554,Industrial Avenue East,. ,service,. ,. ,. ,. ,. ,. ,. ,. ,. ,. 
8889554_9,64899515,2916944784,8889554,Industrial Avenue East,. ,service,. ,. ,. ,. ,. ,. ,. ,. ,. ,. 
8889554_10,2916944784,1472524334,8889554,Industrial Avenue East,. ,service,. ,. ,. ,. ,. ,. ,. ,. ,. ,. 
8889554_11,1472524334,1472524335,8889554,Industrial Avenue East,. ,service,. ,. ,. ,. ,. ,. ,. ,. ,. ,. 
8889554_12,1472524335,2916944796,8889554,Industrial Avenue East,. ,service,. ,. ,. ,. ,. ,. ,. ,. ,. ,. 
8889554_13,2916944796,2916944777,8889554,Industrial Avenue East,. ,service,. ,. ,. ,. ,. ,. ,. ,. ,. ,. 
8889554_14,2916944777,2916944782,8889554,Industrial Avenue East,. ,service,. ,. ,. ,. ,. ,. ,. ,. ,. ,. 
8889594_1,64856145,64859000,8889594,Wellman Street,. ,residential,2,. ,. ,. ,. ,. ,. ,. ,. ,. 
8889594_2,64859000,64898688,8889594,Wellman Street,. ,residential,2,. ,. ,. ,. ,. ,. ,. ,. ,. 
8889707_1,64905237,64813121,8889707,Emmett Way,. ,residential,. ,. ,. ,. ,. ,. ,. ,. ,. ,. 
8889707_2,64813121,64883059,8889707,Emmett Way,. ,residential,. ,. ,. ,. ,. ,. ,. ,. ,. ,. 
8889759_1,64837700,64876732,8889759,Upham Street,. ,residential,2,. ,. ,. ,. ,. ,. ,. ,. ,. 
8889759_2,64876732,5609644969,8889759,Upham Street,. ,residential,2,. ,. ,. ,. ,. ,. ,. ,. ,. 
8889759_3,5609644969,5609644970,8889759,Upham Street,. ,residential,2,. ,. ,. ,. ,. ,. ,. ,. ,. 
8889759_4,5609644970,5609644971,8889759,Upham Street,. ,residential,2,. ,. ,. ,. ,. ,. ,. ,. ,. 
8889759_5,5609644971,5609644972,8889759,Upham Street,. ,residential,2,. ,. ,. ,. ,. ,. ,. ,. ,. 
8889759_6,5609644972,64839069,8889759,Upham Street,. ,residential,2,. ,. ,. ,. ,. ,. ,. ,. ,. 
8889759_7,64839069,64832739,8889759,Upham Street,. ,residential,2,. ,. ,. ,. ,. ,. ,. ,. ,. 
8889760_1,64810976,64896017,8889760,Forest Street,. ,residential,2,. ,. ,. ,. ,. ,. ,. ,. ,. 
8889760_2,64896017,6908056064,8889760,Forest Street,. ,residential,2,. ,. ,. ,. ,. ,. ,. ,. ,. 
8889760_3,6908056064,64839327,8889760,Forest Street,. ,residential,2,. ,. ,. ,. ,. ,. ,. ,. ,. 
8889760_4,64839327,64871102,8889760,Forest Street,. ,residential,2,. ,. ,. ,. ,. ,. ,. ,. ,. 
8889760_5,64871102,64878497,8889760,Forest Street,. ,residential,2,. ,. ,. ,. ,. ,. ,. ,. ,. 
8889760_6,64878497,64892300,8889760,Forest Street,. ,residential,2,. ,. ,. ,. ,. ,. ,. ,. ,. 
8889819_1,64859855,64932195,8889819,Stevens Street,. ,secondary,2,. ,. ,. ,. ,. ,. ,. ,. ,. 
8889819_2,64932195,64828080,8889819,Stevens Street,. ,secondary,2,. ,. ,. ,. ,. ,. ,. ,. ,. 
8889819_3,64828080,64897294,8889819,Stevens Street,. ,secondary,2,. ,. ,. ,. ,. ,. ,. ,. ,. 
8889819_4,64897294,5609644973,8889819,Stevens Street,. ,secondary,2,. ,. ,. ,. ,. ,. ,. ,. ,. 
8889819_5,5609644973,64884785,8889819,Stevens Street,. ,secondary,2,. ,. ,. ,. ,. ,. ,. ,. ,. 
8889819_6,64884785,64909682,8889819,Stevens Street,. ,secondary,2,. ,. ,. ,. ,. ,. ,. ,. ,. 
8889819_7,64909682,64841126,8889819,Stevens Street,. ,secondary,2,. ,. ,. ,. ,. ,. ,. ,. ,. 
8889819_8,64841126,64840672,8889819,Stevens Street,. ,secondary,2,. ,. ,. ,. ,. ,. ,. ,. ,. 
8889819_9,64840672,64888304,8889819,Stevens Street,. ,secondary,2,. ,. ,. ,. ,. ,. ,. ,. ,. 
8889819_10,64888304,64821180,8889819,Stevens Street,. ,secondary,2,. ,. ,. ,. ,. ,. ,. ,. ,. 
8889819_11,64821180,64897260,8889819,Stevens Street,. ,secondary,2,. ,. ,. ,. ,. ,. ,. ,. ,. 
8889819_12,64897260,64842788,8889819,Stevens Street,. ,secondary,2,. ,. ,. ,. ,. ,. ,. ,. ,. 
8889819_13,64842788,64814366,8889819,Stevens Street,. ,secondary,2,. ,. ,. ,. ,. ,. ,. ,. ,. 
8889819_14,64814366,64900729,8889819,Stevens Street,. ,secondary,2,. ,. ,. ,. ,. ,. ,. ,. ,. 
8889819_15,64900729,5609669746,8889819,Stevens Street,. ,secondary,2,. ,. ,. ,. ,. ,. ,. ,. ,. 
8889819_16,5609669746,64878083,8889819,Stevens Street,. ,secondary,2,. ,. ,. ,. ,. ,. ,. ,. ,. 
8889819_17,64878083,5609669745,8889819,Stevens Street,. ,secondary,2,. ,. ,. ,. ,. ,. ,. ,. ,. 
8889819_18,5609669745,64813232,8889819,Stevens Street,. ,secondary,2,. ,. ,. ,. ,. ,. ,. ,. ,. 
8889819_19,64813232,64888565,8889819,Stevens Street,. ,secondary,2,. ,. ,. ,. ,. ,. ,. ,. ,. 
8889819_20,64888565,64811064,8889819,Stevens Street,. ,secondary,2,. ,. ,. ,. ,. ,. ,. ,. ,. 
8889819_21,64811064,64931161,8889819,Stevens Street,. ,secondary,2,. ,. ,. ,. ,. ,. ,. ,. ,. 
8889819_22,64931161,64812596,8889819,Stevens Street,. ,secondary,2,. ,. ,. ,. ,. ,. ,. ,. ,. 
8889819_23,64812596,64810976,8889819,Stevens Street,. ,secondary,2,. ,. ,. ,. ,. ,. ,. ,. ,. 
8889819_24,64810976,64851028,8889819,Stevens Street,. ,secondary,2,. ,. ,. ,. ,. ,. ,. ,. ,. 
8889819_25,64851028,64900932,8889819,Stevens Street,. ,secondary,2,. ,. ,. ,. ,. ,. ,. ,. ,. 
8889819_26,64900932,64813459,8889819,Stevens Street,. ,secondary,2,. ,. ,. ,. ,. ,. ,. ,. ,. 
8889819_27,64813459,64929070,8889819,Stevens Street,. ,secondary,2,. ,. ,. ,. ,. ,. ,. ,. ,. 
8889819_28,64929070,64906348,8889819,Stevens Street,. ,secondary,2,. ,. ,. ,. ,. ,. ,. ,. ,. 
8889819_29,64906348,64810822,8889819,Stevens Street,. ,secondary,2,. ,. ,. ,. ,. ,. ,. ,. ,. 
8889819_30,64810822,64813340,8889819,Stevens Street,. ,secondary,2,. ,. ,. ,. ,. ,. ,. ,. ,. 
8889819_31,64813340,64822319,8889819,Stevens Street,. ,secondary,2,. ,. ,. ,. ,. ,. ,. ,. ,. 
8889819_32,64822319,64910977,8889819,Stevens Street,. ,secondary,2,. ,. ,. ,. ,. ,. ,. ,. ,. 
8889819_33,64910977,64825344,8889819,Stevens Street,. ,secondary,2,. ,. ,. ,. ,. ,. ,. ,. ,. 
8889819_34,64825344,64884991,8889819,Stevens Street,. ,secondary,2,. ,. ,. ,. ,. ,. ,. ,. ,. 
8889819_35,64884991,64898460,8889819,Stevens Street,. ,secondary,2,. ,. ,. ,. ,. ,. ,. ,. ,. 
8889819_36,64898460,64850757,8889819,Stevens Street,. ,secondary,2,. ,. ,. ,. ,. ,. ,. ,. ,. 
8889819_37,64850757,64847830,8889819,Stevens Street,. ,secondary,2,. ,. ,. ,. ,. ,. ,. ,. ,. 
8889819_38,64847830,64925214,8889819,Stevens Street,. ,secondary,2,. ,. ,. ,. ,. ,. ,. ,. ,. 
8889819_39,64925214,64825837,8889819,Stevens Street,. ,secondary,2,. ,. ,. ,. ,. ,. ,. ,. ,. 
8889819_40,64825837,64833785,8889819,Stevens Street,. ,secondary,2,. ,. ,. ,. ,. ,. ,. ,. ,. 
8889819_41,64833785,5466148732,8889819,Stevens Street,. ,secondary,2,. ,. ,. ,. ,. ,. ,. ,. ,. 
8889819_42,5466148732,64854606,8889819,Stevens Street,. ,secondary,2,. ,. ,. ,. ,. ,. ,. ,. ,. 
8889819_43,64854606,64882611,8889819,Stevens Street,. ,secondary,2,. ,. ,. ,. ,. ,. ,. ,. ,. 
8889819_44,64882611,5466148731,8889819,Stevens Street,. ,secondary,2,. ,. ,. ,. ,. ,. ,. ,. ,. 
8889819_45,5466148731,64879956,8889819,Stevens Street,. ,secondary,2,. ,. ,. ,. ,. ,. ,. ,. ,. 
8889819_46,64879956,64825531,8889819,Stevens Street,. ,secondary,2,. ,. ,. ,. ,. ,. ,. ,. ,. 
8889819_47,64825531,64823268,8889819,Stevens Street,. ,secondary,2,. ,. ,. ,. ,. ,. ,. ,. ,. 
8889819_48,64823268,4222229592,8889819,Stevens Street,. ,secondary,2,. ,. ,. ,. ,. ,. ,. ,. ,. 
8889819_49,4222229592,64874409,8889819,Stevens Street,. ,secondary,2,. ,. ,. ,. ,. ,. ,. ,. ,. 
8889819_50,64874409,64898725,8889819,Stevens Street,. ,secondary,2,. ,. ,. ,. ,. ,. ,. ,. ,. 
8889819_51,64898725,64881722,8889819,Stevens Street,. ,secondary,2,. ,. ,. ,. ,. ,. ,. ,. ,. 
8889819_52,64881722,64921183,8889819,Stevens Street,. ,secondary,2,. ,. ,. ,. ,. ,. ,. ,. ,. 
8889819_53,64921183,64897510,8889819,Stevens Street,. ,secondary,2,. ,. ,. ,. ,. ,. ,. ,. ,. 
8889819_54,64897510,64851966,8889819,Stevens Street,. ,secondary,2,. ,. ,. ,. ,. ,. ,. ,. ,. 
8889819_55,64851966,64892669,8889819,Stevens Street,. ,secondary,2,. ,. ,. ,. ,. ,. ,. ,. ,. 
8889830_1,64824177,64908706,8889830,Wilder Street,. ,residential,2,. ,. ,. ,. ,. ,. ,. ,. ,. 
8889830_2,64908706,64926318,8889830,Wilder Street,. ,residential,2,. ,. ,. ,. ,. ,. ,. ,. ,. 
8889830_3,64926318,64932685,8889830,Wilder Street,. ,residential,2,. ,. ,. ,. ,. ,. ,. ,. ,. 
8889830_4,64932685,64837739,8889830,Wilder Street,. ,residential,2,. ,. ,. ,. ,. ,. ,. ,. ,. 
8889830_5,64837739,64817530,8889830,Wilder Street,. ,residential,2,. ,. ,. ,. ,. ,. ,. ,. ,. 
8889830_6,64817530,64924053,8889830,Wilder Street,. ,residential,2,. ,. ,. ,. ,. ,. ,. ,. ,. 
8889830_7,64924053,64926380,8889830,Wilder Street,. ,residential,2,. ,. ,. ,. ,. ,. ,. ,. ,. 
8889830_8,64926380,64850275,8889830,Wilder Street,. ,residential,2,. ,. ,. ,. ,. ,. ,. ,. ,. 
8889830_9,64850275,64910931,8889830,Wilder Street,. ,residential,2,. ,. ,. ,. ,. ,. ,. ,. ,. 
8889830_10,64910931,64885936,8889830,Wilder Street,. ,residential,2,. ,. ,. ,. ,. ,. ,. ,. ,. 
8889830_11,64885936,64862016,8889830,Wilder Street,. ,residential,2,. ,. ,. ,. ,. ,. ,. ,. ,. 
8889830_12,64862016,64890356,8889830,Wilder Street,. ,residential,2,. ,. ,. ,. ,. ,. ,. ,. ,. 
8889830_13,64890356,64845646,8889830,Wilder Street,. ,residential,2,. ,. ,. ,. ,. ,. ,. ,. ,. 
8889830_14,64845646,64903237,8889830,Wilder Street,. ,residential,2,. ,. ,. ,. ,. ,. ,. ,. ,. 
8889830_15,64903237,64837424,8889830,Wilder Street,. ,residential,2,. ,. ,. ,. ,. ,. ,. ,. ,. 
8889830_16,64837424,64842985,8889830,Wilder Street,. ,residential,2,. ,. ,. ,. ,. ,. ,. ,. ,. 
8889830_17,64842985,64886649,8889830,Wilder Street,. ,residential,2,. ,. ,. ,. ,. ,. ,. ,. ,. 
8889830_18,64886649,64919388,8889830,Wilder Street,. ,residential,2,. ,. ,. ,. ,. ,. ,. ,. ,. 
8889830_19,64919388,64811589,8889830,Wilder Street,. ,residential,2,. ,. ,. ,. ,. ,. ,. ,. ,. 
8889830_20,64811589,5466148736,8889830,Wilder Street,. ,residential,2,. ,. ,. ,. ,. ,. ,. ,. ,. 
8889830_21,5466148736,64866619,8889830,Wilder Street,. ,residential,2,. ,. ,. ,. ,. ,. ,. ,. ,. 
8889830_22,64866619,64845189,8889830,Wilder Street,. ,residential,2,. ,. ,. ,. ,. ,. ,. ,. ,. 
8889830_23,64845189,64871003,8889830,Wilder Street,. ,residential,2,. ,. ,. ,. ,. ,. ,. ,. ,. 
8889830_24,64871003,64854388,8889830,Wilder Street,. ,residential,2,. ,. ,. ,. ,. ,. ,. ,. ,. 
8889830_25,64854388,64843546,8889830,Wilder Street,. ,residential,2,. ,. ,. ,. ,. ,. ,. ,. ,. 
8889830_26,64843546,64923658,8889830,Wilder Street,. ,residential,2,. ,. ,. ,. ,. ,. ,. ,. ,. 
8889830_27,64923658,64818306,8889830,Wilder Street,. ,residential,2,. ,. ,. ,. ,. ,. ,. ,. ,. 
8889830_28,64818306,64820661,8889830,Wilder Street,. ,residential,2,. ,. ,. ,. ,. ,. ,. ,. ,. 
8889830_29,64820661,64901659,8889830,Wilder Street,. ,residential,2,. ,. ,. ,. ,. ,. ,. ,. ,. 
8889865_1,64921165,64901103,8889865,Caddell Avenue,. ,residential,1,. ,. ,. ,. ,. ,. ,. ,. ,. 
8889873_1,64899065,64824879,8889873,Doane Street,. ,residential,2,. ,. ,. ,. ,. ,. ,. ,. ,. 
8889873_2,64824879,64811201,8889873,Doane Street,. ,residential,2,. ,. ,. ,. ,. ,. ,. ,. ,. 
8889873_3,64811201,64827484,8889873,Doane Street,. ,residential,2,. ,. ,. ,. ,. ,. ,. ,. ,. 
8889873_4,64827484,64813538,8889873,Doane Street,. ,residential,2,. ,. ,. ,. ,. ,. ,. ,. ,. 
8889873_5,64813538,64846664,8889873,Doane Street,. ,residential,2,. ,. ,. ,. ,. ,. ,. ,. ,. 
8889873_6,64846664,64833006,8889873,Doane Street,. ,residential,2,. ,. ,. ,. ,. ,. ,. ,. ,. 
8889873_7,64833006,64858814,8889873,Doane Street,. ,residential,2,. ,. ,. ,. ,. ,. ,. ,. ,. 
8889873_8,64858814,64929128,8889873,Doane Street,. ,residential,2,. ,. ,. ,. ,. ,. ,. ,. ,. 
8889938_1,64890238,64893097,8889938,Belle Avenue,. ,residential,2,. ,. ,. ,. ,. ,. ,. ,. ,. 
8889938_2,64893097,64823109,8889938,Belle Avenue,. ,residential,2,. ,. ,. ,. ,. ,. ,. ,. ,. 
8889938_3,64823109,64884785,8889938,Belle Avenue,. ,residential,2,. ,. ,. ,. ,. ,. ,. ,. ,. 
8889948_1,64902211,64816323,8889948,Wellesley Avenue,. ,residential,2,. ,. ,. ,. ,. ,. ,. ,. ,. 
8889948_2,64816323,64892755,8889948,Wellesley Avenue,. ,residential,2,. ,. ,. ,. ,. ,. ,. ,. ,. 
8889964_1,64890134,64882611,8889964,Benton Street,. ,residential,2,. ,. ,. ,. ,. ,. ,. ,. ,. 
8889985_1,64811201,64848511,8889985,Morse Street,. ,residential,2,. ,. ,. ,. ,. ,. ,. ,. ,. 
8889985_2,64848511,64913864,8889985,Morse Street,. ,residential,2,. ,. ,. ,. ,. ,. ,. ,. ,. 
8889985_3,64913864,64819326,8889985,Morse Street,. ,residential,2,. ,. ,. ,. ,. ,. ,. ,. ,. 
8889989_1,64888895,2916934590,8889989,Industrial Avenue East,. ,residential,2,. ,. ,. ,. ,. ,. ,. ,. ,. 
8889989_2,2916934590,64823396,8889989,Industrial Avenue East,. ,residential,2,. ,. ,. ,. ,. ,. ,. ,. ,. 
8889989_3,64823396,2916944765,8889989,Industrial Avenue East,. ,residential,2,. ,. ,. ,. ,. ,. ,. ,. ,. 
8889989_4,2916944765,64857681,8889989,Industrial Avenue East,. ,residential,2,. ,. ,. ,. ,. ,. ,. ,. ,. 
8889989_5,64857681,64819105,8889989,Industrial Avenue East,. ,residential,2,. ,. ,. ,. ,. ,. ,. ,. ,. 
8889989_6,64819105,6878012603,8889989,Industrial Avenue East,. ,residential,2,. ,. ,. ,. ,. ,. ,. ,. ,. 
8889989_7,6878012603,2916944787,8889989,Industrial Avenue East,. ,residential,2,. ,. ,. ,. ,. ,. ,. ,. ,. 
8889989_8,2916944787,6878012599,8889989,Industrial Avenue East,. ,residential,2,. ,. ,. ,. ,. ,. ,. ,. ,. 
8889989_9,6878012599,5464439809,8889989,Industrial Avenue East,. ,residential,2,. ,. ,. ,. ,. ,. ,. ,. ,. 
8889989_10,5464439809,2916973531,8889989,Industrial Avenue East,. ,residential,2,. ,. ,. ,. ,. ,. ,. ,. ,. 
8889989_11,2916973531,64925356,8889989,Industrial Avenue East,. ,residential,2,. ,. ,. ,. ,. ,. ,. ,. ,. 
8889989_12,64925356,2916944749,8889989,Industrial Avenue East,. ,residential,2,. ,. ,. ,. ,. ,. ,. ,. ,. 
8889989_13,2916944749,64884295,8889989,Industrial Avenue East,. ,residential,2,. ,. ,. ,. ,. ,. ,. ,. ,. 
8889989_14,64884295,2916944756,8889989,Industrial Avenue East,. ,residential,2,. ,. ,. ,. ,. ,. ,. ,. ,. 
8889989_15,2916944756,2916944770,8889989,Industrial Avenue East,. ,residential,2,. ,. ,. ,. ,. ,. ,. ,. ,. 
8889989_16,2916944770,2916944781,8889989,Industrial Avenue East,. ,residential,2,. ,. ,. ,. ,. ,. ,. ,. ,. 
8889989_17,2916944781,64840993,8889989,Industrial Avenue East,. ,residential,2,. ,. ,. ,. ,. ,. ,. ,. ,. 
8889989_18,64840993,64819146,8889989,Industrial Avenue East,. ,residential,2,. ,. ,. ,. ,. ,. ,. ,. ,. 
8889989_19,64819146,2916944773,8889989,Industrial Avenue East,. ,residential,2,. ,. ,. ,. ,. ,. ,. ,. ,. 
8889989_20,2916944773,64883745,8889989,Industrial Avenue East,. ,residential,2,. ,. ,. ,. ,. ,. ,. ,. ,. 
8889994_1,64930036,64818633,8889994,Marshall Avenue,. ,residential,2,. ,. ,. ,. ,. ,. ,. ,. ,. 
8889994_2,64818633,64888565,8889994,Marshall Avenue,. ,residential,2,. ,. ,. ,. ,. ,. ,. ,. ,. 
8889995_1,64833785,64845646,8889995,Galligan Road,. ,residential,2,. ,. ,. ,. ,. ,. ,. ,. ,. 
8890028_1,64903472,64821574,8890028,Baltimore Avenue,. ,residential,2,. ,. ,. ,. ,. ,. ,. ,. ,. 
8890028_2,64821574,64847909,8890028,Baltimore Avenue,. ,residential,2,. ,. ,. ,. ,. ,. ,. ,. ,. 
8890053_1,64813900,64921623,8890053,Lallas Lane,. ,residential,2,. ,. ,. ,. ,. ,. ,. ,. ,. 
8890058_1,64897260,64812493,8890058,Norcross Street,. ,residential,2,. ,. ,. ,. ,. ,. ,. ,. ,. 
8890058_2,64812493,64901593,8890058,Norcross Street,. ,residential,2,. ,. ,. ,. ,. ,. ,. ,. ,. 
8890074_1,64883948,64919217,8890074,McKinley Avenue,. ,residential,2,. ,. ,. ,. ,. ,. ,. ,. ,. 
8890074_2,64919217,64822319,8890074,McKinley Avenue,. ,residential,2,. ,. ,. ,. ,. ,. ,. ,. ,. 
8890079_1,64905424,64863474,8890079,Greenfield Street,. ,residential,2,. ,. ,. ,. ,. ,. ,. ,. ,. 
8890112_1,64813009,64931197,8890112,Manning Drive,. ,residential,2,. ,. ,. ,. ,. ,. ,. ,. ,. 
8890112_2,64931197,64826235,8890112,Manning Drive,. ,residential,2,. ,. ,. ,. ,. ,. ,. ,. ,. 
8890112_3,64826235,64894417,8890112,Manning Drive,. ,residential,2,. ,. ,. ,. ,. ,. ,. ,. ,. 
8890126_1,64829100,64927816,8890126,Houghton Street,. ,residential,2,. ,. ,. ,. ,. ,. ,. ,. ,. 
8890126_2,64927816,64877222,8890126,Houghton Street,. ,residential,2,. ,. ,. ,. ,. ,. ,. ,. ,. 
8890188_1,64863036,64883948,8890188,Roylston Avenue,. ,residential,2,. ,. ,. ,. ,. ,. ,. ,. ,. 
8890188_2,64883948,64846208,8890188,Roylston Avenue,. ,residential,2,. ,. ,. ,. ,. ,. ,. ,. ,. 
8890205_1,64876231,64823102,8890205,Saint Paul Street,. ,residential,2,. ,. ,. ,. ,. ,. ,. ,. ,. 
8890205_2,64823102,64906326,8890205,Saint Paul Street,. ,residential,2,. ,. ,. ,. ,. ,. ,. ,. ,. 
8890205_3,64906326,64816823,8890205,Saint Paul Street,. ,residential,2,. ,. ,. ,. ,. ,. ,. ,. ,. 
8890234_1,64896017,64823379,8890234,South Wilder Street,. ,residential,2,. ,. ,. ,. ,. ,. ,. ,. ,. 
8890234_2,64823379,64888682,8890234,South Wilder Street,. ,residential,2,. ,. ,. ,. ,. ,. ,. ,. ,. 
8890247_1,64813009,64873468,8890247,Hampden Street,. ,residential,2,. ,. ,. ,. ,. ,. ,. ,. ,. 
8890247_2,64873468,64873989,8890247,Hampden Street,. ,residential,2,. ,. ,. ,. ,. ,. ,. ,. ,. 
8890247_3,64873989,64836978,8890247,Hampden Street,. ,residential,2,. ,. ,. ,. ,. ,. ,. ,. ,. 
8890247_4,64836978,64880027,8890247,Hampden Street,. ,residential,2,. ,. ,. ,. ,. ,. ,. ,. ,. 
8890247_5,64880027,64835658,8890247,Hampden Street,. ,residential,2,. ,. ,. ,. ,. ,. ,. ,. ,. 
8890247_6,64835658,64816734,8890247,Hampden Street,. ,residential,2,. ,. ,. ,. ,. ,. ,. ,. ,. 
8890284_1,64866736,64916368,8890284,Rindo Park Drive,. ,residential,2,. ,. ,. ,. ,. ,. ,. ,. ,. 
8890284_2,64916368,64863490,8890284,Rindo Park Drive,. ,residential,2,. ,. ,. ,. ,. ,. ,. ,. ,. 
8890284_3,64863490,64874438,8890284,Rindo Park Drive,. ,residential,2,. ,. ,. ,. ,. ,. ,. ,. ,. 
8890284_4,64874438,64905241,8890284,Rindo Park Drive,. ,residential,2,. ,. ,. ,. ,. ,. ,. ,. ,. 
8890284_5,64905241,64879848,8890284,Rindo Park Drive,. ,residential,2,. ,. ,. ,. ,. ,. ,. ,. ,. 
8890284_6,64879848,64817732,8890284,Rindo Park Drive,. ,residential,2,. ,. ,. ,. ,. ,. ,. ,. ,. 
8890284_7,64817732,64837263,8890284,Rindo Park Drive,. ,residential,2,. ,. ,. ,. ,. ,. ,. ,. ,. 
8890284_8,64837263,64917372,8890284,Rindo Park Drive,. ,residential,2,. ,. ,. ,. ,. ,. ,. ,. ,. 
8890284_9,64917372,64924113,8890284,Rindo Park Drive,. ,residential,2,. ,. ,. ,. ,. ,. ,. ,. ,. 
8890284_10,64924113,64849659,8890284,Rindo Park Drive,. ,residential,2,. ,. ,. ,. ,. ,. ,. ,. ,. 
8890284_11,64849659,64913733,8890284,Rindo Park Drive,. ,residential,2,. ,. ,. ,. ,. ,. ,. ,. ,. 
8890289_1,64885936,64905424,8890289,Fairlawn Street,. ,residential,2,. ,. ,. ,. ,. ,. ,. ,. ,. 
8890289_2,64905424,64818861,8890289,Fairlawn Street,. ,residential,2,. ,. ,. ,. ,. ,. ,. ,. ,. 
8890289_3,64818861,64825492,8890289,Fairlawn Street,. ,residential,2,. ,. ,. ,. ,. ,. ,. ,. ,. 
8890333_1,64834447,64919217,8890333,Rose Avenue,. ,residential,2,. ,. ,. ,. ,. ,. ,. ,. ,. 
8890360_1,64892616,64848784,8890360,. ,. ,motorway_link,1,. ,yes,asphalt,. ,. ,. ,. ,. ,. 
8890360_2,64848784,64852256,8890360,. ,. ,motorway_link,1,. ,yes,asphalt,. ,. ,. ,. ,. ,. 
8890360_3,64852256,64862078,8890360,. ,. ,motorway_link,1,. ,yes,asphalt,. ,. ,. ,. ,. ,. 
8890360_4,64862078,2922013221,8890360,. ,. ,motorway_link,1,. ,yes,asphalt,. ,. ,. ,. ,. ,. 
8890360_5,2922013221,2922013226,8890360,. ,. ,motorway_link,1,. ,yes,asphalt,. ,. ,. ,. ,. ,. 
8890360_6,2922013226,2922013213,8890360,. ,. ,motorway_link,1,. ,yes,asphalt,. ,. ,. ,. ,. ,. 
8890360_7,2922013213,64832313,8890360,. ,. ,motorway_link,1,. ,yes,asphalt,. ,. ,. ,. ,. ,. 
8890385_1,64820113,2921934618,8890385,. ,. ,motorway_link,1,. ,yes,asphalt,. ,. ,. ,. ,. ,. 
8890385_2,2921934618,2921934640,8890385,. ,. ,motorway_link,1,. ,yes,asphalt,. ,. ,. ,. ,. ,. 
8890385_3,2921934640,2921934620,8890385,. ,. ,motorway_link,1,. ,yes,asphalt,. ,. ,. ,. ,. ,. 
8890385_4,2921934620,1527368188,8890385,. ,. ,motorway_link,1,. ,yes,asphalt,. ,. ,. ,. ,. ,. 
8890385_5,1527368188,64822264,8890385,. ,. ,motorway_link,1,. ,yes,asphalt,. ,. ,. ,. ,. ,. 
8890385_6,64822264,1527368173,8890385,. ,. ,motorway_link,1,. ,yes,asphalt,. ,. ,. ,. ,. ,. 
8890385_7,1527368173,64904699,8890385,. ,. ,motorway_link,1,. ,yes,asphalt,. ,. ,. ,. ,. ,. 
8890385_8,64904699,2921934622,8890385,. ,. ,motorway_link,1,. ,yes,asphalt,. ,. ,. ,. ,. ,. 
8890385_9,2921934622,64849364,8890385,. ,. ,motorway_link,1,. ,yes,asphalt,. ,. ,. ,. ,. ,. 
8890385_10,64849364,64833610,8890385,. ,. ,motorway_link,1,. ,yes,asphalt,. ,. ,. ,. ,. ,. 
8890385_11,64833610,2922625432,8890385,. ,. ,motorway_link,1,. ,yes,asphalt,. ,. ,. ,. ,. ,. 
8890385_12,2922625432,64872225,8890385,. ,. ,motorway_link,1,. ,yes,asphalt,. ,. ,. ,. ,. ,. 
8890385_13,64872225,2922625434,8890385,. ,. ,motorway_link,1,. ,yes,asphalt,. ,. ,. ,. ,. ,. 
8890385_14,2922625434,64813261,8890385,. ,. ,motorway_link,1,. ,yes,asphalt,. ,. ,. ,. ,. ,. 
8890385_15,64813261,64836335,8890385,. ,. ,motorway_link,1,. ,yes,asphalt,. ,. ,. ,. ,. ,. 
8890393_1,64871102,64830360,8890393,Linwood Street,. ,residential,2,. ,. ,. ,. ,. ,. ,. ,. ,. 
8890426_1,64840406,64818633,8890426,Rexford Street,. ,residential,2,. ,. ,. ,. ,. ,. ,. ,. ,. 
8890426_2,64818633,64893957,8890426,Rexford Street,. ,residential,2,. ,. ,. ,. ,. ,. ,. ,. ,. 
8890462_1,64878497,64858030,8890462,Blodgett Street,. ,residential,2,. ,. ,. ,. ,. ,. ,. ,. ,. 
8890462_2,64858030,64910164,8890462,Blodgett Street,. ,residential,2,. ,. ,. ,. ,. ,. ,. ,. ,. 
8890462_3,64910164,64829100,8890462,Blodgett Street,. ,residential,2,. ,. ,. ,. ,. ,. ,. ,. ,. 
8890523_1,64900729,64848093,8890523,Jenness Street,. ,residential,2,. ,. ,. ,. ,. ,. ,. ,. ,. 
8890523_2,64848093,5609669749,8890523,Jenness Street,. ,residential,2,. ,. ,. ,. ,. ,. ,. ,. ,. 
8890523_3,5609669749,64917024,8890523,Jenness Street,. ,residential,2,. ,. ,. ,. ,. ,. ,. ,. ,. 
8890523_4,64917024,64836064,8890523,Jenness Street,. ,residential,2,. ,. ,. ,. ,. ,. ,. ,. ,. 
8890523_5,64836064,5609669752,8890523,Jenness Street,. ,residential,2,. ,. ,. ,. ,. ,. ,. ,. ,. 
8890523_6,5609669752,5609669751,8890523,Jenness Street,. ,residential,2,. ,. ,. ,. ,. ,. ,. ,. ,. 
8890523_7,5609669751,5609669750,8890523,Jenness Street,. ,residential,2,. ,. ,. ,. ,. ,. ,. ,. ,. 
8890523_8,5609669750,64909555,8890523,Jenness Street,. ,residential,2,. ,. ,. ,. ,. ,. ,. ,. ,. 
8890534_1,64855032,64825837,8890534,Westminster Street,. ,residential,2,. ,. ,. ,. ,. ,. ,. ,. ,. 
8890543_1,64869508,64847909,8890543,West Albert Street,. ,residential,2,. ,. ,. ,. ,. ,. ,. ,. ,. 
8890543_2,64847909,64925200,8890543,West Albert Street,. ,residential,2,. ,. ,. ,. ,. ,. ,. ,. ,. 
8890543_3,64925200,64892755,8890543,West Albert Street,. ,residential,2,. ,. ,. ,. ,. ,. ,. ,. ,. 
8890543_4,64892755,64897294,8890543,West Albert Street,. ,residential,2,. ,. ,. ,. ,. ,. ,. ,. ,. 
8890675_1,64828871,64925200,8890675,Walton Street,. ,residential,2,. ,. ,. ,. ,. ,. ,. ,. ,. 
8890691_1,64839069,64812493,8890691,Usher Street,. ,residential,2,. ,. ,. ,. ,. ,. ,. ,. ,. 
8890695_1,64827515,64895600,8890695,Lura Street,. ,residential,2,. ,. ,. ,. ,. ,. ,. ,. ,. 
8890695_2,64895600,64932140,8890695,Lura Street,. ,residential,2,. ,. ,. ,. ,. ,. ,. ,. ,. 
8890695_3,64932140,64867250,8890695,Lura Street,. ,residential,2,. ,. ,. ,. ,. ,. ,. ,. ,. 
8890695_4,64867250,64848895,8890695,Lura Street,. ,residential,2,. ,. ,. ,. ,. ,. ,. ,. ,. 
8890695_5,64848895,64878335,8890695,Lura Street,. ,residential,2,. ,. ,. ,. ,. ,. ,. ,. ,. 
8890695_6,64878335,64825465,8890695,Lura Street,. ,residential,2,. ,. ,. ,. ,. ,. ,. ,. ,. 
8890695_7,64825465,64822006,8890695,Lura Street,. ,residential,2,. ,. ,. ,. ,. ,. ,. ,. ,. 
8890695_8,64822006,64926808,8890695,Lura Street,. ,residential,2,. ,. ,. ,. ,. ,. ,. ,. ,. 
8890695_9,64926808,64887802,8890695,Lura Street,. ,residential,2,. ,. ,. ,. ,. ,. ,. ,. ,. 
8890705_1,64899441,64843978,8890705,. ,. ,motorway_link,1,. ,yes,asphalt,. ,. ,. ,. ,. ,. 
8890705_2,64843978,64924671,8890705,. ,. ,motorway_link,1,. ,yes,asphalt,. ,. ,. ,. ,. ,. 
8890719_1,64919223,64844551,8890719,Maryland Avenue,. ,residential,2,. ,. ,. ,. ,. ,. ,. ,. ,. 
8890719_2,64844551,64846208,8890719,Maryland Avenue,. ,residential,2,. ,. ,. ,. ,. ,. ,. ,. ,. 
8890719_3,64846208,64898460,8890719,Maryland Avenue,. ,residential,2,. ,. ,. ,. ,. ,. ,. ,. ,. 
8890761_1,64887358,64813900,8890761,West Forest Street,. ,residential,2,. ,. ,. ,. ,. ,. ,. ,. ,. 
8890761_2,64813900,64862135,8890761,West Forest Street,. ,residential,2,. ,. ,. ,. ,. ,. ,. ,. ,. 
8890761_3,64862135,5466148744,8890761,West Forest Street,. ,residential,2,. ,. ,. ,. ,. ,. ,. ,. ,. 
8890761_4,5466148744,5466148750,8890761,West Forest Street,. ,residential,2,. ,. ,. ,. ,. ,. ,. ,. ,. 
8890761_5,5466148750,64928909,8890761,West Forest Street,. ,residential,2,. ,. ,. ,. ,. ,. ,. ,. ,. 
8890761_6,64928909,64893957,8890761,West Forest Street,. ,residential,2,. ,. ,. ,. ,. ,. ,. ,. ,. 
8890761_7,64893957,64904920,8890761,West Forest Street,. ,residential,2,. ,. ,. ,. ,. ,. ,. ,. ,. 
8890761_8,64904920,64868525,8890761,West Forest Street,. ,residential,2,. ,. ,. ,. ,. ,. ,. ,. ,. 
8890761_9,64868525,64924459,8890761,West Forest Street,. ,residential,2,. ,. ,. ,. ,. ,. ,. ,. ,. 
8890761_10,64924459,64863036,8890761,West Forest Street,. ,residential,2,. ,. ,. ,. ,. ,. ,. ,. ,. 
8890761_11,64863036,64834447,8890761,West Forest Street,. ,residential,2,. ,. ,. ,. ,. ,. ,. ,. ,. 
8890761_12,64834447,64931161,8890761,West Forest Street,. ,residential,2,. ,. ,. ,. ,. ,. ,. ,. ,. 
8890769_1,64896509,64900729,8890769,West Jenness Street,. ,residential,2,. ,. ,. ,. ,. ,. ,. ,. ,. 
8890784_1,64833317,64842788,8890784,Carroll Parkway,. ,residential,2,. ,. ,. ,. ,. ,. ,. ,. ,. 
8890804_1,64897410,64830003,8890804,Tanner Street,. ,residential,2,. ,. ,. ,. ,. ,. ,. ,. ,. 
8890804_2,64830003,64818628,8890804,Tanner Street,. ,residential,2,. ,. ,. ,. ,. ,. ,. ,. ,. 
8890804_3,64818628,64929060,8890804,Tanner Street,. ,residential,2,. ,. ,. ,. ,. ,. ,. ,. ,. 
8890804_4,64929060,64928808,8890804,Tanner Street,. ,residential,2,. ,. ,. ,. ,. ,. ,. ,. ,. 
8890804_5,64928808,64894109,8890804,Tanner Street,. ,residential,2,. ,. ,. ,. ,. ,. ,. ,. ,. 
8890804_6,64894109,6878303650,8890804,Tanner Street,. ,residential,2,. ,. ,. ,. ,. ,. ,. ,. ,. 
8890804_7,6878303650,64863228,8890804,Tanner Street,. ,residential,2,. ,. ,. ,. ,. ,. ,. ,. ,. 
8890804_8,64863228,64832656,8890804,Tanner Street,. ,residential,2,. ,. ,. ,. ,. ,. ,. ,. ,. 
8890804_9,64832656,64824171,8890804,Tanner Street,. ,residential,2,. ,. ,. ,. ,. ,. ,. ,. ,. 
8890804_10,64824171,64878854,8890804,Tanner Street,. ,residential,2,. ,. ,. ,. ,. ,. ,. ,. ,. 
8890804_11,64878854,64816448,8890804,Tanner Street,. ,residential,2,. ,. ,. ,. ,. ,. ,. ,. ,. 
8890804_12,64816448,64833159,8890804,Tanner Street,. ,residential,2,. ,. ,. ,. ,. ,. ,. ,. ,. 
8890804_13,64833159,64855980,8890804,Tanner Street,. ,residential,2,. ,. ,. ,. ,. ,. ,. ,. ,. 
8890804_14,64855980,64866434,8890804,Tanner Street,. ,residential,2,. ,. ,. ,. ,. ,. ,. ,. ,. 
8890804_15,64866434,6870341955,8890804,Tanner Street,. ,residential,2,. ,. ,. ,. ,. ,. ,. ,. ,. 
8890804_16,6870341955,64871153,8890804,Tanner Street,. ,residential,2,. ,. ,. ,. ,. ,. ,. ,. ,. 
8890804_17,64871153,6870341960,8890804,Tanner Street,. ,residential,2,. ,. ,. ,. ,. ,. ,. ,. ,. 
8890804_18,6870341960,64820730,8890804,Tanner Street,. ,residential,2,. ,. ,. ,. ,. ,. ,. ,. ,. 
8890804_19,64820730,64816152,8890804,Tanner Street,. ,residential,2,. ,. ,. ,. ,. ,. ,. ,. ,. 
8890804_20,64816152,64911259,8890804,Tanner Street,. ,residential,2,. ,. ,. ,. ,. ,. ,. ,. ,. 
8890804_21,64911259,64918982,8890804,Tanner Street,. ,residential,2,. ,. ,. ,. ,. ,. ,. ,. ,. 
8890804_22,64918982,64824107,8890804,Tanner Street,. ,residential,2,. ,. ,. ,. ,. ,. ,. ,. ,. 
8890804_23,64824107,64912046,8890804,Tanner Street,. ,residential,2,. ,. ,. ,. ,. ,. ,. ,. ,. 
8890804_24,64912046,6870341950,8890804,Tanner Street,. ,residential,2,. ,. ,. ,. ,. ,. ,. ,. ,. 
8890804_25,6870341950,64905530,8890804,Tanner Street,. ,residential,2,. ,. ,. ,. ,. ,. ,. ,. ,. 
8890804_26,64905530,3453905793,8890804,Tanner Street,. ,residential,2,. ,. ,. ,. ,. ,. ,. ,. ,. 
8890804_27,3453905793,64910869,8890804,Tanner Street,. ,residential,2,. ,. ,. ,. ,. ,. ,. ,. ,. 
8890804_28,64910869,64824902,8890804,Tanner Street,. ,residential,2,. ,. ,. ,. ,. ,. ,. ,. ,. 
8890804_29,64824902,6907956832,8890804,Tanner Street,. ,residential,2,. ,. ,. ,. ,. ,. ,. ,. ,. 
8890804_30,6907956832,64883668,8890804,Tanner Street,. ,residential,2,. ,. ,. ,. ,. ,. ,. ,. ,. 
8890843_1,64847830,64888682,8890843,Avery Street,. ,residential,2,. ,. ,. ,. ,. ,. ,. ,. ,. 
8890843_2,64888682,64817530,8890843,Avery Street,. ,residential,2,. ,. ,. ,. ,. ,. ,. ,. ,. 
8890848_1,64926318,64900744,8890848,Inland Street,. ,residential,2,. ,. ,. ,. ,. ,. ,. ,. ,. 
8890848_2,64900744,64918467,8890848,Inland Street,. ,residential,2,. ,. ,. ,. ,. ,. ,. ,. ,. 
8890848_3,64918467,64921953,8890848,Inland Street,. ,residential,2,. ,. ,. ,. ,. ,. ,. ,. ,. 
8890848_4,64921953,64863668,8890848,Inland Street,. ,residential,2,. ,. ,. ,. ,. ,. ,. ,. ,. 
8890848_5,64863668,64910164,8890848,Inland Street,. ,residential,2,. ,. ,. ,. ,. ,. ,. ,. ,. 
8890848_6,64910164,64825684,8890848,Inland Street,. ,residential,2,. ,. ,. ,. ,. ,. ,. ,. ,. 
8890879_1,64816323,64932195,8890879,Preston Street,. ,residential,2,. ,. ,. ,. ,. ,. ,. ,. ,. 
8890882_1,64837739,64836264,8890882,Emery Street,. ,residential,2,. ,. ,. ,. ,. ,. ,. ,. ,. 
8890882_2,64836264,64812034,8890882,Emery Street,. ,residential,2,. ,. ,. ,. ,. ,. ,. ,. ,. 
8890882_3,64812034,64909345,8890882,Emery Street,. ,residential,2,. ,. ,. ,. ,. ,. ,. ,. ,. 
8890882_4,64909345,64876748,8890882,Emery Street,. ,residential,2,. ,. ,. ,. ,. ,. ,. ,. ,. 
8890882_5,64876748,64829100,8890882,Emery Street,. ,residential,2,. ,. ,. ,. ,. ,. ,. ,. ,. 
8890940_1,64892863,1472330408,8890940,. ,. ,motorway_link,1,. ,yes,asphalt,. ,. ,. ,. ,. ,. 
8890940_2,1472330408,64925125,8890940,. ,. ,motorway_link,1,. ,yes,asphalt,. ,. ,. ,. ,. ,. 
8890940_3,64925125,64921963,8890940,. ,. ,motorway_link,1,. ,yes,asphalt,. ,. ,. ,. ,. ,. 
8890940_4,64921963,64825275,8890940,. ,. ,motorway_link,1,. ,yes,asphalt,. ,. ,. ,. ,. ,. 
8890940_5,64825275,64825880,8890940,. ,. ,motorway_link,1,. ,yes,asphalt,. ,. ,. ,. ,. ,. 
8890940_6,64825880,64814268,8890940,. ,. ,motorway_link,1,. ,yes,asphalt,. ,. ,. ,. ,. ,. 
8890940_7,64814268,64928174,8890940,. ,. ,motorway_link,1,. ,yes,asphalt,. ,. ,. ,. ,. ,. 
8890940_8,64928174,64907491,8890940,. ,. ,motorway_link,1,. ,yes,asphalt,. ,. ,. ,. ,. ,. 
8890940_9,64907491,64902288,8890940,. ,. ,motorway_link,1,. ,yes,asphalt,. ,. ,. ,. ,. ,. 
8890940_10,64902288,64847626,8890940,. ,. ,motorway_link,1,. ,yes,asphalt,. ,. ,. ,. ,. ,. 
8890940_11,64847626,64813693,8890940,. ,. ,motorway_link,1,. ,yes,asphalt,. ,. ,. ,. ,. ,. 
8890940_12,64813693,64817146,8890940,. ,. ,motorway_link,1,. ,yes,asphalt,. ,. ,. ,. ,. ,. 
8890965_1,64810788,64901966,8890965,Van Greenby Road,. ,residential,2,. ,. ,. ,. ,. ,. ,. ,. ,. 
8890965_2,64901966,64848196,8890965,Van Greenby Road,. ,residential,2,. ,. ,. ,. ,. ,. ,. ,. ,. 
8890965_3,64848196,5609669764,8890965,Van Greenby Road,. ,residential,2,. ,. ,. ,. ,. ,. ,. ,. ,. 
8890965_4,5609669764,5609669766,8890965,Van Greenby Road,. ,residential,2,. ,. ,. ,. ,. ,. ,. ,. ,. 
8890965_5,5609669766,5609669765,8890965,Van Greenby Road,. ,residential,2,. ,. ,. ,. ,. ,. ,. ,. ,. 
8890965_6,5609669765,5609669767,8890965,Van Greenby Road,. ,residential,2,. ,. ,. ,. ,. ,. ,. ,. ,. 
8890965_7,5609669767,64882915,8890965,Van Greenby Road,. ,residential,2,. ,. ,. ,. ,. ,. ,. ,. ,. 
8890965_8,64882915,64919209,8890965,Van Greenby Road,. ,residential,2,. ,. ,. ,. ,. ,. ,. ,. ,. 
8890965_9,64919209,64829469,8890965,Van Greenby Road,. ,residential,2,. ,. ,. ,. ,. ,. ,. ,. ,. 
8890967_1,64929840,64840406,8890967,West Jenness Street,. ,residential,2,. ,. ,. ,. ,. ,. ,. ,. ,. 
8890967_2,64840406,64896509,8890967,West Jenness Street,. ,residential,2,. ,. ,. ,. ,. ,. ,. ,. ,. 
8890976_1,64862135,5466148747,8890976,Campbell Drive,. ,residential,2,. ,. ,. ,. ,. ,. ,. ,. ,. 
8890976_2,5466148747,64817278,8890976,Campbell Drive,. ,residential,2,. ,. ,. ,. ,. ,. ,. ,. ,. 
8890976_3,64817278,5466148748,8890976,Campbell Drive,. ,residential,2,. ,. ,. ,. ,. ,. ,. ,. ,. 
8890976_4,5466148748,64860284,8890976,Campbell Drive,. ,residential,2,. ,. ,. ,. ,. ,. ,. ,. ,. 
8890976_5,64860284,64853266,8890976,Campbell Drive,. ,residential,2,. ,. ,. ,. ,. ,. ,. ,. ,. 
8890976_6,64853266,64836502,8890976,Campbell Drive,. ,residential,2,. ,. ,. ,. ,. ,. ,. ,. ,. 
8890976_7,64836502,64832279,8890976,Campbell Drive,. ,residential,2,. ,. ,. ,. ,. ,. ,. ,. ,. 
8890976_8,64832279,64851070,8890976,Campbell Drive,. ,residential,2,. ,. ,. ,. ,. ,. ,. ,. ,. 
8890976_9,64851070,64905205,8890976,Campbell Drive,. ,residential,2,. ,. ,. ,. ,. ,. ,. ,. ,. 
8890976_10,64905205,64854172,8890976,Campbell Drive,. ,residential,2,. ,. ,. ,. ,. ,. ,. ,. ,. 
8890976_11,64854172,64906506,8890976,Campbell Drive,. ,residential,2,. ,. ,. ,. ,. ,. ,. ,. ,. 
8890976_12,64906506,64876231,8890976,Campbell Drive,. ,residential,2,. ,. ,. ,. ,. ,. ,. ,. ,. 
8890976_13,64876231,64864547,8890976,Campbell Drive,. ,residential,2,. ,. ,. ,. ,. ,. ,. ,. ,. 
8890976_14,64864547,64911740,8890976,Campbell Drive,. ,residential,2,. ,. ,. ,. ,. ,. ,. ,. ,. 
8890976_15,64911740,64868335,8890976,Campbell Drive,. ,residential,2,. ,. ,. ,. ,. ,. ,. ,. ,. 
8890976_16,64868335,64906915,8890976,Campbell Drive,. ,residential,2,. ,. ,. ,. ,. ,. ,. ,. ,. 
8890976_17,64906915,64908328,8890976,Campbell Drive,. ,residential,2,. ,. ,. ,. ,. ,. ,. ,. ,. 
8890976_18,64908328,64876447,8890976,Campbell Drive,. ,residential,2,. ,. ,. ,. ,. ,. ,. ,. ,. 
8890976_19,64876447,64900960,8890976,Campbell Drive,. ,residential,2,. ,. ,. ,. ,. ,. ,. ,. ,. 
8890976_20,64900960,64881293,8890976,Campbell Drive,. ,residential,2,. ,. ,. ,. ,. ,. ,. ,. ,. 
8890976_21,64881293,64884612,8890976,Campbell Drive,. ,residential,2,. ,. ,. ,. ,. ,. ,. ,. ,. 
8890976_22,64884612,64868192,8890976,Campbell Drive,. ,residential,2,. ,. ,. ,. ,. ,. ,. ,. ,. 
8890976_23,64868192,64931870,8890976,Campbell Drive,. ,residential,2,. ,. ,. ,. ,. ,. ,. ,. ,. 
8890976_24,64931870,64827515,8890976,Campbell Drive,. ,residential,2,. ,. ,. ,. ,. ,. ,. ,. ,. 
8890999_1,64810999,1642739918,8890999,Wellman Street,. ,residential,2,. ,. ,. ,. ,. ,. ,. ,. ,. 
8890999_2,1642739918,1642739917,8890999,Wellman Street,. ,residential,2,. ,. ,. ,. ,. ,. ,. ,. ,. 
8890999_3,1642739917,64856145,8890999,Wellman Street,. ,residential,2,. ,. ,. ,. ,. ,. ,. ,. ,. 
8891001_1,64839327,64907225,8891001,Lipton Street,. ,residential,2,. ,. ,. ,. ,. ,. ,. ,. ,. 
8891038_1,64817273,64855032,8891038,Newbury Street,. ,residential,2,. ,. ,. ,. ,. ,. ,. ,. ,. 
8891038_2,64855032,5609669753,8891038,Newbury Street,. ,residential,2,. ,. ,. ,. ,. ,. ,. ,. ,. 
8891038_3,5609669753,64920212,8891038,Newbury Street,. ,residential,2,. ,. ,. ,. ,. ,. ,. ,. ,. 
8891038_4,64920212,5609669754,8891038,Newbury Street,. ,residential,2,. ,. ,. ,. ,. ,. ,. ,. ,. 
8891038_5,5609669754,64859668,8891038,Newbury Street,. ,residential,2,. ,. ,. ,. ,. ,. ,. ,. ,. 
8891038_6,64859668,64851669,8891038,Newbury Street,. ,residential,2,. ,. ,. ,. ,. ,. ,. ,. ,. 
8891038_7,64851669,64854438,8891038,Newbury Street,. ,residential,2,. ,. ,. ,. ,. ,. ,. ,. ,. 
8891038_8,64854438,64890134,8891038,Newbury Street,. ,residential,2,. ,. ,. ,. ,. ,. ,. ,. ,. 
8891038_9,64890134,64832489,8891038,Newbury Street,. ,residential,2,. ,. ,. ,. ,. ,. ,. ,. ,. 
8891038_10,64832489,64873970,8891038,Newbury Street,. ,residential,2,. ,. ,. ,. ,. ,. ,. ,. ,. 
8891099_1,64898270,64849088,8891099,Maitland Avenue,. ,residential,2,. ,. ,. ,. ,. ,. ,. ,. ,. 
8891099_2,64849088,64929631,8891099,Maitland Avenue,. ,residential,2,. ,. ,. ,. ,. ,. ,. ,. ,. 
8891179_1,64930308,64919340,8891179,Corson Street,. ,residential,2,. ,. ,. ,. ,. ,. ,. ,. ,. 
8891179_2,64919340,64858079,8891179,Corson Street,. ,residential,2,. ,. ,. ,. ,. ,. ,. ,. ,. 
8891179_3,64858079,64819326,8891179,Corson Street,. ,residential,2,. ,. ,. ,. ,. ,. ,. ,. ,. 
8891271_1,64898839,6866813835,8891271,Westview Road,. ,residential,2,. ,. ,. ,. ,. ,. ,. ,. ,. 
8891271_2,6866813835,64869222,8891271,Westview Road,. ,residential,2,. ,. ,. ,. ,. ,. ,. ,. ,. 
8891271_3,64869222,6866813831,8891271,Westview Road,. ,residential,2,. ,. ,. ,. ,. ,. ,. ,. ,. 
8891271_4,6866813831,64921548,8891271,Westview Road,. ,residential,2,. ,. ,. ,. ,. ,. ,. ,. ,. 
8891271_5,64921548,64878099,8891271,Westview Road,. ,residential,2,. ,. ,. ,. ,. ,. ,. ,. ,. 
8891271_6,64878099,64887825,8891271,Westview Road,. ,residential,2,. ,. ,. ,. ,. ,. ,. ,. ,. 
8891271_7,64887825,64845082,8891271,Westview Road,. ,residential,2,. ,. ,. ,. ,. ,. ,. ,. ,. 
8891271_8,64845082,64852339,8891271,Westview Road,. ,residential,2,. ,. ,. ,. ,. ,. ,. ,. ,. 
8891271_9,64852339,64917223,8891271,Westview Road,. ,residential,2,. ,. ,. ,. ,. ,. ,. ,. ,. 
8891299_1,64888517,64901530,8891299,Atlantic Street,. ,residential,2,. ,. ,. ,. ,. ,. ,. ,. ,. 
8891414_1,64929128,64851853,8891414,Avenue C,. ,residential,2,. ,. ,. ,. ,. ,. ,. ,. ,. 
8891414_2,64851853,64900439,8891414,Avenue C,. ,residential,2,. ,. ,. ,. ,. ,. ,. ,. ,. 
8891414_3,64900439,64913458,8891414,Avenue C,. ,residential,2,. ,. ,. ,. ,. ,. ,. ,. ,. 
8891414_4,64913458,64905092,8891414,Avenue C,. ,residential,2,. ,. ,. ,. ,. ,. ,. ,. ,. 
8891414_5,64905092,64928884,8891414,Avenue C,. ,residential,2,. ,. ,. ,. ,. ,. ,. ,. ,. 
8891414_6,64928884,64814946,8891414,Avenue C,. ,residential,2,. ,. ,. ,. ,. ,. ,. ,. ,. 
8891414_7,64814946,64878629,8891414,Avenue C,. ,residential,2,. ,. ,. ,. ,. ,. ,. ,. ,. 
8891414_8,64878629,64818292,8891414,Avenue C,. ,residential,2,. ,. ,. ,. ,. ,. ,. ,. ,. 
8891414_9,64818292,64878845,8891414,Avenue C,. ,residential,2,. ,. ,. ,. ,. ,. ,. ,. ,. 
8891414_10,64878845,64908215,8891414,Avenue C,. ,residential,2,. ,. ,. ,. ,. ,. ,. ,. ,. 
8891414_11,64908215,327279052,8891414,Avenue C,. ,residential,2,. ,. ,. ,. ,. ,. ,. ,. ,. 
8891414_12,327279052,64911021,8891414,Avenue C,. ,residential,2,. ,. ,. ,. ,. ,. ,. ,. ,. 
8891414_13,64911021,64900462,8891414,Avenue C,. ,residential,2,. ,. ,. ,. ,. ,. ,. ,. ,. 
8891414_14,64900462,64814507,8891414,Avenue C,. ,residential,2,. ,. ,. ,. ,. ,. ,. ,. ,. 
8891414_15,64814507,64813149,8891414,Avenue C,. ,residential,2,. ,. ,. ,. ,. ,. ,. ,. ,. 
8891414_16,64813149,64883163,8891414,Avenue C,. ,residential,2,. ,. ,. ,. ,. ,. ,. ,. ,. 
8891414_17,64883163,64860050,8891414,Avenue C,. ,residential,2,. ,. ,. ,. ,. ,. ,. ,. ,. 
8891414_18,64860050,64931993,8891414,Avenue C,. ,residential,2,. ,. ,. ,. ,. ,. ,. ,. ,. 
8891424_1,64818861,1471213509,8891424,Joyce Avenue,. ,residential,2,. ,. ,. ,. ,. ,. ,. ,. ,. 
8891424_2,1471213509,64905615,8891424,Joyce Avenue,. ,residential,2,. ,. ,. ,. ,. ,. ,. ,. ,. 
8891457_1,64927674,1473462365,8891457,. ,. ,motorway_link,1,. ,yes,asphalt,. ,. ,. ,. ,. ,. 
8891457_2,1473462365,64896484,8891457,. ,. ,motorway_link,1,. ,yes,asphalt,. ,. ,. ,. ,. ,. 
8891457_3,64896484,64909543,8891457,. ,. ,motorway_link,1,. ,yes,asphalt,. ,. ,. ,. ,. ,. 
8891457_4,64909543,64907011,8891457,. ,. ,motorway_link,1,. ,yes,asphalt,. ,. ,. ,. ,. ,. 
8891457_5,64907011,64833856,8891457,. ,. ,motorway_link,1,. ,yes,asphalt,. ,. ,. ,. ,. ,. 
8891457_6,64833856,2924018991,8891457,. ,. ,motorway_link,1,. ,yes,asphalt,. ,. ,. ,. ,. ,. 
8891457_7,2924018991,2924018955,8891457,. ,. ,motorway_link,1,. ,yes,asphalt,. ,. ,. ,. ,. ,. 
8891457_8,2924018955,2924018971,8891457,. ,. ,motorway_link,1,. ,yes,asphalt,. ,. ,. ,. ,. ,. 
8891467_1,64817197,4222340467,8891467,Fleming Street,. ,tertiary,2,. ,. ,. ,. ,. ,. ,. ,. ,. 
8891467_2,4222340467,64810788,8891467,Fleming Street,. ,tertiary,2,. ,. ,. ,. ,. ,. ,. ,. ,. 
8891467_3,64810788,4222340469,8891467,Fleming Street,. ,tertiary,2,. ,. ,. ,. ,. ,. ,. ,. ,. 
8891467_4,4222340469,4222340470,8891467,Fleming Street,. ,tertiary,2,. ,. ,. ,. ,. ,. ,. ,. ,. 
8891467_5,4222340470,64827515,8891467,Fleming Street,. ,tertiary,2,. ,. ,. ,. ,. ,. ,. ,. ,. 
8891467_6,64827515,64888517,8891467,Fleming Street,. ,tertiary,2,. ,. ,. ,. ,. ,. ,. ,. ,. 
8891467_7,64888517,64862161,8891467,Fleming Street,. ,tertiary,2,. ,. ,. ,. ,. ,. ,. ,. ,. 
8891467_8,64862161,5609669759,8891467,Fleming Street,. ,tertiary,2,. ,. ,. ,. ,. ,. ,. ,. ,. 
8891467_9,5609669759,64850264,8891467,Fleming Street,. ,tertiary,2,. ,. ,. ,. ,. ,. ,. ,. ,. 
8891467_10,64850264,64810603,8891467,Fleming Street,. ,tertiary,2,. ,. ,. ,. ,. ,. ,. ,. ,. 
8891467_11,64810603,64880323,8891467,Fleming Street,. ,tertiary,2,. ,. ,. ,. ,. ,. ,. ,. ,. 
8891467_12,64880323,64829260,8891467,Fleming Street,. ,tertiary,2,. ,. ,. ,. ,. ,. ,. ,. ,. 
8891467_13,64829260,64889885,8891467,Fleming Street,. ,tertiary,2,. ,. ,. ,. ,. ,. ,. ,. ,. 
8891467_14,64889885,5609669758,8891467,Fleming Street,. ,tertiary,2,. ,. ,. ,. ,. ,. ,. ,. ,. 
8891467_15,5609669758,5609669757,8891467,Fleming Street,. ,tertiary,2,. ,. ,. ,. ,. ,. ,. ,. ,. 
8891467_16,5609669757,64832489,8891467,Fleming Street,. ,tertiary,2,. ,. ,. ,. ,. ,. ,. ,. ,. 
8891467_17,64832489,5609669755,8891467,Fleming Street,. ,tertiary,2,. ,. ,. ,. ,. ,. ,. ,. ,. 
8891467_18,5609669755,64914313,8891467,Fleming Street,. ,tertiary,2,. ,. ,. ,. ,. ,. ,. ,. ,. 
8891467_19,64914313,5609669756,8891467,Fleming Street,. ,tertiary,2,. ,. ,. ,. ,. ,. ,. ,. ,. 
8891467_20,5609669756,64825531,8891467,Fleming Street,. ,tertiary,2,. ,. ,. ,. ,. ,. ,. ,. ,. 
8891555_1,64900960,64811195,8891555,Hanson Terrace,. ,residential,2,. ,. ,. ,. ,. ,. ,. ,. ,. 
8891555_2,64811195,64923017,8891555,Hanson Terrace,. ,residential,2,. ,. ,. ,. ,. ,. ,. ,. ,. 
8891555_3,64923017,64810762,8891555,Hanson Terrace,. ,residential,2,. ,. ,. ,. ,. ,. ,. ,. ,. 
8891555_4,64810762,64930835,8891555,Hanson Terrace,. ,residential,2,. ,. ,. ,. ,. ,. ,. ,. ,. 
8891555_5,64930835,64909640,8891555,Hanson Terrace,. ,residential,2,. ,. ,. ,. ,. ,. ,. ,. ,. 
8891555_6,64909640,64894417,8891555,Hanson Terrace,. ,residential,2,. ,. ,. ,. ,. ,. ,. ,. ,. 
8891555_7,64894417,64915205,8891555,Hanson Terrace,. ,residential,2,. ,. ,. ,. ,. ,. ,. ,. ,. 
8891555_8,64915205,64812312,8891555,Hanson Terrace,. ,residential,2,. ,. ,. ,. ,. ,. ,. ,. ,. 
8891555_9,64812312,64813950,8891555,Hanson Terrace,. ,residential,2,. ,. ,. ,. ,. ,. ,. ,. ,. 
8891555_10,64813950,64917820,8891555,Hanson Terrace,. ,residential,2,. ,. ,. ,. ,. ,. ,. ,. ,. 
8891555_11,64917820,64900225,8891555,Hanson Terrace,. ,residential,2,. ,. ,. ,. ,. ,. ,. ,. ,. 
8891568_1,64930036,2921940007,8891568,Norwood Street,. ,residential,2,. ,. ,. ,. ,. ,. ,. ,. ,. 
8891568_2,2921940007,2921940006,8891568,Norwood Street,. ,residential,2,. ,. ,. ,. ,. ,. ,. ,. ,. 
8891568_3,2921940006,64887358,8891568,Norwood Street,. ,residential,2,. ,. ,. ,. ,. ,. ,. ,. ,. 
8891589_1,64817197,64923066,8891589,Florence Road,. ,tertiary,2,. ,. ,. ,. ,. ,. ,. ,. ,. 
8891589_2,64923066,64828666,8891589,Florence Road,. ,tertiary,2,. ,. ,. ,. ,. ,. ,. ,. ,. 
8910963_1,65155354,65145605,8910963,Clinton Avenue,. ,residential,2,. ,. ,. ,. ,. ,. ,. ,. ,. 
8910963_2,65145605,65147100,8910963,Clinton Avenue,. ,residential,2,. ,. ,. ,. ,. ,. ,. ,. ,. 
8910963_3,65147100,65166620,8910963,Clinton Avenue,. ,residential,2,. ,. ,. ,. ,. ,. ,. ,. ,. 
8910963_4,65166620,65227146,8910963,Clinton Avenue,. ,residential,2,. ,. ,. ,. ,. ,. ,. ,. ,. 
8910963_5,65227146,65228157,8910963,Clinton Avenue,. ,residential,2,. ,. ,. ,. ,. ,. ,. ,. ,. 
8910963_6,65228157,65218885,8910963,Clinton Avenue,. ,residential,2,. ,. ,. ,. ,. ,. ,. ,. ,. 
8910963_7,65218885,65190640,8910963,Clinton Avenue,. ,residential,2,. ,. ,. ,. ,. ,. ,. ,. ,. 
8910963_8,65190640,65232161,8910963,Clinton Avenue,. ,residential,2,. ,. ,. ,. ,. ,. ,. ,. ,. 
8910977_1,65166620,65191855,8910977,Housatonic Avenue,. ,residential,2,. ,. ,. ,. ,. ,. ,. ,. ,. 
8910977_2,65191855,65174653,8910977,Housatonic Avenue,. ,residential,2,. ,. ,. ,. ,. ,. ,. ,. ,. 
8911211_1,65212652,65240633,8911211,Fuller Road,. ,residential,2,. ,. ,. ,. ,. ,. ,. ,. ,. 
8911211_2,65240633,5609644954,8911211,Fuller Road,. ,residential,2,. ,. ,. ,. ,. ,. ,. ,. ,. 
8911211_3,5609644954,65237451,8911211,Fuller Road,. ,residential,2,. ,. ,. ,. ,. ,. ,. ,. ,. 
8911211_4,65237451,65193479,8911211,Fuller Road,. ,residential,2,. ,. ,. ,. ,. ,. ,. ,. ,. 
8911211_5,65193479,65162401,8911211,Fuller Road,. ,residential,2,. ,. ,. ,. ,. ,. ,. ,. ,. 
8911211_6,65162401,65178519,8911211,Fuller Road,. ,residential,2,. ,. ,. ,. ,. ,. ,. ,. ,. 
8911211_7,65178519,65229957,8911211,Fuller Road,. ,residential,2,. ,. ,. ,. ,. ,. ,. ,. ,. 
8911346_1,65228157,65202411,8911346,Lancaster Avenue,. ,residential,2,. ,. ,. ,. ,. ,. ,. ,. ,. 
8911346_2,65202411,65212349,8911346,Lancaster Avenue,. ,residential,2,. ,. ,. ,. ,. ,. ,. ,. ,. 
8911346_3,65212349,65224976,8911346,Lancaster Avenue,. ,residential,2,. ,. ,. ,. ,. ,. ,. ,. ,. 
8911346_4,65224976,65234541,8911346,Lancaster Avenue,. ,residential,2,. ,. ,. ,. ,. ,. ,. ,. ,. 
8911754_1,65210914,65165222,8911754,Bowl Road,. ,residential,2,. ,. ,. ,. ,. ,. ,. ,. ,. 
8911754_2,65165222,65216091,8911754,Bowl Road,. ,residential,2,. ,. ,. ,. ,. ,. ,. ,. ,. 
8911754_3,65216091,65152228,8911754,Bowl Road,. ,residential,2,. ,. ,. ,. ,. ,. ,. ,. ,. 
8911754_4,65152228,65191855,8911754,Bowl Road,. ,residential,2,. ,. ,. ,. ,. ,. ,. ,. ,. 
8911754_5,65191855,65252396,8911754,Bowl Road,. ,residential,2,. ,. ,. ,. ,. ,. ,. ,. ,. 
8911754_6,65252396,65234541,8911754,Bowl Road,. ,residential,2,. ,. ,. ,. ,. ,. ,. ,. ,. 
8912341_1,65149479,65210093,8912341,Delwood Road,. ,residential,2,. ,. ,. ,. ,. ,. ,. ,. ,. 
8912341_2,65210093,65209291,8912341,Delwood Road,. ,residential,2,. ,. ,. ,. ,. ,. ,. ,. ,. 
8912341_3,65209291,5609644952,8912341,Delwood Road,. ,residential,2,. ,. ,. ,. ,. ,. ,. ,. ,. 
8912341_4,5609644952,65229957,8912341,Delwood Road,. ,residential,2,. ,. ,. ,. ,. ,. ,. ,. ,. 
8912341_5,65229957,65218610,8912341,Delwood Road,. ,residential,2,. ,. ,. ,. ,. ,. ,. ,. ,. 
8912341_6,65218610,65259902,8912341,Delwood Road,. ,residential,2,. ,. ,. ,. ,. ,. ,. ,. ,. 
8912341_7,65259902,5609644953,8912341,Delwood Road,. ,residential,2,. ,. ,. ,. ,. ,. ,. ,. ,. 
8912341_8,5609644953,65156550,8912341,Delwood Road,. ,residential,2,. ,. ,. ,. ,. ,. ,. ,. ,. 
8912341_9,65156550,65177525,8912341,Delwood Road,. ,residential,2,. ,. ,. ,. ,. ,. ,. ,. ,. 
8912341_10,65177525,65184629,8912341,Delwood Road,. ,residential,2,. ,. ,. ,. ,. ,. ,. ,. ,. 
8912341_11,65184629,65197308,8912341,Delwood Road,. ,residential,2,. ,. ,. ,. ,. ,. ,. ,. ,. 
8912341_12,65197308,65146551,8912341,Delwood Road,. ,residential,2,. ,. ,. ,. ,. ,. ,. ,. ,. 
8912341_13,65146551,65202386,8912341,Delwood Road,. ,residential,2,. ,. ,. ,. ,. ,. ,. ,. ,. 
8912341_14,65202386,5609644959,8912341,Delwood Road,. ,residential,2,. ,. ,. ,. ,. ,. ,. ,. ,. 
8912341_15,5609644959,65255392,8912341,Delwood Road,. ,residential,2,. ,. ,. ,. ,. ,. ,. ,. ,. 
8912341_16,65255392,5609644958,8912341,Delwood Road,. ,residential,2,. ,. ,. ,. ,. ,. ,. ,. ,. 
8912341_17,5609644958,5609644957,8912341,Delwood Road,. ,residential,2,. ,. ,. ,. ,. ,. ,. ,. ,. 
8912341_18,5609644957,5609644956,8912341,Delwood Road,. ,residential,2,. ,. ,. ,. ,. ,. ,. ,. ,. 
8912341_19,5609644956,65230501,8912341,Delwood Road,. ,residential,2,. ,. ,. ,. ,. ,. ,. ,. ,. 
8912341_20,65230501,5609644955,8912341,Delwood Road,. ,residential,2,. ,. ,. ,. ,. ,. ,. ,. ,. 
8912341_21,5609644955,65211874,8912341,Delwood Road,. ,residential,2,. ,. ,. ,. ,. ,. ,. ,. ,. 
8912341_22,65211874,65212652,8912341,Delwood Road,. ,residential,2,. ,. ,. ,. ,. ,. ,. ,. ,. 
8912684_1,65173191,65219892,8912684,Evergreen Street,. ,residential,1,. ,. ,. ,. ,. ,. ,. ,. ,. 
8913249_1,65234541,65260003,8913249,Bowl Road Extension,. ,residential,. ,. ,. ,. ,. ,. ,. ,. ,. ,. 
8913249_2,65260003,64897247,8913249,Bowl Road Extension,. ,residential,. ,. ,. ,. ,. ,. ,. ,. ,. ,. 
29834518_1,328725786,328739766,29834518,Doane Street Park,. ,. ,. ,. ,. ,. ,. ,. ,. ,. ,. ,. 
29834518_2,328739766,328769507,29834518,Doane Street Park,. ,. ,. ,. ,. ,. ,. ,. ,. ,. ,. ,. 
29834518_3,328769507,328763256,29834518,Doane Street Park,. ,. ,. ,. ,. ,. ,. ,. ,. ,. ,. ,. 
29834518_4,328763256,328752643,29834518,Doane Street Park,. ,. ,. ,. ,. ,. ,. ,. ,. ,. ,. ,. 
29834518_5,328752643,328767695,29834518,Doane Street Park,. ,. ,. ,. ,. ,. ,. ,. ,. ,. ,. ,. 
29834518_6,328767695,328725786,29834518,Doane Street Park,. ,. ,. ,. ,. ,. ,. ,. ,. ,. ,. ,. 
29837306_1,328716767,328759318,29837306,Highland Park,. ,. ,. ,. ,. ,. ,. ,. ,. ,. ,. ,. 
29837306_2,328759318,5665096268,29837306,Highland Park,. ,. ,. ,. ,. ,. ,. ,. ,. ,. ,. ,. 
29837306_3,5665096268,328724745,29837306,Highland Park,. ,. ,. ,. ,. ,. ,. ,. ,. ,. ,. ,. 
29837306_4,328724745,328757667,29837306,Highland Park,. ,. ,. ,. ,. ,. ,. ,. ,. ,. ,. ,. 
29837306_5,328757667,6859274327,29837306,Highland Park,. ,. ,. ,. ,. ,. ,. ,. ,. ,. ,. ,. 
29837306_6,6859274327,328768248,29837306,Highland Park,. ,. ,. ,. ,. ,. ,. ,. ,. ,. ,. ,. 
29837306_7,328768248,5665096267,29837306,Highland Park,. ,. ,. ,. ,. ,. ,. ,. ,. ,. ,. ,. 
29837306_8,5665096267,328777527,29837306,Highland Park,. ,. ,. ,. ,. ,. ,. ,. ,. ,. ,. ,. 
29837306_9,328777527,328758309,29837306,Highland Park,. ,. ,. ,. ,. ,. ,. ,. ,. ,. ,. ,. 
29837306_10,328758309,328778126,29837306,Highland Park,. ,. ,. ,. ,. ,. ,. ,. ,. ,. ,. ,. 
29837306_11,328778126,328727646,29837306,Highland Park,. ,. ,. ,. ,. ,. ,. ,. ,. ,. ,. ,. 
29837306_12,328727646,328757681,29837306,Highland Park,. ,. ,. ,. ,. ,. ,. ,. ,. ,. ,. ,. 
29837306_13,328757681,328765979,29837306,Highland Park,. ,. ,. ,. ,. ,. ,. ,. ,. ,. ,. ,. 
29837306_14,328765979,328716765,29837306,Highland Park,. ,. ,. ,. ,. ,. ,. ,. ,. ,. ,. ,. 
29837306_15,328716765,328716767,29837306,Highland Park,. ,. ,. ,. ,. ,. ,. ,. ,. ,. ,. ,. 
29838562_1,64860050,64931993,29838562,Mulligan Park,. ,. ,. ,. ,. ,. ,. ,. ,. ,. ,. ,. 
29838562_2,64931993,64874686,29838562,Mulligan Park,. ,. ,. ,. ,. ,. ,. ,. ,. ,. ,. ,. 
29838562_3,64874686,327301516,29838562,Mulligan Park,. ,. ,. ,. ,. ,. ,. ,. ,. ,. ,. ,. 
29838562_4,327301516,327279052,29838562,Mulligan Park,. ,. ,. ,. ,. ,. ,. ,. ,. ,. ,. ,. 
29838562_5,327279052,64911021,29838562,Mulligan Park,. ,. ,. ,. ,. ,. ,. ,. ,. ,. ,. ,. 
29838562_6,64911021,64900462,29838562,Mulligan Park,. ,. ,. ,. ,. ,. ,. ,. ,. ,. ,. ,. 
29838562_7,64900462,64814507,29838562,Mulligan Park,. ,. ,. ,. ,. ,. ,. ,. ,. ,. ,. ,. 
29838562_8,64814507,64813149,29838562,Mulligan Park,. ,. ,. ,. ,. ,. ,. ,. ,. ,. ,. ,. 
29838562_9,64813149,64883163,29838562,Mulligan Park,. ,. ,. ,. ,. ,. ,. ,. ,. ,. ,. ,. 
29838562_10,64883163,64860050,29838562,Mulligan Park,. ,. ,. ,. ,. ,. ,. ,. ,. ,. ,. ,. 
29862157_1,328849108,6859196861,29862157,Coburn Park,. ,. ,. ,. ,. ,. ,. ,. ,. ,. ,. ,. 
29862157_2,6859196861,6859196860,29862157,Coburn Park,. ,. ,. ,. ,. ,. ,. ,. ,. ,. ,. ,. 
29862157_3,6859196860,6859196858,29862157,Coburn Park,. ,. ,. ,. ,. ,. ,. ,. ,. ,. ,. ,. 
29862157_4,6859196858,6859196859,29862157,Coburn Park,. ,. ,. ,. ,. ,. ,. ,. ,. ,. ,. ,. 
29862157_5,6859196859,328842975,29862157,Coburn Park,. ,. ,. ,. ,. ,. ,. ,. ,. ,. ,. ,. 
29862157_6,328842975,6859196857,29862157,Coburn Park,. ,. ,. ,. ,. ,. ,. ,. ,. ,. ,. ,. 
29862157_7,6859196857,328834909,29862157,Coburn Park,. ,. ,. ,. ,. ,. ,. ,. ,. ,. ,. ,. 
29862157_8,328834909,6859196862,29862157,Coburn Park,. ,. ,. ,. ,. ,. ,. ,. ,. ,. ,. ,. 
29862157_9,6859196862,328849108,29862157,Coburn Park,. ,. ,. ,. ,. ,. ,. ,. ,. ,. ,. ,. 
50810856_1,64845464,64817058,50810856,Lowell Connector,. ,motorway,3,. ,yes,asphalt,. ,. ,. ,. ,. ,. 
50810858_1,64817058,64897419,50810858,Lowell Connector,. ,motorway,3,. ,yes,asphalt,. ,. ,. ,. ,. ,. 
50810858_2,64897419,64887797,50810858,Lowell Connector,. ,motorway,3,. ,yes,asphalt,. ,. ,. ,. ,. ,. 
50810858_3,64887797,64827304,50810858,Lowell Connector,. ,motorway,3,. ,yes,asphalt,. ,. ,. ,. ,. ,. 
50810858_4,64827304,64817146,50810858,Lowell Connector,. ,motorway,3,. ,yes,asphalt,. ,. ,. ,. ,. ,. 
50810858_5,64817146,1473462364,50810858,Lowell Connector,. ,motorway,3,. ,yes,asphalt,. ,. ,. ,. ,. ,. 
50810860_1,64915908,64896885,50810860,Lowell Connector,. ,motorway,3,. ,yes,asphalt,. ,. ,. ,. ,. ,. 
93291740_1,64852221,2924028029,93291740,Lowell Connector,. ,motorway,3,. ,yes,asphalt,. ,. ,. ,. ,. ,. 
93291740_2,2924028029,2924028027,93291740,Lowell Connector,. ,motorway,3,. ,yes,asphalt,. ,. ,. ,. ,. ,. 
93291740_3,2924028027,64829895,93291740,Lowell Connector,. ,motorway,3,. ,yes,asphalt,. ,. ,. ,. ,. ,. 
133667519_1,64859855,1642739833,133667519,Chelmsford Street,. ,primary,2,. ,. ,. ,. ,. ,. ,. ,. ,. 
133667519_2,1642739833,64813640,133667519,Chelmsford Street,. ,primary,2,. ,. ,. ,. ,. ,. ,. ,. ,. 
133667519_3,64813640,1642739868,133667519,Chelmsford Street,. ,primary,2,. ,. ,. ,. ,. ,. ,. ,. ,. 
133667519_4,1642739868,64852019,133667519,Chelmsford Street,. ,primary,2,. ,. ,. ,. ,. ,. ,. ,. ,. 
133667519_5,64852019,64849322,133667519,Chelmsford Street,. ,primary,2,. ,. ,. ,. ,. ,. ,. ,. ,. 
133667519_6,64849322,64825212,133667519,Chelmsford Street,. ,primary,2,. ,. ,. ,. ,. ,. ,. ,. ,. 
133667519_7,64825212,64882830,133667519,Chelmsford Street,. ,primary,2,. ,. ,. ,. ,. ,. ,. ,. ,. 
133667519_8,64882830,1642739912,133667519,Chelmsford Street,. ,primary,2,. ,. ,. ,. ,. ,. ,. ,. ,. 
133667519_9,1642739912,64832739,133667519,Chelmsford Street,. ,primary,2,. ,. ,. ,. ,. ,. ,. ,. ,. 
133667519_10,64832739,64832306,133667519,Chelmsford Street,. ,primary,2,. ,. ,. ,. ,. ,. ,. ,. ,. 
133667519_11,64832306,64810999,133667519,Chelmsford Street,. ,primary,2,. ,. ,. ,. ,. ,. ,. ,. ,. 
133667519_12,64810999,64922584,133667519,Chelmsford Street,. ,primary,2,. ,. ,. ,. ,. ,. ,. ,. ,. 
133667519_13,64922584,1642739923,133667519,Chelmsford Street,. ,primary,2,. ,. ,. ,. ,. ,. ,. ,. ,. 
133667519_14,1642739923,64843063,133667519,Chelmsford Street,. ,primary,2,. ,. ,. ,. ,. ,. ,. ,. ,. 
133667519_15,64843063,64901593,133667519,Chelmsford Street,. ,primary,2,. ,. ,. ,. ,. ,. ,. ,. ,. 
133667519_16,64901593,64932785,133667519,Chelmsford Street,. ,primary,2,. ,. ,. ,. ,. ,. ,. ,. ,. 
133667519_17,64932785,64909555,133667519,Chelmsford Street,. ,primary,2,. ,. ,. ,. ,. ,. ,. ,. ,. 
133667519_18,64909555,64899065,133667519,Chelmsford Street,. ,primary,2,. ,. ,. ,. ,. ,. ,. ,. ,. 
133667519_19,64899065,64837975,133667519,Chelmsford Street,. ,primary,2,. ,. ,. ,. ,. ,. ,. ,. ,. 
133667519_20,64837975,64894538,133667519,Chelmsford Street,. ,primary,2,. ,. ,. ,. ,. ,. ,. ,. ,. 
133667519_21,64894538,64900920,133667519,Chelmsford Street,. ,primary,2,. ,. ,. ,. ,. ,. ,. ,. ,. 
133667519_22,64900920,64930308,133667519,Chelmsford Street,. ,primary,2,. ,. ,. ,. ,. ,. ,. ,. ,. 
133667519_23,64930308,64873392,133667519,Chelmsford Street,. ,primary,2,. ,. ,. ,. ,. ,. ,. ,. ,. 
133667519_24,64873392,64892300,133667519,Chelmsford Street,. ,primary,2,. ,. ,. ,. ,. ,. ,. ,. ,. 
133667519_25,64892300,64877038,133667519,Chelmsford Street,. ,primary,2,. ,. ,. ,. ,. ,. ,. ,. ,. 
133667519_26,64877038,64898270,133667519,Chelmsford Street,. ,primary,2,. ,. ,. ,. ,. ,. ,. ,. ,. 
133667519_27,64898270,64917586,133667519,Chelmsford Street,. ,primary,2,. ,. ,. ,. ,. ,. ,. ,. ,. 
133667519_28,64917586,64919229,133667519,Chelmsford Street,. ,primary,2,. ,. ,. ,. ,. ,. ,. ,. ,. 
133667519_29,64919229,64907642,133667519,Chelmsford Street,. ,primary,2,. ,. ,. ,. ,. ,. ,. ,. ,. 
133667519_30,64907642,64865099,133667519,Chelmsford Street,. ,primary,2,. ,. ,. ,. ,. ,. ,. ,. ,. 
133667519_31,64865099,64825684,133667519,Chelmsford Street,. ,primary,2,. ,. ,. ,. ,. ,. ,. ,. ,. 
133667519_32,64825684,64902582,133667519,Chelmsford Street,. ,primary,2,. ,. ,. ,. ,. ,. ,. ,. ,. 
133667519_33,64902582,64912835,133667519,Chelmsford Street,. ,primary,2,. ,. ,. ,. ,. ,. ,. ,. ,. 
133667519_34,64912835,64910312,133667519,Chelmsford Street,. ,primary,2,. ,. ,. ,. ,. ,. ,. ,. ,. 
133667519_35,64910312,1472519428,133667519,Chelmsford Street,. ,primary,2,. ,. ,. ,. ,. ,. ,. ,. ,. 
133667519_36,1472519428,64930394,133667519,Chelmsford Street,. ,primary,2,. ,. ,. ,. ,. ,. ,. ,. ,. 
133667519_37,64930394,64820708,133667519,Chelmsford Street,. ,primary,2,. ,. ,. ,. ,. ,. ,. ,. ,. 
133667519_38,64820708,64896626,133667519,Chelmsford Street,. ,primary,2,. ,. ,. ,. ,. ,. ,. ,. ,. 
133768486_1,64920723,1472330400,133768486,Plain Street,. ,secondary,2,. ,. ,. ,. ,. ,. ,. ,. ,. 
133768487_1,64921807,64852426,133768487,Plain Street,. ,secondary,2,. ,. ,. ,. ,. ,. ,. ,. ,. 
133768487_2,64852426,64853025,133768487,Plain Street,. ,secondary,2,. ,. ,. ,. ,. ,. ,. ,. ,. 
133768487_3,64853025,64916870,133768487,Plain Street,. ,secondary,2,. ,. ,. ,. ,. ,. ,. ,. ,. 
133768487_4,64916870,64824393,133768487,Plain Street,. ,secondary,2,. ,. ,. ,. ,. ,. ,. ,. ,. 
133768487_5,64824393,64815532,133768487,Plain Street,. ,secondary,2,. ,. ,. ,. ,. ,. ,. ,. ,. 
133768487_6,64815532,64913952,133768487,Plain Street,. ,secondary,2,. ,. ,. ,. ,. ,. ,. ,. ,. 
133768488_1,64874686,1472330404,133768488,. ,. ,motorway_link,1,. ,yes,asphalt,. ,. ,. ,. ,. ,. 
133768488_2,1472330404,64930875,133768488,. ,. ,motorway_link,1,. ,yes,asphalt,. ,. ,. ,. ,. ,. 
133768488_3,64930875,64824465,133768488,. ,. ,motorway_link,1,. ,yes,asphalt,. ,. ,. ,. ,. ,. 
133768488_4,64824465,64825300,133768488,. ,. ,motorway_link,1,. ,yes,asphalt,. ,. ,. ,. ,. ,. 
133768488_5,64825300,64822790,133768488,. ,. ,motorway_link,1,. ,yes,asphalt,. ,. ,. ,. ,. ,. 
133768488_6,64822790,64825880,133768488,. ,. ,motorway_link,1,. ,yes,asphalt,. ,. ,. ,. ,. ,. 
133907835_1,1473462364,1473462363,133907835,Lowell Connector,. ,motorway,3,. ,yes,asphalt,. ,. ,. ,. ,. ,. 
133907836_1,64856652,64810677,133907836,. ,. ,motorway_link,1,. ,yes,asphalt,. ,. ,. ,. ,. ,. 
133907836_2,64810677,64900584,133907836,. ,. ,motorway_link,1,. ,yes,asphalt,. ,. ,. ,. ,. ,. 
133907836_3,64900584,2924027125,133907836,. ,. ,motorway_link,1,. ,yes,asphalt,. ,. ,. ,. ,. ,. 
133907836_4,2924027125,64899422,133907836,. ,. ,motorway_link,1,. ,yes,asphalt,. ,. ,. ,. ,. ,. 
133907836_5,64899422,2924027120,133907836,. ,. ,motorway_link,1,. ,yes,asphalt,. ,. ,. ,. ,. ,. 
133907836_6,2924027120,64910713,133907836,. ,. ,motorway_link,1,. ,yes,asphalt,. ,. ,. ,. ,. ,. 
133907836_7,64910713,64916760,133907836,. ,. ,motorway_link,1,. ,yes,asphalt,. ,. ,. ,. ,. ,. 
133907836_8,64916760,2924027121,133907836,. ,. ,motorway_link,1,. ,yes,asphalt,. ,. ,. ,. ,. ,. 
133907836_9,2924027121,2924027131,133907836,. ,. ,motorway_link,1,. ,yes,asphalt,. ,. ,. ,. ,. ,. 
133907836_10,2924027131,2924027136,133907836,. ,. ,motorway_link,1,. ,yes,asphalt,. ,. ,. ,. ,. ,. 
133907836_11,2924027136,64872538,133907836,. ,. ,motorway_link,1,. ,yes,asphalt,. ,. ,. ,. ,. ,. 
133907836_12,64872538,64906622,133907836,. ,. ,motorway_link,1,. ,yes,asphalt,. ,. ,. ,. ,. ,. 
133907836_13,64906622,2924027118,133907836,. ,. ,motorway_link,1,. ,yes,asphalt,. ,. ,. ,. ,. ,. 
133907836_14,2924027118,2924027122,133907836,. ,. ,motorway_link,1,. ,yes,asphalt,. ,. ,. ,. ,. ,. 
133907836_15,2924027122,64864683,133907836,. ,. ,motorway_link,1,. ,yes,asphalt,. ,. ,. ,. ,. ,. 
133907836_16,64864683,64899042,133907836,. ,. ,motorway_link,1,. ,yes,asphalt,. ,. ,. ,. ,. ,. 
133907836_17,64899042,64926152,133907836,. ,. ,motorway_link,1,. ,yes,asphalt,. ,. ,. ,. ,. ,. 
133907836_18,64926152,64921609,133907836,. ,. ,motorway_link,1,. ,yes,asphalt,. ,. ,. ,. ,. ,. 
133907836_19,64921609,64907274,133907836,. ,. ,motorway_link,1,. ,yes,asphalt,. ,. ,. ,. ,. ,. 
133907836_20,64907274,64829895,133907836,. ,. ,motorway_link,1,. ,yes,asphalt,. ,. ,. ,. ,. ,. 
133907839_1,1473462366,64898605,133907839,Lowell Connector,. ,motorway,3,. ,yes,asphalt,. ,. ,. ,. ,. ,. 
133907839_2,64898605,64818009,133907839,Lowell Connector,. ,motorway,3,. ,yes,asphalt,. ,. ,. ,. ,. ,. 
133907839_3,64818009,64861070,133907839,Lowell Connector,. ,motorway,3,. ,yes,asphalt,. ,. ,. ,. ,. ,. 
133907839_4,64861070,64911372,133907839,Lowell Connector,. ,motorway,3,. ,yes,asphalt,. ,. ,. ,. ,. ,. 
133907839_5,64911372,64923614,133907839,Lowell Connector,. ,motorway,3,. ,yes,asphalt,. ,. ,. ,. ,. ,. 
133907839_6,64923614,64915908,133907839,Lowell Connector,. ,motorway,3,. ,yes,asphalt,. ,. ,. ,. ,. ,. 
133907840_1,1473462363,64927674,133907840,Lowell Connector,. ,motorway,3,. ,yes,asphalt,. ,. ,. ,. ,. ,. 
133907840_2,64927674,2924028028,133907840,Lowell Connector,. ,motorway,3,. ,yes,asphalt,. ,. ,. ,. ,. ,. 
133907840_3,2924028028,64922476,133907840,Lowell Connector,. ,motorway,3,. ,yes,asphalt,. ,. ,. ,. ,. ,. 
133907841_1,64829895,1473462366,133907841,Lowell Connector,. ,motorway,3,. ,yes,asphalt,. ,. ,. ,. ,. ,. 
151454644_1,64898688,64914300,151454644,Lowes Way,. ,residential,. ,. ,. ,. ,. ,. ,. ,. ,. ,. 
151454712_1,1642739886,1642739890,151454712,Lowes Way,. ,service,. ,. ,. ,. ,. ,. ,. ,. ,. ,. 
151454712_2,1642739890,1642739892,151454712,Lowes Way,. ,service,. ,. ,. ,. ,. ,. ,. ,. ,. ,. 
151454712_3,1642739892,1797811747,151454712,Lowes Way,. ,service,. ,. ,. ,. ,. ,. ,. ,. ,. ,. 
151454712_4,1797811747,1797811754,151454712,Lowes Way,. ,service,. ,. ,. ,. ,. ,. ,. ,. ,. ,. 
151454712_5,1797811754,1797811759,151454712,Lowes Way,. ,service,. ,. ,. ,. ,. ,. ,. ,. ,. ,. 
151454712_6,1797811759,1642739905,151454712,Lowes Way,. ,service,. ,. ,. ,. ,. ,. ,. ,. ,. ,. 
151454712_7,1642739905,64898688,151454712,Lowes Way,. ,service,. ,. ,. ,. ,. ,. ,. ,. ,. ,. 
267237808_1,1514212927,3856527986,267237808,Tewksbury - Meadowbrook - North Chelmsford 115kV transmission line,. ,. ,. ,. ,. ,. ,. ,. ,. ,. ,. ,. 
267237808_2,3856527986,2727068330,267237808,Tewksbury - Meadowbrook - North Chelmsford 115kV transmission line,. ,. ,. ,. ,. ,. ,. ,. ,. ,. ,. ,. 
267237808_3,2727068330,2727068331,267237808,Tewksbury - Meadowbrook - North Chelmsford 115kV transmission line,. ,. ,. ,. ,. ,. ,. ,. ,. ,. ,. ,. 
267237808_4,2727068331,2727068332,267237808,Tewksbury - Meadowbrook - North Chelmsford 115kV transmission line,. ,. ,. ,. ,. ,. ,. ,. ,. ,. ,. ,. 
267237808_5,2727068332,2727068333,267237808,Tewksbury - Meadowbrook - North Chelmsford 115kV transmission line,. ,. ,. ,. ,. ,. ,. ,. ,. ,. ,. ,. 
267237808_6,2727068333,2727068334,267237808,Tewksbury - Meadowbrook - North Chelmsford 115kV transmission line,. ,. ,. ,. ,. ,. ,. ,. ,. ,. ,. ,. 
267237808_7,2727068334,2727068335,267237808,Tewksbury - Meadowbrook - North Chelmsford 115kV transmission line,. ,. ,. ,. ,. ,. ,. ,. ,. ,. ,. ,. 
267237808_8,2727068335,2727068336,267237808,Tewksbury - Meadowbrook - North Chelmsford 115kV transmission line,. ,. ,. ,. ,. ,. ,. ,. ,. ,. ,. ,. 
267237808_9,2727068336,2735800810,267237808,Tewksbury - Meadowbrook - North Chelmsford 115kV transmission line,. ,. ,. ,. ,. ,. ,. ,. ,. ,. ,. ,. 
267237808_10,2735800810,2727068337,267237808,Tewksbury - Meadowbrook - North Chelmsford 115kV transmission line,. ,. ,. ,. ,. ,. ,. ,. ,. ,. ,. ,. 
267237808_11,2727068337,2727068338,267237808,Tewksbury - Meadowbrook - North Chelmsford 115kV transmission line,. ,. ,. ,. ,. ,. ,. ,. ,. ,. ,. ,. 
267237808_12,2727068338,2727068339,267237808,Tewksbury - Meadowbrook - North Chelmsford 115kV transmission line,. ,. ,. ,. ,. ,. ,. ,. ,. ,. ,. ,. 
267237808_13,2727068339,2727068340,267237808,Tewksbury - Meadowbrook - North Chelmsford 115kV transmission line,. ,. ,. ,. ,. ,. ,. ,. ,. ,. ,. ,. 
267237808_14,2727068340,2727068341,267237808,Tewksbury - Meadowbrook - North Chelmsford 115kV transmission line,. ,. ,. ,. ,. ,. ,. ,. ,. ,. ,. ,. 
267237808_15,2727068341,2727068342,267237808,Tewksbury - Meadowbrook - North Chelmsford 115kV transmission line,. ,. ,. ,. ,. ,. ,. ,. ,. ,. ,. ,. 
267237808_16,2727068342,2727068343,267237808,Tewksbury - Meadowbrook - North Chelmsford 115kV transmission line,. ,. ,. ,. ,. ,. ,. ,. ,. ,. ,. ,. 
267237808_17,2727068343,2727068344,267237808,Tewksbury - Meadowbrook - North Chelmsford 115kV transmission line,. ,. ,. ,. ,. ,. ,. ,. ,. ,. ,. ,. 
267237808_18,2727068344,2727068345,267237808,Tewksbury - Meadowbrook - North Chelmsford 115kV transmission line,. ,. ,. ,. ,. ,. ,. ,. ,. ,. ,. ,. 
267237808_19,2727068345,2727068346,267237808,Tewksbury - Meadowbrook - North Chelmsford 115kV transmission line,. ,. ,. ,. ,. ,. ,. ,. ,. ,. ,. ,. 
267237808_20,2727068346,2727068347,267237808,Tewksbury - Meadowbrook - North Chelmsford 115kV transmission line,. ,. ,. ,. ,. ,. ,. ,. ,. ,. ,. ,. 
267237808_21,2727068347,2727068348,267237808,Tewksbury - Meadowbrook - North Chelmsford 115kV transmission line,. ,. ,. ,. ,. ,. ,. ,. ,. ,. ,. ,. 
267237808_22,2727068348,2727068349,267237808,Tewksbury - Meadowbrook - North Chelmsford 115kV transmission line,. ,. ,. ,. ,. ,. ,. ,. ,. ,. ,. ,. 
267237808_23,2727068349,2727068350,267237808,Tewksbury - Meadowbrook - North Chelmsford 115kV transmission line,. ,. ,. ,. ,. ,. ,. ,. ,. ,. ,. ,. 
267237808_24,2727068350,2727068351,267237808,Tewksbury - Meadowbrook - North Chelmsford 115kV transmission line,. ,. ,. ,. ,. ,. ,. ,. ,. ,. ,. ,. 
267237808_25,2727068351,2727068352,267237808,Tewksbury - Meadowbrook - North Chelmsford 115kV transmission line,. ,. ,. ,. ,. ,. ,. ,. ,. ,. ,. ,. 
267237808_26,2727068352,2727068353,267237808,Tewksbury - Meadowbrook - North Chelmsford 115kV transmission line,. ,. ,. ,. ,. ,. ,. ,. ,. ,. ,. ,. 
267237808_27,2727068353,2727068354,267237808,Tewksbury - Meadowbrook - North Chelmsford 115kV transmission line,. ,. ,. ,. ,. ,. ,. ,. ,. ,. ,. ,. 
267237808_28,2727068354,2727068355,267237808,Tewksbury - Meadowbrook - North Chelmsford 115kV transmission line,. ,. ,. ,. ,. ,. ,. ,. ,. ,. ,. ,. 
267237808_29,2727068355,2727068356,267237808,Tewksbury - Meadowbrook - North Chelmsford 115kV transmission line,. ,. ,. ,. ,. ,. ,. ,. ,. ,. ,. ,. 
267237808_30,2727068356,2727068357,267237808,Tewksbury - Meadowbrook - North Chelmsford 115kV transmission line,. ,. ,. ,. ,. ,. ,. ,. ,. ,. ,. ,. 
267237808_31,2727068357,2727068358,267237808,Tewksbury - Meadowbrook - North Chelmsford 115kV transmission line,. ,. ,. ,. ,. ,. ,. ,. ,. ,. ,. ,. 
267237808_32,2727068358,2727068359,267237808,Tewksbury - Meadowbrook - North Chelmsford 115kV transmission line,. ,. ,. ,. ,. ,. ,. ,. ,. ,. ,. ,. 
267237808_33,2727068359,2727068360,267237808,Tewksbury - Meadowbrook - North Chelmsford 115kV transmission line,. ,. ,. ,. ,. ,. ,. ,. ,. ,. ,. ,. 
267237808_34,2727068360,2727068361,267237808,Tewksbury - Meadowbrook - North Chelmsford 115kV transmission line,. ,. ,. ,. ,. ,. ,. ,. ,. ,. ,. ,. 
267237808_35,2727068361,2727068362,267237808,Tewksbury - Meadowbrook - North Chelmsford 115kV transmission line,. ,. ,. ,. ,. ,. ,. ,. ,. ,. ,. ,. 
267237808_36,2727068362,2727068363,267237808,Tewksbury - Meadowbrook - North Chelmsford 115kV transmission line,. ,. ,. ,. ,. ,. ,. ,. ,. ,. ,. ,. 
267237808_37,2727068363,2727068364,267237808,Tewksbury - Meadowbrook - North Chelmsford 115kV transmission line,. ,. ,. ,. ,. ,. ,. ,. ,. ,. ,. ,. 
267237808_38,2727068364,2727068365,267237808,Tewksbury - Meadowbrook - North Chelmsford 115kV transmission line,. ,. ,. ,. ,. ,. ,. ,. ,. ,. ,. ,. 
267237808_39,2727068365,2727068366,267237808,Tewksbury - Meadowbrook - North Chelmsford 115kV transmission line,. ,. ,. ,. ,. ,. ,. ,. ,. ,. ,. ,. 
267237808_40,2727068366,2727068367,267237808,Tewksbury - Meadowbrook - North Chelmsford 115kV transmission line,. ,. ,. ,. ,. ,. ,. ,. ,. ,. ,. ,. 
267237808_41,2727068367,2727068368,267237808,Tewksbury - Meadowbrook - North Chelmsford 115kV transmission line,. ,. ,. ,. ,. ,. ,. ,. ,. ,. ,. ,. 
267237808_42,2727068368,2727068369,267237808,Tewksbury - Meadowbrook - North Chelmsford 115kV transmission line,. ,. ,. ,. ,. ,. ,. ,. ,. ,. ,. ,. 
267237808_43,2727068369,2727068370,267237808,Tewksbury - Meadowbrook - North Chelmsford 115kV transmission line,. ,. ,. ,. ,. ,. ,. ,. ,. ,. ,. ,. 
267237808_44,2727068370,2727068371,267237808,Tewksbury - Meadowbrook - North Chelmsford 115kV transmission line,. ,. ,. ,. ,. ,. ,. ,. ,. ,. ,. ,. 
267237808_45,2727068371,2727068372,267237808,Tewksbury - Meadowbrook - North Chelmsford 115kV transmission line,. ,. ,. ,. ,. ,. ,. ,. ,. ,. ,. ,. 
267237808_46,2727068372,2727068373,267237808,Tewksbury - Meadowbrook - North Chelmsford 115kV transmission line,. ,. ,. ,. ,. ,. ,. ,. ,. ,. ,. ,. 
267237808_47,2727068373,2727068374,267237808,Tewksbury - Meadowbrook - North Chelmsford 115kV transmission line,. ,. ,. ,. ,. ,. ,. ,. ,. ,. ,. ,. 
267237808_48,2727068374,2727068375,267237808,Tewksbury - Meadowbrook - North Chelmsford 115kV transmission line,. ,. ,. ,. ,. ,. ,. ,. ,. ,. ,. ,. 
267237808_49,2727068375,2727068376,267237808,Tewksbury - Meadowbrook - North Chelmsford 115kV transmission line,. ,. ,. ,. ,. ,. ,. ,. ,. ,. ,. ,. 
267237808_50,2727068376,2727068377,267237808,Tewksbury - Meadowbrook - North Chelmsford 115kV transmission line,. ,. ,. ,. ,. ,. ,. ,. ,. ,. ,. ,. 
267237808_51,2727068377,2727068378,267237808,Tewksbury - Meadowbrook - North Chelmsford 115kV transmission line,. ,. ,. ,. ,. ,. ,. ,. ,. ,. ,. ,. 
267237808_52,2727068378,2727068379,267237808,Tewksbury - Meadowbrook - North Chelmsford 115kV transmission line,. ,. ,. ,. ,. ,. ,. ,. ,. ,. ,. ,. 
267237808_53,2727068379,2727068380,267237808,Tewksbury - Meadowbrook - North Chelmsford 115kV transmission line,. ,. ,. ,. ,. ,. ,. ,. ,. ,. ,. ,. 
267237808_54,2727068380,2727068381,267237808,Tewksbury - Meadowbrook - North Chelmsford 115kV transmission line,. ,. ,. ,. ,. ,. ,. ,. ,. ,. ,. ,. 
267237808_55,2727068381,2727068382,267237808,Tewksbury - Meadowbrook - North Chelmsford 115kV transmission line,. ,. ,. ,. ,. ,. ,. ,. ,. ,. ,. ,. 
267237808_56,2727068382,2727068383,267237808,Tewksbury - Meadowbrook - North Chelmsford 115kV transmission line,. ,. ,. ,. ,. ,. ,. ,. ,. ,. ,. ,. 
267237808_57,2727068383,2727068384,267237808,Tewksbury - Meadowbrook - North Chelmsford 115kV transmission line,. ,. ,. ,. ,. ,. ,. ,. ,. ,. ,. ,. 
267237808_58,2727068384,2727068385,267237808,Tewksbury - Meadowbrook - North Chelmsford 115kV transmission line,. ,. ,. ,. ,. ,. ,. ,. ,. ,. ,. ,. 
267237808_59,2727068385,2727068386,267237808,Tewksbury - Meadowbrook - North Chelmsford 115kV transmission line,. ,. ,. ,. ,. ,. ,. ,. ,. ,. ,. ,. 
267237808_60,2727068386,2727068387,267237808,Tewksbury - Meadowbrook - North Chelmsford 115kV transmission line,. ,. ,. ,. ,. ,. ,. ,. ,. ,. ,. ,. 
267237808_61,2727068387,2727068388,267237808,Tewksbury - Meadowbrook - North Chelmsford 115kV transmission line,. ,. ,. ,. ,. ,. ,. ,. ,. ,. ,. ,. 
267240629_1,2727105615,2727105616,267240629,Tewksbury - Meadowbrook - North Chelmsford 115kV transmission line,. ,. ,. ,. ,. ,. ,. ,. ,. ,. ,. ,. 
267240629_2,2727105616,2727105617,267240629,Tewksbury - Meadowbrook - North Chelmsford 115kV transmission line,. ,. ,. ,. ,. ,. ,. ,. ,. ,. ,. ,. 
267240629_3,2727105617,2727105618,267240629,Tewksbury - Meadowbrook - North Chelmsford 115kV transmission line,. ,. ,. ,. ,. ,. ,. ,. ,. ,. ,. ,. 
267240629_4,2727105618,2727105619,267240629,Tewksbury - Meadowbrook - North Chelmsford 115kV transmission line,. ,. ,. ,. ,. ,. ,. ,. ,. ,. ,. ,. 
267240629_5,2727105619,2727105620,267240629,Tewksbury - Meadowbrook - North Chelmsford 115kV transmission line,. ,. ,. ,. ,. ,. ,. ,. ,. ,. ,. ,. 
267240629_6,2727105620,2727105621,267240629,Tewksbury - Meadowbrook - North Chelmsford 115kV transmission line,. ,. ,. ,. ,. ,. ,. ,. ,. ,. ,. ,. 
267240629_7,2727105621,2727105622,267240629,Tewksbury - Meadowbrook - North Chelmsford 115kV transmission line,. ,. ,. ,. ,. ,. ,. ,. ,. ,. ,. ,. 
267240629_8,2727105622,2727105623,267240629,Tewksbury - Meadowbrook - North Chelmsford 115kV transmission line,. ,. ,. ,. ,. ,. ,. ,. ,. ,. ,. ,. 
267240629_9,2727105623,2727105624,267240629,Tewksbury - Meadowbrook - North Chelmsford 115kV transmission line,. ,. ,. ,. ,. ,. ,. ,. ,. ,. ,. ,. 
267240629_10,2727105624,2727105625,267240629,Tewksbury - Meadowbrook - North Chelmsford 115kV transmission line,. ,. ,. ,. ,. ,. ,. ,. ,. ,. ,. ,. 
267240629_11,2727105625,2727105626,267240629,Tewksbury - Meadowbrook - North Chelmsford 115kV transmission line,. ,. ,. ,. ,. ,. ,. ,. ,. ,. ,. ,. 
267240629_12,2727105626,2727105627,267240629,Tewksbury - Meadowbrook - North Chelmsford 115kV transmission line,. ,. ,. ,. ,. ,. ,. ,. ,. ,. ,. ,. 
267240629_13,2727105627,2727105628,267240629,Tewksbury - Meadowbrook - North Chelmsford 115kV transmission line,. ,. ,. ,. ,. ,. ,. ,. ,. ,. ,. ,. 
267240629_14,2727105628,2727105629,267240629,Tewksbury - Meadowbrook - North Chelmsford 115kV transmission line,. ,. ,. ,. ,. ,. ,. ,. ,. ,. ,. ,. 
267240629_15,2727105629,2727105630,267240629,Tewksbury - Meadowbrook - North Chelmsford 115kV transmission line,. ,. ,. ,. ,. ,. ,. ,. ,. ,. ,. ,. 
267240629_16,2727105630,2727105631,267240629,Tewksbury - Meadowbrook - North Chelmsford 115kV transmission line,. ,. ,. ,. ,. ,. ,. ,. ,. ,. ,. ,. 
267240629_17,2727105631,2727105632,267240629,Tewksbury - Meadowbrook - North Chelmsford 115kV transmission line,. ,. ,. ,. ,. ,. ,. ,. ,. ,. ,. ,. 
267240629_18,2727105632,2727105633,267240629,Tewksbury - Meadowbrook - North Chelmsford 115kV transmission line,. ,. ,. ,. ,. ,. ,. ,. ,. ,. ,. ,. 
267240629_19,2727105633,2727105634,267240629,Tewksbury - Meadowbrook - North Chelmsford 115kV transmission line,. ,. ,. ,. ,. ,. ,. ,. ,. ,. ,. ,. 
267240629_20,2727105634,2727105636,267240629,Tewksbury - Meadowbrook - North Chelmsford 115kV transmission line,. ,. ,. ,. ,. ,. ,. ,. ,. ,. ,. ,. 
267240629_21,2727105636,2727105637,267240629,Tewksbury - Meadowbrook - North Chelmsford 115kV transmission line,. ,. ,. ,. ,. ,. ,. ,. ,. ,. ,. ,. 
267240629_22,2727105637,2727105638,267240629,Tewksbury - Meadowbrook - North Chelmsford 115kV transmission line,. ,. ,. ,. ,. ,. ,. ,. ,. ,. ,. ,. 
267240629_23,2727105638,2727105639,267240629,Tewksbury - Meadowbrook - North Chelmsford 115kV transmission line,. ,. ,. ,. ,. ,. ,. ,. ,. ,. ,. ,. 
267240629_24,2727105639,2727105641,267240629,Tewksbury - Meadowbrook - North Chelmsford 115kV transmission line,. ,. ,. ,. ,. ,. ,. ,. ,. ,. ,. ,. 
267240629_25,2727105641,2727105642,267240629,Tewksbury - Meadowbrook - North Chelmsford 115kV transmission line,. ,. ,. ,. ,. ,. ,. ,. ,. ,. ,. ,. 
267240629_26,2727105642,2727105643,267240629,Tewksbury - Meadowbrook - North Chelmsford 115kV transmission line,. ,. ,. ,. ,. ,. ,. ,. ,. ,. ,. ,. 
267240629_27,2727105643,2727105646,267240629,Tewksbury - Meadowbrook - North Chelmsford 115kV transmission line,. ,. ,. ,. ,. ,. ,. ,. ,. ,. ,. ,. 
267240629_28,2727105646,2727105645,267240629,Tewksbury - Meadowbrook - North Chelmsford 115kV transmission line,. ,. ,. ,. ,. ,. ,. ,. ,. ,. ,. ,. 
267240629_29,2727105645,2727105647,267240629,Tewksbury - Meadowbrook - North Chelmsford 115kV transmission line,. ,. ,. ,. ,. ,. ,. ,. ,. ,. ,. ,. 
267240629_30,2727105647,2727105649,267240629,Tewksbury - Meadowbrook - North Chelmsford 115kV transmission line,. ,. ,. ,. ,. ,. ,. ,. ,. ,. ,. ,. 
267240629_31,2727105649,2727105650,267240629,Tewksbury - Meadowbrook - North Chelmsford 115kV transmission line,. ,. ,. ,. ,. ,. ,. ,. ,. ,. ,. ,. 
267240629_32,2727105650,2727105651,267240629,Tewksbury - Meadowbrook - North Chelmsford 115kV transmission line,. ,. ,. ,. ,. ,. ,. ,. ,. ,. ,. ,. 
267240629_33,2727105651,2727105652,267240629,Tewksbury - Meadowbrook - North Chelmsford 115kV transmission line,. ,. ,. ,. ,. ,. ,. ,. ,. ,. ,. ,. 
267240629_34,2727105652,2727105654,267240629,Tewksbury - Meadowbrook - North Chelmsford 115kV transmission line,. ,. ,. ,. ,. ,. ,. ,. ,. ,. ,. ,. 
267240629_35,2727105654,2727105655,267240629,Tewksbury - Meadowbrook - North Chelmsford 115kV transmission line,. ,. ,. ,. ,. ,. ,. ,. ,. ,. ,. ,. 
267240629_36,2727105655,2727105656,267240629,Tewksbury - Meadowbrook - North Chelmsford 115kV transmission line,. ,. ,. ,. ,. ,. ,. ,. ,. ,. ,. ,. 
267240629_37,2727105656,2727105657,267240629,Tewksbury - Meadowbrook - North Chelmsford 115kV transmission line,. ,. ,. ,. ,. ,. ,. ,. ,. ,. ,. ,. 
267240629_38,2727105657,2727105659,267240629,Tewksbury - Meadowbrook - North Chelmsford 115kV transmission line,. ,. ,. ,. ,. ,. ,. ,. ,. ,. ,. ,. 
267240629_39,2727105659,2727105660,267240629,Tewksbury - Meadowbrook - North Chelmsford 115kV transmission line,. ,. ,. ,. ,. ,. ,. ,. ,. ,. ,. ,. 
267240629_40,2727105660,2727105661,267240629,Tewksbury - Meadowbrook - North Chelmsford 115kV transmission line,. ,. ,. ,. ,. ,. ,. ,. ,. ,. ,. ,. 
267240629_41,2727105661,2727105663,267240629,Tewksbury - Meadowbrook - North Chelmsford 115kV transmission line,. ,. ,. ,. ,. ,. ,. ,. ,. ,. ,. ,. 
267240629_42,2727105663,2727105664,267240629,Tewksbury - Meadowbrook - North Chelmsford 115kV transmission line,. ,. ,. ,. ,. ,. ,. ,. ,. ,. ,. ,. 
267240629_43,2727105664,2727105665,267240629,Tewksbury - Meadowbrook - North Chelmsford 115kV transmission line,. ,. ,. ,. ,. ,. ,. ,. ,. ,. ,. ,. 
267240629_44,2727105665,2727105666,267240629,Tewksbury - Meadowbrook - North Chelmsford 115kV transmission line,. ,. ,. ,. ,. ,. ,. ,. ,. ,. ,. ,. 
267240629_45,2727105666,2727105668,267240629,Tewksbury - Meadowbrook - North Chelmsford 115kV transmission line,. ,. ,. ,. ,. ,. ,. ,. ,. ,. ,. ,. 
267240629_46,2727105668,2727105669,267240629,Tewksbury - Meadowbrook - North Chelmsford 115kV transmission line,. ,. ,. ,. ,. ,. ,. ,. ,. ,. ,. ,. 
267240629_47,2727105669,2727105670,267240629,Tewksbury - Meadowbrook - North Chelmsford 115kV transmission line,. ,. ,. ,. ,. ,. ,. ,. ,. ,. ,. ,. 
267240629_48,2727105670,2727105671,267240629,Tewksbury - Meadowbrook - North Chelmsford 115kV transmission line,. ,. ,. ,. ,. ,. ,. ,. ,. ,. ,. ,. 
267240629_49,2727105671,2727105673,267240629,Tewksbury - Meadowbrook - North Chelmsford 115kV transmission line,. ,. ,. ,. ,. ,. ,. ,. ,. ,. ,. ,. 
267240629_50,2727105673,2727105674,267240629,Tewksbury - Meadowbrook - North Chelmsford 115kV transmission line,. ,. ,. ,. ,. ,. ,. ,. ,. ,. ,. ,. 
267240629_51,2727105674,2727105675,267240629,Tewksbury - Meadowbrook - North Chelmsford 115kV transmission line,. ,. ,. ,. ,. ,. ,. ,. ,. ,. ,. ,. 
267240629_52,2727105675,2727105676,267240629,Tewksbury - Meadowbrook - North Chelmsford 115kV transmission line,. ,. ,. ,. ,. ,. ,. ,. ,. ,. ,. ,. 
267240629_53,2727105676,2727105678,267240629,Tewksbury - Meadowbrook - North Chelmsford 115kV transmission line,. ,. ,. ,. ,. ,. ,. ,. ,. ,. ,. ,. 
267240629_54,2727105678,2727105679,267240629,Tewksbury - Meadowbrook - North Chelmsford 115kV transmission line,. ,. ,. ,. ,. ,. ,. ,. ,. ,. ,. ,. 
267240629_55,2727105679,2727105680,267240629,Tewksbury - Meadowbrook - North Chelmsford 115kV transmission line,. ,. ,. ,. ,. ,. ,. ,. ,. ,. ,. ,. 
267240629_56,2727105680,2727105682,267240629,Tewksbury - Meadowbrook - North Chelmsford 115kV transmission line,. ,. ,. ,. ,. ,. ,. ,. ,. ,. ,. ,. 
267240629_57,2727105682,2727105683,267240629,Tewksbury - Meadowbrook - North Chelmsford 115kV transmission line,. ,. ,. ,. ,. ,. ,. ,. ,. ,. ,. ,. 
267240629_58,2727105683,2727105684,267240629,Tewksbury - Meadowbrook - North Chelmsford 115kV transmission line,. ,. ,. ,. ,. ,. ,. ,. ,. ,. ,. ,. 
267240629_59,2727105684,2727105685,267240629,Tewksbury - Meadowbrook - North Chelmsford 115kV transmission line,. ,. ,. ,. ,. ,. ,. ,. ,. ,. ,. ,. 
267240629_60,2727105685,3856527987,267240629,Tewksbury - Meadowbrook - North Chelmsford 115kV transmission line,. ,. ,. ,. ,. ,. ,. ,. ,. ,. ,. ,. 
267240629_61,3856527987,3856530265,267240629,Tewksbury - Meadowbrook - North Chelmsford 115kV transmission line,. ,. ,. ,. ,. ,. ,. ,. ,. ,. ,. ,. 
287802889_1,2913646003,2913646004,287802889,Mcnamara,. ,path,. ,. ,. ,gravel,. ,. ,. ,. ,. ,. 
287802960_1,2913645948,2913645949,287802960,Mcnamara back,. ,path,. ,. ,. ,gravel,. ,. ,. ,. ,. ,. 
288804949_1,64859826,1642739768,288804949,Industrial Avenue,. ,secondary,2,. ,. ,. ,. ,. ,. ,. ,. ,. 
288804949_2,1642739768,1642739770,288804949,Industrial Avenue,. ,secondary,2,. ,. ,. ,. ,. ,. ,. ,. ,. 
288804949_3,1642739770,1642739771,288804949,Industrial Avenue,. ,secondary,2,. ,. ,. ,. ,. ,. ,. ,. ,. 
288804949_4,1642739771,4559092240,288804949,Industrial Avenue,. ,secondary,2,. ,. ,. ,. ,. ,. ,. ,. ,. 
288804949_5,4559092240,2923597046,288804949,Industrial Avenue,. ,secondary,2,. ,. ,. ,. ,. ,. ,. ,. ,. 
288804949_6,2923597046,64815751,288804949,Industrial Avenue,. ,secondary,2,. ,. ,. ,. ,. ,. ,. ,. ,. 
288804949_7,64815751,64894763,288804949,Industrial Avenue,. ,secondary,2,. ,. ,. ,. ,. ,. ,. ,. ,. 
288804949_8,64894763,64822131,288804949,Industrial Avenue,. ,secondary,2,. ,. ,. ,. ,. ,. ,. ,. ,. 
288804949_9,64822131,1642739790,288804949,Industrial Avenue,. ,secondary,2,. ,. ,. ,. ,. ,. ,. ,. ,. 
288804949_10,1642739790,1642739800,288804949,Industrial Avenue,. ,secondary,2,. ,. ,. ,. ,. ,. ,. ,. ,. 
288804949_11,1642739800,64876495,288804949,Industrial Avenue,. ,secondary,2,. ,. ,. ,. ,. ,. ,. ,. ,. 
288804949_12,64876495,1642739805,288804949,Industrial Avenue,. ,secondary,2,. ,. ,. ,. ,. ,. ,. ,. ,. 
288804949_13,1642739805,64918644,288804949,Industrial Avenue,. ,secondary,2,. ,. ,. ,. ,. ,. ,. ,. ,. 
288804949_14,64918644,64859855,288804949,Industrial Avenue,. ,secondary,2,. ,. ,. ,. ,. ,. ,. ,. ,. 
309453831_1,64827977,1472330402,309453831,. ,. ,motorway_link,1,. ,yes,asphalt,. ,. ,. ,. ,. ,. 
309453831_2,1472330402,64901935,309453831,. ,. ,motorway_link,1,. ,yes,asphalt,. ,. ,. ,. ,. ,. 
309453831_3,64901935,64814533,309453831,. ,. ,motorway_link,1,. ,yes,asphalt,. ,. ,. ,. ,. ,. 
309453831_4,64814533,64858494,309453831,. ,. ,motorway_link,1,. ,yes,asphalt,. ,. ,. ,. ,. ,. 
309453831_5,64858494,64915876,309453831,. ,. ,motorway_link,1,. ,yes,asphalt,. ,. ,. ,. ,. ,. 
309453831_6,64915876,64920723,309453831,. ,. ,motorway_link,1,. ,yes,asphalt,. ,. ,. ,. ,. ,. 
540988973_1,64908560,1078466282,540988973,Chelmsford Street,. ,primary,2,. ,. ,. ,. ,. ,. ,. ,. ,. 
540988973_2,1078466282,64903472,540988973,Chelmsford Street,. ,primary,2,. ,. ,. ,. ,. ,. ,. ,. ,. 
540988973_3,64903472,64828871,540988973,Chelmsford Street,. ,primary,2,. ,. ,. ,. ,. ,. ,. ,. ,. 
540988973_4,64828871,64902211,540988973,Chelmsford Street,. ,primary,2,. ,. ,. ,. ,. ,. ,. ,. ,. 
540988973_5,64902211,64923128,540988973,Chelmsford Street,. ,primary,2,. ,. ,. ,. ,. ,. ,. ,. ,. 
540988973_6,64923128,64859855,540988973,Chelmsford Street,. ,primary,2,. ,. ,. ,. ,. ,. ,. ,. ,. 
541854998_1,64874686,64813565,541854998,Plain Street,. ,secondary,2,. ,. ,. ,. ,. ,. ,. ,. ,. 
541854998_2,64813565,64892863,541854998,Plain Street,. ,secondary,2,. ,. ,. ,. ,. ,. ,. ,. ,. 
541854998_3,64892863,64899441,541854998,Plain Street,. ,secondary,2,. ,. ,. ,. ,. ,. ,. ,. ,. 
544739858_1,64899441,64920723,544739858,Plain Street,. ,secondary,2,. ,. ,. ,. ,. ,. ,. ,. ,. 
587267324_1,5609644973,64912128,587267324,Victoria Street,. ,residential,2,. ,. ,. ,. ,. ,. ,. ,. ,. 
587267324_2,64912128,64811463,587267324,Victoria Street,. ,residential,2,. ,. ,. ,. ,. ,. ,. ,. ,. 
587267324_3,64811463,5609644974,587267324,Victoria Street,. ,residential,2,. ,. ,. ,. ,. ,. ,. ,. ,. 
587267324_4,5609644974,64829868,587267324,Victoria Street,. ,residential,2,. ,. ,. ,. ,. ,. ,. ,. ,. 
587267324_5,64829868,5609644975,587267324,Victoria Street,. ,residential,2,. ,. ,. ,. ,. ,. ,. ,. ,. 
587267324_6,5609644975,64882830,587267324,Victoria Street,. ,residential,2,. ,. ,. ,. ,. ,. ,. ,. ,. 
587267325_1,64828080,64850797,587267325,Albert Street,. ,residential,2,. ,. ,. ,. ,. ,. ,. ,. ,. 
587267325_2,64850797,5609644978,587267325,Albert Street,. ,residential,2,. ,. ,. ,. ,. ,. ,. ,. ,. 
587267325_3,5609644978,5609644980,587267325,Albert Street,. ,residential,2,. ,. ,. ,. ,. ,. ,. ,. ,. 
587267325_4,5609644980,5609644977,587267325,Albert Street,. ,residential,2,. ,. ,. ,. ,. ,. ,. ,. ,. 
587267325_5,5609644977,5609644981,587267325,Albert Street,. ,residential,2,. ,. ,. ,. ,. ,. ,. ,. ,. 
587267325_6,5609644981,5609644979,587267325,Albert Street,. ,residential,2,. ,. ,. ,. ,. ,. ,. ,. ,. 
587267325_7,5609644979,5609644976,587267325,Albert Street,. ,residential,2,. ,. ,. ,. ,. ,. ,. ,. ,. 
587267325_8,5609644976,64852019,587267325,Albert Street,. ,residential,2,. ,. ,. ,. ,. ,. ,. ,. ,. 
587270092_1,64811064,64894538,587270092,Viola Street,. ,residential,2,. ,. ,. ,. ,. ,. ,. ,. ,. 
606704730_1,64869662,64847426,606704730,Westchester Street,. ,service,. ,. ,. ,. ,. ,. ,. ,. ,. ,. 
606704730_2,64847426,64851070,606704730,Westchester Street,. ,service,. ,. ,. ,. ,. ,. ,. ,. ,. ,. 
663191617_1,6207974508,64833006,663191617,Newell Street,. ,residential,. ,. ,. ,. ,. ,. ,. ,. ,. ,. 
666382859_1,64913952,6238896822,666382859,Plain Street,. ,secondary,2,. ,. ,. ,. ,. ,. ,. ,. ,. 
666382865_1,6238896822,64897410,666382865,Plain Street,. ,secondary,2,. ,. ,. ,. ,. ,. ,. ,. ,. 
666382865_2,64897410,1472330400,666382865,Plain Street,. ,secondary,2,. ,. ,. ,. ,. ,. ,. ,. ,. 
671735087_1,6290218169,6290218168,671735087,Dulgarian Terrace,. ,residential,. ,. ,. ,paved,. ,. ,. ,. ,. ,. 
