Segment Id,Start Node,End Node,Perant Road ID,Road Name,State,Road Type,Lanes,TurnLanes,OneWay,Surface,Lit,SideWalk,Left Side parking,Right Side parking,Both Side parking,Direction
11616171_1,103682811,6339539092,11616171,Somme Street,"Essex,NJ",residential,. ,. ,. ,. ,. ,. ,. ,. ,. ,. 
11616171_2,6339539092,6895030153,11616171,Somme Street,"Essex,NJ",residential,. ,. ,. ,. ,. ,. ,. ,. ,. ,. 
11616171_3,6895030153,6895030151,11616171,Somme Street,"Essex,NJ",residential,. ,. ,. ,. ,. ,. ,. ,. ,. ,. 
11616171_4,6895030151,6895030150,11616171,Somme Street,"Essex,NJ",residential,. ,. ,. ,. ,. ,. ,. ,. ,. ,. 
11616171_5,6895030150,103682814,11616171,Somme Street,"Essex,NJ",residential,. ,. ,. ,. ,. ,. ,. ,. ,. ,. 
11616492_1,103656794,103687363,11616492,Christie Street,"Essex,NJ",residential,. ,. ,. ,. ,. ,. ,. ,. ,. ,. 
11616492_2,103687363,103687365,11616492,Christie Street,"Essex,NJ",residential,. ,. ,. ,. ,. ,. ,. ,. ,. ,. 
11616492_3,103687365,1051398710,11616492,Christie Street,"Essex,NJ",residential,. ,. ,. ,. ,. ,. ,. ,. ,. ,. 
11616492_4,1051398710,1051398711,11616492,Christie Street,"Essex,NJ",residential,. ,. ,. ,. ,. ,. ,. ,. ,. ,. 
11616492_5,1051398711,103687366,11616492,Christie Street,"Essex,NJ",residential,. ,. ,. ,. ,. ,. ,. ,. ,. ,. 
11616492_6,103687366,103687369,11616492,Christie Street,"Essex,NJ",residential,. ,. ,. ,. ,. ,. ,. ,. ,. ,. 
11616709_1,103690831,103690829,11616709,Horatio Street,"Essex,NJ",residential,. ,. ,yes,. ,. ,. ,. ,. ,. ,. 
11616709_2,103690829,103690828,11616709,Horatio Street,"Essex,NJ",residential,. ,. ,yes,. ,. ,. ,. ,. ,. ,. 
11616709_3,103690828,103690826,11616709,Horatio Street,"Essex,NJ",residential,. ,. ,yes,. ,. ,. ,. ,. ,. ,. 
11616709_4,103690826,103690824,11616709,Horatio Street,"Essex,NJ",residential,. ,. ,yes,. ,. ,. ,. ,. ,. ,. 
11616709_5,103690824,103690822,11616709,Horatio Street,"Essex,NJ",residential,. ,. ,yes,. ,. ,. ,. ,. ,. ,. 
11616709_6,103690822,103690821,11616709,Horatio Street,"Essex,NJ",residential,. ,. ,yes,. ,. ,. ,. ,. ,. ,. 
11616806_1,103692149,103692151,11616806,New York Avenue,"Essex,NJ",residential,2,. ,. ,. ,. ,. ,. ,. ,. ,. 
11616806_2,103692151,103692153,11616806,New York Avenue,"Essex,NJ",residential,2,. ,. ,. ,. ,. ,. ,. ,. ,. 
11616806_3,103692153,103692155,11616806,New York Avenue,"Essex,NJ",residential,2,. ,. ,. ,. ,. ,. ,. ,. ,. 
11616806_4,103692155,103692158,11616806,New York Avenue,"Essex,NJ",residential,2,. ,. ,. ,. ,. ,. ,. ,. ,. 
11616806_5,103692158,103692160,11616806,New York Avenue,"Essex,NJ",residential,2,. ,. ,. ,. ,. ,. ,. ,. ,. 
11616806_6,103692160,103692162,11616806,New York Avenue,"Essex,NJ",residential,2,. ,. ,. ,. ,. ,. ,. ,. ,. 
11616806_7,103692162,103692164,11616806,New York Avenue,"Essex,NJ",residential,2,. ,. ,. ,. ,. ,. ,. ,. ,. 
11616806_8,103692164,103692166,11616806,New York Avenue,"Essex,NJ",residential,2,. ,. ,. ,. ,. ,. ,. ,. ,. 
11616806_9,103692166,103692168,11616806,New York Avenue,"Essex,NJ",residential,2,. ,. ,. ,. ,. ,. ,. ,. ,. 
11617146_1,103695859,103695858,11617146,Providence Street,"Essex,NJ",residential,. ,. ,yes,. ,. ,. ,. ,. ,. ,. 
11617272_1,103697495,103697497,11617272,Wall Street,"Essex,NJ",residential,. ,. ,. ,. ,. ,. ,. ,. ,. ,. 
11617272_2,103697497,103697499,11617272,Wall Street,"Essex,NJ",residential,. ,. ,. ,. ,. ,. ,. ,. ,. ,. 
11617272_3,103697499,103697500,11617272,Wall Street,"Essex,NJ",residential,. ,. ,. ,. ,. ,. ,. ,. ,. ,. 
11617272_4,103697500,103697501,11617272,Wall Street,"Essex,NJ",residential,. ,. ,. ,. ,. ,. ,. ,. ,. ,. 
11617740_1,103703907,4337881206,11617740,Merchant Place,"Essex,NJ",residential,. ,. ,. ,. ,. ,. ,. ,. ,. ,. 
11617740_2,4337881206,103703909,11617740,Merchant Place,"Essex,NJ",residential,. ,. ,. ,. ,. ,. ,. ,. ,. ,. 
11617777_1,103704292,103704294,11617777,Paterson Street,"Essex,NJ",residential,. ,. ,yes,. ,. ,. ,. ,. ,. ,. 
11617777_2,103704294,103697499,11617777,Paterson Street,"Essex,NJ",residential,. ,. ,yes,. ,. ,. ,. ,. ,. ,. 
11617777_3,103697499,103704295,11617777,Paterson Street,"Essex,NJ",residential,. ,. ,yes,. ,. ,. ,. ,. ,. ,. 
11617786_1,103704347,103690822,11617786,Cortland Street,"Essex,NJ",residential,. ,. ,. ,. ,. ,. ,. ,. ,. ,. 
11618070_1,103702458,103692160,11618070,Houston Street,"Essex,NJ",residential,. ,. ,yes,. ,. ,. ,. ,. ,. ,. 
11618070_2,103692160,103707732,11618070,Houston Street,"Essex,NJ",residential,. ,. ,yes,. ,. ,. ,. ,. ,. ,. 
11618389_1,103712073,4926248189,11618389,Foundry Street,"Essex,NJ",residential,. ,. ,. ,. ,. ,. ,. ,. ,. ,. 
11618389_2,4926248189,4926248778,11618389,Foundry Street,"Essex,NJ",residential,. ,. ,. ,. ,. ,. ,. ,. ,. ,. 
11618389_3,4926248778,103712076,11618389,Foundry Street,"Essex,NJ",residential,. ,. ,. ,. ,. ,. ,. ,. ,. ,. 
11618389_4,103712076,4926248774,11618389,Foundry Street,"Essex,NJ",residential,. ,. ,. ,. ,. ,. ,. ,. ,. ,. 
11618389_5,4926248774,4926248698,11618389,Foundry Street,"Essex,NJ",residential,. ,. ,. ,. ,. ,. ,. ,. ,. ,. 
11618389_6,4926248698,1038185193,11618389,Foundry Street,"Essex,NJ",residential,. ,. ,. ,. ,. ,. ,. ,. ,. ,. 
11618389_7,1038185193,1038185196,11618389,Foundry Street,"Essex,NJ",residential,. ,. ,. ,. ,. ,. ,. ,. ,. ,. 
11618389_8,1038185196,103712080,11618389,Foundry Street,"Essex,NJ",residential,. ,. ,. ,. ,. ,. ,. ,. ,. ,. 
11618389_9,103712080,1038185199,11618389,Foundry Street,"Essex,NJ",residential,. ,. ,. ,. ,. ,. ,. ,. ,. ,. 
11618389_10,1038185199,1038185201,11618389,Foundry Street,"Essex,NJ",residential,. ,. ,. ,. ,. ,. ,. ,. ,. ,. 
11618389_11,1038185201,1038185204,11618389,Foundry Street,"Essex,NJ",residential,. ,. ,. ,. ,. ,. ,. ,. ,. ,. 
11618389_12,1038185204,1038185207,11618389,Foundry Street,"Essex,NJ",residential,. ,. ,. ,. ,. ,. ,. ,. ,. ,. 
11618389_13,1038185207,103660116,11618389,Foundry Street,"Essex,NJ",residential,. ,. ,. ,. ,. ,. ,. ,. ,. ,. 
11618389_14,103660116,103712092,11618389,Foundry Street,"Essex,NJ",residential,. ,. ,. ,. ,. ,. ,. ,. ,. ,. 
11618389_15,103712092,7148027543,11618389,Foundry Street,"Essex,NJ",residential,. ,. ,. ,. ,. ,. ,. ,. ,. ,. 
11618389_16,7148027543,103712094,11618389,Foundry Street,"Essex,NJ",residential,. ,. ,. ,. ,. ,. ,. ,. ,. ,. 
11618389_17,103712094,983170815,11618389,Foundry Street,"Essex,NJ",residential,. ,. ,. ,. ,. ,. ,. ,. ,. ,. 
11618389_18,983170815,983170823,11618389,Foundry Street,"Essex,NJ",residential,. ,. ,. ,. ,. ,. ,. ,. ,. ,. 
11618389_19,983170823,103712096,11618389,Foundry Street,"Essex,NJ",residential,. ,. ,. ,. ,. ,. ,. ,. ,. ,. 
11618389_20,103712096,7148027545,11618389,Foundry Street,"Essex,NJ",residential,. ,. ,. ,. ,. ,. ,. ,. ,. ,. 
11618389_21,7148027545,103712098,11618389,Foundry Street,"Essex,NJ",residential,. ,. ,. ,. ,. ,. ,. ,. ,. ,. 
11618389_22,103712098,103712107,11618389,Foundry Street,"Essex,NJ",residential,. ,. ,. ,. ,. ,. ,. ,. ,. ,. 
11618447_1,103712555,103712557,11618447,Wilson Avenue,"Essex,NJ",secondary,. ,. ,. ,. ,. ,. ,. ,. ,. ,. 
11618447_2,103712557,103712559,11618447,Wilson Avenue,"Essex,NJ",secondary,. ,. ,. ,. ,. ,. ,. ,. ,. ,. 
11618447_3,103712559,103712561,11618447,Wilson Avenue,"Essex,NJ",secondary,. ,. ,. ,. ,. ,. ,. ,. ,. ,. 
11618447_4,103712561,103712563,11618447,Wilson Avenue,"Essex,NJ",secondary,. ,. ,. ,. ,. ,. ,. ,. ,. ,. 
11618447_5,103712563,103712565,11618447,Wilson Avenue,"Essex,NJ",secondary,. ,. ,. ,. ,. ,. ,. ,. ,. ,. 
11618447_6,103712565,103712567,11618447,Wilson Avenue,"Essex,NJ",secondary,. ,. ,. ,. ,. ,. ,. ,. ,. ,. 
11618447_7,103712567,2902437011,11618447,Wilson Avenue,"Essex,NJ",secondary,. ,. ,. ,. ,. ,. ,. ,. ,. ,. 
11618447_8,2902437011,103712572,11618447,Wilson Avenue,"Essex,NJ",secondary,. ,. ,. ,. ,. ,. ,. ,. ,. ,. 
11618447_9,103712572,658553447,11618447,Wilson Avenue,"Essex,NJ",secondary,. ,. ,. ,. ,. ,. ,. ,. ,. ,. 
11618447_10,658553447,103712573,11618447,Wilson Avenue,"Essex,NJ",secondary,. ,. ,. ,. ,. ,. ,. ,. ,. ,. 
11618447_11,103712573,103712577,11618447,Wilson Avenue,"Essex,NJ",secondary,. ,. ,. ,. ,. ,. ,. ,. ,. ,. 
11618447_12,103712577,295515452,11618447,Wilson Avenue,"Essex,NJ",secondary,. ,. ,. ,. ,. ,. ,. ,. ,. ,. 
11618447_13,295515452,6902858494,11618447,Wilson Avenue,"Essex,NJ",secondary,. ,. ,. ,. ,. ,. ,. ,. ,. ,. 
11618447_14,6902858494,103691023,11618447,Wilson Avenue,"Essex,NJ",secondary,. ,. ,. ,. ,. ,. ,. ,. ,. ,. 
11618447_15,103691023,6676476837,11618447,Wilson Avenue,"Essex,NJ",secondary,. ,. ,. ,. ,. ,. ,. ,. ,. ,. 
11618447_16,6676476837,103712583,11618447,Wilson Avenue,"Essex,NJ",secondary,. ,. ,. ,. ,. ,. ,. ,. ,. ,. 
11618447_17,103712583,103712585,11618447,Wilson Avenue,"Essex,NJ",secondary,. ,. ,. ,. ,. ,. ,. ,. ,. ,. 
11618447_18,103712585,103712587,11618447,Wilson Avenue,"Essex,NJ",secondary,. ,. ,. ,. ,. ,. ,. ,. ,. ,. 
11618447_19,103712587,103712589,11618447,Wilson Avenue,"Essex,NJ",secondary,. ,. ,. ,. ,. ,. ,. ,. ,. ,. 
11618447_20,103712589,103712591,11618447,Wilson Avenue,"Essex,NJ",secondary,. ,. ,. ,. ,. ,. ,. ,. ,. ,. 
11618447_21,103712591,3888203352,11618447,Wilson Avenue,"Essex,NJ",secondary,. ,. ,. ,. ,. ,. ,. ,. ,. ,. 
11618482_1,1051397710,5498278063,11618482,Horatio Court,"Essex,NJ",residential,. ,. ,. ,. ,. ,. ,. ,. ,. ,. 
11618482_2,5498278063,5498278066,11618482,Horatio Court,"Essex,NJ",residential,. ,. ,. ,. ,. ,. ,. ,. ,. ,. 
11618483_1,5498278069,5498278067,11618483,Horatio Court,"Essex,NJ",pedestrian,. ,. ,. ,. ,. ,. ,. ,. ,. ,. 
11618653_1,103712549,103716449,11618653,Darcy Street,"Essex,NJ",residential,. ,. ,yes,. ,. ,. ,. ,. ,. ,. 
11618653_2,103716449,103697501,11618653,Darcy Street,"Essex,NJ",residential,. ,. ,yes,. ,. ,. ,. ,. ,. ,. 
11618653_3,103697501,103716452,11618653,Darcy Street,"Essex,NJ",residential,. ,. ,yes,. ,. ,. ,. ,. ,. ,. 
11618653_4,103716452,103682814,11618653,Darcy Street,"Essex,NJ",residential,. ,. ,yes,. ,. ,. ,. ,. ,. ,. 
11618653_5,103682814,103682819,11618653,Darcy Street,"Essex,NJ",residential,. ,. ,yes,. ,. ,. ,. ,. ,. ,. 
11618653_6,103682819,103716455,11618653,Darcy Street,"Essex,NJ",residential,. ,. ,yes,. ,. ,. ,. ,. ,. ,. 
11618698_1,103702443,103717324,11618698,Lang Street,"Essex,NJ",residential,. ,. ,. ,. ,. ,. ,. ,. ,. ,. 
11618698_2,103717324,103692153,11618698,Lang Street,"Essex,NJ",residential,. ,. ,. ,. ,. ,. ,. ,. ,. ,. 
11618698_3,103692153,103706513,11618698,Lang Street,"Essex,NJ",residential,. ,. ,. ,. ,. ,. ,. ,. ,. ,. 
11618739_1,103718524,103718527,11618739,Brill Street,"Essex,NJ",residential,. ,. ,. ,. ,. ,. ,. ,. ,. ,. 
11618739_2,103718527,103718529,11618739,Brill Street,"Essex,NJ",residential,. ,. ,. ,. ,. ,. ,. ,. ,. ,. 
11618739_3,103718529,103718539,11618739,Brill Street,"Essex,NJ",residential,. ,. ,. ,. ,. ,. ,. ,. ,. ,. 
11618740_1,103718539,103718542,11618740,Brill Street,"Essex,NJ",residential,. ,. ,. ,. ,. ,. ,. ,. ,. ,. 
11618740_2,103718542,103687366,11618740,Brill Street,"Essex,NJ",residential,. ,. ,. ,. ,. ,. ,. ,. ,. ,. 
11618821_1,103712551,103692158,11618821,Napoleon Street,"Essex,NJ",residential,. ,. ,yes,. ,. ,. ,. ,. ,. ,. 
11618821_2,103692158,103702454,11618821,Napoleon Street,"Essex,NJ",residential,. ,. ,yes,. ,. ,. ,. ,. ,. ,. 
11618858_1,103708575,103718542,11618858,Brinsmaid Place,"Essex,NJ",residential,. ,. ,yes,. ,. ,. ,. ,. ,. ,. 
11618925_1,103722064,103690831,11618925,Manufacturers Place,"Essex,NJ",residential,. ,. ,. ,. ,. ,. ,. ,. ,. ,. 
11618925_2,103690831,4366608532,11618925,Manufacturers Place,"Essex,NJ",residential,. ,. ,. ,. ,. ,. ,. ,. ,. ,. 
11619371_1,103728497,3569385594,11619371,Freeman Street,"Essex,NJ",residential,. ,. ,. ,. ,. ,. ,. ,. ,. ,. 
11619371_2,3569385594,3569385593,11619371,Freeman Street,"Essex,NJ",residential,. ,. ,. ,. ,. ,. ,. ,. ,. ,. 
11619371_3,3569385593,103728499,11619371,Freeman Street,"Essex,NJ",residential,. ,. ,. ,. ,. ,. ,. ,. ,. ,. 
11619371_4,103728499,103728501,11619371,Freeman Street,"Essex,NJ",residential,. ,. ,. ,. ,. ,. ,. ,. ,. ,. 
11619496_1,103708240,6866739029,11619496,Lafayette Street,. ,tertiary,2,. ,no,asphalt,. ,. ,. ,. ,. ,. 
11619496_2,6866739029,103729976,11619496,Lafayette Street,. ,tertiary,2,. ,no,asphalt,. ,. ,. ,. ,. ,. 
11619496_3,103729976,2649253198,11619496,Lafayette Street,. ,tertiary,2,. ,no,asphalt,. ,. ,. ,. ,. ,. 
11619496_4,2649253198,2649253199,11619496,Lafayette Street,. ,tertiary,2,. ,no,asphalt,. ,. ,. ,. ,. ,. 
11619496_5,2649253199,103729978,11619496,Lafayette Street,. ,tertiary,2,. ,no,asphalt,. ,. ,. ,. ,. ,. 
11619496_6,103729978,2649253196,11619496,Lafayette Street,. ,tertiary,2,. ,no,asphalt,. ,. ,. ,. ,. ,. 
11619496_7,2649253196,103718629,11619496,Lafayette Street,. ,tertiary,2,. ,no,asphalt,. ,. ,. ,. ,. ,. 
11619496_8,103718629,2649253195,11619496,Lafayette Street,. ,tertiary,2,. ,no,asphalt,. ,. ,. ,. ,. ,. 
11619496_9,2649253195,103729979,11619496,Lafayette Street,. ,tertiary,2,. ,no,asphalt,. ,. ,. ,. ,. ,. 
11619496_10,103729979,103691657,11619496,Lafayette Street,. ,tertiary,2,. ,no,asphalt,. ,. ,. ,. ,. ,. 
11619496_11,103691657,103729981,11619496,Lafayette Street,. ,tertiary,2,. ,no,asphalt,. ,. ,. ,. ,. ,. 
11619496_12,103729981,103729983,11619496,Lafayette Street,. ,tertiary,2,. ,no,asphalt,. ,. ,. ,. ,. ,. 
11619496_13,103729983,103729985,11619496,Lafayette Street,. ,tertiary,2,. ,no,asphalt,. ,. ,. ,. ,. ,. 
11619496_14,103729985,103729987,11619496,Lafayette Street,. ,tertiary,2,. ,no,asphalt,. ,. ,. ,. ,. ,. 
11619496_15,103729987,103729989,11619496,Lafayette Street,. ,tertiary,2,. ,no,asphalt,. ,. ,. ,. ,. ,. 
11619496_16,103729989,103716608,11619496,Lafayette Street,. ,tertiary,2,. ,no,asphalt,. ,. ,. ,. ,. ,. 
11619496_17,103716608,103696794,11619496,Lafayette Street,. ,tertiary,2,. ,no,asphalt,. ,. ,. ,. ,. ,. 
11619496_18,103696794,103729993,11619496,Lafayette Street,. ,tertiary,2,. ,no,asphalt,. ,. ,. ,. ,. ,. 
11619496_19,103729993,103729994,11619496,Lafayette Street,. ,tertiary,2,. ,no,asphalt,. ,. ,. ,. ,. ,. 
11619496_20,103729994,103695156,11619496,Lafayette Street,. ,tertiary,2,. ,no,asphalt,. ,. ,. ,. ,. ,. 
11619496_21,103695156,103729997,11619496,Lafayette Street,. ,tertiary,2,. ,no,asphalt,. ,. ,. ,. ,. ,. 
11619496_22,103729997,103700484,11619496,Lafayette Street,. ,tertiary,2,. ,no,asphalt,. ,. ,. ,. ,. ,. 
11619496_23,103700484,103730005,11619496,Lafayette Street,. ,tertiary,2,. ,no,asphalt,. ,. ,. ,. ,. ,. 
11619496_24,103730005,103684574,11619496,Lafayette Street,. ,tertiary,2,. ,no,asphalt,. ,. ,. ,. ,. ,. 
11619496_25,103684574,103730007,11619496,Lafayette Street,. ,tertiary,2,. ,no,asphalt,. ,. ,. ,. ,. ,. 
11619496_26,103730007,103730009,11619496,Lafayette Street,. ,tertiary,2,. ,no,asphalt,. ,. ,. ,. ,. ,. 
11619496_27,103730009,103730013,11619496,Lafayette Street,. ,tertiary,2,. ,no,asphalt,. ,. ,. ,. ,. ,. 
11619496_28,103730013,103730015,11619496,Lafayette Street,. ,tertiary,2,. ,no,asphalt,. ,. ,. ,. ,. ,. 
11619496_29,103730015,103730017,11619496,Lafayette Street,. ,tertiary,2,. ,no,asphalt,. ,. ,. ,. ,. ,. 
11619496_30,103730017,103712543,11619496,Lafayette Street,. ,tertiary,2,. ,no,asphalt,. ,. ,. ,. ,. ,. 
11619710_1,103732252,103732254,11619710,Somme Street,"Essex,NJ",residential,. ,. ,yes,. ,. ,. ,. ,. ,. ,. 
11619710_2,103732254,103686156,11619710,Somme Street,"Essex,NJ",residential,. ,. ,yes,. ,. ,. ,. ,. ,. ,. 
11619710_3,103686156,103653256,11619710,Somme Street,"Essex,NJ",residential,. ,. ,yes,. ,. ,. ,. ,. ,. ,. 
11619710_4,103653256,103732258,11619710,Somme Street,"Essex,NJ",residential,. ,. ,yes,. ,. ,. ,. ,. ,. ,. 
11619710_5,103732258,103682811,11619710,Somme Street,"Essex,NJ",residential,. ,. ,yes,. ,. ,. ,. ,. ,. ,. 
11619966_1,103713150,5498278065,11619966,Hawkins Court,"Essex,NJ",residential,. ,. ,. ,. ,. ,. ,. ,. ,. ,. 
11619966_2,5498278065,5498278064,11619966,Hawkins Court,"Essex,NJ",residential,. ,. ,. ,. ,. ,. ,. ,. ,. ,. 
11619966_3,5498278064,103735535,11619966,Hawkins Court,"Essex,NJ",residential,. ,. ,. ,. ,. ,. ,. ,. ,. ,. 
11620125_1,103737238,103737239,11620125,Richards Street,"Essex,NJ",residential,. ,. ,yes,. ,. ,. ,. ,. ,. ,. 
11620125_2,103737239,103737241,11620125,Richards Street,"Essex,NJ",residential,. ,. ,yes,. ,. ,. ,. ,. ,. ,. 
11620369_1,103690829,103735541,11620369,Vincent Street,"Essex,NJ",residential,. ,. ,. ,. ,. ,. ,. ,. ,. ,. 
11620369_2,103735541,1051395792,11620369,Vincent Street,"Essex,NJ",residential,. ,. ,. ,. ,. ,. ,. ,. ,. ,. 
11620534_1,103741668,103741670,11620534,Oxford Street,"Essex,NJ",residential,. ,. ,yes,. ,. ,. ,. ,. ,. ,. 
11620775_1,103745346,6895030158,11620775,Magazine Street,"Essex,NJ",residential,. ,. ,. ,. ,. ,. ,. ,. ,. ,. 
11620775_2,6895030158,103745348,11620775,Magazine Street,"Essex,NJ",residential,. ,. ,. ,. ,. ,. ,. ,. ,. ,. 
11620775_3,103745348,103716455,11620775,Magazine Street,"Essex,NJ",residential,. ,. ,. ,. ,. ,. ,. ,. ,. ,. 
11620775_4,103716455,103745350,11620775,Magazine Street,"Essex,NJ",residential,. ,. ,. ,. ,. ,. ,. ,. ,. ,. 
11620775_5,103745350,103745352,11620775,Magazine Street,"Essex,NJ",residential,. ,. ,. ,. ,. ,. ,. ,. ,. ,. 
11620775_6,103745352,103745354,11620775,Magazine Street,"Essex,NJ",residential,. ,. ,. ,. ,. ,. ,. ,. ,. ,. 
11620775_7,103745354,103664740,11620775,Magazine Street,"Essex,NJ",residential,. ,. ,. ,. ,. ,. ,. ,. ,. ,. 
11620775_8,103664740,103664743,11620775,Magazine Street,"Essex,NJ",residential,. ,. ,. ,. ,. ,. ,. ,. ,. ,. 
11620775_9,103664743,103745333,11620775,Magazine Street,"Essex,NJ",residential,. ,. ,. ,. ,. ,. ,. ,. ,. ,. 
11620775_10,103745333,6862408060,11620775,Magazine Street,"Essex,NJ",residential,. ,. ,. ,. ,. ,. ,. ,. ,. ,. 
11620775_11,6862408060,103691029,11620775,Magazine Street,"Essex,NJ",residential,. ,. ,. ,. ,. ,. ,. ,. ,. ,. 
11620775_12,103691029,103745335,11620775,Magazine Street,"Essex,NJ",residential,. ,. ,. ,. ,. ,. ,. ,. ,. ,. 
11621015_1,103712557,103692162,11621015,Garrison Street,"Essex,NJ",residential,. ,. ,yes,. ,. ,. ,. ,. ,. ,. 
11621374_1,103686161,103695859,11621374,Fleming Avenue,"Essex,NJ",residential,. ,. ,yes,. ,. ,. ,. ,. ,. ,. 
11621495_1,103750139,103753899,11621495,Fillmore Street,"Essex,NJ",residential,. ,. ,yes,. ,. ,. ,. ,. ,. ,. 
11621495_2,103753899,3639396130,11621495,Fillmore Street,"Essex,NJ",residential,. ,. ,yes,. ,. ,. ,. ,. ,. ,. 
11621495_3,3639396130,103653259,11621495,Fillmore Street,"Essex,NJ",residential,. ,. ,yes,. ,. ,. ,. ,. ,. ,. 
11621495_4,103653259,103686157,11621495,Fillmore Street,"Essex,NJ",residential,. ,. ,yes,. ,. ,. ,. ,. ,. ,. 
11621496_1,103686158,103753909,11621496,Fillmore Street,"Essex,NJ",residential,. ,. ,yes,. ,. ,. ,. ,. ,. ,. 
11621732_1,103756053,103756052,11621732,Niagara Street,"Essex,NJ",residential,. ,. ,yes,. ,. ,. ,. ,. ,. ,. 
11621732_2,103756052,103756050,11621732,Niagara Street,"Essex,NJ",residential,. ,. ,yes,. ,. ,. ,. ,. ,. ,. 
11621732_3,103756050,103756048,11621732,Niagara Street,"Essex,NJ",residential,. ,. ,yes,. ,. ,. ,. ,. ,. ,. 
11621732_4,103756048,103756046,11621732,Niagara Street,"Essex,NJ",residential,. ,. ,yes,. ,. ,. ,. ,. ,. ,. 
11621732_5,103756046,103716452,11621732,Niagara Street,"Essex,NJ",residential,. ,. ,yes,. ,. ,. ,. ,. ,. ,. 
11621741_1,103664315,103756158,11621741,Main Street,"Essex,NJ",residential,. ,. ,yes,. ,. ,. ,. ,. ,. ,. 
11621741_2,103756158,103756156,11621741,Main Street,"Essex,NJ",residential,. ,. ,yes,. ,. ,. ,. ,. ,. ,. 
11621741_3,103756156,477531408,11621741,Main Street,"Essex,NJ",residential,. ,. ,yes,. ,. ,. ,. ,. ,. ,. 
11621741_4,477531408,103750141,11621741,Main Street,"Essex,NJ",residential,. ,. ,yes,. ,. ,. ,. ,. ,. ,. 
11621934_1,103712555,103756048,11621934,Komorn Street,"Essex,NJ",residential,. ,. ,yes,. ,. ,. ,. ,. ,. ,. 
11621934_2,103756048,103745352,11621934,Komorn Street,"Essex,NJ",residential,. ,. ,yes,. ,. ,. ,. ,. ,. ,. 
11621934_3,103745352,103756158,11621934,Komorn Street,"Essex,NJ",residential,. ,. ,yes,. ,. ,. ,. ,. ,. ,. 
11621934_4,103756158,103758351,11621934,Komorn Street,"Essex,NJ",residential,. ,. ,yes,. ,. ,. ,. ,. ,. ,. 
11621934_5,103758351,103758353,11621934,Komorn Street,"Essex,NJ",residential,. ,. ,yes,. ,. ,. ,. ,. ,. ,. 
11621993_1,103750125,103758954,11621993,Merchant Street,"Essex,NJ",residential,. ,. ,yes,. ,. ,. ,. ,. ,. ,. 
11622211_1,103717327,103761268,11622211,Elm Street,"Essex,NJ",residential,1,. ,yes,. ,. ,. ,. ,. ,. ,. 
11622211_2,103761268,103761267,11622211,Elm Street,"Essex,NJ",residential,1,. ,yes,. ,. ,. ,. ,. ,. ,. 
11622211_3,103761267,103741182,11622211,Elm Street,"Essex,NJ",residential,1,. ,yes,. ,. ,. ,. ,. ,. ,. 
11622211_4,103741182,103761266,11622211,Elm Street,"Essex,NJ",residential,1,. ,yes,. ,. ,. ,. ,. ,. ,. 
11622211_5,103761266,103751013,11622211,Elm Street,"Essex,NJ",residential,1,. ,yes,. ,. ,. ,. ,. ,. ,. 
11622211_6,103751013,103695192,11622211,Elm Street,"Essex,NJ",residential,1,. ,yes,. ,. ,. ,. ,. ,. ,. 
11622211_7,103695192,103739496,11622211,Elm Street,"Essex,NJ",residential,1,. ,yes,. ,. ,. ,. ,. ,. ,. 
11622211_8,103739496,103761265,11622211,Elm Street,"Essex,NJ",residential,1,. ,yes,. ,. ,. ,. ,. ,. ,. 
11622211_9,103761265,103752438,11622211,Elm Street,"Essex,NJ",residential,1,. ,yes,. ,. ,. ,. ,. ,. ,. 
11622532_1,103764949,103682522,11622532,Chapel Street,"Essex,NJ",residential,. ,. ,. ,. ,. ,. ,. ,. ,. ,. 
11622563_1,103750157,103690824,11622563,Cortland Place,"Essex,NJ",residential,. ,. ,. ,. ,. ,. ,. ,. ,. ,. 
11622587_1,103695858,103686159,11622587,Read Street,"Essex,NJ",residential,. ,. ,yes,. ,. ,. ,. ,. ,. ,. 
11622588_1,103745350,103756046,11622588,Marne Street,"Essex,NJ",residential,. ,. ,yes,. ,. ,. ,. ,. ,. ,. 
11622588_2,103756046,103712553,11622588,Marne Street,"Essex,NJ",residential,. ,. ,yes,. ,. ,. ,. ,. ,. ,. 
11622643_1,103750156,103752404,11622643,Schalk Street,"Essex,NJ",residential,. ,. ,yes,. ,. ,. ,. ,. ,. ,. 
11622875_1,103767932,103767935,11622875,Lexington Street,"Essex,NJ",residential,. ,. ,. ,. ,. ,. ,. ,. ,. ,. 
11622875_2,103767935,103752400,11622875,Lexington Street,"Essex,NJ",residential,. ,. ,. ,. ,. ,. ,. ,. ,. ,. 
11622875_3,103752400,5568167650,11622875,Lexington Street,"Essex,NJ",residential,. ,. ,. ,. ,. ,. ,. ,. ,. ,. 
11622897_1,103687369,103768112,11622897,Roanoke Avenue,"Essex,NJ",residential,. ,. ,. ,. ,. ,. ,. ,. ,. ,. 
11622897_2,103768112,103768114,11622897,Roanoke Avenue,"Essex,NJ",residential,. ,. ,. ,. ,. ,. ,. ,. ,. ,. 
11622897_3,103768114,1051394451,11622897,Roanoke Avenue,"Essex,NJ",residential,. ,. ,. ,. ,. ,. ,. ,. ,. ,. 
11622897_4,1051394451,103768116,11622897,Roanoke Avenue,"Essex,NJ",residential,. ,. ,. ,. ,. ,. ,. ,. ,. ,. 
11622897_5,103768116,103713150,11622897,Roanoke Avenue,"Essex,NJ",residential,. ,. ,. ,. ,. ,. ,. ,. ,. ,. 
11622897_6,103713150,1051394455,11622897,Roanoke Avenue,"Essex,NJ",residential,. ,. ,. ,. ,. ,. ,. ,. ,. ,. 
11622897_7,1051394455,1051394457,11622897,Roanoke Avenue,"Essex,NJ",residential,. ,. ,. ,. ,. ,. ,. ,. ,. ,. 
11622897_8,1051394457,103747544,11622897,Roanoke Avenue,"Essex,NJ",residential,. ,. ,. ,. ,. ,. ,. ,. ,. ,. 
11622897_9,103747544,103768120,11622897,Roanoke Avenue,"Essex,NJ",residential,. ,. ,. ,. ,. ,. ,. ,. ,. ,. 
11622897_10,103768120,6902497629,11622897,Roanoke Avenue,"Essex,NJ",residential,. ,. ,. ,. ,. ,. ,. ,. ,. ,. 
11622897_11,6902497629,6902497625,11622897,Roanoke Avenue,"Essex,NJ",residential,. ,. ,. ,. ,. ,. ,. ,. ,. ,. 
11622897_12,6902497625,1051394468,11622897,Roanoke Avenue,"Essex,NJ",residential,. ,. ,. ,. ,. ,. ,. ,. ,. ,. 
11622897_13,1051394468,103774354,11622897,Roanoke Avenue,"Essex,NJ",residential,. ,. ,. ,. ,. ,. ,. ,. ,. ,. 
11622897_14,103774354,1051379314,11622897,Roanoke Avenue,"Essex,NJ",residential,. ,. ,. ,. ,. ,. ,. ,. ,. ,. 
11622897_15,1051379314,103655665,11622897,Roanoke Avenue,"Essex,NJ",residential,. ,. ,. ,. ,. ,. ,. ,. ,. ,. 
11622897_16,103655665,103712092,11622897,Roanoke Avenue,"Essex,NJ",residential,. ,. ,. ,. ,. ,. ,. ,. ,. ,. 
11623059_1,103750143,103769719,11623059,St Francis Street,"Essex,NJ",residential,. ,. ,yes,. ,. ,. ,. ,. ,. ,. 
11623059_2,103769719,103758351,11623059,St Francis Street,"Essex,NJ",residential,. ,. ,yes,. ,. ,. ,. ,. ,. ,. 
11623059_3,103758351,103769721,11623059,St Francis Street,"Essex,NJ",residential,. ,. ,yes,. ,. ,. ,. ,. ,. ,. 
11623232_1,103769259,747626733,11623232,Van Buren Street,"Essex,NJ",tertiary,. ,. ,yes,. ,. ,. ,. ,. ,. ,. 
11623232_2,747626733,103686145,11623232,Van Buren Street,"Essex,NJ",tertiary,. ,. ,yes,. ,. ,. ,. ,. ,. ,. 
11623232_3,103686145,103771391,11623232,Van Buren Street,"Essex,NJ",tertiary,. ,. ,yes,. ,. ,. ,. ,. ,. ,. 
11623232_4,103771391,103771393,11623232,Van Buren Street,"Essex,NJ",tertiary,. ,. ,yes,. ,. ,. ,. ,. ,. ,. 
11623232_5,103771393,103750117,11623232,Van Buren Street,"Essex,NJ",tertiary,. ,. ,yes,. ,. ,. ,. ,. ,. ,. 
11623232_6,103750117,103730007,11623232,Van Buren Street,"Essex,NJ",tertiary,. ,. ,yes,. ,. ,. ,. ,. ,. ,. 
11623232_7,103730007,103761267,11623232,Van Buren Street,"Essex,NJ",tertiary,. ,. ,yes,. ,. ,. ,. ,. ,. ,. 
11623232_8,103761267,103706510,11623232,Van Buren Street,"Essex,NJ",tertiary,. ,. ,yes,. ,. ,. ,. ,. ,. ,. 
11623232_9,103706510,103692149,11623232,Van Buren Street,"Essex,NJ",tertiary,. ,. ,yes,. ,. ,. ,. ,. ,. ,. 
11623232_10,103692149,103771395,11623232,Van Buren Street,"Essex,NJ",tertiary,. ,. ,yes,. ,. ,. ,. ,. ,. ,. 
11623232_11,103771395,4927028698,11623232,Van Buren Street,"Essex,NJ",tertiary,. ,. ,yes,. ,. ,. ,. ,. ,. ,. 
11623232_12,4927028698,4335867391,11623232,Van Buren Street,"Essex,NJ",tertiary,. ,. ,yes,. ,. ,. ,. ,. ,. ,. 
11623232_13,4335867391,103749399,11623232,Van Buren Street,"Essex,NJ",tertiary,. ,. ,yes,. ,. ,. ,. ,. ,. ,. 
11623232_14,103749399,103744843,11623232,Van Buren Street,"Essex,NJ",tertiary,. ,. ,yes,. ,. ,. ,. ,. ,. ,. 
11623232_15,103744843,103771396,11623232,Van Buren Street,"Essex,NJ",tertiary,. ,. ,yes,. ,. ,. ,. ,. ,. ,. 
11623232_16,103771396,103692302,11623232,Van Buren Street,"Essex,NJ",tertiary,. ,. ,yes,. ,. ,. ,. ,. ,. ,. 
11623232_17,103692302,103745034,11623232,Van Buren Street,"Essex,NJ",tertiary,. ,. ,yes,. ,. ,. ,. ,. ,. ,. 
11623232_18,103745034,103728586,11623232,Van Buren Street,"Essex,NJ",tertiary,. ,. ,yes,. ,. ,. ,. ,. ,. ,. 
11623232_19,103728586,5569725516,11623232,Van Buren Street,"Essex,NJ",tertiary,. ,. ,yes,. ,. ,. ,. ,. ,. ,. 
11623232_20,5569725516,103755349,11623232,Van Buren Street,"Essex,NJ",tertiary,. ,. ,yes,. ,. ,. ,. ,. ,. ,. 
11623590_1,103686154,6888283518,11623590,Ferguson Street,"Essex,NJ",residential,. ,. ,yes,. ,. ,. ,. ,. ,. ,. 
11623590_2,6888283518,103653250,11623590,Ferguson Street,"Essex,NJ",residential,. ,. ,yes,. ,. ,. ,. ,. ,. ,. 
11623590_3,103653250,103775820,11623590,Ferguson Street,"Essex,NJ",residential,. ,. ,yes,. ,. ,. ,. ,. ,. ,. 
11623590_4,103775820,103750131,11623590,Ferguson Street,"Essex,NJ",residential,. ,. ,yes,. ,. ,. ,. ,. ,. ,. 
11623694_1,103750133,103776677,11623694,Chambers Street,"Essex,NJ",residential,. ,. ,yes,. ,. ,. ,. ,. ,. ,. 
11623694_2,103776677,103653254,11623694,Chambers Street,"Essex,NJ",residential,. ,. ,yes,. ,. ,. ,. ,. ,. ,. 
11623694_3,103653254,6888283517,11623694,Chambers Street,"Essex,NJ",residential,. ,. ,yes,. ,. ,. ,. ,. ,. ,. 
11623694_4,6888283517,103686155,11623694,Chambers Street,"Essex,NJ",residential,. ,. ,yes,. ,. ,. ,. ,. ,. ,. 
11623705_1,103712627,6853346648,11623705,Avenue P,"Essex,NJ",tertiary,. ,. ,. ,. ,. ,. ,. ,. ,. ,. 
11623705_2,6853346648,103776739,11623705,Avenue P,"Essex,NJ",tertiary,. ,. ,. ,. ,. ,. ,. ,. ,. ,. 
11623705_3,103776739,6863223879,11623705,Avenue P,"Essex,NJ",tertiary,. ,. ,. ,. ,. ,. ,. ,. ,. ,. 
11623705_4,6863223879,103678162,11623705,Avenue P,"Essex,NJ",tertiary,. ,. ,. ,. ,. ,. ,. ,. ,. ,. 
11623705_5,103678162,7148981669,11623705,Avenue P,"Essex,NJ",tertiary,. ,. ,. ,. ,. ,. ,. ,. ,. ,. 
11623705_6,7148981669,5719364094,11623705,Avenue P,"Essex,NJ",tertiary,. ,. ,. ,. ,. ,. ,. ,. ,. ,. 
11623705_7,5719364094,6863255701,11623705,Avenue P,"Essex,NJ",tertiary,. ,. ,. ,. ,. ,. ,. ,. ,. ,. 
11623705_8,6863255701,103776737,11623705,Avenue P,"Essex,NJ",tertiary,. ,. ,. ,. ,. ,. ,. ,. ,. ,. 
11623705_9,103776737,6339145602,11623705,Avenue P,"Essex,NJ",tertiary,. ,. ,. ,. ,. ,. ,. ,. ,. ,. 
11623705_10,6339145602,6863255708,11623705,Avenue P,"Essex,NJ",tertiary,. ,. ,. ,. ,. ,. ,. ,. ,. ,. 
11623705_11,6863255708,103776736,11623705,Avenue P,"Essex,NJ",tertiary,. ,. ,. ,. ,. ,. ,. ,. ,. ,. 
11623705_12,103776736,103776733,11623705,Avenue P,"Essex,NJ",tertiary,. ,. ,. ,. ,. ,. ,. ,. ,. ,. 
11623705_13,103776733,7001734205,11623705,Avenue P,"Essex,NJ",tertiary,. ,. ,. ,. ,. ,. ,. ,. ,. ,. 
11623705_14,7001734205,103776731,11623705,Avenue P,"Essex,NJ",tertiary,. ,. ,. ,. ,. ,. ,. ,. ,. ,. 
11623705_15,103776731,7081616603,11623705,Avenue P,"Essex,NJ",tertiary,. ,. ,. ,. ,. ,. ,. ,. ,. ,. 
11623705_16,7081616603,103776729,11623705,Avenue P,"Essex,NJ",tertiary,. ,. ,. ,. ,. ,. ,. ,. ,. ,. 
11623705_17,103776729,1038185953,11623705,Avenue P,"Essex,NJ",tertiary,. ,. ,. ,. ,. ,. ,. ,. ,. ,. 
11623705_18,1038185953,103712107,11623705,Avenue P,"Essex,NJ",tertiary,. ,. ,. ,. ,. ,. ,. ,. ,. ,. 
11623705_19,103712107,1038186430,11623705,Avenue P,"Essex,NJ",tertiary,. ,. ,. ,. ,. ,. ,. ,. ,. ,. 
11623705_20,1038186430,1038186429,11623705,Avenue P,"Essex,NJ",tertiary,. ,. ,. ,. ,. ,. ,. ,. ,. ,. 
11623705_21,1038186429,1038183695,11623705,Avenue P,"Essex,NJ",tertiary,. ,. ,. ,. ,. ,. ,. ,. ,. ,. 
11623705_22,1038183695,103776725,11623705,Avenue P,"Essex,NJ",tertiary,. ,. ,. ,. ,. ,. ,. ,. ,. ,. 
11623705_23,103776725,103776724,11623705,Avenue P,"Essex,NJ",tertiary,. ,. ,. ,. ,. ,. ,. ,. ,. ,. 
11623705_24,103776724,103776722,11623705,Avenue P,"Essex,NJ",tertiary,. ,. ,. ,. ,. ,. ,. ,. ,. ,. 
11623705_25,103776722,103776720,11623705,Avenue P,"Essex,NJ",tertiary,. ,. ,. ,. ,. ,. ,. ,. ,. ,. 
11623705_26,103776720,103776719,11623705,Avenue P,"Essex,NJ",tertiary,. ,. ,. ,. ,. ,. ,. ,. ,. ,. 
11623705_27,103776719,103768073,11623705,Avenue P,"Essex,NJ",tertiary,. ,. ,. ,. ,. ,. ,. ,. ,. ,. 
11623780_1,103730009,103750119,11623780,Polk Street,"Essex,NJ",residential,. ,. ,yes,. ,. ,. ,. ,. ,. ,. 
11623780_2,103750119,103777425,11623780,Polk Street,"Essex,NJ",residential,. ,. ,yes,. ,. ,. ,. ,. ,. ,. 
11623780_3,103777425,103777423,11623780,Polk Street,"Essex,NJ",residential,. ,. ,yes,. ,. ,. ,. ,. ,. ,. 
11623780_4,103777423,103686153,11623780,Polk Street,"Essex,NJ",residential,. ,. ,yes,. ,. ,. ,. ,. ,. ,. 
11623801_1,103690828,103750158,11623801,Lentz Avenue,"Essex,NJ",residential,. ,. ,yes,. ,. ,. ,. ,. ,. ,. 
11623832_1,103769222,5568167647,11623832,Waydell Street,"Essex,NJ",residential,. ,. ,. ,. ,. ,. ,. ,. ,. ,. 
11623832_2,5568167647,103750161,11623832,Waydell Street,"Essex,NJ",residential,. ,. ,. ,. ,. ,. ,. ,. ,. ,. 
11623832_3,103750161,5568167646,11623832,Waydell Street,"Essex,NJ",residential,. ,. ,. ,. ,. ,. ,. ,. ,. ,. 
11623832_4,5568167646,103777787,11623832,Waydell Street,"Essex,NJ",residential,. ,. ,. ,. ,. ,. ,. ,. ,. ,. 
11623892_1,103776677,103775820,11623892,Clover Street,"Essex,NJ",residential,. ,. ,yes,. ,. ,. ,. ,. ,. ,. 
11623892_2,103775820,103758954,11623892,Clover Street,"Essex,NJ",residential,. ,. ,yes,. ,. ,. ,. ,. ,. ,. 
11623892_3,103758954,103778454,11623892,Clover Street,"Essex,NJ",residential,. ,. ,yes,. ,. ,. ,. ,. ,. ,. 
11623892_4,103778454,6684017695,11623892,Clover Street,"Essex,NJ",residential,. ,. ,yes,. ,. ,. ,. ,. ,. ,. 
11623892_5,6684017695,103777425,11623892,Clover Street,"Essex,NJ",residential,. ,. ,yes,. ,. ,. ,. ,. ,. ,. 
11623892_6,103777425,103771393,11623892,Clover Street,"Essex,NJ",residential,. ,. ,yes,. ,. ,. ,. ,. ,. ,. 
11623892_7,103771393,103684568,11623892,Clover Street,"Essex,NJ",residential,. ,. ,yes,. ,. ,. ,. ,. ,. ,. 
11624136_1,103781266,103769719,11624136,George Street,"Essex,NJ",residential,. ,. ,yes,. ,. ,. ,. ,. ,. ,. 
11624136_2,103769719,103756156,11624136,George Street,"Essex,NJ",residential,. ,. ,yes,. ,. ,. ,. ,. ,. ,. 
11624136_3,103756156,103745348,11624136,George Street,"Essex,NJ",residential,. ,. ,yes,. ,. ,. ,. ,. ,. ,. 
11624143_1,103712567,103756053,11624143,Rome Street,"Essex,NJ",residential,. ,. ,. ,. ,. ,. ,. ,. ,. ,. 
11624143_2,103756053,103664743,11624143,Rome Street,"Essex,NJ",residential,. ,. ,. ,. ,. ,. ,. ,. ,. ,. 
11624144_1,103664743,103664316,11624144,Rome Street,"Essex,NJ",residential,. ,. ,. ,. ,. ,. ,. ,. ,. ,. 
11624144_2,103664316,103714393,11624144,Rome Street,"Essex,NJ",residential,. ,. ,. ,. ,. ,. ,. ,. ,. ,. 
11624244_1,103745354,103756050,11624244,Barbara Street,"Essex,NJ",residential,. ,. ,yes,. ,. ,. ,. ,. ,. ,. 
11624244_2,103756050,103712559,11624244,Barbara Street,"Essex,NJ",residential,. ,. ,yes,. ,. ,. ,. ,. ,. ,. 
11624441_1,103750129,103783751,11624441,Alyea Street,"Essex,NJ",residential,. ,. ,. ,. ,. ,. ,. ,. ,. ,. 
11624441_2,103783751,103704294,11624441,Alyea Street,"Essex,NJ",residential,. ,. ,. ,. ,. ,. ,. ,. ,. ,. 
11624441_3,103704294,103783753,11624441,Alyea Street,"Essex,NJ",residential,. ,. ,. ,. ,. ,. ,. ,. ,. ,. 
11624441_4,103783753,103716449,11624441,Alyea Street,"Essex,NJ",residential,. ,. ,. ,. ,. ,. ,. ,. ,. ,. 
11624559_1,103750149,5723400361,11624559,Saint Charles Street,"Essex,NJ",tertiary,. ,. ,. ,. ,. ,. ,. ,. ,. ,. 
11624559_2,5723400361,103653261,11624559,Saint Charles Street,"Essex,NJ",tertiary,. ,. ,. ,. ,. ,. ,. ,. ,. ,. 
11624559_3,103653261,103785016,11624559,Saint Charles Street,"Essex,NJ",tertiary,. ,. ,. ,. ,. ,. ,. ,. ,. ,. 
11624559_4,103785016,103781266,11624559,Saint Charles Street,"Essex,NJ",tertiary,. ,. ,. ,. ,. ,. ,. ,. ,. ,. 
11624559_5,103781266,103780515,11624559,Saint Charles Street,"Essex,NJ",tertiary,. ,. ,. ,. ,. ,. ,. ,. ,. ,. 
11624559_6,103780515,103758353,11624559,Saint Charles Street,"Essex,NJ",tertiary,. ,. ,. ,. ,. ,. ,. ,. ,. ,. 
11624559_7,103758353,103785018,11624559,Saint Charles Street,"Essex,NJ",tertiary,. ,. ,. ,. ,. ,. ,. ,. ,. ,. 
11624559_8,103785018,103714393,11624559,Saint Charles Street,"Essex,NJ",tertiary,. ,. ,. ,. ,. ,. ,. ,. ,. ,. 
11624559_9,103714393,103785034,11624559,Saint Charles Street,"Essex,NJ",tertiary,. ,. ,. ,. ,. ,. ,. ,. ,. ,. 
11624559_10,103785034,103785036,11624559,Saint Charles Street,"Essex,NJ",tertiary,. ,. ,. ,. ,. ,. ,. ,. ,. ,. 
11624559_11,103785036,103767053,11624559,Saint Charles Street,"Essex,NJ",tertiary,. ,. ,. ,. ,. ,. ,. ,. ,. ,. 
11624563_1,103702447,103692155,11624563,Ann Street,"Essex,NJ",residential,. ,. ,yes,. ,. ,. ,. ,. ,. ,. 
11624563_2,103692155,103712547,11624563,Ann Street,"Essex,NJ",residential,. ,. ,yes,. ,. ,. ,. ,. ,. ,. 
11624651_1,103756045,103697500,11624651,Hensler Street,"Essex,NJ",residential,. ,. ,yes,. ,. ,. ,. ,. ,. ,. 
11624651_2,103697500,103783753,11624651,Hensler Street,"Essex,NJ",residential,. ,. ,yes,. ,. ,. ,. ,. ,. ,. 
11624651_3,103783753,103712541,11624651,Hensler Street,"Essex,NJ",residential,. ,. ,yes,. ,. ,. ,. ,. ,. ,. 
11624695_1,103664740,103786263,11624695,Kossuth Street,"Essex,NJ",residential,. ,. ,. ,. ,. ,. ,. ,. ,. ,. 
11624695_2,103786263,103664315,11624695,Kossuth Street,"Essex,NJ",residential,. ,. ,. ,. ,. ,. ,. ,. ,. ,. 
11624695_3,103664315,103769721,11624695,Kossuth Street,"Essex,NJ",residential,. ,. ,. ,. ,. ,. ,. ,. ,. ,. 
11624695_4,103769721,103785018,11624695,Kossuth Street,"Essex,NJ",residential,. ,. ,. ,. ,. ,. ,. ,. ,. ,. 
11624696_1,103712563,103756052,11624696,Kossuth Street,"Essex,NJ",residential,. ,. ,yes,. ,. ,. ,. ,. ,. ,. 
11624696_2,103756052,103664740,11624696,Kossuth Street,"Essex,NJ",residential,. ,. ,yes,. ,. ,. ,. ,. ,. ,. 
11624898_1,103769238,103752396,11624898,Mott Street,"Essex,NJ",residential,. ,. ,. ,. ,. ,. ,. ,. ,. ,. 
27446793_1,301356736,103674193,27446793,US 1-9 Express,. ,motorway,2,. ,yes,. ,. ,. ,. ,. ,. ,. 
27446793_2,103674193,658504143,27446793,US 1-9 Express,. ,motorway,2,. ,yes,. ,. ,. ,. ,. ,. ,. 
27446898_1,301357890,1051383203,27446898,Pulaski Skyway,. ,motorway_link,1,. ,yes,. ,. ,. ,. ,. ,. ,. 
27446898_2,1051383203,301357891,27446898,Pulaski Skyway,. ,motorway_link,1,. ,yes,. ,. ,. ,. ,. ,. ,. 
38935235_1,1050883585,1050891850,38935235,. ,"Essex,NJ:Hudson",motorway_link,2,. ,yes,. ,. ,. ,. ,. ,. ,. 
38935235_2,1050891850,1050891854,38935235,. ,"Essex,NJ:Hudson",motorway_link,2,. ,yes,. ,. ,. ,. ,. ,. ,. 
38935235_3,1050891854,1050891856,38935235,. ,"Essex,NJ:Hudson",motorway_link,2,. ,yes,. ,. ,. ,. ,. ,. ,. 
38935235_4,1050891856,1050794906,38935235,. ,"Essex,NJ:Hudson",motorway_link,2,. ,yes,. ,. ,. ,. ,. ,. ,. 
38935235_5,1050794906,1050899429,38935235,. ,"Essex,NJ:Hudson",motorway_link,2,. ,yes,. ,. ,. ,. ,. ,. ,. 
38935235_6,1050899429,103700310,38935235,. ,"Essex,NJ:Hudson",motorway_link,2,. ,yes,. ,. ,. ,. ,. ,. ,. 
38935235_7,103700310,1050899439,38935235,. ,"Essex,NJ:Hudson",motorway_link,2,. ,yes,. ,. ,. ,. ,. ,. ,. 
38935235_8,1050899439,1050899443,38935235,. ,"Essex,NJ:Hudson",motorway_link,2,. ,yes,. ,. ,. ,. ,. ,. ,. 
38935235_9,1050899443,1050899446,38935235,. ,"Essex,NJ:Hudson",motorway_link,2,. ,yes,. ,. ,. ,. ,. ,. ,. 
38935235_10,1050899446,1050899451,38935235,. ,"Essex,NJ:Hudson",motorway_link,2,. ,yes,. ,. ,. ,. ,. ,. ,. 
38935235_11,1050899451,1050899454,38935235,. ,"Essex,NJ:Hudson",motorway_link,2,. ,yes,. ,. ,. ,. ,. ,. ,. 
38935235_12,1050899454,254148542,38935235,. ,"Essex,NJ:Hudson",motorway_link,2,. ,yes,. ,. ,. ,. ,. ,. ,. 
38935235_13,254148542,1050899457,38935235,. ,"Essex,NJ:Hudson",motorway_link,2,. ,yes,. ,. ,. ,. ,. ,. ,. 
38935235_14,1050899457,1050899459,38935235,. ,"Essex,NJ:Hudson",motorway_link,2,. ,yes,. ,. ,. ,. ,. ,. ,. 
38935235_15,1050899459,254148541,38935235,. ,"Essex,NJ:Hudson",motorway_link,2,. ,yes,. ,. ,. ,. ,. ,. ,. 
38935235_16,254148541,1050899464,38935235,. ,"Essex,NJ:Hudson",motorway_link,2,. ,yes,. ,. ,. ,. ,. ,. ,. 
38935235_17,1050899464,1050899467,38935235,. ,"Essex,NJ:Hudson",motorway_link,2,. ,yes,. ,. ,. ,. ,. ,. ,. 
38935235_18,1050899467,254148540,38935235,. ,"Essex,NJ:Hudson",motorway_link,2,. ,yes,. ,. ,. ,. ,. ,. ,. 
38935235_19,254148540,1050899472,38935235,. ,"Essex,NJ:Hudson",motorway_link,2,. ,yes,. ,. ,. ,. ,. ,. ,. 
38935235_20,1050899472,254148538,38935235,. ,"Essex,NJ:Hudson",motorway_link,2,. ,yes,. ,. ,. ,. ,. ,. ,. 
38935235_21,254148538,534902978,38935235,. ,"Essex,NJ:Hudson",motorway_link,2,. ,yes,. ,. ,. ,. ,. ,. ,. 
38935236_1,1050782742,1050782744,38935236,New Jersey Turnpike,. ,motorway,2,. ,yes,. ,. ,none,. ,. ,. ,. 
38935236_2,1050782744,1050782845,38935236,New Jersey Turnpike,. ,motorway,2,. ,yes,. ,. ,none,. ,. ,. ,. 
38935236_3,1050782845,1050783055,38935236,New Jersey Turnpike,. ,motorway,2,. ,yes,. ,. ,none,. ,. ,. ,. 
38935236_4,1050783055,254158360,38935236,New Jersey Turnpike,. ,motorway,2,. ,yes,. ,. ,none,. ,. ,. ,. 
38935236_5,254158360,254158361,38935236,New Jersey Turnpike,. ,motorway,2,. ,yes,. ,. ,none,. ,. ,. ,. 
42779714_1,599960486,599960501,42779714,New Jersey Turnpike,"Essex,NJ:Hudson",motorway,3,. ,yes,. ,. ,none,. ,. ,. ,. 
42779714_2,599960501,103700335,42779714,New Jersey Turnpike,"Essex,NJ:Hudson",motorway,3,. ,yes,. ,. ,none,. ,. ,. ,. 
42779714_3,103700335,1050766255,42779714,New Jersey Turnpike,"Essex,NJ:Hudson",motorway,3,. ,yes,. ,. ,none,. ,. ,. ,. 
42779714_4,1050766255,301430917,42779714,New Jersey Turnpike,"Essex,NJ:Hudson",motorway,3,. ,yes,. ,. ,none,. ,. ,. ,. 
42779714_5,301430917,1050767021,42779714,New Jersey Turnpike,"Essex,NJ:Hudson",motorway,3,. ,yes,. ,. ,none,. ,. ,. ,. 
42779714_6,1050767021,103700333,42779714,New Jersey Turnpike,"Essex,NJ:Hudson",motorway,3,. ,yes,. ,. ,none,. ,. ,. ,. 
42779714_7,103700333,1050774003,42779714,New Jersey Turnpike,"Essex,NJ:Hudson",motorway,3,. ,yes,. ,. ,none,. ,. ,. ,. 
42779714_8,1050774003,103700330,42779714,New Jersey Turnpike,"Essex,NJ:Hudson",motorway,3,. ,yes,. ,. ,none,. ,. ,. ,. 
42779714_9,103700330,534899052,42779714,New Jersey Turnpike,"Essex,NJ:Hudson",motorway,3,. ,yes,. ,. ,none,. ,. ,. ,. 
42779850_1,534901132,301431990,42779850,New Jersey Turnpike,"Hudson,NJ:Middlesex",motorway,3,. ,yes,. ,. ,none,. ,. ,. ,. 
42779850_2,301431990,1050770543,42779850,New Jersey Turnpike,"Hudson,NJ:Middlesex",motorway,3,. ,yes,. ,. ,none,. ,. ,. ,. 
42779850_3,1050770543,1050768044,42779850,New Jersey Turnpike,"Hudson,NJ:Middlesex",motorway,3,. ,yes,. ,. ,none,. ,. ,. ,. 
42779850_4,1050768044,301430933,42779850,New Jersey Turnpike,"Hudson,NJ:Middlesex",motorway,3,. ,yes,. ,. ,none,. ,. ,. ,. 
42779850_5,301430933,295515479,42779850,New Jersey Turnpike,"Hudson,NJ:Middlesex",motorway,3,. ,yes,. ,. ,none,. ,. ,. ,. 
42779850_6,295515479,1050766985,42779850,New Jersey Turnpike,"Hudson,NJ:Middlesex",motorway,3,. ,yes,. ,. ,none,. ,. ,. ,. 
42779850_7,1050766985,295515480,42779850,New Jersey Turnpike,"Hudson,NJ:Middlesex",motorway,3,. ,yes,. ,. ,none,. ,. ,. ,. 
42779850_8,295515480,1050766821,42779850,New Jersey Turnpike,"Hudson,NJ:Middlesex",motorway,3,. ,yes,. ,. ,none,. ,. ,. ,. 
42779850_9,1050766821,301430915,42779850,New Jersey Turnpike,"Hudson,NJ:Middlesex",motorway,3,. ,yes,. ,. ,none,. ,. ,. ,. 
42779850_10,301430915,295515485,42779850,New Jersey Turnpike,"Hudson,NJ:Middlesex",motorway,3,. ,yes,. ,. ,none,. ,. ,. ,. 
42779850_11,295515485,599960322,42779850,New Jersey Turnpike,"Hudson,NJ:Middlesex",motorway,3,. ,yes,. ,. ,none,. ,. ,. ,. 
42779851_1,534899052,1050768363,42779851,New Jersey Turnpike,"Essex,NJ:Hudson",motorway,4,. ,yes,. ,. ,none,. ,. ,. ,. 
42779851_2,1050768363,1050768365,42779851,New Jersey Turnpike,"Essex,NJ:Hudson",motorway,4,. ,yes,. ,. ,none,. ,. ,. ,. 
42779861_1,534901664,1050880264,42779861,New Jersey Turnpike,"Hudson,NJ:Middlesex",motorway,3,. ,yes,. ,. ,none,. ,. ,. ,. 
42779861_2,1050880264,534901708,42779861,New Jersey Turnpike,"Hudson,NJ:Middlesex",motorway,3,. ,yes,. ,. ,none,. ,. ,. ,. 
42779861_3,534901708,295515475,42779861,New Jersey Turnpike,"Hudson,NJ:Middlesex",motorway,3,. ,yes,. ,. ,none,. ,. ,. ,. 
42779868_1,103700403,1050813748,42779868,New Jersey Turnpike,"Bergen,NJ:Essex",motorway,5,. ,yes,. ,. ,none,. ,. ,. ,. 
42779868_2,1050813748,1050813751,42779868,New Jersey Turnpike,"Bergen,NJ:Essex",motorway,5,. ,yes,. ,. ,none,. ,. ,. ,. 
42779868_3,1050813751,1050813515,42779868,New Jersey Turnpike,"Bergen,NJ:Essex",motorway,5,. ,yes,. ,. ,none,. ,. ,. ,. 
42779873_1,534901414,1050768873,42779873,New Jersey Turnpike,"Hudson,NJ:Middlesex",motorway,3,. ,yes,. ,. ,none,. ,. ,. ,. 
42779873_2,1050768873,254158357,42779873,New Jersey Turnpike,"Hudson,NJ:Middlesex",motorway,3,. ,yes,. ,. ,none,. ,. ,. ,. 
42779911_1,534902463,1050790564,42779911,New Jersey Turnpike,"Hudson,NJ:Middlesex",motorway,3,. ,yes,. ,. ,none,. ,. ,. ,. 
42779911_2,1050790564,1050790566,42779911,New Jersey Turnpike,"Hudson,NJ:Middlesex",motorway,3,. ,yes,. ,. ,none,. ,. ,. ,. 
42779911_3,1050790566,1050790576,42779911,New Jersey Turnpike,"Hudson,NJ:Middlesex",motorway,3,. ,yes,. ,. ,none,. ,. ,. ,. 
42779911_4,1050790576,295515470,42779911,New Jersey Turnpike,"Hudson,NJ:Middlesex",motorway,3,. ,yes,. ,. ,none,. ,. ,. ,. 
42779911_5,295515470,1050790583,42779911,New Jersey Turnpike,"Hudson,NJ:Middlesex",motorway,3,. ,yes,. ,. ,none,. ,. ,. ,. 
42779911_6,1050790583,1050791774,42779911,New Jersey Turnpike,"Hudson,NJ:Middlesex",motorway,3,. ,yes,. ,. ,none,. ,. ,. ,. 
42779911_7,1050791774,1050791776,42779911,New Jersey Turnpike,"Hudson,NJ:Middlesex",motorway,3,. ,yes,. ,. ,none,. ,. ,. ,. 
42779911_8,1050791776,1050791779,42779911,New Jersey Turnpike,"Hudson,NJ:Middlesex",motorway,3,. ,yes,. ,. ,none,. ,. ,. ,. 
42779911_9,1050791779,1050791783,42779911,New Jersey Turnpike,"Hudson,NJ:Middlesex",motorway,3,. ,yes,. ,. ,none,. ,. ,. ,. 
42779911_10,1050791783,295515472,42779911,New Jersey Turnpike,"Hudson,NJ:Middlesex",motorway,3,. ,yes,. ,. ,none,. ,. ,. ,. 
42779911_11,295515472,1050791787,42779911,New Jersey Turnpike,"Hudson,NJ:Middlesex",motorway,3,. ,yes,. ,. ,none,. ,. ,. ,. 
42779911_12,1050791787,1050881902,42779911,New Jersey Turnpike,"Hudson,NJ:Middlesex",motorway,3,. ,yes,. ,. ,none,. ,. ,. ,. 
42779911_13,1050881902,1050881911,42779911,New Jersey Turnpike,"Hudson,NJ:Middlesex",motorway,3,. ,yes,. ,. ,none,. ,. ,. ,. 
42779911_14,1050881911,1050881914,42779911,New Jersey Turnpike,"Hudson,NJ:Middlesex",motorway,3,. ,yes,. ,. ,none,. ,. ,. ,. 
42779911_15,1050881914,295515473,42779911,New Jersey Turnpike,"Hudson,NJ:Middlesex",motorway,3,. ,yes,. ,. ,none,. ,. ,. ,. 
42779911_16,295515473,534901664,42779911,New Jersey Turnpike,"Hudson,NJ:Middlesex",motorway,3,. ,yes,. ,. ,none,. ,. ,. ,. 
42779912_1,534901250,1050883096,42779912,New Jersey Turnpike,"Essex,NJ:Hudson",motorway,4,. ,yes,. ,. ,none,. ,. ,. ,. 
42779912_2,1050883096,1050882979,42779912,New Jersey Turnpike,"Essex,NJ:Hudson",motorway,4,. ,yes,. ,. ,none,. ,. ,. ,. 
42779912_3,1050882979,301432485,42779912,New Jersey Turnpike,"Essex,NJ:Hudson",motorway,4,. ,yes,. ,. ,none,. ,. ,. ,. 
42779912_4,301432485,1050882527,42779912,New Jersey Turnpike,"Essex,NJ:Hudson",motorway,4,. ,yes,. ,. ,none,. ,. ,. ,. 
42779912_5,1050882527,1050882338,42779912,New Jersey Turnpike,"Essex,NJ:Hudson",motorway,4,. ,yes,. ,. ,none,. ,. ,. ,. 
42779912_6,1050882338,1050883585,42779912,New Jersey Turnpike,"Essex,NJ:Hudson",motorway,4,. ,yes,. ,. ,none,. ,. ,. ,. 
42779945_1,534902852,103700387,42779945,New Jersey Turnpike,"Bergen,NJ:Essex",motorway,2,. ,yes,. ,. ,none,. ,. ,. ,. 
42779945_2,103700387,1050803909,42779945,New Jersey Turnpike,"Bergen,NJ:Essex",motorway,2,. ,yes,. ,. ,none,. ,. ,. ,. 
42779945_3,1050803909,103700389,42779945,New Jersey Turnpike,"Bergen,NJ:Essex",motorway,2,. ,yes,. ,. ,none,. ,. ,. ,. 
42779945_4,103700389,103700391,42779945,New Jersey Turnpike,"Bergen,NJ:Essex",motorway,2,. ,yes,. ,. ,none,. ,. ,. ,. 
42779945_5,103700391,1050803912,42779945,New Jersey Turnpike,"Bergen,NJ:Essex",motorway,2,. ,yes,. ,. ,none,. ,. ,. ,. 
42779945_6,1050803912,103700393,42779945,New Jersey Turnpike,"Bergen,NJ:Essex",motorway,2,. ,yes,. ,. ,none,. ,. ,. ,. 
42779945_7,103700393,1050803913,42779945,New Jersey Turnpike,"Bergen,NJ:Essex",motorway,2,. ,yes,. ,. ,none,. ,. ,. ,. 
42779945_8,1050803913,103700395,42779945,New Jersey Turnpike,"Bergen,NJ:Essex",motorway,2,. ,yes,. ,. ,none,. ,. ,. ,. 
42779945_9,103700395,1050804079,42779945,New Jersey Turnpike,"Bergen,NJ:Essex",motorway,2,. ,yes,. ,. ,none,. ,. ,. ,. 
42779945_10,1050804079,1050804080,42779945,New Jersey Turnpike,"Bergen,NJ:Essex",motorway,2,. ,yes,. ,. ,none,. ,. ,. ,. 
42779945_11,1050804080,1050804082,42779945,New Jersey Turnpike,"Bergen,NJ:Essex",motorway,2,. ,yes,. ,. ,none,. ,. ,. ,. 
42779945_12,1050804082,1050804084,42779945,New Jersey Turnpike,"Bergen,NJ:Essex",motorway,2,. ,yes,. ,. ,none,. ,. ,. ,. 
42779945_13,1050804084,1050804208,42779945,New Jersey Turnpike,"Bergen,NJ:Essex",motorway,2,. ,yes,. ,. ,none,. ,. ,. ,. 
42779945_14,1050804208,103700397,42779945,New Jersey Turnpike,"Bergen,NJ:Essex",motorway,2,. ,yes,. ,. ,none,. ,. ,. ,. 
42779945_15,103700397,1050783299,42779945,New Jersey Turnpike,"Bergen,NJ:Essex",motorway,2,. ,yes,. ,. ,none,. ,. ,. ,. 
42779945_16,1050783299,1050892707,42779945,New Jersey Turnpike,"Bergen,NJ:Essex",motorway,2,. ,yes,. ,. ,none,. ,. ,. ,. 
42779945_17,1050892707,1050892710,42779945,New Jersey Turnpike,"Bergen,NJ:Essex",motorway,2,. ,yes,. ,. ,none,. ,. ,. ,. 
42779945_18,1050892710,103700401,42779945,New Jersey Turnpike,"Bergen,NJ:Essex",motorway,2,. ,yes,. ,. ,none,. ,. ,. ,. 
42779945_19,103700401,1050892848,42779945,New Jersey Turnpike,"Bergen,NJ:Essex",motorway,2,. ,yes,. ,. ,none,. ,. ,. ,. 
42889324_1,295313000,1050769441,42889324,New Jersey Turnpike,"Bergen,NJ:Essex",motorway,4,. ,yes,. ,. ,none,. ,. ,. ,. 
42889324_2,1050769441,103700411,42889324,New Jersey Turnpike,"Bergen,NJ:Essex",motorway,4,. ,yes,. ,. ,none,. ,. ,. ,. 
42889324_3,103700411,103700413,42889324,New Jersey Turnpike,"Bergen,NJ:Essex",motorway,4,. ,yes,. ,. ,none,. ,. ,. ,. 
42889324_4,103700413,1369551160,42889324,New Jersey Turnpike,"Bergen,NJ:Essex",motorway,4,. ,yes,. ,. ,none,. ,. ,. ,. 
46965528_1,4844515122,103687363,46965528,Ferry Street,"Essex,NJ",trunk,2,. ,yes,. ,. ,. ,. ,. ,. ,. 
46965528_2,103687363,103718539,46965528,Ferry Street,"Essex,NJ",trunk,2,. ,yes,. ,. ,. ,. ,. ,. ,. 
46965528_3,103718539,103737241,46965528,Ferry Street,"Essex,NJ",trunk,2,. ,yes,. ,. ,. ,. ,. ,. ,. 
46965528_4,103737241,103708571,46965528,Ferry Street,"Essex,NJ",trunk,2,. ,yes,. ,. ,. ,. ,. ,. ,. 
46965528_5,103708571,103750156,46965528,Ferry Street,"Essex,NJ",trunk,2,. ,yes,. ,. ,. ,. ,. ,. ,. 
46965528_6,103750156,103704347,46965528,Ferry Street,"Essex,NJ",trunk,2,. ,yes,. ,. ,. ,. ,. ,. ,. 
46965528_7,103704347,103682526,46965528,Ferry Street,"Essex,NJ",trunk,2,. ,yes,. ,. ,. ,. ,. ,. ,. 
46965528_8,103682526,103750157,46965528,Ferry Street,"Essex,NJ",trunk,2,. ,yes,. ,. ,. ,. ,. ,. ,. 
46965528_9,103750157,1051400989,46965528,Ferry Street,"Essex,NJ",trunk,2,. ,yes,. ,. ,. ,. ,. ,. ,. 
46965528_10,1051400989,103750158,46965528,Ferry Street,"Essex,NJ",trunk,2,. ,yes,. ,. ,. ,. ,. ,. ,. 
46965528_11,103750158,1051402209,46965528,Ferry Street,"Essex,NJ",trunk,2,. ,yes,. ,. ,. ,. ,. ,. ,. 
46965528_12,1051402209,1051402213,46965528,Ferry Street,"Essex,NJ",trunk,2,. ,yes,. ,. ,. ,. ,. ,. ,. 
46965528_13,1051402213,1051401501,46965528,Ferry Street,"Essex,NJ",trunk,2,. ,yes,. ,. ,. ,. ,. ,. ,. 
46965528_14,1051401501,103739811,46965528,Ferry Street,"Essex,NJ",trunk,2,. ,yes,. ,. ,. ,. ,. ,. ,. 
46965528_15,103739811,103722064,46965528,Ferry Street,"Essex,NJ",trunk,2,. ,yes,. ,. ,. ,. ,. ,. ,. 
46965528_16,103722064,5735457779,46965528,Ferry Street,"Essex,NJ",trunk,2,. ,yes,. ,. ,. ,. ,. ,. ,. 
46965528_17,5735457779,103663042,46965528,Ferry Street,"Essex,NJ",trunk,2,. ,yes,. ,. ,. ,. ,. ,. ,. 
46965528_18,103663042,6902329364,46965528,Ferry Street,"Essex,NJ",trunk,2,. ,yes,. ,. ,. ,. ,. ,. ,. 
46965528_19,6902329364,1051402005,46965528,Ferry Street,"Essex,NJ",trunk,2,. ,yes,. ,. ,. ,. ,. ,. ,. 
46965528_20,1051402005,5735457782,46965528,Ferry Street,"Essex,NJ",trunk,2,. ,yes,. ,. ,. ,. ,. ,. ,. 
46965528_21,5735457782,1051402007,46965528,Ferry Street,"Essex,NJ",trunk,2,. ,yes,. ,. ,. ,. ,. ,. ,. 
46965528_22,1051402007,103750160,46965528,Ferry Street,"Essex,NJ",trunk,2,. ,yes,. ,. ,. ,. ,. ,. ,. 
46965528_23,103750160,103750161,46965528,Ferry Street,"Essex,NJ",trunk,2,. ,yes,. ,. ,. ,. ,. ,. ,. 
46965528_24,103750161,4926248776,46965528,Ferry Street,"Essex,NJ",trunk,2,. ,yes,. ,. ,. ,. ,. ,. ,. 
46965528_25,4926248776,103712076,46965528,Ferry Street,"Essex,NJ",trunk,2,. ,yes,. ,. ,. ,. ,. ,. ,. 
46965528_26,103712076,4926248780,46965528,Ferry Street,"Essex,NJ",trunk,2,. ,yes,. ,. ,. ,. ,. ,. ,. 
46965528_27,4926248780,103748000,46965528,Ferry Street,"Essex,NJ",trunk,2,. ,yes,. ,. ,. ,. ,. ,. ,. 
46965528_28,103748000,4926248201,46965528,Ferry Street,"Essex,NJ",trunk,2,. ,yes,. ,. ,. ,. ,. ,. ,. 
46965528_29,4926248201,103750163,46965528,Ferry Street,"Essex,NJ",trunk,2,. ,yes,. ,. ,. ,. ,. ,. ,. 
46965528_30,103750163,4926248734,46965528,Ferry Street,"Essex,NJ",trunk,2,. ,yes,. ,. ,. ,. ,. ,. ,. 
46965528_31,4926248734,4207909035,46965528,Ferry Street,"Essex,NJ",trunk,2,. ,yes,. ,. ,. ,. ,. ,. ,. 
46965574_1,103750123,103750125,46965574,Ferry Street,"Essex,NJ",tertiary,. ,. ,. ,. ,. ,. ,. ,. ,. ,. 
46965574_2,103750125,103750127,46965574,Ferry Street,"Essex,NJ",tertiary,. ,. ,. ,. ,. ,. ,. ,. ,. ,. 
46965574_3,103750127,103750129,46965574,Ferry Street,"Essex,NJ",tertiary,. ,. ,. ,. ,. ,. ,. ,. ,. ,. 
46965574_4,103750129,103750131,46965574,Ferry Street,"Essex,NJ",tertiary,. ,. ,. ,. ,. ,. ,. ,. ,. ,. 
46965574_5,103750131,103697495,46965574,Ferry Street,"Essex,NJ",tertiary,. ,. ,. ,. ,. ,. ,. ,. ,. ,. 
46965574_6,103697495,103750133,46965574,Ferry Street,"Essex,NJ",tertiary,. ,. ,. ,. ,. ,. ,. ,. ,. ,. 
46965574_7,103750133,103750135,46965574,Ferry Street,"Essex,NJ",tertiary,. ,. ,. ,. ,. ,. ,. ,. ,. ,. 
46965574_8,103750135,6339535677,46965574,Ferry Street,"Essex,NJ",tertiary,. ,. ,. ,. ,. ,. ,. ,. ,. ,. 
46965574_9,6339535677,103682811,46965574,Ferry Street,"Essex,NJ",tertiary,. ,. ,. ,. ,. ,. ,. ,. ,. ,. 
51141030_1,103684560,6888283495,51141030,Market Street,"Essex,NJ",trunk,2,. ,yes,. ,. ,. ,. ,. ,. ,. 
51141030_2,6888283495,103686145,51141030,Market Street,"Essex,NJ",trunk,2,. ,yes,. ,. ,. ,. ,. ,. ,. 
51141030_3,103686145,103686151,51141030,Market Street,"Essex,NJ",trunk,2,. ,yes,. ,. ,. ,. ,. ,. ,. 
51141030_4,103686151,103686153,51141030,Market Street,"Essex,NJ",trunk,2,. ,yes,. ,. ,. ,. ,. ,. ,. 
51141030_5,103686153,6888283510,51141030,Market Street,"Essex,NJ",trunk,2,. ,yes,. ,. ,. ,. ,. ,. ,. 
51141030_6,6888283510,103686154,51141030,Market Street,"Essex,NJ",trunk,2,. ,yes,. ,. ,. ,. ,. ,. ,. 
51141030_7,103686154,6888283515,51141030,Market Street,"Essex,NJ",trunk,2,. ,yes,. ,. ,. ,. ,. ,. ,. 
51141030_8,6888283515,103686155,51141030,Market Street,"Essex,NJ",trunk,2,. ,yes,. ,. ,. ,. ,. ,. ,. 
51141030_9,103686155,103686156,51141030,Market Street,"Essex,NJ",trunk,2,. ,yes,. ,. ,. ,. ,. ,. ,. 
51141030_10,103686156,103686157,51141030,Market Street,"Essex,NJ",trunk,2,. ,yes,. ,. ,. ,. ,. ,. ,. 
51141030_11,103686157,103686158,51141030,Market Street,"Essex,NJ",trunk,2,. ,yes,. ,. ,. ,. ,. ,. ,. 
51141030_12,103686158,103686159,51141030,Market Street,"Essex,NJ",trunk,2,. ,yes,. ,. ,. ,. ,. ,. ,. 
51141030_13,103686159,103686161,51141030,Market Street,"Essex,NJ",trunk,2,. ,yes,. ,. ,. ,. ,. ,. ,. 
51141030_14,103686161,103686163,51141030,Market Street,"Essex,NJ",trunk,2,. ,yes,. ,. ,. ,. ,. ,. ,. 
51141030_15,103686163,4207258432,51141030,Market Street,"Essex,NJ",trunk,2,. ,yes,. ,. ,. ,. ,. ,. ,. 
51509960_1,658480202,658480204,51509960,US 1-9 Local,. ,motorway,2,. ,yes,. ,. ,. ,. ,. ,. ,. 
51509963_1,658480204,658480659,51509963,US 1-9 Local,. ,motorway,2,. ,yes,. ,. ,. ,. ,. ,. ,. 
51509971_1,658480659,658482782,51509971,US 1-9 Local,. ,motorway,2,. ,yes,. ,. ,. ,. ,. ,. ,. 
51509987_1,658482782,658483002,51509987,US 1-9 Local,. ,motorway,2,. ,yes,. ,. ,. ,. ,. ,. ,. 
51509989_1,658482915,301356753,51509989,US 1-9 Local,. ,motorway,2,. ,yes,. ,. ,. ,. ,. ,. ,. 
51509990_1,658483002,658482915,51509990,US 1-9 Local,. ,motorway,2,. ,yes,. ,. ,. ,. ,. ,. ,. 
51509992_1,301356753,301356754,51509992,US 1-9 Local,. ,motorway,2,. ,yes,. ,. ,. ,. ,. ,. ,. 
51509994_1,301356754,301356755,51509994,US 1-9 Local,. ,motorway,2,. ,yes,. ,. ,. ,. ,. ,. ,. 
51509995_1,301356755,301356756,51509995,US 1-9 Local,. ,motorway,2,. ,yes,. ,. ,. ,. ,. ,. ,. 
51509996_1,301356756,301356757,51509996,US 1-9 Local,. ,motorway,2,. ,yes,. ,. ,. ,. ,. ,. ,. 
51509997_1,301356757,301356758,51509997,US 1-9 Local,. ,motorway,2,. ,yes,. ,. ,. ,. ,. ,. ,. 
51510000_1,301356758,658485157,51510000,US 1-9 Local,. ,motorway,2,. ,yes,. ,. ,. ,. ,. ,. ,. 
51510032_1,658490372,301357867,51510032,US 1-9 Local,. ,motorway,2,. ,yes,. ,. ,. ,. ,. ,. ,. 
51510032_2,301357867,301357868,51510032,US 1-9 Local,. ,motorway,2,. ,yes,. ,. ,. ,. ,. ,. ,. 
51510032_3,301357868,301357869,51510032,US 1-9 Local,. ,motorway,2,. ,yes,. ,. ,. ,. ,. ,. ,. 
51510038_1,658490614,295515456,51510038,US 1-9 Express,. ,motorway,2,. ,yes,. ,. ,. ,. ,. ,. ,. 
51510038_2,295515456,295515457,51510038,US 1-9 Express,. ,motorway,2,. ,yes,. ,. ,. ,. ,. ,. ,. 
51510046_1,301357870,1051391488,51510046,US 1-9 Local,. ,motorway,2,. ,yes,. ,. ,. ,. ,. ,. ,. 
51510046_2,1051391488,301357871,51510046,US 1-9 Local,. ,motorway,2,. ,yes,. ,. ,. ,. ,. ,. ,. 
51510047_1,301357869,301357870,51510047,US 1-9 Local,. ,motorway,2,. ,yes,. ,. ,. ,. ,. ,. ,. 
51510051_1,301357871,301357872,51510051,US 1-9 Local,. ,motorway,2,. ,yes,. ,. ,. ,. ,. ,. ,. 
51510054_1,301357872,1051391200,51510054,US 1-9 Local,. ,motorway,2,. ,yes,. ,. ,. ,. ,. ,. ,. 
51510054_2,1051391200,1051387515,51510054,US 1-9 Local,. ,motorway,2,. ,yes,. ,. ,. ,. ,. ,. ,. 
51510054_3,1051387515,3556646571,51510054,US 1-9 Local,. ,motorway,2,. ,yes,. ,. ,. ,. ,. ,. ,. 
51510055_1,658493977,4207258431,51510055,US 1-9 Local,. ,motorway,3,merge_to_right||,yes,. ,. ,. ,. ,. ,. ,. 
51510056_1,301357873,658493977,51510056,US 1-9 Local,. ,motorway,2,. ,yes,. ,. ,. ,. ,. ,. ,. 
51510067_1,658495496,301356728,51510067,US 1-9 Express,. ,motorway,2,. ,yes,. ,. ,. ,. ,. ,. ,. 
51510068_1,301356728,658496885,51510068,US 1-9 Express,. ,motorway,2,. ,yes,. ,. ,. ,. ,. ,. ,. 
51510069_1,658496028,3556646570,51510069,US 1-9 Express,. ,motorway,2,. ,yes,. ,. ,. ,. ,. ,. ,. 
51510069_2,3556646570,1051387779,51510069,US 1-9 Express,. ,motorway,2,. ,yes,. ,. ,. ,. ,. ,. ,. 
51510069_3,1051387779,1051387783,51510069,US 1-9 Express,. ,motorway,2,. ,yes,. ,. ,. ,. ,. ,. ,. 
51510069_4,1051387783,295515459,51510069,US 1-9 Express,. ,motorway,2,. ,yes,. ,. ,. ,. ,. ,. ,. 
51510073_1,295515458,658496028,51510073,US 1-9 Express,. ,motorway,2,. ,yes,. ,. ,. ,. ,. ,. ,. 
51510074_1,658496790,295515454,51510074,US 1-9 Express,. ,motorway,2,. ,yes,. ,. ,. ,. ,. ,. ,. 
51510082_1,658496885,658496790,51510082,US 1-9 Express,. ,motorway,2,. ,yes,. ,. ,. ,. ,. ,. ,. 
51510083_1,658497429,295515453,51510083,US 1-9 Express,. ,motorway,2,. ,yes,. ,. ,. ,. ,. ,. ,. 
51510083_2,295515453,103787847,51510083,US 1-9 Express,. ,motorway,2,. ,yes,. ,. ,. ,. ,. ,. ,. 
51510084_1,295515454,658497429,51510084,US 1-9 Express,. ,motorway,2,. ,yes,. ,. ,. ,. ,. ,. ,. 
51510087_1,658497949,295515458,51510087,US 1-9 Express,. ,motorway,2,. ,yes,. ,. ,. ,. ,. ,. ,. 
51510097_1,295515457,658497949,51510097,US 1-9 Express,. ,motorway,2,. ,yes,. ,. ,. ,. ,. ,. ,. 
51510102_1,658499462,658495496,51510102,US 1-9 Express,. ,motorway,2,. ,yes,. ,. ,. ,. ,. ,. ,. 
51510117_1,658499546,658499457,51510117,US 1-9 Express,. ,motorway,2,. ,yes,. ,. ,. ,. ,. ,. ,. 
51510118_1,658499459,658499462,51510118,US 1-9 Express,. ,motorway,2,. ,yes,. ,. ,. ,. ,. ,. ,. 
51510133_1,658502157,301357879,51510133,US 1-9 Local,. ,motorway,2,. ,yes,. ,. ,. ,. ,. ,. ,. 
51510136_1,301357879,301357881,51510136,US 1-9 Local,. ,motorway,2,. ,yes,. ,. ,. ,. ,. ,. ,. 
51510137_1,658502205,658502157,51510137,US 1-9 Local,. ,motorway,2,. ,yes,. ,. ,. ,. ,. ,. ,. 
51510143_1,301357881,301357885,51510143,US 1-9 Local,. ,motorway,2,. ,yes,. ,. ,. ,. ,. ,. ,. 
51510144_1,301357885,301357890,51510144,US 1-9 Local,. ,motorway,2,. ,yes,. ,. ,. ,. ,. ,. ,. 
51510148_1,658504068,658499546,51510148,US 1-9 Express,. ,motorway,2,. ,yes,. ,. ,. ,. ,. ,. ,. 
51510150_1,658504143,658504068,51510150,US 1-9 Express,. ,motorway,2,. ,yes,. ,. ,. ,. ,. ,. ,. 
51510979_1,658499457,658499459,51510979,US 1-9 Express,. ,motorway,2,. ,yes,. ,. ,. ,. ,. ,. ,. 
51720365_1,301357874,658502205,51720365,US 1-9 Local,. ,motorway,2,. ,yes,. ,. ,. ,. ,. ,. ,. 
60136259_1,1050782799,1050782800,60136259,New Jersey Turnpike,"Hudson,NJ:Middlesex",motorway,2,. ,yes,. ,. ,none,. ,. ,. ,. 
60136259_2,1050782800,1050782876,60136259,New Jersey Turnpike,"Hudson,NJ:Middlesex",motorway,2,. ,yes,. ,. ,none,. ,. ,. ,. 
60136259_3,1050782876,1050782931,60136259,New Jersey Turnpike,"Hudson,NJ:Middlesex",motorway,2,. ,yes,. ,. ,none,. ,. ,. ,. 
60136259_4,1050782931,1050782999,60136259,New Jersey Turnpike,"Hudson,NJ:Middlesex",motorway,2,. ,yes,. ,. ,none,. ,. ,. ,. 
60136259_5,1050782999,1050783101,60136259,New Jersey Turnpike,"Hudson,NJ:Middlesex",motorway,2,. ,yes,. ,. ,none,. ,. ,. ,. 
60136259_6,1050783101,462725752,60136259,New Jersey Turnpike,"Hudson,NJ:Middlesex",motorway,2,. ,yes,. ,. ,none,. ,. ,. ,. 
60136259_7,462725752,462725754,60136259,New Jersey Turnpike,"Hudson,NJ:Middlesex",motorway,2,. ,yes,. ,. ,none,. ,. ,. ,. 
60136259_8,462725754,1050804414,60136259,New Jersey Turnpike,"Hudson,NJ:Middlesex",motorway,2,. ,yes,. ,. ,none,. ,. ,. ,. 
60136259_9,1050804414,1050804254,60136259,New Jersey Turnpike,"Hudson,NJ:Middlesex",motorway,2,. ,yes,. ,. ,none,. ,. ,. ,. 
60136259_10,1050804254,1050804466,60136259,New Jersey Turnpike,"Hudson,NJ:Middlesex",motorway,2,. ,yes,. ,. ,none,. ,. ,. ,. 
60136259_11,1050804466,462725755,60136259,New Jersey Turnpike,"Hudson,NJ:Middlesex",motorway,2,. ,yes,. ,. ,none,. ,. ,. ,. 
60136259_12,462725755,1050804649,60136259,New Jersey Turnpike,"Hudson,NJ:Middlesex",motorway,2,. ,yes,. ,. ,none,. ,. ,. ,. 
60136259_13,1050804649,1050804768,60136259,New Jersey Turnpike,"Hudson,NJ:Middlesex",motorway,2,. ,yes,. ,. ,none,. ,. ,. ,. 
60136259_14,1050804768,462725756,60136259,New Jersey Turnpike,"Hudson,NJ:Middlesex",motorway,2,. ,yes,. ,. ,none,. ,. ,. ,. 
60136259_15,462725756,1050915674,60136259,New Jersey Turnpike,"Hudson,NJ:Middlesex",motorway,2,. ,yes,. ,. ,none,. ,. ,. ,. 
60136259_16,1050915674,462725757,60136259,New Jersey Turnpike,"Hudson,NJ:Middlesex",motorway,2,. ,yes,. ,. ,none,. ,. ,. ,. 
60136259_17,462725757,1050915444,60136259,New Jersey Turnpike,"Hudson,NJ:Middlesex",motorway,2,. ,yes,. ,. ,none,. ,. ,. ,. 
60136259_18,1050915444,1050915447,60136259,New Jersey Turnpike,"Hudson,NJ:Middlesex",motorway,2,. ,yes,. ,. ,none,. ,. ,. ,. 
60136259_19,1050915447,1050915452,60136259,New Jersey Turnpike,"Hudson,NJ:Middlesex",motorway,2,. ,yes,. ,. ,none,. ,. ,. ,. 
60136259_20,1050915452,534901796,60136259,New Jersey Turnpike,"Hudson,NJ:Middlesex",motorway,2,. ,yes,. ,. ,none,. ,. ,. ,. 
60194053_1,103684560,747626704,60194053,Jackson Street,. ,tertiary,. ,. ,yes,. ,. ,. ,. ,. ,. ,. 
60194053_2,747626704,747626705,60194053,Jackson Street,. ,tertiary,. ,. ,yes,. ,. ,. ,. ,. ,. ,. 
75689636_1,893537921,103732252,75689636,Riverbank Park,. ,. ,. ,. ,. ,. ,. ,. ,. ,. ,. ,. 
75689636_2,103732252,103686156,75689636,Riverbank Park,. ,. ,. ,. ,. ,. ,. ,. ,. ,. ,. ,. 
75689636_3,103686156,103686145,75689636,Riverbank Park,. ,. ,. ,. ,. ,. ,. ,. ,. ,. ,. ,. 
75689636_4,103686145,103769259,75689636,Riverbank Park,. ,. ,. ,. ,. ,. ,. ,. ,. ,. ,. ,. 
75689636_5,103769259,893537921,75689636,Riverbank Park,. ,. ,. ,. ,. ,. ,. ,. ,. ,. ,. ,. 
90553726_1,1050782596,1050783609,90553726,New Jersey Turnpike,. ,motorway,2,. ,yes,. ,. ,none,. ,. ,. ,. 
90553789_1,1050782596,1051370161,90553789,New Jersey Turnpike,"Hudson,NJ:Middlesex",motorway,2,. ,yes,. ,. ,none,. ,. ,. ,. 
90600597_1,103700322,534901233,90600597,New Jersey Turnpike,"Essex,NJ:Hudson",motorway,4,. ,yes,. ,. ,none,. ,. ,. ,. 
90600597_2,534901233,1050781198,90600597,New Jersey Turnpike,"Essex,NJ:Hudson",motorway,4,. ,yes,. ,. ,none,. ,. ,. ,. 
90600597_3,1050781198,534901250,90600597,New Jersey Turnpike,"Essex,NJ:Hudson",motorway,4,. ,yes,. ,. ,none,. ,. ,. ,. 
90600801_1,1050813515,1050813516,90600801,New Jersey Turnpike,"Bergen,NJ:Essex",motorway,5,. ,yes,. ,. ,none,. ,. ,. ,. 
90600801_2,1050813516,103700409,90600801,New Jersey Turnpike,"Bergen,NJ:Essex",motorway,5,. ,yes,. ,. ,none,. ,. ,. ,. 
90600844_1,103700409,1050768988,90600844,New Jersey Turnpike,"Bergen,NJ:Essex",motorway,5,. ,yes,. ,. ,none,. ,. ,. ,. 
90600844_2,1050768988,295313000,90600844,New Jersey Turnpike,"Bergen,NJ:Essex",motorway,5,. ,yes,. ,. ,none,. ,. ,. ,. 
90600901_1,1051370161,1050783916,90600901,New Jersey Turnpike,"Hudson,NJ:Middlesex",motorway,2,. ,yes,. ,. ,none,. ,. ,. ,. 
90600901_2,1050783916,1050783835,90600901,New Jersey Turnpike,"Hudson,NJ:Middlesex",motorway,2,. ,yes,. ,. ,none,. ,. ,. ,. 
90600901_3,1050783835,1050783836,90600901,New Jersey Turnpike,"Hudson,NJ:Middlesex",motorway,2,. ,yes,. ,. ,none,. ,. ,. ,. 
90600901_4,1050783836,1050782799,90600901,New Jersey Turnpike,"Hudson,NJ:Middlesex",motorway,2,. ,yes,. ,. ,none,. ,. ,. ,. 
90600913_1,1050783609,1050783606,90600913,New Jersey Turnpike,. ,motorway,2,. ,yes,. ,. ,none,. ,. ,. ,. 
90600913_2,1050783606,1050783604,90600913,New Jersey Turnpike,. ,motorway,2,. ,yes,. ,. ,none,. ,. ,. ,. 
90600913_3,1050783604,1050783603,90600913,New Jersey Turnpike,. ,motorway,2,. ,yes,. ,. ,none,. ,. ,. ,. 
90600913_4,1050783603,1050782742,90600913,New Jersey Turnpike,. ,motorway,2,. ,yes,. ,. ,none,. ,. ,. ,. 
90600920_1,295515475,1050781667,90600920,New Jersey Turnpike,"Hudson,NJ:Middlesex",motorway,3,. ,yes,. ,. ,none,. ,. ,. ,. 
90600920_2,1050781667,1050768701,90600920,New Jersey Turnpike,"Hudson,NJ:Middlesex",motorway,3,. ,yes,. ,. ,none,. ,. ,. ,. 
90600973_1,254158357,1050782596,90600973,New Jersey Turnpike,"Hudson,NJ:Middlesex",motorway,3,. ,yes,. ,. ,none,. ,. ,. ,. 
90601124_1,1050768365,1050781601,90601124,New Jersey Turnpike,"Essex,NJ:Hudson",motorway,4,. ,yes,. ,. ,none,. ,. ,. ,. 
90601124_2,1050781601,103700322,90601124,New Jersey Turnpike,"Essex,NJ:Hudson",motorway,4,. ,yes,. ,. ,none,. ,. ,. ,. 
90602296_1,1050768701,1050768702,90602296,New Jersey Turnpike,"Hudson,NJ:Middlesex",motorway,3,. ,yes,. ,. ,none,. ,. ,. ,. 
90602296_2,1050768702,534901132,90602296,New Jersey Turnpike,"Hudson,NJ:Middlesex",motorway,3,. ,yes,. ,. ,none,. ,. ,. ,. 
122095953_1,1050883585,1050883588,122095953,New Jersey Turnpike,"Essex,NJ:Hudson",motorway,3,. ,yes,. ,. ,none,. ,. ,. ,. 
122095953_2,1050883588,103700312,122095953,New Jersey Turnpike,"Essex,NJ:Hudson",motorway,3,. ,yes,. ,. ,none,. ,. ,. ,. 
122095953_3,103700312,1050884427,122095953,New Jersey Turnpike,"Essex,NJ:Hudson",motorway,3,. ,yes,. ,. ,none,. ,. ,. ,. 
122095953_4,1050884427,462725739,122095953,New Jersey Turnpike,"Essex,NJ:Hudson",motorway,3,. ,yes,. ,. ,none,. ,. ,. ,. 
122603912_1,1050892848,1050893011,122603912,New Jersey Turnpike,"Bergen,NJ:Essex",motorway,5,. ,yes,. ,. ,none,. ,. ,. ,. 
122603912_2,1050893011,103700403,122603912,New Jersey Turnpike,"Bergen,NJ:Essex",motorway,5,. ,yes,. ,. ,none,. ,. ,. ,. 
122603922_1,462725723,1050786763,122603922,New Jersey Turnpike,. ,motorway,3,. ,yes,. ,. ,none,. ,. ,. ,. 
122603922_2,1050786763,462725735,122603922,New Jersey Turnpike,. ,motorway,3,. ,yes,. ,. ,none,. ,. ,. ,. 
122603922_3,462725735,1050893796,122603922,New Jersey Turnpike,. ,motorway,3,. ,yes,. ,. ,none,. ,. ,. ,. 
122603922_4,1050893796,1050893798,122603922,New Jersey Turnpike,. ,motorway,3,. ,yes,. ,. ,none,. ,. ,. ,. 
122603922_5,1050893798,1050894331,122603922,New Jersey Turnpike,. ,motorway,3,. ,yes,. ,. ,none,. ,. ,. ,. 
122603922_6,1050894331,1050894336,122603922,New Jersey Turnpike,. ,motorway,3,. ,yes,. ,. ,none,. ,. ,. ,. 
122603922_7,1050894336,1050892848,122603922,New Jersey Turnpike,. ,motorway,3,. ,yes,. ,. ,none,. ,. ,. ,. 
132500853_1,103682811,103682817,132500853,Ferry Street,"Essex,NJ",tertiary,. ,. ,. ,. ,. ,. ,. ,. ,. ,. 
132500853_2,103682817,103750139,132500853,Ferry Street,"Essex,NJ",tertiary,. ,. ,. ,. ,. ,. ,. ,. ,. ,. 
132500853_3,103750139,103745346,132500853,Ferry Street,"Essex,NJ",tertiary,. ,. ,. ,. ,. ,. ,. ,. ,. ,. 
132500853_4,103745346,103750141,132500853,Ferry Street,"Essex,NJ",tertiary,. ,. ,. ,. ,. ,. ,. ,. ,. ,. 
132500853_5,103750141,3639396122,132500853,Ferry Street,"Essex,NJ",tertiary,. ,. ,. ,. ,. ,. ,. ,. ,. ,. 
132500903_1,103732252,5568167645,132500903,Raymond Boulevard,"Essex,NJ",trunk,3,. ,yes,. ,. ,. ,. ,. ,. ,. 
132500903_2,5568167645,103769259,132500903,Raymond Boulevard,"Essex,NJ",trunk,3,. ,yes,. ,. ,. ,. ,. ,. ,. 
132500903_3,103769259,103769261,132500903,Raymond Boulevard,"Essex,NJ",trunk,3,. ,yes,. ,. ,. ,. ,. ,. ,. 
132500903_4,103769261,6888283509,132500903,Raymond Boulevard,"Essex,NJ",trunk,3,. ,yes,. ,. ,. ,. ,. ,. ,. 
132500903_5,6888283509,747626705,132500903,Raymond Boulevard,"Essex,NJ",trunk,3,. ,yes,. ,. ,. ,. ,. ,. ,. 
132500903_6,747626705,3573159450,132500903,Raymond Boulevard,"Essex,NJ",trunk,3,. ,yes,. ,. ,. ,. ,. ,. ,. 
132500903_7,3573159450,103769263,132500903,Raymond Boulevard,"Essex,NJ",trunk,3,. ,yes,. ,. ,. ,. ,. ,. ,. 
132500903_8,103769263,4207244050,132500903,Raymond Boulevard,"Essex,NJ",trunk,3,. ,yes,. ,. ,. ,. ,. ,. ,. 
222857197_1,103682522,103752404,222857197,Fleming Avenue,"Essex,NJ",residential,. ,. ,. ,. ,. ,. ,. ,. ,. ,. 
222857197_2,103752404,103737239,222857197,Fleming Avenue,"Essex,NJ",residential,. ,. ,. ,. ,. ,. ,. ,. ,. ,. 
222857197_3,103737239,103752402,222857197,Fleming Avenue,"Essex,NJ",residential,. ,. ,. ,. ,. ,. ,. ,. ,. ,. 
222857197_4,103752402,103718529,222857197,Fleming Avenue,"Essex,NJ",residential,. ,. ,. ,. ,. ,. ,. ,. ,. ,. 
222857197_5,103718529,103656794,222857197,Fleming Avenue,"Essex,NJ",residential,. ,. ,. ,. ,. ,. ,. ,. ,. ,. 
222857197_6,103656794,103728499,222857197,Fleming Avenue,"Essex,NJ",residential,. ,. ,. ,. ,. ,. ,. ,. ,. ,. 
222857197_7,103728499,103741670,222857197,Fleming Avenue,"Essex,NJ",residential,. ,. ,. ,. ,. ,. ,. ,. ,. ,. 
222857197_8,103741670,103752400,222857197,Fleming Avenue,"Essex,NJ",residential,. ,. ,. ,. ,. ,. ,. ,. ,. ,. 
222857197_9,103752400,103752398,222857197,Fleming Avenue,"Essex,NJ",residential,. ,. ,. ,. ,. ,. ,. ,. ,. ,. 
222857197_10,103752398,103752396,222857197,Fleming Avenue,"Essex,NJ",residential,. ,. ,. ,. ,. ,. ,. ,. ,. ,. 
222857198_1,103682522,1051402617,222857198,Fleming Avenue,"Essex,NJ",residential,. ,. ,. ,. ,. ,. ,. ,. ,. ,. 
222857198_2,1051402617,1051402619,222857198,Fleming Avenue,"Essex,NJ",residential,. ,. ,. ,. ,. ,. ,. ,. ,. ,. 
222857198_3,1051402619,103752407,222857198,Fleming Avenue,"Essex,NJ",residential,. ,. ,. ,. ,. ,. ,. ,. ,. ,. 
222857198_4,103752407,1051402622,222857198,Fleming Avenue,"Essex,NJ",residential,. ,. ,. ,. ,. ,. ,. ,. ,. ,. 
222857198_5,1051402622,103750158,222857198,Fleming Avenue,"Essex,NJ",residential,. ,. ,. ,. ,. ,. ,. ,. ,. ,. 
222857289_1,103769243,103769245,222857289,Raymond Boulevard,"Essex,NJ",trunk,3,left|through|through,yes,. ,. ,. ,. ,. ,. ,. 
222857289_2,103769245,103769247,222857289,Raymond Boulevard,"Essex,NJ",trunk,3,left|through|through,yes,. ,. ,. ,. ,. ,. ,. 
222857289_3,103769247,103769249,222857289,Raymond Boulevard,"Essex,NJ",trunk,3,left|through|through,yes,. ,. ,. ,. ,. ,. ,. 
224940681_1,1050766023,1050766024,224940681,New Jersey Turnpike,"Hudson,NJ:Middlesex",motorway,3,. ,yes,. ,. ,none,. ,. ,. ,. 
224940681_2,1050766024,254158351,224940681,New Jersey Turnpike,"Hudson,NJ:Middlesex",motorway,3,. ,yes,. ,. ,none,. ,. ,. ,. 
224940681_3,254158351,1050766857,224940681,New Jersey Turnpike,"Hudson,NJ:Middlesex",motorway,3,. ,yes,. ,. ,none,. ,. ,. ,. 
224940681_4,1050766857,1050771065,224940681,New Jersey Turnpike,"Hudson,NJ:Middlesex",motorway,3,. ,yes,. ,. ,none,. ,. ,. ,. 
224940681_5,1050771065,1050771068,224940681,New Jersey Turnpike,"Hudson,NJ:Middlesex",motorway,3,. ,yes,. ,. ,none,. ,. ,. ,. 
224940681_6,1050771068,254158353,224940681,New Jersey Turnpike,"Hudson,NJ:Middlesex",motorway,3,. ,yes,. ,. ,none,. ,. ,. ,. 
224940681_7,254158353,254158354,224940681,New Jersey Turnpike,"Hudson,NJ:Middlesex",motorway,3,. ,yes,. ,. ,none,. ,. ,. ,. 
224940681_8,254158354,254158355,224940681,New Jersey Turnpike,"Hudson,NJ:Middlesex",motorway,3,. ,yes,. ,. ,none,. ,. ,. ,. 
224940681_9,254158355,254158356,224940681,New Jersey Turnpike,"Hudson,NJ:Middlesex",motorway,3,. ,yes,. ,. ,none,. ,. ,. ,. 
224940681_10,254158356,1050769397,224940681,New Jersey Turnpike,"Hudson,NJ:Middlesex",motorway,3,. ,yes,. ,. ,none,. ,. ,. ,. 
224940681_11,1050769397,534901414,224940681,New Jersey Turnpike,"Hudson,NJ:Middlesex",motorway,3,. ,yes,. ,. ,none,. ,. ,. ,. 
262807563_1,103750151,2794848137,262807563,Ferry Street,"Essex,NJ",tertiary,. ,. ,yes,. ,. ,. ,. ,. ,. ,. 
262807563_2,2794848137,5723400353,262807563,Ferry Street,"Essex,NJ",tertiary,. ,. ,yes,. ,. ,. ,. ,. ,. ,. 
262807563_3,5723400353,5568167649,262807563,Ferry Street,"Essex,NJ",tertiary,. ,. ,yes,. ,. ,. ,. ,. ,. ,. 
262807563_4,5568167649,103686165,262807563,Ferry Street,"Essex,NJ",tertiary,. ,. ,yes,. ,. ,. ,. ,. ,. ,. 
262807664_1,103706511,103706513,262807664,Walnut Street,. ,residential,. ,. ,. ,. ,. ,. ,. ,. ,. ,. 
274819707_1,103750149,103750151,274819707,Ferry Street,"Essex,NJ",tertiary,. ,. ,. ,. ,. ,. ,. ,. ,. ,. 
274873388_1,103752404,103765838,274873388,Schalk Street,"Essex,NJ",residential,. ,. ,yes,. ,. ,. ,. ,. ,. ,. 
275899834_1,103695858,2805588745,275899834,Read Street,"Essex,NJ",residential,. ,. ,. ,. ,. ,. ,. ,. ,. ,. 
275899834_2,2805588745,2805588746,275899834,Read Street,"Essex,NJ",residential,. ,. ,. ,. ,. ,. ,. ,. ,. ,. 
275899834_3,2805588746,103769249,275899834,Read Street,"Essex,NJ",residential,. ,. ,. ,. ,. ,. ,. ,. ,. ,. 
351200119_1,3569385594,3569385595,351200119,Carmen Court,. ,residential,. ,. ,. ,. ,. ,. ,. ,. ,. ,. 
351200119_2,3569385595,3569385596,351200119,Carmen Court,. ,residential,. ,. ,. ,. ,. ,. ,. ,. ,. ,. 
351200119_3,3569385596,3569385597,351200119,Carmen Court,. ,residential,. ,. ,. ,. ,. ,. ,. ,. ,. ,. 
351200119_4,3569385597,3569385598,351200119,Carmen Court,. ,residential,. ,. ,. ,. ,. ,. ,. ,. ,. ,. 
351200119_5,3569385598,3569385599,351200119,Carmen Court,. ,residential,. ,. ,. ,. ,. ,. ,. ,. ,. ,. 
351200119_6,3569385599,3569385600,351200119,Carmen Court,. ,residential,. ,. ,. ,. ,. ,. ,. ,. ,. ,. 
351200119_7,3569385600,3569385601,351200119,Carmen Court,. ,residential,. ,. ,. ,. ,. ,. ,. ,. ,. ,. 
351200119_8,3569385601,3569385602,351200119,Carmen Court,. ,residential,. ,. ,. ,. ,. ,. ,. ,. ,. ,. 
359183802_1,3639396130,6564404204,359183802,Valsumo Lane,. ,residential,. ,. ,yes,. ,. ,. ,. ,. ,. ,. 
359183802_2,6564404204,6564404203,359183802,Valsumo Lane,. ,residential,. ,. ,yes,. ,. ,. ,. ,. ,. ,. 
385346395_1,3886977193,3886977207,385346395,Rome Street,"Essex,NJ",residential,. ,. ,. ,. ,. ,. ,. ,. ,. ,. 
385346395_2,3886977207,3886977205,385346395,Rome Street,"Essex,NJ",residential,. ,. ,. ,. ,. ,. ,. ,. ,. ,. 
385346395_3,3886977205,3886977196,385346395,Rome Street,"Essex,NJ",residential,. ,. ,. ,. ,. ,. ,. ,. ,. ,. 
385346395_4,3886977196,3886977210,385346395,Rome Street,"Essex,NJ",residential,. ,. ,. ,. ,. ,. ,. ,. ,. ,. 
385346395_5,3886977210,3886977201,385346395,Rome Street,"Essex,NJ",residential,. ,. ,. ,. ,. ,. ,. ,. ,. ,. 
385346395_6,3886977201,3886977209,385346395,Rome Street,"Essex,NJ",residential,. ,. ,. ,. ,. ,. ,. ,. ,. ,. 
385346395_7,3886977209,3886977195,385346395,Rome Street,"Essex,NJ",residential,. ,. ,. ,. ,. ,. ,. ,. ,. ,. 
385346395_8,3886977195,3886977204,385346395,Rome Street,"Essex,NJ",residential,. ,. ,. ,. ,. ,. ,. ,. ,. ,. 
385346395_9,3886977204,6902828781,385346395,Rome Street,"Essex,NJ",residential,. ,. ,. ,. ,. ,. ,. ,. ,. ,. 
385346395_10,6902828781,3886977198,385346395,Rome Street,"Essex,NJ",residential,. ,. ,. ,. ,. ,. ,. ,. ,. ,. 
385346395_11,3886977198,6902837290,385346395,Rome Street,"Essex,NJ",residential,. ,. ,. ,. ,. ,. ,. ,. ,. ,. 
385346395_12,6902837290,3886977200,385346395,Rome Street,"Essex,NJ",residential,. ,. ,. ,. ,. ,. ,. ,. ,. ,. 
385346395_13,3886977200,3886977203,385346395,Rome Street,"Essex,NJ",residential,. ,. ,. ,. ,. ,. ,. ,. ,. ,. 
385346395_14,3886977203,103714393,385346395,Rome Street,"Essex,NJ",residential,. ,. ,. ,. ,. ,. ,. ,. ,. ,. 
385346397_1,103708571,103690821,385346397,Hawkins Street,"Essex,NJ",residential,. ,. ,. ,. ,. ,. ,. ,. ,. ,. 
385346397_2,103690821,103708575,385346397,Hawkins Street,"Essex,NJ",residential,. ,. ,. ,. ,. ,. ,. ,. ,. ,. 
385346397_3,103708575,103708577,385346397,Hawkins Street,"Essex,NJ",residential,. ,. ,. ,. ,. ,. ,. ,. ,. ,. 
385346397_4,103708577,103708579,385346397,Hawkins Street,"Essex,NJ",residential,. ,. ,. ,. ,. ,. ,. ,. ,. ,. 
385346397_5,103708579,103708581,385346397,Hawkins Street,"Essex,NJ",residential,. ,. ,. ,. ,. ,. ,. ,. ,. ,. 
385346397_6,103708581,103708583,385346397,Hawkins Street,"Essex,NJ",residential,. ,. ,. ,. ,. ,. ,. ,. ,. ,. 
385346397_7,103708583,1051397710,385346397,Hawkins Street,"Essex,NJ",residential,. ,. ,. ,. ,. ,. ,. ,. ,. ,. 
385346397_8,1051397710,103708585,385346397,Hawkins Street,"Essex,NJ",residential,. ,. ,. ,. ,. ,. ,. ,. ,. ,. 
385346397_9,103708585,103708587,385346397,Hawkins Street,"Essex,NJ",residential,. ,. ,. ,. ,. ,. ,. ,. ,. ,. 
385346397_10,103708587,103687369,385346397,Hawkins Street,"Essex,NJ",residential,. ,. ,. ,. ,. ,. ,. ,. ,. ,. 
385346397_11,103687369,1051398052,385346397,Hawkins Street,"Essex,NJ",residential,. ,. ,. ,. ,. ,. ,. ,. ,. ,. 
385346397_12,1051398052,103708589,385346397,Hawkins Street,"Essex,NJ",residential,. ,. ,. ,. ,. ,. ,. ,. ,. ,. 
385346397_13,103708589,3886977194,385346397,Hawkins Street,"Essex,NJ",residential,. ,. ,. ,. ,. ,. ,. ,. ,. ,. 
385346397_14,3886977194,3886977202,385346397,Hawkins Street,"Essex,NJ",residential,. ,. ,. ,. ,. ,. ,. ,. ,. ,. 
385346397_15,3886977202,3886977205,385346397,Hawkins Street,"Essex,NJ",residential,. ,. ,. ,. ,. ,. ,. ,. ,. ,. 
420823905_1,4207244051,103732252,420823905,Raymond Boulevard,"Essex,NJ",trunk,3,left||through,yes,. ,. ,. ,. ,. ,. ,. 
420823908_1,103767932,4207244052,420823908,Raymond Boulevard,"Essex,NJ",trunk,2,. ,yes,. ,. ,. ,. ,. ,. ,. 
420823913_1,4207244053,103767932,420823913,Raymond Boulevard,"Essex,NJ",trunk,3,left||,yes,. ,. ,. ,. ,. ,. ,. 
420823916_1,4207244052,103769238,420823916,Raymond Boulevard,"Essex,NJ",trunk,3,left||,yes,. ,. ,. ,. ,. ,. ,. 
420823919_1,103769238,103769240,420823919,Raymond Boulevard,"Essex,NJ",trunk,3,. ,yes,. ,. ,. ,. ,. ,. ,. 
420823919_2,103769240,103769243,420823919,Raymond Boulevard,"Essex,NJ",trunk,3,. ,yes,. ,. ,. ,. ,. ,. ,. 
420823933_1,103769249,103769255,420823933,Raymond Boulevard,"Essex,NJ",trunk,2,. ,yes,. ,. ,. ,. ,. ,. ,. 
420823933_2,103769255,103753909,420823933,Raymond Boulevard,"Essex,NJ",trunk,2,. ,yes,. ,. ,. ,. ,. ,. ,. 
420823933_3,103753909,4207244051,420823933,Raymond Boulevard,"Essex,NJ",trunk,2,. ,yes,. ,. ,. ,. ,. ,. ,. 
420826866_1,4207258432,5568167651,420826866,Market Street,"Essex,NJ",trunk,1,left;through,yes,. ,. ,. ,. ,. ,. ,. 
420826866_2,5568167651,5568167648,420826866,Market Street,"Essex,NJ",trunk,1,left;through,yes,. ,. ,. ,. ,. ,. ,. 
420826866_3,5568167648,5568167650,420826866,Market Street,"Essex,NJ",trunk,1,left;through,yes,. ,. ,. ,. ,. ,. ,. 
420826866_4,5568167650,103686165,420826866,Market Street,"Essex,NJ",trunk,1,left;through,yes,. ,. ,. ,. ,. ,. ,. 
420826872_1,4207258431,301357874,420826872,US 1-9 Local,. ,motorway,3,merge_to_right||,yes,. ,. ,. ,. ,. ,. ,. 
421831217_1,103712538,103712539,421831217,Wilson Avenue,"Essex,NJ",secondary,. ,. ,. ,. ,. ,. ,. ,. ,. ,. 
421831217_2,103712539,103704292,421831217,Wilson Avenue,"Essex,NJ",secondary,. ,. ,. ,. ,. ,. ,. ,. ,. ,. 
421831217_3,103704292,103712541,421831217,Wilson Avenue,"Essex,NJ",secondary,. ,. ,. ,. ,. ,. ,. ,. ,. ,. 
421831217_4,103712541,103712543,421831217,Wilson Avenue,"Essex,NJ",secondary,. ,. ,. ,. ,. ,. ,. ,. ,. ,. 
421831217_5,103712543,103712545,421831217,Wilson Avenue,"Essex,NJ",secondary,. ,. ,. ,. ,. ,. ,. ,. ,. ,. 
421831217_6,103712545,103712547,421831217,Wilson Avenue,"Essex,NJ",secondary,. ,. ,. ,. ,. ,. ,. ,. ,. ,. 
421831217_7,103712547,103712549,421831217,Wilson Avenue,"Essex,NJ",secondary,. ,. ,. ,. ,. ,. ,. ,. ,. ,. 
421831217_8,103712549,103712551,421831217,Wilson Avenue,"Essex,NJ",secondary,. ,. ,. ,. ,. ,. ,. ,. ,. ,. 
421831217_9,103712551,103712553,421831217,Wilson Avenue,"Essex,NJ",secondary,. ,. ,. ,. ,. ,. ,. ,. ,. ,. 
421831217_10,103712553,103707732,421831217,Wilson Avenue,"Essex,NJ",secondary,. ,. ,. ,. ,. ,. ,. ,. ,. ,. 
421831217_11,103707732,4215643365,421831217,Wilson Avenue,"Essex,NJ",secondary,. ,. ,. ,. ,. ,. ,. ,. ,. ,. 
421831218_1,4215643365,103712555,421831218,Wilson Avenue,"Essex,NJ",secondary,. ,left;through,. ,. ,. ,. ,. ,. ,. ,. 
428089836_1,3556646571,1051387519,428089836,US 1-9 Local,. ,motorway,2,. ,yes,. ,. ,. ,. ,. ,. ,. 
428089836_2,1051387519,301357873,428089836,US 1-9 Local,. ,motorway,2,. ,yes,. ,. ,. ,. ,. ,. ,. 
428090069_1,658504549,1051382652,428090069,US 1-9 Express,. ,motorway,2,. ,yes,. ,. ,. ,. ,. ,. ,. 
428090069_2,1051382652,301356732,428090069,US 1-9 Express,. ,motorway,2,. ,yes,. ,. ,. ,. ,. ,. ,. 
492430533_1,4844515123,4844515122,492430533,Ferry Street,"Essex,NJ",trunk,2,. ,yes,. ,. ,. ,. ,. ,. ,. 
492430534_1,103686165,103741672,492430534,Ferry Street,"Essex,NJ",trunk,2,. ,yes,. ,. ,. ,. ,. ,. ,. 
492430534_2,103741672,103750155,492430534,Ferry Street,"Essex,NJ",trunk,2,. ,yes,. ,. ,. ,. ,. ,. ,. 
492430534_3,103750155,103728501,492430534,Ferry Street,"Essex,NJ",trunk,2,. ,yes,. ,. ,. ,. ,. ,. ,. 
492430534_4,103728501,4844515123,492430534,Ferry Street,"Essex,NJ",trunk,2,. ,yes,. ,. ,. ,. ,. ,. ,. 
572281232_1,103756053,6442361048,572281232,Niagara Street,"Essex,NJ",residential,. ,. ,. ,. ,. ,. ,. ,. ,. ,. 
572281233_1,103750135,6339539091,572281233,Niagara Street,"Essex,NJ",residential,. ,. ,. ,. ,. ,. ,. ,. ,. ,. 
572281233_2,6339539091,103704295,572281233,Niagara Street,"Essex,NJ",residential,. ,. ,. ,. ,. ,. ,. ,. ,. ,. 
572281233_3,103704295,6339539086,572281233,Niagara Street,"Essex,NJ",residential,. ,. ,. ,. ,. ,. ,. ,. ,. ,. 
572281233_4,6339539086,103756045,572281233,Niagara Street,"Essex,NJ",residential,. ,. ,. ,. ,. ,. ,. ,. ,. ,. 
572281233_5,103756045,6339535684,572281233,Niagara Street,"Essex,NJ",residential,. ,. ,. ,. ,. ,. ,. ,. ,. ,. 
572281233_6,6339535684,103716452,572281233,Niagara Street,"Essex,NJ",residential,. ,. ,. ,. ,. ,. ,. ,. ,. ,. 
572281686_1,103712545,103717327,572281686,Lang Street,"Essex,NJ",residential,. ,. ,yes,. ,. ,. ,. ,. ,. ,. 
572285640_1,103739811,103690829,572285640,Vincent Street,"Essex,NJ",residential,. ,. ,yes,. ,. ,. ,. ,. ,. ,. 
572288110_1,103735537,103735541,572288110,Hawkins Court,"Essex,NJ",pedestrian,. ,. ,. ,. ,. ,. ,. ,. ,. ,. 
572292158_1,103695859,103752396,572292158,Fleming Avenue,"Essex,NJ",residential,. ,. ,. ,. ,. ,. ,. ,. ,. ,. 
572292159_1,103752396,4363410291,572292159,Mott Street,"Essex,NJ",residential,. ,. ,yes,. ,. ,. ,. ,. ,. ,. 
572292159_2,4363410291,103686163,572292159,Mott Street,"Essex,NJ",residential,. ,. ,yes,. ,. ,. ,. ,. ,. ,. 
572292160_1,103741670,103741672,572292160,Oxford Street,"Essex,NJ",residential,. ,. ,. ,. ,. ,. ,. ,. ,. ,. 
581988732_1,103706513,103717327,581988732,Lang Street,"Essex,NJ",residential,. ,. ,. ,. ,. ,. ,. ,. ,. ,. 
582118683_1,103745335,6862408065,582118683,Avenue L,"Essex,NJ",tertiary,. ,. ,. ,. ,. ,. ,. ,. ,. ,. 
582118683_2,6862408065,103776506,582118683,Avenue L,"Essex,NJ",tertiary,. ,. ,. ,. ,. ,. ,. ,. ,. ,. 
582118683_3,103776506,103691031,582118683,Avenue L,"Essex,NJ",tertiary,. ,. ,. ,. ,. ,. ,. ,. ,. ,. 
582118683_4,103691031,103776507,582118683,Avenue L,"Essex,NJ",tertiary,. ,. ,. ,. ,. ,. ,. ,. ,. ,. 
582118683_5,103776507,103767053,582118683,Avenue L,"Essex,NJ",tertiary,. ,. ,. ,. ,. ,. ,. ,. ,. ,. 
606556464_1,103747544,5750671112,606556464,Roanoke Court,. ,residential,. ,. ,. ,. ,. ,. ,. ,. ,. ,. 
606556464_2,5750671112,5750671113,606556464,Roanoke Court,. ,residential,. ,. ,. ,. ,. ,. ,. ,. ,. ,. 
607994312_1,658504641,658504549,607994312,US 1-9 Express,. ,motorway,2,. ,yes,. ,. ,. ,. ,. ,. ,. 
607994313_1,658501219,658504641,607994313,US 1-9 Express,. ,motorway,2,. ,yes,. ,. ,. ,. ,. ,. ,. 
607994314_1,658501627,658501219,607994314,US 1-9 Express,. ,motorway,2,. ,yes,. ,. ,. ,. ,. ,. ,. 
607994315_1,658501523,658501627,607994315,US 1-9 Express,. ,motorway,2,. ,yes,. ,. ,. ,. ,. ,. ,. 
607994316_1,295515460,658501523,607994316,US 1-9 Express,. ,motorway,2,. ,yes,. ,. ,. ,. ,. ,. ,. 
607994317_1,658494916,295515460,607994317,US 1-9 Express,. ,motorway,2,. ,yes,. ,. ,. ,. ,. ,. ,. 
607994318_1,295515459,658494916,607994318,US 1-9 Express,. ,motorway,2,. ,yes,. ,. ,. ,. ,. ,. ,. 
687304853_1,103756057,6902858491,687304853,Paris Street,"Essex,NJ",residential,. ,. ,. ,. ,. ,. ,. ,. ,. ,. 
687304853_2,6902858491,103745333,687304853,Paris Street,"Essex,NJ",residential,. ,. ,. ,. ,. ,. ,. ,. ,. ,. 
687304853_3,103745333,103767053,687304853,Paris Street,"Essex,NJ",residential,. ,. ,. ,. ,. ,. ,. ,. ,. ,. 
699046191_1,3639396122,103750143,699046191,Ferry Street,"Essex,NJ",tertiary,. ,. ,. ,. ,. ,. ,. ,. ,. ,. 
699046192_1,103750143,103750145,699046192,Ferry Street,"Essex,NJ",tertiary,. ,. ,. ,. ,. ,. ,. ,. ,. ,. 
699046192_2,103750145,103750147,699046192,Ferry Street,"Essex,NJ",tertiary,. ,. ,. ,. ,. ,. ,. ,. ,. ,. 
699046192_3,103750147,103750149,699046192,Ferry Street,"Essex,NJ",tertiary,. ,. ,. ,. ,. ,. ,. ,. ,. ,. 
699046193_1,6564404203,3639396129,699046193,Valsumo Lane,. ,residential,. ,. ,. ,. ,. ,. ,. ,. ,. ,. 
699046193_2,3639396129,3639396125,699046193,Valsumo Lane,. ,residential,. ,. ,. ,. ,. ,. ,. ,. ,. ,. 
699046193_3,3639396125,3639396122,699046193,Valsumo Lane,. ,residential,. ,. ,. ,. ,. ,. ,. ,. ,. ,. 
